<svg width="77" height="93" viewBox="0 0 77 93" fill="none" xmlns="http://www.w3.org/2000/svg">
<path d="M0.621094 54.5705C0.621094 75.4505 17.6111 92.3705 38.5611 92.3705C59.5111 92.3705 76.5011 75.4505 76.5011 54.5705V38.0305C76.5011 17.1505 59.5111 0.230469 38.5611 0.230469C17.6111 0.230469 0.621094 17.1505 0.621094 38.0305V54.5705Z" fill="url(#paint0_linear_4288_121101)"/>
<path d="M38.5625 86.7024C20.7825 86.7024 6.3125 72.2924 6.3125 54.5724V38.0323C6.3125 20.3123 20.7825 5.90234 38.5625 5.90234C56.3425 5.90234 70.8125 20.3123 70.8125 38.0323V54.5724C70.8125 72.2924 56.3525 86.7024 38.5625 86.7024Z" fill="url(#paint1_linear_4288_121101)"/>
<path d="M38.5625 85.4425C20.7825 85.4425 6.3125 71.0325 6.3125 53.3125V54.5625C6.3125 72.2825 20.7825 86.6925 38.5625 86.6925C56.3425 86.6925 70.8125 72.2825 70.8125 54.5625V53.3125C70.8125 71.0325 56.3525 85.4425 38.5625 85.4425Z" fill="#4F4F4F"/>
<path d="M38.5625 5.90234C20.7825 5.90234 6.3125 20.3123 6.3125 38.0323V39.2823C6.3125 21.5623 20.7825 7.15234 38.5625 7.15234C56.3425 7.15234 70.8125 21.5623 70.8125 39.2823V38.0323C70.8125 20.3123 56.3525 5.90234 38.5625 5.90234Z" fill="#4F4F4F"/>
<path d="M17.4219 63.8221L12.6719 34.362L29.4719 42.282L38.5619 26.582L47.6619 42.282L64.4519 34.362L59.7319 63.862L17.4219 63.8221Z" fill="#893B0C"/>
<path d="M63.8225 35.2103L47.4625 42.9203L38.5625 27.5703L29.6725 42.9203L13.3125 35.2103L17.8425 63.3203L59.3125 63.3603L63.8225 35.2103Z" fill="url(#paint2_linear_4288_121101)"/>
<path d="M20.8108 59.8535L17.8008 41.1735L31.0808 47.4334L38.5608 34.5234L46.0408 47.4334L59.3308 41.1735L56.3308 59.8835L20.8108 59.8535Z" fill="url(#paint3_linear_4288_121101)"/>
<path d="M20.8138 59.8516L17.8438 63.3216L59.3138 63.3615L56.3338 59.8816L20.8138 59.8516Z" fill="url(#paint4_linear_4288_121101)"/>
<path d="M29.6719 42.9203L31.0819 47.4303L38.5619 34.5203V27.5703L29.6719 42.9203Z" fill="#E8F983"/>
<path d="M38.5625 27.5703V34.5203L46.0425 47.4303L47.4625 42.9203L38.5625 27.5703Z" fill="url(#paint5_linear_4288_121101)"/>
<path d="M63.822 35.2109L59.332 41.171L56.332 59.881L59.312 63.3609L63.822 35.2109Z" fill="url(#paint6_linear_4288_121101)"/>
<g opacity="0.9">
<path d="M59.332 41.1719C59.332 41.1719 59.222 42.3519 58.992 44.1219C58.872 45.0019 58.752 46.0319 58.582 47.1319C58.412 48.2319 58.242 49.4019 58.062 50.5719C57.862 51.7419 57.662 52.9119 57.482 54.0019C57.302 55.1019 57.092 56.1119 56.932 56.9919C56.592 58.7419 56.332 59.8919 56.332 59.8919C56.332 59.8919 56.442 58.7119 56.672 56.9419C56.792 56.0619 56.912 55.0319 57.082 53.9319C57.242 52.8319 57.422 51.6619 57.602 50.4919C57.802 49.3219 58.002 48.1519 58.182 47.0619C58.362 45.9619 58.572 44.9519 58.732 44.0719C59.062 42.3319 59.332 41.1719 59.332 41.1719Z" fill="white"/>
</g>
<path d="M13.3125 35.2109L17.8025 41.171L31.0825 47.4309L29.6725 42.921L13.3125 35.2109Z" fill="url(#paint7_linear_4288_121101)"/>
<path d="M60.8136 51.2023C59.8136 56.6123 57.6536 60.7523 56.0036 60.4523C54.3536 60.1423 53.8336 55.5123 54.8436 50.0923C55.8536 44.6823 58.0036 40.5423 59.6536 40.8523C61.3036 41.1623 61.8236 45.8023 60.8136 51.2023Z" fill="url(#paint8_radial_4288_121101)"/>
<path opacity="0.4" d="M76.5028 39.57V54.56C76.5028 59.19 75.6628 63.62 74.1428 67.71L14.7828 8.57001C20.9228 3.64001 28.6328 0.58 37.0528 0.25L76.5028 39.57ZM45.7528 91.68C51.4128 90.6 56.6228 88.27 61.0928 84.98L2.42281 26.53C1.26281 30.16 0.632812 34.02 0.632812 38.03V46.72L45.7528 91.68Z" fill="url(#paint9_linear_4288_121101)"/>
<defs>
<linearGradient id="paint0_linear_4288_121101" x1="-24.9576" y1="-30.3267" x2="124.86" y2="150.401" gradientUnits="userSpaceOnUse">
<stop stop-color="#AF6517"/>
<stop offset="0.257" stop-color="#E0A03B"/>
<stop offset="0.48" stop-color="#E9FF88"/>
<stop offset="0.6391" stop-color="#E0A03B"/>
<stop offset="1" stop-color="#88390B"/>
</linearGradient>
<linearGradient id="paint1_linear_4288_121101" x1="45.3599" y1="-3.97706" x2="30.1711" y2="108.422" gradientUnits="userSpaceOnUse">
<stop stop-color="#2B2B2B"/>
<stop offset="0.4624" stop-color="#949494"/>
<stop offset="1" stop-color="#212121"/>
</linearGradient>
<linearGradient id="paint2_linear_4288_121101" x1="10.5075" y1="42.1224" x2="79.9596" y2="55.1595" gradientUnits="userSpaceOnUse">
<stop stop-color="#AF6517"/>
<stop offset="0.257" stop-color="#E0A03B"/>
<stop offset="0.48" stop-color="#E9FF88"/>
<stop offset="0.6391" stop-color="#E0A03B"/>
<stop offset="1" stop-color="#88390B"/>
</linearGradient>
<linearGradient id="paint3_linear_4288_121101" x1="5.36868" y1="24.4015" x2="74.8734" y2="76.7001" gradientUnits="userSpaceOnUse">
<stop stop-color="#AF6517"/>
<stop offset="0.257" stop-color="#E0A03B"/>
<stop offset="0.48" stop-color="#E9FF88"/>
<stop offset="0.6391" stop-color="#E0A03B"/>
<stop offset="1" stop-color="#88390B"/>
</linearGradient>
<linearGradient id="paint4_linear_4288_121101" x1="-34.3359" y1="-25.58" x2="31.6788" y2="54.9309" gradientUnits="userSpaceOnUse">
<stop stop-color="#AF6517"/>
<stop offset="0.257" stop-color="#E0A03B"/>
<stop offset="0.48" stop-color="#E9FF88"/>
<stop offset="0.6391" stop-color="#E0A03B"/>
<stop offset="1" stop-color="#88390B"/>
</linearGradient>
<linearGradient id="paint5_linear_4288_121101" x1="40.9448" y1="33.8068" x2="55.12" y2="67.4905" gradientUnits="userSpaceOnUse">
<stop stop-color="#E0A03B"/>
<stop offset="1" stop-color="#88390B"/>
</linearGradient>
<linearGradient id="paint6_linear_4288_121101" x1="42.4554" y1="41.1656" x2="76.0022" y2="55.4197" gradientUnits="userSpaceOnUse">
<stop stop-color="#AF6517"/>
<stop offset="0.257" stop-color="#E0A03B"/>
<stop offset="0.48" stop-color="#E9FF88"/>
<stop offset="0.6391" stop-color="#E0A03B"/>
<stop offset="1" stop-color="#88390B"/>
</linearGradient>
<linearGradient id="paint7_linear_4288_121101" x1="4.9783" y1="31.8123" x2="30.3026" y2="45.6289" gradientUnits="userSpaceOnUse">
<stop stop-color="#AF6517"/>
<stop offset="0.257" stop-color="#E0A03B"/>
<stop offset="0.48" stop-color="#E9FF88"/>
<stop offset="0.6391" stop-color="#E0A03B"/>
<stop offset="1" stop-color="#88390B"/>
</linearGradient>
<radialGradient id="paint8_radial_4288_121101" cx="0" cy="0" r="1" gradientUnits="userSpaceOnUse" gradientTransform="translate(57.8283 50.8649) rotate(10.4956) scale(2.6623 9.16948)">
<stop stop-color="white"/>
<stop offset="1" stop-color="white" stop-opacity="0"/>
</radialGradient>
<linearGradient id="paint9_linear_4288_121101" x1="-59.7316" y1="-12.0366" x2="126.957" y2="95.0483" gradientUnits="userSpaceOnUse">
<stop stop-color="white"/>
<stop offset="1" stop-color="#FAF7F5" stop-opacity="0"/>
</linearGradient>
</defs>
</svg>
