<svg width="286" height="219" viewBox="0 0 286 219" fill="none" xmlns="http://www.w3.org/2000/svg">
<path d="M154.563 53.8747C88.4232 26.7447 20.9931 38.4446 3.95315 79.9946C-13.0869 121.545 26.7032 177.225 92.8432 204.355C158.983 231.485 226.413 219.785 243.453 178.235C260.493 136.675 220.703 80.9947 154.563 53.8747Z" fill="url(#paint0_radial_4329_121828)"/>
<path d="M278.046 124.097C262.436 150.197 246.665 175.556 221.945 194.456C210.875 202.926 198.565 212.657 184.195 214.137C171.665 215.417 158.395 208.787 152.345 197.657C151.715 196.507 151.126 195.347 150.566 194.157C146.736 186.067 144.456 177.256 143.786 168.326C142.696 153.666 151.056 135.867 141.686 119.007C139.846 115.697 137.576 112.546 134.146 109.976C125.526 103.526 113.556 106.307 104.256 109.967C89.9455 115.597 78.9255 130.397 67.9255 140.657C58.1855 149.747 40.6456 158.956 27.1856 153.416C18.5856 149.876 12.6655 144.176 9.1255 137.236C4.2555 127.696 3.89554 115.816 7.29554 104.046C12.0455 87.5765 21.4456 75.0165 32.0656 61.6865C42.6256 48.4265 50.2655 33.2765 64.0055 22.8765C73.9855 15.3265 91.1255 6.71651 104.156 8.56651C113.296 9.86651 119.695 18.7465 127.355 23.0365C141.165 30.7665 156.996 34.9765 172.166 39.1365C192.086 44.6065 211.106 44.7465 231.626 45.3165C242.676 45.6265 257.285 47.9265 266.105 55.5265C267.795 56.9765 269.315 58.5665 270.695 60.2665C276.645 67.5565 280.085 76.8265 283.095 85.6065C287.145 97.4365 284.466 113.377 278.046 124.097Z" fill="url(#paint1_linear_4329_121828)"/>
<mask id="mask0_4329_121828" style="mask-type:luminance" maskUnits="userSpaceOnUse" x="119" y="103" width="37" height="41">
<path d="M155.026 126.918C154.836 125.108 154.056 123.428 153.386 121.748C152.396 119.268 151.356 116.808 150.436 114.298C149.656 112.148 148.926 110.158 147.436 108.388C146.076 106.778 144.236 105.728 142.356 104.838C139.776 103.608 136.826 103.578 134.066 104.108C131.416 104.618 128.466 105.468 126.206 106.968C124.336 108.208 122.376 109.778 121.306 111.818C119.406 115.458 118.456 119.688 120.106 123.658C121.756 127.638 123.956 131.448 125.876 135.318C126.896 137.378 128.176 139.398 130.116 140.778C132.896 142.748 137.196 143.978 140.586 143.808C145.086 143.578 149.236 141.318 151.736 137.568C153.806 134.458 155.406 130.658 155.026 126.918Z" fill="white"/>
</mask>
<g mask="url(#mask0_4329_121828)">
<path d="M155.026 126.918C154.836 125.108 154.056 123.428 153.386 121.748C152.396 119.268 151.356 116.808 150.436 114.298C149.656 112.148 148.926 110.158 147.436 108.388C146.076 106.778 144.236 105.728 142.356 104.838C139.776 103.608 136.826 103.578 134.066 104.108C131.416 104.618 128.466 105.468 126.206 106.968C124.336 108.208 122.376 109.778 121.306 111.818C119.406 115.458 118.456 119.688 120.106 123.658C121.756 127.638 123.956 131.448 125.876 135.318C126.896 137.378 128.176 139.398 130.116 140.778C132.896 142.748 137.196 143.978 140.586 143.808C145.086 143.578 149.236 141.318 151.736 137.568C153.806 134.458 155.406 130.658 155.026 126.918Z" fill="url(#paint2_linear_4329_121828)"/>
</g>
<mask id="mask1_4329_121828" style="mask-type:luminance" maskUnits="userSpaceOnUse" x="119" y="103" width="37" height="41">
<path d="M155.026 126.918C154.836 125.108 154.056 123.428 153.386 121.748C152.396 119.268 151.356 116.808 150.436 114.298C149.656 112.148 148.926 110.158 147.436 108.388C146.076 106.778 144.236 105.728 142.356 104.838C139.776 103.608 136.826 103.578 134.066 104.108C131.416 104.618 128.466 105.468 126.206 106.968C124.336 108.208 122.376 109.778 121.306 111.818C119.406 115.458 118.456 119.688 120.106 123.658C121.756 127.638 123.956 131.448 125.876 135.318C126.896 137.378 128.176 139.398 130.116 140.778C132.896 142.748 137.196 143.978 140.586 143.808C145.086 143.578 149.236 141.318 151.736 137.568C153.806 134.458 155.406 130.658 155.026 126.918Z" fill="white"/>
</mask>
<g mask="url(#mask1_4329_121828)">
<path d="M140.706 105.097C146.636 107.627 147.916 114.537 144.316 119.387C140.516 124.507 132.426 127.137 126.226 124.337C120.256 121.637 119.256 114.827 122.946 109.997C126.746 105.037 134.666 102.517 140.706 105.097Z" fill="url(#paint3_linear_4329_121828)"/>
</g>
<mask id="mask2_4329_121828" style="mask-type:luminance" maskUnits="userSpaceOnUse" x="119" y="103" width="37" height="41">
<path d="M155.026 126.918C154.836 125.108 154.056 123.428 153.386 121.748C152.396 119.268 151.356 116.808 150.436 114.298C149.656 112.148 148.926 110.158 147.436 108.388C146.076 106.778 144.236 105.728 142.356 104.838C139.776 103.608 136.826 103.578 134.066 104.108C131.416 104.618 128.466 105.468 126.206 106.968C124.336 108.208 122.376 109.778 121.306 111.818C119.406 115.458 118.456 119.688 120.106 123.658C121.756 127.638 123.956 131.448 125.876 135.318C126.896 137.378 128.176 139.398 130.116 140.778C132.896 142.748 137.196 143.978 140.586 143.808C145.086 143.578 149.236 141.318 151.736 137.568C153.806 134.458 155.406 130.658 155.026 126.918Z" fill="white"/>
</mask>
<g mask="url(#mask2_4329_121828)">
<path d="M149.677 107.448C152.837 114.368 148.057 123.338 139.007 127.478C129.947 131.618 120.047 129.368 116.877 122.448C113.717 115.528 118.497 106.558 127.547 102.418C136.607 98.2781 146.517 100.528 149.677 107.448Z" fill="url(#paint4_radial_4329_121828)"/>
</g>
<path d="M183.485 195.776C196.475 190.616 206.884 180.936 216.704 171.286C238.444 149.926 258.675 123.686 268.665 94.5857C272.745 82.6957 276.895 65.1657 265.845 55.6557C257.025 48.0557 242.415 45.7557 231.365 45.4457C210.855 44.8757 191.835 44.7257 171.905 39.2657C156.735 35.1057 140.905 30.8957 127.095 23.1657C119.435 18.8757 113.035 9.99565 103.895 8.69565C90.8646 6.84565 73.7345 15.4457 63.7445 23.0057C50.0045 33.4057 42.3646 48.5557 31.8046 61.8157C21.1846 75.1357 11.7846 87.7057 7.03458 104.176C3.29458 117.136 1.98459 141.006 20.4146 143.416C27.3446 144.326 34.6345 142.296 40.8545 139.336C59.0245 130.666 71.4745 113.576 87.9745 102.416C99.1345 94.8657 111.794 91.0957 125.194 94.1257C139.504 97.3557 153.555 109.056 151.385 125.176C150.495 131.786 147.555 138.146 145.665 144.616C141.705 158.146 141.395 178.086 149.965 190.056C157.265 200.256 172.915 199.976 183.485 195.776Z" fill="url(#paint5_linear_4329_121828)"/>
<mask id="mask3_4329_121828" style="mask-type:luminance" maskUnits="userSpaceOnUse" x="77" y="92" width="39" height="42">
<path d="M113.963 111.267C110.143 106.447 106.323 101.627 102.503 96.8074C102.513 96.8174 102.523 96.8374 102.533 96.8574C100.713 94.4974 97.9227 93.4274 95.1127 93.0374C90.9827 92.4774 87.0628 94.0774 83.7928 96.6374C83.6128 96.7774 83.4228 96.9274 83.2528 97.0774C80.5428 99.3674 78.2328 102.377 77.6728 105.967C77.1528 109.237 77.4928 113.137 79.7928 115.717C79.7728 115.697 79.7527 115.677 79.7327 115.647C79.7327 115.647 91.6028 129.407 91.7828 129.617C93.9528 132.127 99.3027 133.527 102.483 133.077C105.343 132.667 108.283 131.107 110.463 129.257C113.613 126.597 115.953 122.667 115.943 118.477C115.933 115.847 115.293 112.937 113.963 111.267Z" fill="white"/>
</mask>
<g mask="url(#mask3_4329_121828)">
<path d="M115.935 118.476C115.925 115.846 115.294 112.936 113.964 111.266C110.144 106.446 106.325 101.626 102.505 96.8064C102.515 96.8264 102.525 96.8364 102.535 96.8564C100.395 94.0864 95.1245 90.0264 91.9545 90.9664C88.3245 92.0464 85.1546 94.1664 82.4346 96.7764C80.1046 99.0164 76.0645 102.596 76.1945 106.126C76.2845 108.556 78.1245 113.876 79.7745 115.736C79.7545 115.716 79.7345 115.696 79.7145 115.666C79.7145 115.666 91.5845 129.426 91.7645 129.636C93.9345 132.146 99.2845 133.546 102.464 133.096C105.324 132.686 108.264 131.126 110.444 129.276C113.604 126.586 115.945 122.666 115.935 118.476Z" fill="url(#paint6_linear_4329_121828)"/>
</g>
<mask id="mask4_4329_121828" style="mask-type:luminance" maskUnits="userSpaceOnUse" x="77" y="92" width="39" height="42">
<path d="M113.963 111.267C110.143 106.447 106.323 101.627 102.503 96.8074C102.513 96.8174 102.523 96.8374 102.533 96.8574C100.713 94.4974 97.9227 93.4274 95.1127 93.0374C90.9827 92.4774 87.0628 94.0774 83.7928 96.6374C83.6128 96.7774 83.4228 96.9274 83.2528 97.0774C80.5428 99.3674 78.2328 102.377 77.6728 105.967C77.1528 109.237 77.4928 113.137 79.7928 115.717C79.7728 115.697 79.7527 115.677 79.7327 115.647C79.7327 115.647 91.6028 129.407 91.7828 129.617C93.9528 132.127 99.3027 133.527 102.483 133.077C105.343 132.667 108.283 131.107 110.463 129.257C113.613 126.597 115.953 122.667 115.943 118.477C115.933 115.847 115.293 112.937 113.963 111.267Z" fill="white"/>
</mask>
<g mask="url(#mask4_4329_121828)">
<path d="M94.9742 93.0462C98.6442 93.8662 99.6042 97.4662 98.6042 100.726C97.6842 103.726 95.5742 106.376 93.2042 108.366C89.9042 111.156 82.2443 115.176 78.5543 110.716C74.9743 106.396 79.9742 99.8262 83.2442 97.0662C86.2042 94.5762 90.9342 92.1362 94.9742 93.0462Z" fill="url(#paint7_linear_4329_121828)"/>
</g>
<mask id="mask5_4329_121828" style="mask-type:luminance" maskUnits="userSpaceOnUse" x="77" y="92" width="39" height="42">
<path d="M113.963 111.267C110.143 106.447 106.323 101.627 102.503 96.8074C102.513 96.8174 102.523 96.8374 102.533 96.8574C100.713 94.4974 97.9227 93.4274 95.1127 93.0374C90.9827 92.4774 87.0628 94.0774 83.7928 96.6374C83.6128 96.7774 83.4228 96.9274 83.2528 97.0774C80.5428 99.3674 78.2328 102.377 77.6728 105.967C77.1528 109.237 77.4928 113.137 79.7928 115.717C79.7728 115.697 79.7527 115.677 79.7327 115.647C79.7327 115.647 91.6028 129.407 91.7828 129.617C93.9528 132.127 99.3027 133.527 102.483 133.077C105.343 132.667 108.283 131.107 110.463 129.257C113.613 126.597 115.953 122.667 115.943 118.477C115.933 115.847 115.293 112.937 113.963 111.267Z" fill="white"/>
</mask>
<g mask="url(#mask5_4329_121828)">
<path d="M100.952 92.0155C104.592 96.3355 101.852 104.625 94.8319 110.545C87.8119 116.465 79.172 117.756 75.532 113.436C71.892 109.116 74.632 100.826 81.652 94.9055C88.672 88.9955 97.3119 87.7055 100.952 92.0155Z" fill="url(#paint8_radial_4329_121828)"/>
</g>
<path d="M183.485 195.776C196.475 190.616 206.884 180.936 216.704 171.286C238.444 149.926 258.675 123.686 268.665 94.5857C272.745 82.6957 276.895 65.1657 265.845 55.6557C257.025 48.0557 242.415 45.7557 231.365 45.4457C210.855 44.8757 191.835 44.7257 171.905 39.2657C156.735 35.1057 140.905 30.8957 127.095 23.1657C119.435 18.8757 113.035 9.99565 103.895 8.69565C90.8646 6.84565 73.7345 15.4457 63.7445 23.0057C50.0045 33.4057 42.3646 48.5557 31.8046 61.8157C21.1846 75.1357 11.7846 87.7057 7.03458 104.176C3.29458 117.136 1.98459 141.006 20.4146 143.416C27.3446 144.326 34.6345 142.296 40.8545 139.336C59.0245 130.666 71.4745 113.576 87.9745 102.416C99.1345 94.8657 111.794 91.0957 125.194 94.1257C139.504 97.3557 153.555 109.056 151.385 125.176C150.495 131.786 147.555 138.146 145.665 144.616C141.705 158.146 141.395 178.086 149.965 190.056C157.265 200.256 172.915 199.976 183.485 195.776Z" fill="white"/>
<path d="M103.606 1.49613C86.7657 -4.02387 62.3657 6.20611 49.1057 24.3561C35.8457 42.5061 38.7456 61.6861 55.5856 67.2161C72.4256 72.7361 96.8256 62.5061 110.086 44.3561C123.346 26.2061 120.446 7.01613 103.606 1.49613Z" fill="url(#paint9_linear_4329_121828)"/>
<path d="M101.346 2.22564C117.206 7.42564 119.926 25.4957 107.446 42.5857C94.9555 59.6757 71.9756 69.3156 56.1256 64.1056C40.2656 58.9056 37.5356 40.8357 50.0256 23.7457C62.5156 6.66566 85.4956 -2.97436 101.346 2.22564Z" fill="url(#paint10_linear_4329_121828)"/>
<path d="M114.557 9.21484L118.287 14.4048C124.507 23.0648 123.287 36.5748 113.807 49.5448C100.547 67.6948 76.1473 77.9248 59.3073 72.4048C54.5073 70.8248 50.8372 68.1448 48.3472 64.6848L44.6172 59.4948C47.0972 62.9548 50.7671 65.6448 55.5771 67.2148C72.4171 72.7348 96.8171 62.5048 110.077 44.3548C119.557 31.3848 120.787 17.8848 114.557 9.21484Z" fill="url(#paint11_linear_4329_121828)"/>
<path opacity="0.3" d="M69.1357 22.9066L63.1458 16.7766C62.9758 16.6066 62.7658 16.4766 62.5258 16.3966C61.6258 16.0966 60.3257 16.4566 59.3457 17.3666C53.6257 22.6666 49.5957 28.6966 47.4757 34.6166C47.1057 35.6466 47.4957 36.4866 48.3457 36.7666C48.6357 36.8566 48.9757 36.8966 49.3657 36.8466L60.5157 35.4666C61.8057 35.3066 63.1157 34.3066 63.6057 33.1366C64.6257 30.6666 66.3058 28.1766 68.5658 25.9166C69.5858 24.8966 69.8357 23.6166 69.1357 22.9066Z" fill="#729EB1"/>
<path opacity="0.3" d="M106.037 8.19744C104.227 6.74744 102.127 5.64744 99.8071 4.88744C96.7571 3.88744 93.347 3.48745 89.737 3.64745C88.257 3.71745 86.6571 4.93746 86.2971 6.30746L83.617 16.3574C83.367 17.2874 83.7671 18.0175 84.5571 18.2775C84.7571 18.3475 84.987 18.3775 85.237 18.3775C86.747 18.3775 88.177 18.5874 89.467 19.0174C90.407 19.3274 91.2771 19.7475 92.0471 20.2775C92.1671 20.3575 92.307 20.4274 92.457 20.4774C93.307 20.7574 94.517 20.4475 95.477 19.6475L105.247 11.5675C106.577 10.4875 106.947 8.91744 106.037 8.19744Z" fill="#729EB1"/>
<path opacity="0.3" d="M82.994 38.4221C87.3546 35.2908 89.1894 30.3849 87.0922 27.4644C84.9951 24.5438 79.76 24.7147 75.3994 27.846C71.0388 30.9772 69.204 35.8832 71.3012 38.8037C73.3984 41.7242 78.6334 41.5534 82.994 38.4221Z" fill="#729EB1"/>
<path opacity="0.3" d="M73.7465 48.0458C73.5465 47.9758 73.3166 47.9458 73.0666 47.9458C71.5566 47.9458 70.1265 47.7358 68.8365 47.3058C67.8965 46.9958 67.0266 46.5758 66.2566 46.0458C66.1366 45.9658 65.9965 45.8958 65.8465 45.8458C64.9965 45.5658 63.7865 45.8858 62.8265 46.6758L53.0765 54.7358C51.7565 55.8258 51.3966 57.4058 52.3166 58.1358C54.1966 59.6258 56.3166 60.7358 58.6266 61.4958C61.6466 62.4858 64.9965 62.8758 68.5865 62.6958C70.0665 62.6258 71.6566 61.3958 72.0166 60.0358L74.6965 49.9758C74.9265 49.0458 74.5365 48.3058 73.7465 48.0458Z" fill="#729EB1"/>
<path opacity="0.3" d="M109.956 29.5666C109.666 29.4766 109.326 29.4366 108.936 29.4866L97.7861 30.8666C96.4961 31.0266 95.186 32.0166 94.696 33.1966C93.676 35.6666 91.996 38.1566 89.726 40.4166C88.706 41.4266 88.4661 42.7166 89.1461 43.4166L95.116 49.5866C95.286 49.7666 95.496 49.8866 95.746 49.9666C96.646 50.2666 97.9561 49.9066 98.9361 48.9966C104.676 43.6666 108.706 37.6266 110.826 31.7166C111.196 30.6866 110.806 29.8466 109.956 29.5666Z" fill="#729EB1"/>
<path d="M68.3076 22.4964L62.3176 16.3664C62.1476 16.1964 61.9375 16.0664 61.6975 15.9864C60.7975 15.6864 59.4976 16.0464 58.5176 16.9564C52.7976 22.2564 48.7676 28.2864 46.6476 34.2064C46.2776 35.2364 46.6676 36.0764 47.5176 36.3564C47.8076 36.4464 48.1476 36.4864 48.5376 36.4364L59.6876 35.0564C60.9776 34.8964 62.2876 33.8964 62.7776 32.7264C63.7976 30.2564 65.4776 27.7664 67.7376 25.5064C68.7576 24.4864 68.9976 23.1964 68.3076 22.4964Z" fill="url(#paint12_linear_4329_121828)"/>
<path d="M59.5274 16.7651C59.4974 17.0451 59.4674 16.7151 59.4374 16.7051C59.3074 16.6651 59.1173 16.7151 58.9973 16.8251C53.6673 21.7651 49.9074 27.3851 47.9374 32.8951C47.8774 33.0551 47.9374 33.1951 48.0674 33.2251C48.1074 33.2351 48.1573 33.2451 48.2073 33.2351L59.3573 31.8551C59.5373 31.8351 59.7374 31.6851 59.8074 31.5051C60.9674 28.7051 62.3373 26.1551 65.4473 23.3051C65.5873 23.1651 65.6274 22.9751 65.5274 22.8751L59.5274 16.7651Z" fill="url(#paint13_linear_4329_121828)"/>
<path d="M105.197 7.77559C103.387 6.32559 101.287 5.2256 98.9672 4.4656C95.9172 3.4656 92.5072 3.06558 88.8972 3.22558C87.4172 3.29558 85.8171 4.51558 85.4571 5.88558L82.7772 15.9356C82.5272 16.8656 82.9272 17.5956 83.7172 17.8556C83.9172 17.9256 84.1472 17.9556 84.3972 17.9556C85.9072 17.9556 87.3372 18.1656 88.6272 18.5956C89.5672 18.9056 90.4371 19.3256 91.2071 19.8556C91.3271 19.9356 91.4672 20.0056 91.6172 20.0556C92.4672 20.3356 93.6772 20.0256 94.6372 19.2256L104.407 11.1456C105.747 10.0756 106.117 8.49559 105.197 7.77559Z" fill="url(#paint14_linear_4329_121828)"/>
<path d="M96.7139 5.18788C98.8639 5.89788 100.834 7.15788 102.514 8.27788C102.634 8.36788 102.584 8.58789 102.384 8.75789L92.6139 16.8379C92.4739 16.9579 92.294 16.9979 92.174 16.9579C92.154 16.9479 92.1239 16.7579 92.1139 16.9279C91.2239 16.1279 90.244 15.8479 89.174 15.4979C87.604 14.7979 86.0739 14.7779 84.3639 14.7779C84.6239 14.6279 84.2839 14.7679 84.2539 14.7579C84.1339 14.7179 84.0739 14.6079 84.1139 14.4779L86.794 4.41786C86.844 4.21786 87.074 4.03788 87.314 4.02788C90.694 3.87788 93.8739 4.25788 96.7139 5.18788Z" fill="url(#paint15_linear_4329_121828)"/>
<path d="M83.736 25.3277C79.936 24.0777 74.4261 26.3877 71.4361 30.4877C68.4461 34.5877 69.0961 38.9177 72.8961 40.1577C76.6961 41.4077 82.206 39.0977 85.196 34.9977C88.186 30.9077 87.536 26.5777 83.736 25.3277Z" fill="url(#paint16_linear_4329_121828)"/>
<path d="M81.476 26.0572C84.296 26.9772 84.7761 30.1972 82.5561 33.2272C80.3361 36.2672 76.2461 37.9772 73.4361 37.0572C70.6161 36.1372 70.136 32.9172 72.356 29.8872C74.576 26.8472 78.666 25.1272 81.476 26.0572Z" fill="url(#paint17_linear_4329_121828)"/>
<path d="M72.9068 47.6279C72.7068 47.5579 72.4767 47.5278 72.2267 47.5278C70.7167 47.5278 69.2868 47.3178 67.9968 46.8878C67.0568 46.5778 66.1868 46.1579 65.4168 45.6279C65.2968 45.5479 65.1568 45.4778 65.0068 45.4278C64.1568 45.1478 62.9467 45.4679 61.9867 46.2579L52.2367 54.3179C50.9167 55.4079 50.5567 56.9878 51.4767 57.7178C53.3567 59.2078 55.4768 60.3178 57.7868 61.0778C60.8068 62.0678 64.1568 62.4578 67.7468 62.2778C69.2268 62.2078 70.8168 60.9778 71.1768 59.6178L73.8567 49.5578C74.0867 48.6278 73.6968 47.8879 72.9068 47.6279Z" fill="url(#paint18_linear_4329_121828)"/>
<path d="M68.1042 58.6878C68.0542 58.8878 67.8242 59.0678 67.5842 59.0778C64.2442 59.2378 60.9943 58.6378 58.3143 57.9578C56.1643 57.2478 54.1743 55.9878 52.4243 54.8178C52.3043 54.7278 52.3543 54.4878 52.5443 54.3278C52.5443 54.3278 62.1943 46.3478 62.2943 46.2678C62.7343 45.8978 63.2142 46.5178 63.5742 46.7178C64.8342 47.4378 66.3843 47.8978 67.8043 48.1478C68.6343 48.2878 69.4443 48.2778 70.2843 48.3178C70.4643 48.3278 70.8843 48.3078 70.7843 48.6178C70.7843 48.6278 68.1042 58.6878 68.1042 58.6878Z" fill="url(#paint19_linear_4329_121828)"/>
<path d="M109.116 29.1447C108.826 29.0547 108.486 29.0148 108.096 29.0648L96.9461 30.4447C95.6561 30.6047 94.3462 31.5947 93.8562 32.7747C92.8362 35.2447 91.1562 37.7347 88.8862 39.9947C87.8662 41.0047 87.6262 42.2947 88.3062 42.9947L94.2762 49.1647C94.4462 49.3447 94.6562 49.4647 94.9062 49.5447C95.8062 49.8447 97.1161 49.4847 98.0961 48.5747C103.836 43.2447 107.866 37.2047 109.986 31.2947C110.356 30.2647 109.976 29.4247 109.116 29.1447Z" fill="url(#paint20_linear_4329_121828)"/>
<path d="M106.866 29.8659C106.986 29.9059 107.046 30.0359 106.986 30.2059C105.006 35.7159 101.246 41.3459 95.896 46.3159C95.776 46.4259 95.5959 46.4859 95.4559 46.4359C95.4159 46.4259 95.3859 46.0959 95.3659 46.3759L89.396 40.2059C89.296 40.1059 89.3359 39.9159 89.4659 39.7759C92.5759 36.9259 93.9459 34.3759 95.1059 31.5659C95.1859 31.3859 95.376 31.2359 95.556 31.2159L106.706 29.8359C106.776 29.8559 106.826 29.8559 106.866 29.8659Z" fill="url(#paint21_linear_4329_121828)"/>
<path d="M255.536 57.5664L259.266 62.7564C265.486 71.4164 264.266 84.9264 254.786 97.8964C241.526 116.046 217.116 126.276 200.276 120.756C195.476 119.176 191.806 116.496 189.316 113.036L185.586 107.846C188.066 111.306 191.736 113.996 196.546 115.566C213.386 121.086 237.786 110.856 251.056 92.7064C260.536 79.7364 261.756 66.2364 255.536 57.5664Z" fill="url(#paint22_linear_4329_121828)"/>
<path d="M244.574 49.8477C227.734 44.3277 203.334 54.5577 190.074 72.7077C176.814 90.8577 179.704 110.048 196.544 115.568C213.384 121.088 237.784 110.858 251.054 92.7077C264.314 74.5577 261.414 55.3677 244.574 49.8477Z" fill="url(#paint23_linear_4329_121828)"/>
<path d="M248.416 90.9389C235.926 108.029 212.946 117.669 197.086 112.469C181.226 107.269 178.506 89.1989 190.986 72.1089C202.576 56.2589 222.996 48.1889 238.766 49.6889C240.266 49.8289 244.346 51.2889 245.526 51.9089C258.376 58.5989 260.006 75.0789 248.416 90.9389Z" fill="url(#paint24_linear_4329_121828)"/>
<path opacity="0.3" d="M211.713 64.356C206.653 62.696 199.333 65.776 195.353 71.216C191.373 76.666 192.243 82.426 197.293 84.076C202.343 85.736 209.673 82.666 213.653 77.216C217.633 71.776 216.763 66.016 211.713 64.356Z" fill="#729EB1"/>
<path opacity="0.3" d="M240.795 54.0474C235.735 52.3874 228.415 55.4674 224.435 60.9074C220.455 66.3574 221.325 72.1174 226.375 73.7674C231.425 75.4274 238.755 72.3574 242.735 66.9074C246.715 61.4674 245.845 55.6974 240.795 54.0474Z" fill="#729EB1"/>
<path opacity="0.3" d="M243.944 77.6781C238.694 75.9081 231.074 79.1981 226.944 85.0181C222.804 90.8481 223.714 97.0081 228.964 98.7781C234.214 100.548 241.834 97.2681 245.964 91.4381C250.104 85.6181 249.194 79.4581 243.944 77.6781Z" fill="#729EB1"/>
<path opacity="0.3" d="M211.713 87.8286C206.653 86.1686 199.333 89.2486 195.353 94.6886C191.373 100.139 192.243 105.899 197.293 107.549C202.343 109.209 209.673 106.139 213.653 100.689C217.633 95.2486 216.763 89.4786 211.713 87.8286Z" fill="#729EB1"/>
<path d="M210.874 63.5161C205.814 61.8561 198.494 64.9361 194.514 70.3761C190.534 75.8261 191.404 81.5861 196.454 83.2361C201.504 84.8961 208.834 81.8261 212.814 76.3761C216.804 70.9361 215.934 65.1761 210.874 63.5161Z" fill="url(#paint25_linear_4329_121828)"/>
<path d="M208.503 64.2755C212.523 65.5955 213.213 70.1855 210.053 74.5155C206.883 78.8455 201.053 81.2955 197.033 79.9755C193.013 78.6555 192.313 74.0655 195.483 69.7355C198.653 65.4055 204.483 62.9555 208.503 64.2755Z" fill="url(#paint26_linear_4329_121828)"/>
<path d="M210.873 86.9662C205.823 85.3062 198.493 88.3762 194.513 93.8262C190.533 99.2662 191.403 105.026 196.463 106.686C201.523 108.346 208.843 105.276 212.823 99.8262C216.803 94.3862 215.933 88.6262 210.873 86.9662Z" fill="url(#paint27_linear_4329_121828)"/>
<path d="M208.503 87.7372C212.523 89.0572 213.223 93.6472 210.053 97.9772C206.893 102.307 201.053 104.757 197.033 103.437C193.013 102.117 192.313 97.5272 195.483 93.1972C198.653 88.8572 204.483 86.4172 208.503 87.7372Z" fill="url(#paint28_linear_4329_121828)"/>
<path d="M239.706 53.2084C234.646 51.5484 227.326 54.6184 223.346 60.0684C219.366 65.5184 220.236 71.2784 225.286 72.9284C230.346 74.5884 237.666 71.5184 241.646 66.0684C245.626 60.6284 244.756 54.8684 239.706 53.2084Z" fill="url(#paint29_linear_4329_121828)"/>
<path d="M237.335 53.9669C241.355 55.2869 242.055 59.8769 238.885 64.2069C235.715 68.5369 229.885 70.9869 225.865 69.6669C221.845 68.3469 221.145 63.7569 224.315 59.4269C227.475 55.0969 233.315 52.6469 237.335 53.9669Z" fill="url(#paint30_linear_4329_121828)"/>
<path d="M243.053 76.7675C237.613 74.9875 229.733 78.2875 225.453 84.1475C221.173 90.0075 222.103 96.2075 227.543 97.9875C232.983 99.7675 240.863 96.4674 245.143 90.6074C249.433 84.7474 248.493 78.5475 243.053 76.7675Z" fill="url(#paint31_linear_4329_121828)"/>
<path d="M240.504 77.5882C244.824 79.0082 245.574 83.9482 242.164 88.6082C238.754 93.2682 232.474 95.8982 228.154 94.4782C223.824 93.0582 223.084 88.1282 226.494 83.4582C229.904 78.7982 236.184 76.1682 240.504 77.5882Z" fill="url(#paint32_linear_4329_121828)"/>
<path opacity="0.3" d="M171.546 77.2566C171.006 77.2266 170.456 77.1166 169.916 76.9366L158.136 72.9266C154.856 71.8066 153.096 68.2466 154.216 64.9566C155.336 61.6766 158.896 59.9166 162.186 61.0366L173.966 65.0466C177.246 66.1666 179.006 69.7266 177.886 73.0166C176.946 75.7466 174.306 77.4266 171.546 77.2566Z" fill="#729EB1"/>
<path opacity="0.3" d="M140.656 66.7366C140.116 66.7066 139.566 66.5966 139.026 66.4166L127.316 62.4266C124.036 61.3066 122.276 57.7466 123.396 54.4566C124.516 51.1766 128.076 49.4166 131.366 50.5366L143.076 54.5266C146.356 55.6466 148.116 59.2066 146.996 62.4966C146.056 65.2366 143.416 66.9066 140.656 66.7366Z" fill="#729EB1"/>
<path d="M170.714 76.4168C170.174 76.3868 169.624 76.2768 169.084 76.0968L157.304 72.0868C154.024 70.9668 152.264 67.4068 153.384 64.1168C154.504 60.8368 158.064 59.0768 161.354 60.1968L173.134 64.2068C176.414 65.3268 178.174 68.8868 177.054 72.1768C176.114 74.9168 173.474 76.5868 170.714 76.4168Z" fill="url(#paint33_linear_4329_121828)"/>
<path d="M170.714 76.4168C170.174 76.3868 169.624 76.2768 169.084 76.0968L157.304 72.0868C154.024 70.9668 152.264 67.4068 153.384 64.1168C154.504 60.8368 158.064 59.0768 161.354 60.1968L173.134 64.2068C176.414 65.3268 178.174 68.8868 177.054 72.1768C176.114 74.9168 173.474 76.5868 170.714 76.4168Z" fill="url(#paint34_linear_4329_121828)"/>
<path d="M139.824 65.8968C139.284 65.8668 138.734 65.7568 138.194 65.5768L126.484 61.5868C123.204 60.4668 121.444 56.9068 122.564 53.6168C123.684 50.3368 127.244 48.5768 130.534 49.6968L142.244 53.6868C145.524 54.8068 147.284 58.3668 146.164 61.6568C145.224 64.3968 142.584 66.0768 139.824 65.8968Z" fill="url(#paint35_linear_4329_121828)"/>
<path d="M139.824 65.8968C139.284 65.8668 138.734 65.7568 138.194 65.5768L126.484 61.5868C123.204 60.4668 121.444 56.9068 122.564 53.6168C123.684 50.3368 127.244 48.5768 130.534 49.6968L142.244 53.6868C145.524 54.8068 147.284 58.3668 146.164 61.6568C145.224 64.3968 142.584 66.0768 139.824 65.8968Z" fill="url(#paint36_linear_4329_121828)"/>
<defs>
<radialGradient id="paint0_radial_4329_121828" cx="0" cy="0" r="1" gradientUnits="userSpaceOnUse" gradientTransform="translate(123.7 129.112) rotate(-67.6989) scale(81.324 129.434)">
<stop stop-color="#00145D"/>
<stop offset="0.0001" stop-color="#01145B" stop-opacity="0"/>
<stop offset="0.494792" stop-color="#061345"/>
<stop offset="1" stop-color="#01145B" stop-opacity="0"/>
</radialGradient>
<linearGradient id="paint1_linear_4329_121828" x1="5.04753" y1="111.31" x2="383.712" y2="111.31" gradientUnits="userSpaceOnUse">
<stop offset="0.0402" stop-color="#F3F8FB"/>
<stop offset="0.0642" stop-color="#E4EFF1"/>
<stop offset="0.1157" stop-color="#C8DEE0"/>
<stop offset="0.1457" stop-color="#BED8D9"/>
<stop offset="0.1675" stop-color="#B6D2D5"/>
<stop offset="0.201" stop-color="#A1C2CA"/>
<stop offset="0.2418" stop-color="#7EA7B7"/>
<stop offset="0.254" stop-color="#729EB1"/>
<stop offset="0.2741" stop-color="#77A1B3"/>
<stop offset="0.2965" stop-color="#84ACBA"/>
<stop offset="0.32" stop-color="#9ABDC6"/>
<stop offset="0.3442" stop-color="#B9D4D7"/>
<stop offset="0.3474" stop-color="#BED8D9"/>
<stop offset="0.3715" stop-color="#D6E6E8"/>
<stop offset="0.3995" stop-color="#EBF3F6"/>
<stop offset="0.4177" stop-color="#F3F8FB"/>
<stop offset="0.435" stop-color="#ECF4F7"/>
<stop offset="0.5328" stop-color="#CBE0E1"/>
<stop offset="0.5861" stop-color="#BED8D9"/>
<stop offset="0.6469" stop-color="#ACCACF"/>
<stop offset="0.7684" stop-color="#7DA7B7"/>
<stop offset="0.7952" stop-color="#729EB1"/>
</linearGradient>
<linearGradient id="paint2_linear_4329_121828" x1="124.331" y1="130.267" x2="152.008" y2="117.071" gradientUnits="userSpaceOnUse">
<stop offset="0.0194" stop-color="#F3F8FB"/>
<stop offset="0.0867" stop-color="#E4EFF1"/>
<stop offset="0.2317" stop-color="#C8DEE0"/>
<stop offset="0.3162" stop-color="#BED8D9"/>
<stop offset="0.4539" stop-color="#B6D2D5"/>
<stop offset="0.6654" stop-color="#A1C2CA"/>
<stop offset="0.9232" stop-color="#7EA7B7"/>
<stop offset="1" stop-color="#729EB1"/>
</linearGradient>
<linearGradient id="paint3_linear_4329_121828" x1="125.234" y1="107.851" x2="141.283" y2="121.188" gradientUnits="userSpaceOnUse">
<stop offset="0.0194" stop-color="#F3F8FB"/>
<stop offset="0.4523" stop-color="#E7F1F4"/>
<stop offset="1" stop-color="#DDEBEE"/>
</linearGradient>
<radialGradient id="paint4_radial_4329_121828" cx="0" cy="0" r="1" gradientUnits="userSpaceOnUse" gradientTransform="translate(133.276 114.947) rotate(-24.5631) scale(18.0327 13.7774)">
<stop offset="0.6517" stop-color="#DAE9EC"/>
<stop offset="0.746" stop-color="#DAE9EC"/>
<stop offset="0.843" stop-color="#DAE9EC"/>
</radialGradient>
<linearGradient id="paint5_linear_4329_121828" x1="15.285" y1="26.4881" x2="271.973" y2="174.205" gradientUnits="userSpaceOnUse">
<stop stop-color="#B6D0D9"/>
<stop offset="0.0936" stop-color="#C3D9E0"/>
<stop offset="0.1801" stop-color="#C8DDE3"/>
<stop offset="0.4288" stop-color="#DAE9EC"/>
<stop offset="0.7944" stop-color="#B6D0D8"/>
<stop offset="0.8385" stop-color="#B0CBD4"/>
<stop offset="0.8997" stop-color="#9EBECA"/>
<stop offset="0.9707" stop-color="#80A9B9"/>
<stop offset="1" stop-color="#729EB1"/>
</linearGradient>
<linearGradient id="paint6_linear_4329_121828" x1="83.9757" y1="121.223" x2="114.225" y2="100.838" gradientUnits="userSpaceOnUse">
<stop offset="0.0194" stop-color="#F3F8FB"/>
<stop offset="0.0867" stop-color="#E4EFF1"/>
<stop offset="0.2317" stop-color="#C8DEE0"/>
<stop offset="0.3162" stop-color="#BED8D9"/>
<stop offset="0.4539" stop-color="#B6D2D5"/>
<stop offset="0.6654" stop-color="#A1C2CA"/>
<stop offset="0.9232" stop-color="#7EA7B7"/>
<stop offset="1" stop-color="#729EB1"/>
</linearGradient>
<linearGradient id="paint7_linear_4329_121828" x1="83.1797" y1="97.8333" x2="93.2708" y2="107.705" gradientUnits="userSpaceOnUse">
<stop offset="0.0194" stop-color="#F3F8FB"/>
<stop offset="0.4523" stop-color="#E7F1F4"/>
<stop offset="1" stop-color="#DDEBEE"/>
</linearGradient>
<radialGradient id="paint8_radial_4329_121828" cx="0" cy="0" r="1" gradientUnits="userSpaceOnUse" gradientTransform="translate(88.2385 102.731) rotate(-40.1191) scale(16.6224 10.2257)">
<stop offset="0.6517" stop-color="#DAE9EC"/>
<stop offset="0.746" stop-color="#DAE9EC"/>
<stop offset="0.843" stop-color="#DAE9EC"/>
</radialGradient>
<linearGradient id="paint9_linear_4329_121828" x1="55.5219" y1="66.7931" x2="104.571" y2="0.694034" gradientUnits="userSpaceOnUse">
<stop offset="0.0194" stop-color="#F3F8FB"/>
<stop offset="0.179" stop-color="#E4EFF1"/>
<stop offset="0.5226" stop-color="#C8DEE0"/>
<stop offset="0.723" stop-color="#BED8D9"/>
<stop offset="0.8327" stop-color="#C7DDDF"/>
<stop offset="1" stop-color="#DDEBEE"/>
</linearGradient>
<linearGradient id="paint10_linear_4329_121828" x1="59.8513" y1="15.0828" x2="98.3896" y2="51.9862" gradientUnits="userSpaceOnUse">
<stop offset="0.0194" stop-color="#F3F8FB"/>
<stop offset="0.4523" stop-color="#E7F1F4"/>
<stop offset="1" stop-color="#DDEBEE"/>
</linearGradient>
<linearGradient id="paint11_linear_4329_121828" x1="57.7052" y1="76.5113" x2="124.096" y2="10.1202" gradientUnits="userSpaceOnUse">
<stop offset="0.0194" stop-color="#F3F8FB"/>
<stop offset="0.0867" stop-color="#E4EFF1"/>
<stop offset="0.2317" stop-color="#C8DEE0"/>
<stop offset="0.3162" stop-color="#BED8D9"/>
<stop offset="0.3979" stop-color="#B6D2D5"/>
<stop offset="0.5235" stop-color="#A1C2CA"/>
<stop offset="0.6766" stop-color="#7EA7B7"/>
<stop offset="0.7222" stop-color="#729EB1"/>
<stop offset="0.7708" stop-color="#77A1B4"/>
<stop offset="0.8251" stop-color="#84ABBB"/>
<stop offset="0.8822" stop-color="#9ABBC8"/>
<stop offset="0.9406" stop-color="#B9D1D9"/>
<stop offset="0.9906" stop-color="#DAE9EC"/>
</linearGradient>
<linearGradient id="paint12_linear_4329_121828" x1="45.3423" y1="20.8228" x2="67.1222" y2="33.3769" gradientUnits="userSpaceOnUse">
<stop stop-color="#6F93EC"/>
<stop offset="0.2022" stop-color="#C3C8F4"/>
<stop offset="0.2887" stop-color="#B2BDF2"/>
<stop offset="0.5569" stop-color="#829FEE"/>
<stop offset="0.6902" stop-color="#6F93EC"/>
<stop offset="0.7536" stop-color="#4A70D3"/>
<stop offset="0.817" stop-color="#2D55BF"/>
<stop offset="0.8797" stop-color="#1841B0"/>
<stop offset="0.9412" stop-color="#0B35A8"/>
<stop offset="1" stop-color="#0731A5"/>
</linearGradient>
<linearGradient id="paint13_linear_4329_121828" x1="49.6593" y1="21.8139" x2="62.9725" y2="32.0906" gradientUnits="userSpaceOnUse">
<stop stop-color="#C3C8F4"/>
<stop offset="0.4584" stop-color="#6F93EC"/>
<stop offset="0.6196" stop-color="#5177D7"/>
<stop offset="0.9575" stop-color="#0731A5"/>
</linearGradient>
<linearGradient id="paint14_linear_4329_121828" x1="80.4194" y1="8.44328" x2="109.54" y2="15.8662" gradientUnits="userSpaceOnUse">
<stop stop-color="#C3C8F4"/>
<stop offset="0.0933" stop-color="#BBC3F3"/>
<stop offset="0.2358" stop-color="#A6B6F1"/>
<stop offset="0.4088" stop-color="#84A0EE"/>
<stop offset="0.4983" stop-color="#6F93EC"/>
<stop offset="0.9244" stop-color="#0731A5"/>
</linearGradient>
<linearGradient id="paint15_linear_4329_121828" x1="78.6389" y1="6.77268" x2="104.477" y2="13.7796" gradientUnits="userSpaceOnUse">
<stop offset="0.1561" stop-color="#C3C8F4"/>
<stop offset="0.1612" stop-color="#C2C7F4"/>
<stop offset="0.3863" stop-color="#86A2EE"/>
<stop offset="0.4939" stop-color="#6F93EC"/>
<stop offset="0.5733" stop-color="#547ADA"/>
<stop offset="0.693" stop-color="#335AC3"/>
<stop offset="0.8072" stop-color="#1B44B2"/>
<stop offset="0.9124" stop-color="#0C36A8"/>
<stop offset="1" stop-color="#0731A5"/>
</linearGradient>
<linearGradient id="paint16_linear_4329_121828" x1="69.6512" y1="27.1271" x2="85.7235" y2="37.55" gradientUnits="userSpaceOnUse">
<stop stop-color="#6F93EC"/>
<stop offset="0.2537" stop-color="#C3C8F4"/>
<stop offset="0.3202" stop-color="#B2BDF2"/>
<stop offset="0.5266" stop-color="#829FEE"/>
<stop offset="0.6291" stop-color="#6F93EC"/>
<stop offset="1" stop-color="#0731A5"/>
</linearGradient>
<linearGradient id="paint17_linear_4329_121828" x1="71.9385" y1="26.991" x2="82.5365" y2="35.7497" gradientUnits="userSpaceOnUse">
<stop stop-color="#C3C8F4"/>
<stop offset="0.4584" stop-color="#6F93EC"/>
<stop offset="0.6196" stop-color="#5177D7"/>
<stop offset="0.9575" stop-color="#0731A5"/>
</linearGradient>
<linearGradient id="paint18_linear_4329_121828" x1="53.3923" y1="44.797" x2="73.2455" y2="62.3728" gradientUnits="userSpaceOnUse">
<stop stop-color="#6F93EC"/>
<stop offset="0.2412" stop-color="#C3C8F4"/>
<stop offset="0.6221" stop-color="#6F93EC"/>
<stop offset="0.7062" stop-color="#5D82E0"/>
<stop offset="0.8745" stop-color="#2E56C0"/>
<stop offset="1" stop-color="#0731A5"/>
</linearGradient>
<linearGradient id="paint19_linear_4329_121828" x1="55.8979" y1="46.7075" x2="70.0869" y2="58.9697" gradientUnits="userSpaceOnUse">
<stop stop-color="#C3C8F4"/>
<stop offset="0.4584" stop-color="#6F93EC"/>
<stop offset="0.6196" stop-color="#5177D7"/>
<stop offset="0.9575" stop-color="#0731A5"/>
</linearGradient>
<linearGradient id="paint20_linear_4329_121828" x1="92.384" y1="32.2448" x2="106.158" y2="42.3994" gradientUnits="userSpaceOnUse">
<stop stop-color="#C3C8F4"/>
<stop offset="0.124" stop-color="#B2BDF2"/>
<stop offset="0.5084" stop-color="#829FEE"/>
<stop offset="0.6994" stop-color="#6F93EC"/>
<stop offset="1" stop-color="#0731A5"/>
</linearGradient>
<linearGradient id="paint21_linear_4329_121828" x1="92.587" y1="30.9611" x2="105.552" y2="41.8396" gradientUnits="userSpaceOnUse">
<stop stop-color="#C3C8F4"/>
<stop offset="0.1452" stop-color="#A2B3F1"/>
<stop offset="0.332" stop-color="#7D9CED"/>
<stop offset="0.431" stop-color="#6F93EC"/>
<stop offset="0.5255" stop-color="#6388E4"/>
<stop offset="0.6965" stop-color="#4369CE"/>
<stop offset="0.9233" stop-color="#0F39AB"/>
<stop offset="0.9575" stop-color="#0731A5"/>
</linearGradient>
<linearGradient id="paint22_linear_4329_121828" x1="203.319" y1="126.852" x2="255.251" y2="53.0413" gradientUnits="userSpaceOnUse">
<stop offset="0.0194" stop-color="#F3F8FB"/>
<stop offset="0.0867" stop-color="#E4EFF1"/>
<stop offset="0.2317" stop-color="#C8DEE0"/>
<stop offset="0.3162" stop-color="#BED8D9"/>
<stop offset="0.3979" stop-color="#B6D2D5"/>
<stop offset="0.5235" stop-color="#A1C2CA"/>
<stop offset="0.6766" stop-color="#7EA7B7"/>
<stop offset="0.7222" stop-color="#729EB1"/>
<stop offset="0.7708" stop-color="#77A1B4"/>
<stop offset="0.8251" stop-color="#84ABBB"/>
<stop offset="0.8822" stop-color="#9ABBC8"/>
<stop offset="0.9406" stop-color="#B9D1D9"/>
<stop offset="0.9906" stop-color="#DAE9EC"/>
</linearGradient>
<linearGradient id="paint23_linear_4329_121828" x1="196.064" y1="117.124" x2="243.945" y2="49.8568" gradientUnits="userSpaceOnUse">
<stop offset="0.0194" stop-color="#F3F8FB"/>
<stop offset="0.1482" stop-color="#E4EFF1"/>
<stop offset="0.4254" stop-color="#C8DEE0"/>
<stop offset="0.587" stop-color="#BED8D9"/>
<stop offset="0.7506" stop-color="#C7DDDF"/>
<stop offset="1" stop-color="#DDEBEE"/>
</linearGradient>
<linearGradient id="paint24_linear_4329_121828" x1="197.812" y1="60.8133" x2="238.276" y2="99.1762" gradientUnits="userSpaceOnUse">
<stop offset="0.0194" stop-color="#F3F8FB"/>
<stop offset="0.4523" stop-color="#E7F1F4"/>
<stop offset="1" stop-color="#DDEBEE"/>
</linearGradient>
<linearGradient id="paint25_linear_4329_121828" x1="193.76" y1="67.3809" x2="212.417" y2="78.6798" gradientUnits="userSpaceOnUse">
<stop stop-color="#6F93EC"/>
<stop offset="0.2537" stop-color="#C3C8F4"/>
<stop offset="0.3202" stop-color="#B2BDF2"/>
<stop offset="0.5266" stop-color="#829FEE"/>
<stop offset="0.6291" stop-color="#6F93EC"/>
<stop offset="1" stop-color="#0731A5"/>
</linearGradient>
<linearGradient id="paint26_linear_4329_121828" x1="195.853" y1="66.5857" x2="211.87" y2="79.4253" gradientUnits="userSpaceOnUse">
<stop stop-color="#C3C8F4"/>
<stop offset="0.4584" stop-color="#6F93EC"/>
<stop offset="0.6196" stop-color="#5177D7"/>
<stop offset="0.9575" stop-color="#0731A5"/>
</linearGradient>
<linearGradient id="paint27_linear_4329_121828" x1="194.808" y1="90.7972" x2="213.461" y2="103.5" gradientUnits="userSpaceOnUse">
<stop stop-color="#67BF67"/>
<stop offset="0.2537" stop-color="#B5E69F"/>
<stop offset="0.2999" stop-color="#AAE197"/>
<stop offset="0.5198" stop-color="#7AC874"/>
<stop offset="0.6291" stop-color="#67BF67"/>
<stop offset="0.9765" stop-color="#31854C"/>
</linearGradient>
<linearGradient id="paint28_linear_4329_121828" x1="195.889" y1="90.0648" x2="211.02" y2="102.195" gradientUnits="userSpaceOnUse">
<stop stop-color="#B5E69F"/>
<stop offset="0.4584" stop-color="#67BF67"/>
<stop offset="0.7318" stop-color="#4BA159"/>
<stop offset="0.9575" stop-color="#31854C"/>
</linearGradient>
<linearGradient id="paint29_linear_4329_121828" x1="221.989" y1="57.6291" x2="241.375" y2="67.6724" gradientUnits="userSpaceOnUse">
<stop stop-color="#F6D246"/>
<stop offset="0.2537" stop-color="#FFFDA6"/>
<stop offset="0.3702" stop-color="#FAE982"/>
<stop offset="0.5431" stop-color="#F4CE52"/>
<stop offset="0.6291" stop-color="#F2C33F"/>
<stop offset="1" stop-color="#E09003"/>
</linearGradient>
<linearGradient id="paint30_linear_4329_121828" x1="225.406" y1="56.8571" x2="239.536" y2="68.185" gradientUnits="userSpaceOnUse">
<stop stop-color="#FFFDA6"/>
<stop offset="0.4584" stop-color="#F6D246"/>
<stop offset="0.8514" stop-color="#F1B42D"/>
<stop offset="0.9575" stop-color="#EFAB26"/>
</linearGradient>
<linearGradient id="paint31_linear_4329_121828" x1="224.097" y1="81.5702" x2="244.508" y2="92.1448" gradientUnits="userSpaceOnUse">
<stop stop-color="#E36139"/>
<stop offset="0.2537" stop-color="#FDC08D"/>
<stop offset="0.3702" stop-color="#F89C6A"/>
<stop offset="0.5431" stop-color="#F26C3C"/>
<stop offset="0.6291" stop-color="#F0592A"/>
<stop offset="1" stop-color="#C72F00"/>
</linearGradient>
<linearGradient id="paint32_linear_4329_121828" x1="227.616" y1="80.5773" x2="243.046" y2="93.0996" gradientUnits="userSpaceOnUse">
<stop stop-color="#FDC08D"/>
<stop offset="0.4584" stop-color="#F0592A"/>
<stop offset="0.8256" stop-color="#D33B0C"/>
<stop offset="0.9575" stop-color="#C72F00"/>
</linearGradient>
<linearGradient id="paint33_linear_4329_121828" x1="167.329" y1="62.158" x2="163.098" y2="74.1299" gradientUnits="userSpaceOnUse">
<stop offset="0.0633" stop-color="#8CA2FF"/>
<stop offset="0.1034" stop-color="#88A0FC"/>
<stop offset="0.3336" stop-color="#7696F0"/>
<stop offset="0.4968" stop-color="#6F93EC"/>
<stop offset="0.5627" stop-color="#668BE6"/>
<stop offset="0.6695" stop-color="#4E74D6"/>
<stop offset="0.8031" stop-color="#274FBB"/>
<stop offset="0.8993" stop-color="#0731A5"/>
</linearGradient>
<linearGradient id="paint34_linear_4329_121828" x1="159.125" y1="58.78" x2="171.302" y2="77.5078" gradientUnits="userSpaceOnUse">
<stop stop-color="#8CA2FF"/>
<stop offset="0.2619" stop-color="#7B99F4"/>
<stop offset="0.5298" stop-color="#6F93EC"/>
<stop offset="0.617" stop-color="#6B8FE9"/>
<stop offset="0.7111" stop-color="#5E83E0"/>
<stop offset="0.8085" stop-color="#486ED1"/>
<stop offset="0.9074" stop-color="#2A52BD"/>
<stop offset="1" stop-color="#0731A5"/>
</linearGradient>
<linearGradient id="paint35_linear_4329_121828" x1="137.32" y1="49.2538" x2="131.831" y2="64.7859" gradientUnits="userSpaceOnUse">
<stop offset="0.0633" stop-color="#8CA2FF"/>
<stop offset="0.1034" stop-color="#88A0FC"/>
<stop offset="0.3336" stop-color="#7696F0"/>
<stop offset="0.4968" stop-color="#6F93EC"/>
<stop offset="0.5627" stop-color="#668BE6"/>
<stop offset="0.6695" stop-color="#4E74D6"/>
<stop offset="0.8031" stop-color="#274FBB"/>
<stop offset="0.8993" stop-color="#0731A5"/>
</linearGradient>
<linearGradient id="paint36_linear_4329_121828" x1="126.701" y1="45.8653" x2="140.883" y2="67.6751" gradientUnits="userSpaceOnUse">
<stop offset="0.1057" stop-color="#8CA2FF"/>
<stop offset="0.3153" stop-color="#7B99F4"/>
<stop offset="0.5298" stop-color="#6F93EC"/>
<stop offset="0.6102" stop-color="#6B8FE9"/>
<stop offset="0.6969" stop-color="#5E83E0"/>
<stop offset="0.7865" stop-color="#486ED1"/>
<stop offset="0.8777" stop-color="#2A52BD"/>
<stop offset="0.9629" stop-color="#0731A5"/>
</linearGradient>
</defs>
</svg>
