<svg width="60" height="44" viewBox="0 0 60 44" fill="none" xmlns="http://www.w3.org/2000/svg">
<g clip-path="url(#clip0_4267_120308)">
<path d="M5.5 43.31L0 9.05L19.46 18.26L30 0L40.54 18.26L60 9.05L54.53 43.35L5.5 43.31Z" fill="#893B0C"/>
<path d="M59.2583 10.0284L40.3083 18.9984L29.9983 1.14844L19.6883 18.9984L0.738281 10.0284L5.98828 42.7284L54.0383 42.7784L59.2583 10.0284Z" fill="url(#paint0_linear_4267_120308)"/>
<path d="M9.43141 38.6883L5.94141 16.9683L21.3314 24.2483L30.0014 9.23828L38.6714 24.2483L54.0614 16.9683L50.5814 38.7283L9.43141 38.6883Z" fill="url(#paint1_linear_4267_120308)"/>
<path d="M9.42828 38.6914L5.98828 42.7314L54.0383 42.7814L50.5783 38.7314L9.42828 38.6914Z" fill="url(#paint2_linear_4267_120308)"/>
<path d="M19.6914 18.9984L21.3314 24.2484L30.0014 9.23844V1.14844L19.6914 18.9984Z" fill="#E8F983"/>
<path d="M30 1.14844V9.23844L38.67 24.2484L40.31 18.9984L30 1.14844Z" fill="url(#paint3_linear_4267_120308)"/>
<path d="M59.2581 10.0312L54.0581 16.9712L50.5781 38.7313L54.0381 42.7812L59.2581 10.0312Z" fill="url(#paint4_linear_4267_120308)"/>
<g opacity="0.9">
<path d="M54.0598 16.9688C54.0598 16.9688 53.9298 18.3388 53.6698 20.3988C53.5298 21.4188 53.3898 22.6188 53.1998 23.8988C53.0098 25.1788 52.7998 26.5388 52.5998 27.8988C52.3698 29.2588 52.1398 30.6188 51.9298 31.8888C51.7198 33.1588 51.4798 34.3488 51.2898 35.3588C50.8998 37.3888 50.5898 38.7388 50.5898 38.7388C50.5898 38.7388 50.7198 37.3688 50.9798 35.3088C51.1198 34.2888 51.2598 33.0888 51.4498 31.8088C51.6398 30.5288 51.8498 29.1688 52.0498 27.8088C52.2798 26.4488 52.5098 25.0888 52.7198 23.8188C52.9298 22.5488 53.1698 21.3588 53.3598 20.3488C53.7498 18.3088 54.0598 16.9688 54.0598 16.9688Z" fill="white"/>
</g>
<path d="M0.738281 10.0312L5.93828 16.9712L21.3283 24.2513L19.6883 19.0013L0.738281 10.0312Z" fill="url(#paint5_linear_4267_120308)"/>
<path d="M55.7818 28.6417C54.6218 34.9317 52.1218 39.7517 50.2118 39.4017C48.3018 39.0417 47.6918 33.6517 48.8718 27.3617C50.0418 21.0617 52.5318 16.2617 54.4418 16.6117C56.3518 16.9617 56.9518 22.3517 55.7818 28.6417Z" fill="url(#paint6_radial_4267_120308)"/>
</g>
<defs>
<linearGradient id="paint0_linear_4267_120308" x1="-2.51962" y1="18.088" x2="77.9823" y2="33.1993" gradientUnits="userSpaceOnUse">
<stop stop-color="#AF6517"/>
<stop offset="0.257" stop-color="#E0A03B"/>
<stop offset="0.48" stop-color="#E9FF88"/>
<stop offset="0.6391" stop-color="#E0A03B"/>
<stop offset="1" stop-color="#88390B"/>
</linearGradient>
<linearGradient id="paint1_linear_4267_120308" x1="-8.49809" y1="-2.45312" x2="72.1147" y2="58.2037" gradientUnits="userSpaceOnUse">
<stop stop-color="#AF6517"/>
<stop offset="0.257" stop-color="#E0A03B"/>
<stop offset="0.48" stop-color="#E9FF88"/>
<stop offset="0.6391" stop-color="#E0A03B"/>
<stop offset="1" stop-color="#88390B"/>
</linearGradient>
<linearGradient id="paint2_linear_4267_120308" x1="-54.5057" y1="-60.3184" x2="22.0117" y2="33.0009" gradientUnits="userSpaceOnUse">
<stop stop-color="#AF6517"/>
<stop offset="0.257" stop-color="#E0A03B"/>
<stop offset="0.48" stop-color="#E9FF88"/>
<stop offset="0.6391" stop-color="#E0A03B"/>
<stop offset="1" stop-color="#88390B"/>
</linearGradient>
<linearGradient id="paint3_linear_4267_120308" x1="32.7494" y1="8.40754" x2="49.2267" y2="47.5615" gradientUnits="userSpaceOnUse">
<stop stop-color="#E0A03B"/>
<stop offset="1" stop-color="#88390B"/>
</linearGradient>
<linearGradient id="paint4_linear_4267_120308" x1="34.4311" y1="16.968" x2="73.4461" y2="33.5455" gradientUnits="userSpaceOnUse">
<stop stop-color="#AF6517"/>
<stop offset="0.257" stop-color="#E0A03B"/>
<stop offset="0.48" stop-color="#E9FF88"/>
<stop offset="0.6391" stop-color="#E0A03B"/>
<stop offset="1" stop-color="#88390B"/>
</linearGradient>
<linearGradient id="paint5_linear_4267_120308" x1="-8.93912" y1="6.11925" x2="20.4329" y2="22.1444" gradientUnits="userSpaceOnUse">
<stop stop-color="#AF6517"/>
<stop offset="0.257" stop-color="#E0A03B"/>
<stop offset="0.48" stop-color="#E9FF88"/>
<stop offset="0.6391" stop-color="#E0A03B"/>
<stop offset="1" stop-color="#88390B"/>
</linearGradient>
<radialGradient id="paint6_radial_4267_120308" cx="0" cy="0" r="1" gradientUnits="userSpaceOnUse" gradientTransform="translate(52.3086 28.1474) rotate(10.5327) scale(3.08507 10.6633)">
<stop stop-color="white"/>
<stop offset="1" stop-color="white" stop-opacity="0"/>
</radialGradient>
<clipPath id="clip0_4267_120308">
<rect width="60" height="43.35" fill="white"/>
</clipPath>
</defs>
</svg>
