<svg width="97" height="160" viewBox="0 0 97 160" fill="none" xmlns="http://www.w3.org/2000/svg">
<rect x="1" y="1" width="95" height="158" fill="#00D04F" fill-opacity="0.5" stroke="#00FF60" stroke-width="2"/>
</svg>
