<svg width="440" height="209" viewBox="0 0 440 209" fill="none" xmlns="http://www.w3.org/2000/svg">
<path d="M2.0293 69.7115C-2.2175 97.0229 14.3388 125.742 46.9367 150.02C79.4997 174.272 127.876 193.924 186.695 203.07C245.498 212.213 306.391 207.952 353.632 194.472C377.254 187.732 397.416 178.7 412.189 167.926C426.971 157.146 436.262 144.697 438.371 131.134C442.605 103.901 423.953 77.6252 389.12 55.7559C354.343 33.9216 303.74 16.6975 244.888 7.54613C186.054 -1.6022 127.355 0.226558 82.3234 11.2682C59.8051 16.7896 40.7563 24.6021 26.8209 34.4547C12.8886 44.3052 4.1398 56.1388 2.0293 69.7115Z" fill="#00D04F" fill-opacity="0.5" stroke="#00FF60" stroke-width="2"/>
</svg>
