<svg width="161" height="166" viewBox="0 0 161 166" fill="none" xmlns="http://www.w3.org/2000/svg">
<rect x="1" y="1" width="159" height="164" fill="#00D04F" fill-opacity="0.5" stroke="#00FF60" stroke-width="2"/>
</svg>
