<svg width="24" height="25" viewBox="0 0 24 25" fill="none" xmlns="http://www.w3.org/2000/svg">
<mask id="mask0_293_71035" style="mask-type:alpha" maskUnits="userSpaceOnUse" x="0" y="0" width="24" height="25">
<rect y="0.544922" width="24" height="24" fill="#D9D9D9"/>
</mask>
<g mask="url(#mask0_293_71035)">
<path d="M12 20.1699L4.375 12.5449L12 4.91992L13.075 5.99492L7.25 11.7949H19.625V13.2949H7.25L13.075 19.0949L12 20.1699Z" fill="#1798EE"/>
</g>
</svg>
