<svg width="30" height="30" viewBox="0 0 30 30" fill="none" xmlns="http://www.w3.org/2000/svg">
<mask id="mask0_293_71085" style="mask-type:alpha" maskUnits="userSpaceOnUse" x="0" y="0" width="30" height="30">
<rect width="30" height="30" fill="#D9D9D9"/>
</mask>
<g mask="url(#mask0_293_71085)">
<path d="M15 15.001C15.6875 15.001 16.2762 14.756 16.7662 14.266C17.2554 13.7768 17.5 13.1885 17.5 12.501C17.5 11.8135 17.2554 11.2247 16.7662 10.7347C16.2762 10.2456 15.6875 10.001 15 10.001C14.3125 10.001 13.7242 10.2456 13.235 10.7347C12.745 11.2247 12.5 11.8135 12.5 12.501C12.5 13.1885 12.745 13.7768 13.235 14.266C13.7242 14.756 14.3125 15.001 15 15.001ZM15 27.501C11.6458 24.6468 9.14083 21.9956 7.485 19.5472C5.82833 17.0997 5 14.8343 5 12.751C5 9.62598 6.00542 7.13639 8.01625 5.28223C10.0262 3.42806 12.3542 2.50098 15 2.50098C17.6458 2.50098 19.9737 3.42806 21.9837 5.28223C23.9946 7.13639 25 9.62598 25 12.751C25 14.8343 24.1721 17.0997 22.5162 19.5472C20.8596 21.9956 18.3542 24.6468 15 27.501Z" fill="#FF0000"/>
</g>
</svg>
