<svg width="1920" height="880" viewBox="0 0 1920 880" fill="none" xmlns="http://www.w3.org/2000/svg">
<rect width="1920" height="880" fill="#F5F7FB"/>
<g opacity="0.4" clip-path="url(#clip0_1088_90954)">
<g opacity="0.3">
<g opacity="0.75">
<path d="M1413.22 398.725L1341.59 252.559L1388.35 233.227L1413.22 398.725ZM1341.8 252.559L1413.01 397.663L1388.35 233.439L1341.8 252.559Z" fill="#474647"/>
<path d="M1789.49 387.254L1814.36 263.184V263.396L1847.31 348.588L1789.49 387.254ZM1814.36 263.821L1789.7 387.042L1847.31 348.801L1814.36 263.821Z" fill="#474647"/>
<path d="M1190.02 436.755L1190.45 436.542L1303.11 378.756L1413.44 398.089H1413.01L1190.02 436.755ZM1303.11 378.968L1190.87 436.542L1412.59 398.301L1303.11 378.968Z" fill="#474647"/>
<path d="M1416.2 398.726C1416.2 397.026 1414.71 395.539 1413.01 395.539C1411.31 395.539 1409.83 397.026 1409.83 398.726C1409.83 400.425 1411.31 401.913 1413.01 401.913C1414.71 401.913 1416.2 400.425 1416.2 398.726Z" fill="#474647"/>
<path d="M1309.49 378.967C1309.49 375.356 1306.73 372.594 1303.12 372.594C1299.5 372.594 1296.74 375.356 1296.74 378.967C1296.74 382.579 1299.5 385.341 1303.12 385.341C1306.73 385.341 1309.49 382.366 1309.49 378.967Z" fill="#474647"/>
<path d="M1347.96 252.559C1347.96 248.947 1345.2 246.186 1341.59 246.186C1337.97 246.186 1335.21 248.947 1335.21 252.559C1335.21 256.171 1337.97 258.933 1341.59 258.933C1345.2 258.933 1347.96 256.171 1347.96 252.559Z" fill="#474647"/>
<path d="M1391.33 233.439C1391.33 231.74 1390.06 230.465 1388.36 230.465C1386.66 230.465 1385.38 231.74 1385.38 233.439C1385.38 235.139 1386.66 236.413 1388.36 236.413C1390.06 236.413 1391.33 234.926 1391.33 233.439Z" fill="#474647"/>
<path d="M1383.89 336.052C1383.89 335.202 1383.26 334.564 1382.41 334.564C1381.56 334.564 1380.92 335.202 1380.92 336.052C1380.92 336.901 1381.56 337.539 1382.41 337.539C1383.26 337.326 1383.89 336.689 1383.89 336.052Z" fill="#474647"/>
<path d="M1319.69 381.516C1319.69 380.667 1319.05 380.029 1318.2 380.029C1317.35 380.029 1316.72 380.667 1316.72 381.516C1316.72 382.366 1317.35 383.004 1318.2 383.004C1319.05 383.216 1319.69 382.366 1319.69 381.516Z" fill="#474647"/>
<path d="M1401.96 372.382C1401.96 371.532 1401.33 370.895 1400.48 370.895C1399.63 370.895 1398.99 371.532 1398.99 372.382C1398.99 373.232 1399.63 373.869 1400.48 373.869C1401.33 374.081 1401.96 373.232 1401.96 372.382Z" fill="#474647"/>
<path d="M1789.7 390.014C1791.22 390.014 1792.46 388.777 1792.46 387.252C1792.46 385.727 1791.22 384.49 1789.7 384.49C1788.17 384.49 1786.93 385.727 1786.93 387.252C1786.93 388.777 1788.17 390.014 1789.7 390.014Z" fill="#474647"/>
<path d="M1798.42 357.299C1798.42 355.812 1797.14 354.537 1795.65 354.537C1794.16 354.537 1792.89 355.812 1792.89 357.299C1792.89 358.786 1794.16 360.061 1795.65 360.061C1797.14 360.061 1798.42 358.786 1798.42 357.299Z" fill="#474647"/>
<path d="M1855.17 348.799C1855.17 344.55 1851.77 341.15 1847.52 341.15C1843.26 341.15 1839.86 344.55 1839.86 348.799C1839.86 353.048 1843.26 356.447 1847.52 356.447C1851.77 356.447 1855.17 353.048 1855.17 348.799Z" fill="#474647"/>
</g>
<g opacity="0.75">
<path d="M1522.7 867.388L1522.92 867.176L1644.08 688.293V688.718L1619.43 812.364L1522.7 867.388ZM1643.66 688.93L1523.13 866.963L1619 812.151L1643.66 688.93Z" fill="#474647"/>
<g opacity="0.2">
<path d="M1643.87 688.718L1624.52 490.715L1830.72 540.216H1830.51L1643.87 688.718Z" fill="#474647"/>
</g>
<path d="M1418.33 575.907L1624.74 490.715L1644.08 688.718H1643.87L1418.33 575.907ZM1624.53 490.927L1418.54 575.907L1643.66 688.505L1624.53 490.927Z" fill="#474647"/>
<path d="M1422.15 575.906C1422.15 573.782 1420.45 572.082 1418.33 572.082C1416.2 572.082 1414.5 573.782 1414.5 575.906C1414.5 578.031 1416.2 579.73 1418.33 579.73C1420.45 579.73 1422.15 578.031 1422.15 575.906Z" fill="#474647"/>
<path d="M1631.97 490.078C1631.97 486.254 1628.99 483.279 1625.16 483.279C1621.34 483.279 1618.36 486.254 1618.36 490.078C1618.36 493.902 1621.34 496.876 1625.16 496.876C1628.99 496.876 1631.97 493.902 1631.97 490.078Z" fill="#474647"/>
<path d="M1563.94 517.484C1563.94 515.359 1562.24 513.447 1559.91 513.447C1557.78 513.447 1555.87 515.147 1555.87 517.484C1555.87 519.608 1557.57 521.52 1559.91 521.52C1562.24 521.52 1563.94 519.608 1563.94 517.484Z" fill="#474647"/>
<path d="M1576.06 120.203C1576.06 117.866 1574.14 116.166 1572.02 116.166C1569.68 116.166 1567.98 118.078 1567.98 120.203C1567.98 122.54 1569.89 124.239 1572.02 124.239C1574.14 124.452 1576.06 122.54 1576.06 120.203Z" fill="#474647"/>
<path d="M1621.76 812.151C1621.76 810.663 1620.48 809.389 1619 809.389C1617.51 809.389 1616.23 810.663 1616.23 812.151C1616.23 813.638 1617.51 814.912 1619 814.912C1620.7 814.912 1621.76 813.638 1621.76 812.151Z" fill="#474647"/>
<path d="M1526.74 867.176C1526.74 865.051 1525.04 863.352 1522.92 863.352C1520.79 863.352 1519.09 865.051 1519.09 867.176C1519.09 869.3 1520.79 871 1522.92 871C1525.04 871 1526.74 869.3 1526.74 867.176Z" fill="#474647"/>
<path d="M1487.2 608.836C1487.2 607.136 1485.93 605.861 1484.23 605.861C1482.53 605.861 1481.25 607.136 1481.25 608.836C1481.25 610.535 1482.53 611.81 1484.23 611.81C1485.72 611.81 1487.2 610.535 1487.2 608.836Z" fill="#474647"/>
</g>
<g opacity="0.75">
<path d="M1191.3 439.727C1189.17 439.727 1187.68 438.028 1187.68 436.116C1187.68 433.991 1189.38 432.504 1191.3 432.504C1193.21 432.504 1194.91 434.204 1194.91 436.116C1194.91 438.24 1193.42 439.727 1191.3 439.727Z" fill="#474647"/>
</g>
<path d="M1533.11 361.759L1620.06 344.338L1593.06 384.916L1533.11 361.759ZM1619.85 344.55L1533.33 361.759L1592.85 384.703L1619.85 344.55Z" fill="#474647"/>
<path d="M1626.01 489.23L1625.8 489.017L1533.33 361.76H1533.54L1593.27 384.917L1626.01 489.23ZM1533.54 361.972L1625.8 488.592L1593.06 384.917L1533.54 361.972Z" fill="#474647"/>
<path d="M1454.25 203.909L1492.73 65.1796L1512.07 63.2676L1454.25 203.909ZM1492.94 65.3921L1454.68 203.272L1512.07 63.48L1492.94 65.3921Z" fill="#474647"/>
<path d="M1454.25 204.122L1512.07 63.2676L1627.71 80.6884L1454.25 204.122ZM1512.07 63.48L1454.25 203.909L1627.5 80.9009L1512.07 63.48Z" fill="#474647"/>
<path d="M1628.13 87.0614C1624.73 87.0614 1621.76 84.2996 1621.76 80.6879C1621.76 77.2887 1624.52 74.3145 1628.13 74.3145C1631.53 74.3145 1634.51 77.0763 1634.51 80.6879C1634.51 84.2996 1631.53 87.0614 1628.13 87.0614Z" fill="#474647"/>
<path d="M1512.07 65.3916C1511.01 65.3916 1509.94 64.5418 1509.94 63.2671C1509.94 61.9924 1510.79 61.1426 1512.07 61.1426C1513.13 61.1426 1514.2 61.9924 1514.2 63.2671C1514.2 64.5418 1513.35 65.3916 1512.07 65.3916Z" fill="#474647"/>
<path d="M1492.94 70.9146C1489.75 70.9146 1487.41 68.3652 1487.41 65.3909C1487.41 62.4166 1489.96 59.8672 1492.94 59.8672C1496.13 59.8672 1498.47 62.4166 1498.47 65.3909C1498.47 68.3652 1495.92 70.9146 1492.94 70.9146Z" fill="#474647"/>
<path d="M1454.25 208.156C1451.91 208.156 1450 206.244 1450 203.907C1450 201.57 1451.91 199.658 1454.25 199.658C1456.59 199.658 1458.5 201.57 1458.5 203.907C1458.5 206.244 1456.59 208.156 1454.25 208.156Z" fill="#474647"/>
<path d="M1533.33 367.068C1530.35 367.068 1528.01 364.731 1528.01 361.757C1528.01 358.782 1530.35 356.445 1533.33 356.445C1536.3 356.445 1538.64 358.782 1538.64 361.757C1538.64 364.731 1536.3 367.068 1533.33 367.068Z" fill="#474647"/>
<path d="M1620.06 346.675C1618.78 346.675 1617.93 345.613 1617.93 344.55C1617.93 343.276 1619 342.426 1620.06 342.426C1621.34 342.426 1622.19 343.488 1622.19 344.55C1622.19 345.613 1621.12 346.675 1620.06 346.675Z" fill="#474647"/>
<path d="M1630.69 268.493C1630.05 268.493 1629.41 268.068 1629.41 267.218C1629.41 266.581 1629.84 265.943 1630.69 265.943C1631.33 265.943 1631.96 266.368 1631.96 267.218C1631.96 267.855 1631.33 268.493 1630.69 268.493Z" fill="#474647"/>
<path d="M1540.98 144.634C1539.71 144.634 1538.86 143.572 1538.86 142.509C1538.86 141.235 1539.92 140.385 1540.98 140.385C1542.26 140.385 1543.11 141.447 1543.11 142.509C1543.32 143.572 1542.26 144.634 1540.98 144.634Z" fill="#474647"/>
<path d="M1490.6 179.901C1489.32 179.901 1488.47 178.839 1488.47 177.777C1488.47 176.502 1489.54 175.652 1490.6 175.652C1491.88 175.652 1492.73 176.715 1492.73 177.777C1492.73 178.839 1491.66 179.901 1490.6 179.901Z" fill="#474647"/>
<path d="M1550.76 359.633C1550.12 359.633 1549.48 358.996 1549.48 358.359C1549.48 357.721 1550.12 357.084 1550.76 357.084C1551.4 357.084 1552.03 357.721 1552.03 358.359C1551.82 358.996 1551.4 359.633 1550.76 359.633Z" fill="#474647"/>
<path d="M1542.04 366.219C1541.4 366.219 1540.76 365.582 1540.76 364.945C1540.76 364.307 1541.4 363.67 1542.04 363.67C1542.68 363.67 1543.32 364.307 1543.32 364.945C1543.32 365.582 1542.68 366.219 1542.04 366.219Z" fill="#474647"/>
<path d="M1383.04 406.16C1381.34 406.585 1379.85 405.098 1380.28 403.398C1380.49 402.548 1381.13 401.911 1381.98 401.698C1383.68 401.273 1385.16 402.761 1384.74 404.46C1384.53 405.522 1383.89 406.16 1383.04 406.16Z" fill="#474647"/>
<path d="M1403.44 330.74C1401.74 331.165 1400.25 329.678 1400.68 327.978C1400.89 327.128 1401.53 326.491 1402.38 326.278C1404.08 325.854 1405.57 327.341 1405.14 329.04C1404.93 329.89 1404.29 330.527 1403.44 330.74Z" fill="#474647"/>
<path d="M1593.06 390.439C1590.08 390.439 1587.75 388.102 1587.75 385.128C1587.75 382.153 1590.08 379.816 1593.06 379.816C1596.04 379.816 1598.38 382.153 1598.38 385.128C1598.38 387.889 1596.04 390.439 1593.06 390.439Z" fill="#474647"/>
<path d="M1352.21 387.888C1351.58 387.888 1351.15 387.463 1351.15 386.826C1351.15 386.189 1351.58 385.764 1352.21 385.764C1352.85 385.764 1353.28 386.189 1353.28 386.826C1353.28 387.463 1352.85 387.888 1352.21 387.888Z" fill="#474647"/>
<path d="M1355.83 392.351C1355.41 392.351 1355.19 392.138 1355.19 391.714C1355.19 391.289 1355.41 391.076 1355.83 391.076C1356.26 391.076 1356.47 391.289 1356.47 391.714C1356.47 392.138 1356.04 392.351 1355.83 392.351Z" fill="#474647"/>
</g>
<g opacity="0.75">
<path d="M1437.25 211.557L1411.95 268.919V268.706L1387.93 116.805L1388.14 117.017L1437.25 211.557ZM1411.95 268.706L1437.25 211.77L1388.14 117.654L1411.95 268.706Z" fill="#474647"/>
<path d="M1437.25 211.77L1387.72 116.805L1387.93 117.017L1433.21 164.818L1437.25 211.77ZM1388.35 117.442L1437.25 211.345L1433.21 165.031L1388.35 117.442Z" fill="#474647"/>
<path d="M1670.23 395.964C1669.38 396.813 1669.38 398.088 1670.23 398.938C1671.08 399.788 1672.36 399.788 1673.21 398.938C1674.06 398.088 1674.06 396.813 1673.21 395.964C1672.36 395.114 1671.08 395.114 1670.23 395.964Z" fill="#474647"/>
<path d="M1410.25 267.005C1409.19 268.067 1409.19 269.554 1410.25 270.404C1411.31 271.466 1412.8 271.466 1413.65 270.404C1414.71 269.341 1414.71 267.854 1413.65 267.005C1412.8 266.155 1411.31 266.155 1410.25 267.005Z" fill="#474647"/>
<path d="M1384.53 113.618C1382.61 115.53 1382.61 118.716 1384.53 120.628C1386.44 122.541 1389.63 122.541 1391.54 120.628C1393.46 118.716 1393.46 115.53 1391.54 113.618C1389.63 111.706 1386.44 111.706 1384.53 113.618Z" fill="#474647"/>
<path d="M1437.24 216.867C1440.18 216.867 1442.56 214.489 1442.56 211.555C1442.56 208.622 1440.18 206.244 1437.24 206.244C1434.31 206.244 1431.93 208.622 1431.93 211.555C1431.93 214.489 1434.31 216.867 1437.24 216.867Z" fill="#474647"/>
<path d="M1429.6 161.418C1427.47 163.542 1427.47 166.729 1429.6 168.853C1431.72 170.978 1434.91 170.978 1437.04 168.853C1439.16 166.729 1439.16 163.542 1437.04 161.418C1434.91 159.293 1431.72 159.293 1429.6 161.418Z" fill="#474647"/>
</g>
<path d="M1405.78 526.619L1388.99 633.269L1371.35 593.116L1405.78 526.619ZM1388.99 632.844L1405.78 526.832L1371.35 592.903L1388.99 632.844Z" fill="#474647"/>
<path d="M1449.57 706.777L1420.66 750.542L1449.57 706.564V706.777Z" fill="#474647"/>
<path d="M1449.57 706.564L1420.66 750.542L1350.51 747.78H1350.72L1449.57 706.564ZM1420.66 750.329L1449.57 706.564L1350.94 747.567L1420.66 750.329Z" fill="#474647"/>
<path d="M1449.57 706.564L1350.51 747.567L1388.77 632.844L1449.57 706.564ZM1350.72 747.567L1449.57 706.564L1388.99 633.056L1350.72 747.567Z" fill="#474647"/>
<path d="M1302.68 759.04C1304.17 760.527 1304.17 762.864 1302.68 764.139C1301.2 765.626 1298.86 765.626 1297.58 764.139C1296.09 762.652 1296.09 760.315 1297.58 759.04C1299.07 757.765 1301.41 757.765 1302.68 759.04Z" fill="#474647"/>
<path d="M1352.85 745.657C1353.92 746.719 1353.92 748.632 1352.85 749.694C1351.79 750.756 1349.88 750.756 1348.81 749.694C1347.75 748.632 1347.75 746.719 1348.81 745.657C1349.88 744.382 1351.58 744.382 1352.85 745.657Z" fill="#474647"/>
<path d="M1422.79 748.416C1423.85 749.478 1423.85 751.39 1422.79 752.452C1421.73 753.515 1419.82 753.515 1418.75 752.452C1417.69 751.39 1417.69 749.478 1418.75 748.416C1419.82 747.354 1421.52 747.354 1422.79 748.416Z" fill="#474647"/>
<path d="M1451.7 704.653C1452.76 705.716 1452.76 707.628 1451.7 708.69C1450.64 709.752 1448.72 709.752 1447.66 708.69C1446.6 707.628 1446.6 705.716 1447.66 704.653C1448.72 703.379 1450.42 703.379 1451.7 704.653Z" fill="#474647"/>
<path d="M1391.54 630.508C1393.03 631.995 1393.03 634.12 1391.54 635.607C1390.05 637.094 1387.92 637.094 1386.44 635.607C1384.95 634.12 1384.95 631.995 1386.44 630.508C1387.71 629.021 1390.05 629.021 1391.54 630.508Z" fill="#474647"/>
<path d="M1373.9 590.354C1375.38 591.841 1375.38 594.178 1373.9 595.665C1372.41 597.152 1370.07 597.152 1368.58 595.665C1367.09 594.178 1367.09 591.841 1368.58 590.354C1370.07 588.866 1372.41 588.866 1373.9 590.354Z" fill="#474647"/>
<path d="M1818.18 259.996C1820.09 261.908 1820.09 265.307 1818.18 267.219C1816.27 269.131 1812.86 269.131 1810.95 267.219C1809.04 265.307 1809.04 261.908 1810.95 259.996C1812.86 257.871 1816.05 257.871 1818.18 259.996Z" fill="#474647"/>
<path d="M1813.93 619.248C1811.8 617.123 1808.61 617.123 1806.49 619.248C1804.36 621.372 1804.36 624.559 1806.49 626.683C1808.61 628.808 1811.8 628.808 1813.93 626.683C1815.84 624.559 1815.84 621.372 1813.93 619.248Z" fill="#474647"/>
<path d="M1772.26 669.597C1775.2 669.597 1777.58 667.219 1777.58 664.286C1777.58 661.353 1775.2 658.975 1772.26 658.975C1769.33 658.975 1766.95 661.353 1766.95 664.286C1766.95 667.219 1769.33 669.597 1772.26 669.597Z" fill="#474647"/>
<path d="M1673.63 585.679C1671.51 583.555 1668.32 583.555 1666.19 585.679C1664.07 587.804 1664.07 590.991 1666.19 593.115C1668.32 595.24 1671.51 595.24 1673.63 593.115C1675.54 591.203 1675.54 587.804 1673.63 585.679Z" fill="#474647"/>
<path d="M1800.75 483.918C1798.62 481.793 1795.44 481.793 1793.31 483.918C1791.18 486.042 1791.18 489.229 1793.31 491.353C1795.44 493.478 1798.62 493.478 1800.75 491.353C1802.66 489.229 1802.66 485.83 1800.75 483.918Z" fill="#474647"/>
<path d="M1778.22 425.492C1776.09 423.367 1772.91 423.367 1770.78 425.492C1768.65 427.616 1768.65 430.803 1770.78 432.928C1772.91 435.052 1776.09 435.052 1778.22 432.928C1780.13 430.803 1780.13 427.404 1778.22 425.492Z" fill="#474647"/>
<path d="M1674.91 395.114C1673.63 393.84 1671.93 393.84 1670.66 395.114C1669.38 396.389 1669.38 398.089 1670.66 399.363C1671.93 400.638 1673.63 400.638 1674.91 399.363C1675.97 398.089 1675.97 396.176 1674.91 395.114Z" fill="#474647"/>
<path d="M1740.17 404.673C1743.11 404.673 1745.48 402.295 1745.48 399.362C1745.48 396.429 1743.11 394.051 1740.17 394.051C1737.24 394.051 1734.86 396.429 1734.86 399.362C1734.86 402.295 1737.24 404.673 1740.17 404.673Z" fill="#474647"/>
<path d="M1774.39 429.105L1797.14 487.529H1796.92L1672.57 397.025H1672.78L1774.39 429.105ZM1796.92 487.316L1774.39 429.105L1672.99 397.238L1796.92 487.316Z" fill="#474647"/>
<path d="M1774.6 429.316H1774.39L1672.35 397.236H1672.78L1738.68 399.148L1774.6 429.316ZM1672.99 397.236L1773.96 429.104L1738.46 399.148L1672.99 397.236Z" fill="#474647"/>
<path d="M1796.92 487.529L1810.1 623.072L1668.95 589.293L1796.92 487.529ZM1810.1 622.86L1796.92 487.529L1669.16 588.868L1810.1 622.86Z" fill="#474647"/>
<path d="M1810.1 622.859L1772.47 664.287L1668.74 588.867H1668.95L1810.1 622.859ZM1772.47 664.287L1810.1 623.072L1669.38 589.292L1772.47 664.287Z" fill="#474647"/>
<g opacity="0.75">
<path d="M1553.09 139.961C1554.16 138.899 1554.16 137.199 1553.09 136.349C1552.03 135.287 1550.33 135.287 1549.48 136.349C1548.42 137.412 1548.42 139.111 1549.48 139.961C1550.33 141.023 1552.03 141.023 1553.09 139.961Z" fill="#474647"/>
<path d="M1333.93 579.308C1335.42 577.821 1335.42 575.696 1333.93 574.209C1332.44 572.722 1330.32 572.722 1328.83 574.209C1327.34 575.696 1327.34 577.821 1328.83 579.308C1330.32 580.795 1332.66 580.795 1333.93 579.308Z" fill="#474647"/>
<path d="M1337.76 570.385C1334.14 566.773 1328.62 566.773 1325 570.385C1321.39 573.996 1321.39 579.52 1325 583.131C1328.62 586.743 1334.14 586.743 1337.76 583.131C1341.37 579.732 1341.37 573.996 1337.76 570.385ZM1336.91 582.069C1333.93 585.044 1329.25 585.044 1326.28 582.069C1323.3 579.095 1323.3 574.421 1326.28 571.447C1329.25 568.472 1333.93 568.472 1336.91 571.447C1339.67 574.421 1339.67 579.095 1336.91 582.069Z" fill="#474647"/>
</g>
<g opacity="0.75">
<path d="M1179.6 294.838H1179.81L1226.58 296.113L1211.91 308.01L1179.6 294.838ZM1226.36 296.325L1180.24 295.05L1211.91 308.222L1226.36 296.325Z" fill="#474647"/>
<path d="M1143.68 400.213L1179.81 294.838L1211.7 308.222L1143.68 400.213ZM1179.81 294.838L1144.1 399.576L1211.7 308.01L1179.81 294.838Z" fill="#474647"/>
<path d="M1258.04 556.786L1403.44 528.742L1403.23 528.955L1331.38 576.756L1258.04 556.786ZM1403.23 528.955L1258.68 556.786L1331.59 576.756L1403.23 528.955Z" fill="#474647"/>
<path d="M1146.87 403.398C1148.57 401.698 1148.57 398.724 1146.87 396.812C1145.16 395.112 1142.19 395.112 1140.28 396.812C1138.57 398.511 1138.57 401.486 1140.28 403.398C1142.19 405.31 1145.16 405.31 1146.87 403.398Z" fill="#474647"/>
<path d="M1183 298.024C1184.7 296.324 1184.7 293.562 1183 291.863C1181.3 290.163 1178.54 290.163 1176.84 291.863C1175.14 293.562 1175.14 296.324 1176.84 298.024C1178.54 299.723 1181.3 299.723 1183 298.024Z" fill="#474647"/>
<path d="M1211.7 310.345C1212.87 310.345 1213.82 309.394 1213.82 308.22C1213.82 307.047 1212.87 306.096 1211.7 306.096C1210.52 306.096 1209.57 307.047 1209.57 308.22C1209.57 309.394 1210.52 310.345 1211.7 310.345Z" fill="#474647"/>
<path d="M1228.28 298.023C1229.35 296.961 1229.35 295.261 1228.28 294.199C1227.22 293.137 1225.52 293.137 1224.46 294.199C1223.39 295.261 1223.39 296.961 1224.46 298.023C1225.52 299.085 1227.22 299.085 1228.28 298.023Z" fill="#474647"/>
<path d="M1407.06 532.57C1409.19 530.445 1409.19 527.046 1407.06 524.921C1404.93 522.797 1401.53 522.797 1399.41 524.921C1397.28 527.046 1397.28 530.445 1399.41 532.57C1401.75 534.694 1405.15 534.694 1407.06 532.57Z" fill="#474647"/>
<path d="M1261.23 559.762C1262.72 558.275 1262.72 555.725 1261.23 554.026C1259.74 552.538 1257.19 552.538 1255.49 554.026C1254 555.513 1254 558.062 1255.49 559.762C1256.98 561.249 1259.53 561.249 1261.23 559.762Z" fill="#474647"/>
</g>
<path d="M1500.8 104.48L1602.84 124.026H1602.62L1551.39 138.048L1500.8 104.48ZM1602.41 124.026L1501.01 104.48L1551.18 137.835L1602.41 124.026Z" fill="#474647"/>
<path d="M1387.07 117.654L1440.22 30.9746L1501.01 104.482L1387.07 117.654ZM1440.22 30.9746L1387.07 117.654L1500.8 104.695L1440.22 30.9746Z" fill="#474647"/>
<path d="M1438.1 32.886C1437.03 31.8237 1437.03 29.9117 1438.1 28.8494C1439.16 27.7872 1441.07 27.7872 1442.13 28.8494C1443.2 29.9117 1443.2 31.8237 1442.13 32.886C1441.07 34.1607 1439.37 34.1607 1438.1 32.886Z" fill="#474647"/>
<path d="M1384.95 119.777C1383.67 118.503 1383.67 116.591 1384.95 115.528C1386.23 114.254 1388.14 114.254 1389.2 115.528C1390.48 116.803 1390.48 118.715 1389.2 119.777C1388.14 120.84 1386.23 120.84 1384.95 119.777Z" fill="#474647"/>
<path d="M1498.26 107.031C1496.77 105.543 1496.77 103.419 1498.26 101.932C1499.74 100.445 1501.87 100.445 1503.36 101.932C1504.84 103.419 1504.84 105.543 1503.36 107.031C1502.08 108.518 1499.74 108.518 1498.26 107.031Z" fill="#474647"/>
<path d="M1600.08 126.364C1598.8 125.09 1598.8 122.965 1600.08 121.69C1601.35 120.416 1603.48 120.416 1604.75 121.69C1606.03 122.965 1606.03 125.09 1604.75 126.364C1603.48 127.851 1601.56 127.851 1600.08 126.364Z" fill="#474647"/>
<g opacity="0.3">
<g opacity="0.75">
<path d="M1621.54 152.494L1621.75 152.282L1671.28 105.543V105.755L1668.52 133.161L1621.54 152.494ZM1671.28 105.755L1622.18 152.069L1668.52 132.949L1671.28 105.755Z" fill="#474647"/>
<path d="M1628.13 152.282C1628.13 148.67 1625.37 145.908 1621.76 145.908C1618.14 145.908 1615.38 148.67 1615.38 152.282C1615.38 155.893 1618.14 158.655 1621.76 158.655C1625.37 158.655 1628.13 155.893 1628.13 152.282Z" fill="#474647"/>
<path d="M1671.5 133.162C1671.5 131.462 1670.23 130.188 1668.53 130.188C1666.82 130.188 1665.55 131.462 1665.55 133.162C1665.55 134.861 1666.82 136.136 1668.53 136.136C1670.23 136.136 1671.5 134.861 1671.5 133.162Z" fill="#474647"/>
<path d="M1675.33 105.755C1675.33 103.631 1673.63 101.719 1671.29 101.719C1669.16 101.719 1667.25 103.418 1667.25 105.755C1667.25 107.88 1668.95 109.792 1671.29 109.792C1673.63 109.579 1675.33 107.88 1675.33 105.755Z" fill="#474647"/>
</g>
<g opacity="0.75">
<path d="M1412.8 703.8L1451.28 577.18V577.392L1522.7 723.133H1522.49L1412.8 703.8ZM1451.28 577.605L1412.8 703.8L1522.49 722.92L1451.28 577.605Z" fill="#474647"/>
<path d="M1299.71 761.587L1300.13 761.374L1412.8 703.588L1523.12 722.921H1522.7L1299.71 761.587ZM1412.8 703.8L1300.56 761.374L1522.27 723.133L1412.8 703.8Z" fill="#474647"/>
<path d="M1525.89 723.558C1525.89 721.858 1524.4 720.371 1522.7 720.371C1521 720.371 1519.51 721.858 1519.51 723.558C1519.51 725.257 1521 726.745 1522.7 726.745C1524.4 726.745 1525.89 725.257 1525.89 723.558Z" fill="#474647"/>
<path d="M1419.18 703.801C1419.18 700.19 1416.41 697.428 1412.8 697.428C1409.19 697.428 1406.42 700.19 1406.42 703.801C1406.42 707.413 1409.19 710.175 1412.8 710.175C1416.2 710.175 1419.18 707.2 1419.18 703.801Z" fill="#474647"/>
<path d="M1457.65 577.393C1457.65 573.781 1454.89 571.02 1451.27 571.02C1447.66 571.02 1444.89 573.781 1444.89 577.393C1444.89 581.005 1447.66 583.767 1451.27 583.767C1454.89 583.767 1457.65 581.005 1457.65 577.393Z" fill="#474647"/>
<path d="M1493.58 660.673C1493.58 659.823 1492.94 659.186 1492.09 659.186C1491.24 659.186 1490.6 659.823 1490.6 660.673C1490.6 661.522 1491.24 662.16 1492.09 662.16C1492.94 662.16 1493.58 661.522 1493.58 660.673Z" fill="#474647"/>
<path d="M1429.37 706.35C1429.37 705.501 1428.74 704.863 1427.89 704.863C1427.04 704.863 1426.4 705.501 1426.4 706.35C1426.4 707.2 1427.04 707.838 1427.89 707.838C1428.74 708.05 1429.37 707.2 1429.37 706.35Z" fill="#474647"/>
<path d="M1511.65 697.214C1511.65 696.364 1511.01 695.727 1510.16 695.727C1509.31 695.727 1508.67 696.364 1508.67 697.214C1508.67 698.064 1509.31 698.701 1510.16 698.701C1511.01 698.913 1511.65 698.064 1511.65 697.214Z" fill="#474647"/>
<path d="M1829.87 540.427C1829.87 539.152 1828.8 538.09 1827.53 538.09C1826.25 538.09 1825.19 539.152 1825.19 540.427C1825.19 541.701 1826.25 542.764 1827.53 542.764C1828.8 542.764 1829.87 541.701 1829.87 540.427Z" fill="#474647"/>
</g>
<g opacity="0.75">
<path d="M1483.58 645.165C1482.52 645.165 1481.46 644.315 1481.46 643.041C1481.46 641.978 1482.31 640.916 1483.58 640.916C1484.65 640.916 1485.71 641.766 1485.71 643.041C1485.71 644.315 1484.65 645.165 1483.58 645.165Z" fill="#474647"/>
<path d="M1511.64 647.501C1510.15 647.501 1509.09 646.439 1509.09 644.952C1509.09 643.465 1510.15 642.402 1511.64 642.402C1513.13 642.402 1514.19 643.465 1514.19 644.952C1514.19 646.439 1513.13 647.501 1511.64 647.501Z" fill="#474647"/>
</g>
<path d="M1636 292.074C1635.57 292.074 1635.36 291.861 1635.36 291.436C1635.36 291.011 1635.57 290.799 1636 290.799C1636.43 290.799 1636.64 291.011 1636.64 291.436C1636.64 291.861 1636.43 292.074 1636 292.074Z" fill="#474647"/>
</g>
<g opacity="0.75">
<path d="M1915.96 402.761H1915.75L1868.98 401.487L1883.65 389.589L1915.96 402.761ZM1869.41 401.274L1915.54 402.549L1883.86 389.377L1869.41 401.274Z" fill="#474647"/>
<path d="M1912.78 399.574C1911.08 401.273 1911.08 404.035 1912.78 405.735C1914.48 407.434 1917.24 407.434 1918.94 405.735C1920.64 404.035 1920.64 401.273 1918.94 399.574C1917.03 397.874 1914.48 397.874 1912.78 399.574Z" fill="#474647"/>
<path d="M1882.38 387.889C1881.53 388.739 1881.53 390.014 1882.38 390.864C1883.23 391.713 1884.51 391.713 1885.36 390.864C1886.21 390.014 1886.21 388.739 1885.36 387.889C1884.51 387.04 1883.23 387.04 1882.38 387.889Z" fill="#474647"/>
<path d="M1867.29 399.363C1866.22 400.425 1866.22 402.125 1867.29 403.187C1868.35 404.249 1870.05 404.249 1871.11 403.187C1872.18 402.125 1872.18 400.425 1871.11 399.363C1870.05 398.301 1868.35 398.301 1867.29 399.363Z" fill="#474647"/>
</g>
<path d="M1685.96 426.342L1669.17 532.991L1651.52 492.839L1685.96 426.342ZM1669.17 532.779L1685.96 426.767L1651.52 492.839L1669.17 532.779Z" fill="#474647"/>
<path d="M1671.71 530.229C1673.2 531.717 1673.2 533.841 1671.71 535.328C1670.23 536.815 1668.1 536.815 1666.61 535.328C1665.12 533.841 1665.12 531.717 1666.61 530.229C1668.1 528.955 1670.23 528.955 1671.71 530.229Z" fill="#474647"/>
<path d="M1654.07 490.076C1655.56 491.563 1655.56 493.9 1654.07 495.388C1652.58 496.875 1650.25 496.875 1648.76 495.388C1647.27 493.9 1647.27 491.563 1648.76 490.076C1650.25 488.589 1652.58 488.589 1654.07 490.076Z" fill="#474647"/>
<g opacity="0.75">
<path d="M1614.32 479.029C1615.81 477.541 1615.81 475.417 1614.32 473.93C1612.83 472.443 1610.71 472.443 1609.22 473.93C1607.73 475.417 1607.73 477.541 1609.22 479.029C1610.49 480.516 1612.83 480.516 1614.32 479.029Z" fill="#474647"/>
<path d="M1618.15 470.318C1614.53 466.706 1609 466.706 1605.39 470.318C1601.78 473.93 1601.78 479.453 1605.39 483.065C1609 486.677 1614.53 486.677 1618.15 483.065C1621.55 479.453 1621.55 473.717 1618.15 470.318ZM1617.08 482.003C1614.11 484.977 1609.43 484.977 1606.45 482.003C1603.48 479.029 1603.48 474.355 1606.45 471.38C1609.43 468.406 1614.11 468.406 1617.08 471.38C1620.06 474.142 1620.06 479.029 1617.08 482.003Z" fill="#474647"/>
<path d="M1646.42 691.054C1647.91 689.567 1647.91 687.442 1646.42 685.955C1644.94 684.468 1642.81 684.468 1641.32 685.955C1639.83 687.442 1639.83 689.567 1641.32 691.054C1642.81 692.541 1645.15 692.541 1646.42 691.054Z" fill="#474647"/>
<path d="M1650.25 682.343C1646.63 678.732 1641.11 678.732 1637.49 682.343C1633.88 685.955 1633.88 691.479 1637.49 695.09C1641.11 698.702 1646.63 698.702 1650.25 695.09C1653.86 691.479 1653.86 685.743 1650.25 682.343ZM1649.18 693.816C1646.21 696.79 1641.53 696.79 1638.56 693.816C1635.58 690.841 1635.58 686.168 1638.56 683.193C1641.53 680.219 1646.21 680.219 1649.18 683.193C1652.16 686.168 1652.16 691.054 1649.18 693.816Z" fill="#474647"/>
<path d="M1829.65 542.341C1830.71 541.279 1830.71 539.367 1829.65 538.304C1828.59 537.242 1826.68 537.242 1825.61 538.304C1824.55 539.367 1824.55 541.279 1825.61 542.341C1826.68 543.616 1828.38 543.616 1829.65 542.341Z" fill="#474647"/>
<path d="M1832.63 535.329C1829.87 532.567 1825.19 532.567 1822.43 535.329C1819.66 538.091 1819.66 542.765 1822.43 545.527C1825.19 548.289 1829.87 548.289 1832.63 545.527C1835.39 542.765 1835.39 538.091 1832.63 535.329ZM1831.78 544.677C1829.44 547.014 1825.62 547.014 1823.28 544.677C1820.94 542.34 1820.94 538.516 1823.28 536.179C1825.62 533.842 1829.44 533.842 1831.78 536.179C1834.12 538.516 1834.12 542.34 1831.78 544.677Z" fill="#474647"/>
</g>
<g opacity="0.75">
<path d="M1459.78 194.561H1459.99L1506.76 195.835L1492.09 207.732L1459.78 194.561ZM1506.55 196.048L1460.42 194.773L1492.09 207.945L1506.55 196.048Z" fill="#474647"/>
<path d="M1538.43 456.512L1683.83 428.469L1683.62 428.681L1611.77 476.482L1538.43 456.512ZM1683.41 428.681L1538.86 456.512L1611.77 476.482L1683.41 428.681Z" fill="#474647"/>
<path d="M1538.43 456.721L1628.99 265.092V265.304L1683.62 428.89L1538.43 456.721ZM1628.99 265.304L1538.64 456.509L1683.62 428.678L1628.99 265.304Z" fill="#474647"/>
<path d="M1628.99 265.092L1770.14 323.728L1683.62 428.89L1628.99 265.092ZM1769.92 323.728L1628.99 265.304L1683.41 428.678L1769.92 323.728Z" fill="#474647"/>
<path d="M1506.54 196.048L1654.5 176.078L1629.2 265.307L1506.54 196.048ZM1654.28 176.078L1506.76 196.048L1628.99 265.095L1654.28 176.078Z" fill="#474647"/>
<path d="M1463.18 197.746C1464.88 196.047 1464.88 193.285 1463.18 191.585C1461.48 189.886 1458.72 189.886 1457.02 191.585C1455.31 193.285 1455.31 196.047 1457.02 197.746C1458.72 199.446 1461.48 199.446 1463.18 197.746Z" fill="#474647"/>
<path d="M1493.36 209.43C1494.21 208.58 1494.21 207.306 1493.36 206.456C1492.51 205.606 1491.24 205.606 1490.39 206.456C1489.54 207.306 1489.54 208.58 1490.39 209.43C1491.24 210.28 1492.72 210.28 1493.36 209.43Z" fill="#474647"/>
<path d="M1508.46 197.961C1509.52 196.898 1509.52 195.199 1508.46 194.137C1507.4 193.074 1505.7 193.074 1504.63 194.137C1503.57 195.199 1503.57 196.898 1504.63 197.961C1505.7 199.023 1507.4 199.023 1508.46 197.961Z" fill="#474647"/>
<path d="M1631.97 268.069C1633.67 266.369 1633.67 263.82 1631.97 262.12C1630.26 260.421 1627.71 260.421 1626.01 262.12C1624.31 263.82 1624.31 266.369 1626.01 268.069C1627.71 269.769 1630.26 269.769 1631.97 268.069Z" fill="#474647"/>
<path d="M1657.26 179.051C1658.96 177.352 1658.96 174.802 1657.26 173.103C1655.56 171.403 1653.01 171.403 1651.31 173.103C1649.61 174.802 1649.61 177.352 1651.31 179.051C1653.01 180.539 1655.56 180.539 1657.26 179.051Z" fill="#474647"/>
<path d="M1772.26 325.217C1773.11 324.367 1773.11 322.88 1772.26 322.03C1771.41 321.18 1769.93 321.18 1769.07 322.03C1768.22 322.88 1768.22 324.367 1769.07 325.217C1769.93 326.066 1771.41 326.066 1772.26 325.217Z" fill="#474647"/>
<path d="M1687.45 432.503C1689.58 430.379 1689.58 426.98 1687.45 424.855C1685.32 422.731 1681.92 422.731 1679.8 424.855C1677.67 426.98 1677.67 430.379 1679.8 432.503C1681.92 434.628 1685.32 434.628 1687.45 432.503Z" fill="#474647"/>
<path d="M1538.64 460.548C1540.87 460.548 1542.68 458.74 1542.68 456.511C1542.68 454.282 1540.87 452.475 1538.64 452.475C1536.41 452.475 1534.6 454.282 1534.6 456.511C1534.6 458.74 1536.41 460.548 1538.64 460.548Z" fill="#474647"/>
</g>
<path d="M1595.82 641.34L1583.07 677.669L1564.15 658.336L1595.82 641.34ZM1583.07 677.669L1595.82 641.34L1564.15 658.336L1583.07 677.669Z" fill="#474647"/>
<path d="M1549.48 631.143L1564.15 658.336L1539.28 659.398L1549.48 631.143ZM1564.15 658.336L1549.48 631.143L1539.28 659.398L1564.15 658.336Z" fill="#474647"/>
<path d="M1549.48 631.143L1595.82 641.34L1564.15 658.336L1549.48 631.143ZM1595.82 641.34L1549.48 631.143L1564.15 658.336L1595.82 641.34Z" fill="#474647"/>
<path d="M1595.83 641.34L1624.1 666.196L1583.28 677.669L1595.83 641.34ZM1623.89 666.196L1595.61 641.34L1582.86 677.669L1623.89 666.196Z" fill="#474647"/>
<path d="M1623.89 666.197L1644.72 688.504L1583.07 677.457L1623.89 666.197ZM1644.72 688.717L1623.89 666.41L1583.07 677.882L1644.72 688.717Z" fill="#474647"/>
<path d="M1564.15 658.336L1583.07 677.669L1575.84 688.291L1564.15 658.336ZM1583.07 677.669L1564.15 658.336L1575.84 688.291L1583.07 677.669Z" fill="#474647"/>
<path d="M1583.07 677.67L1644.72 688.717L1575.84 688.292L1583.07 677.67ZM1644.72 688.717L1583.07 677.67L1575.84 688.292L1644.72 688.717Z" fill="#474647"/>
<path d="M1583.07 678.732C1583.71 678.732 1584.14 678.307 1584.14 677.67C1584.14 677.032 1583.71 676.607 1583.07 676.607C1582.44 676.607 1582.01 677.032 1582.01 677.67C1582.01 678.307 1582.44 678.732 1583.07 678.732Z" fill="#474647"/>
<path d="M1595.82 642.828C1596.67 642.828 1597.31 642.19 1597.31 641.341C1597.31 641.128 1597.31 640.703 1597.1 640.491L1596.89 640.278C1596.67 640.066 1596.25 639.854 1596.04 639.854C1595.61 639.854 1595.4 640.066 1595.19 640.066C1594.97 640.066 1594.97 640.278 1594.97 640.278C1594.76 640.491 1594.76 640.703 1594.76 641.128C1594.34 642.19 1594.97 642.828 1595.82 642.828Z" fill="#474647"/>
<path d="M1622.82 667.261C1623.25 667.686 1623.46 667.898 1623.88 667.898C1624.31 667.898 1624.73 667.686 1624.95 667.473C1625.16 667.261 1625.37 666.836 1625.37 666.411C1625.37 665.561 1624.73 664.924 1623.88 664.924C1623.46 664.924 1623.03 665.136 1622.82 665.349C1622.61 665.561 1622.4 665.986 1622.4 666.411C1622.61 666.623 1622.61 667.048 1622.82 667.261Z" fill="#474647"/>
<path d="M1564.15 659.824C1565 659.824 1565.64 659.187 1565.64 658.337C1565.64 657.487 1565 656.85 1564.15 656.85C1563.3 656.85 1562.66 657.487 1562.66 658.337C1562.66 659.187 1563.3 659.824 1564.15 659.824Z" fill="#474647"/>
<path d="M1539.28 661.735C1540.56 661.735 1541.83 660.673 1541.83 659.186C1541.83 657.911 1540.77 656.637 1539.28 656.637C1538.01 656.637 1536.73 657.699 1536.73 659.186C1536.73 660.673 1538.01 661.735 1539.28 661.735Z" fill="#474647"/>
<path d="M1549.49 633.693C1550.76 633.693 1552.04 632.63 1552.04 631.143C1552.04 629.868 1550.97 628.594 1549.49 628.594C1548.21 628.594 1546.94 629.656 1546.94 631.143C1546.94 632.418 1548 633.693 1549.49 633.693Z" fill="#474647"/>
<path d="M1575.84 689.566C1576.69 689.566 1577.33 688.929 1577.33 688.079C1577.33 687.229 1576.69 686.592 1575.84 686.592C1574.99 686.592 1574.35 687.229 1574.35 688.079C1574.35 688.929 1574.99 689.566 1575.84 689.566Z" fill="#474647"/>
<path d="M1644.72 689.992C1645.57 689.992 1646.21 689.354 1646.21 688.505C1646.21 687.655 1645.57 687.018 1644.72 687.018C1643.87 687.018 1643.23 687.655 1643.23 688.505C1643.23 689.354 1643.87 689.992 1644.72 689.992Z" fill="#474647"/>
<path d="M1241.46 671.723L1265.27 720.799L1226.79 720.586L1241.46 671.723ZM1265.27 721.011L1241.46 671.723L1226.79 720.586L1265.27 721.011Z" fill="#474647"/>
<path d="M1184.7 708.051L1226.79 720.585L1202.98 746.504L1184.7 708.051ZM1226.79 720.585L1184.7 708.051L1202.77 746.504L1226.79 720.585Z" fill="#474647"/>
<path d="M1184.7 708.052L1241.46 671.935L1226.79 720.586L1184.7 708.052ZM1241.46 671.723L1184.7 707.839L1226.79 720.374L1241.46 671.723Z" fill="#474647"/>
<path d="M1241.46 671.722L1294.82 668.535L1265.27 721.01L1241.46 671.722ZM1294.82 668.535L1241.46 671.722L1265.27 720.798L1294.82 668.535Z" fill="#474647"/>
<path d="M1263.78 600.977L1294.82 668.536L1241.46 671.722L1263.78 600.977ZM1294.82 668.536L1263.78 600.977L1241.46 671.722L1294.82 668.536Z" fill="#474647"/>
<path d="M1266.33 722.073C1266.97 721.436 1266.97 720.374 1266.33 719.949C1265.69 719.311 1264.63 719.311 1264.2 719.949C1263.56 720.586 1263.56 721.648 1264.2 722.073C1264.84 722.711 1265.69 722.711 1266.33 722.073Z" fill="#474647"/>
<path d="M1242.95 673.208C1243.8 672.358 1243.8 671.083 1242.95 670.446C1242.1 669.596 1240.82 669.596 1240.18 670.446C1239.33 671.296 1239.33 672.57 1240.18 673.208C1240.82 674.058 1242.1 674.058 1242.95 673.208Z" fill="#474647"/>
<path d="M1296.3 670.022C1297.15 669.172 1297.15 667.898 1296.3 667.26C1295.45 666.411 1294.17 666.411 1293.53 667.26C1292.68 668.11 1292.68 669.385 1293.53 670.022C1294.38 670.66 1295.45 670.66 1296.3 670.022Z" fill="#474647"/>
<path d="M1225.3 721.859C1226.15 722.709 1227.43 722.709 1228.07 721.859C1228.92 721.01 1228.92 719.735 1228.07 719.098C1227.22 718.46 1225.94 718.248 1225.3 719.098C1224.67 719.947 1224.67 721.222 1225.3 721.859Z" fill="#474647"/>
<path d="M1205.53 748.842C1206.81 747.567 1206.81 745.23 1205.53 743.743C1204.26 742.468 1201.92 742.468 1200.43 743.743C1199.16 745.018 1199.16 747.355 1200.43 748.842C1201.92 750.329 1204.04 750.329 1205.53 748.842Z" fill="#474647"/>
<path d="M1187.25 710.387C1188.53 709.112 1188.53 706.775 1187.25 705.288C1185.98 704.013 1183.64 704.013 1182.15 705.288C1180.87 706.563 1180.87 708.9 1182.15 710.387C1183.64 711.874 1185.98 711.874 1187.25 710.387Z" fill="#474647"/>
<path d="M1266.33 603.526C1267.6 602.251 1267.6 599.914 1266.33 598.427C1265.05 597.152 1262.71 597.152 1261.23 598.427C1259.95 599.701 1259.95 602.038 1261.23 603.526C1262.71 604.8 1265.05 604.8 1266.33 603.526Z" fill="#474647"/>
</g>
<defs>
<clipPath id="clip0_1088_90954">
<rect width="781" height="843" fill="white" transform="translate(1139 28)"/>
</clipPath>
</defs>
</svg>
