<svg width="1920" height="700" viewBox="0 0 1920 700" fill="none" xmlns="http://www.w3.org/2000/svg">
<g clip-path="url(#clip0_1676_93261)">
<rect width="1920" height="700" fill="#F5F7FB"/>
<path d="M1959 39V377.943V774H-176V681.928L1959 39Z" fill="#E7EBF2" fill-opacity="0.17"/>
<path opacity="0.33" d="M1924 376V570.143V797H720V744.262L1924 376Z" fill="#D5DCE5"/>
<path opacity="0.33" d="M2051 261V509.558V800H507V732.481L2051 261Z" fill="#EAEEF4"/>
<path opacity="0.33" d="M1924 183V457.843V779H171V704.34L1924 183Z" fill="#EAEEF4"/>
<g opacity="0.4" clip-path="url(#clip1_1676_93261)">
<g opacity="0.3">
<g opacity="0.75">
<path d="M305.107 364.969L333.482 223.385V223.627L371.072 320.845L305.107 364.969ZM333.482 224.112L305.35 364.727L371.072 321.088L333.482 224.112Z" fill="#474647"/>
<path d="M305.345 368.118C307.086 368.118 308.498 366.707 308.498 364.966C308.498 363.226 307.086 361.814 305.345 361.814C303.604 361.814 302.192 363.226 302.192 364.966C302.192 366.707 303.604 368.118 305.345 368.118Z" fill="#474647"/>
<path d="M315.294 330.785C315.294 329.087 313.839 327.633 312.141 327.633C310.443 327.633 308.988 329.087 308.988 330.785C308.988 332.482 310.443 333.936 312.141 333.936C313.839 333.936 315.294 332.482 315.294 330.785Z" fill="#474647"/>
<path d="M380.04 321.085C380.04 316.236 376.16 312.357 371.31 312.357C366.459 312.357 362.579 316.236 362.579 321.085C362.579 325.934 366.459 329.813 371.31 329.813C376.16 329.813 380.04 325.934 380.04 321.085Z" fill="#474647"/>
</g>
<g opacity="0.75">
<path d="M-118.328 580.249L117.154 483.031L139.223 708.985H138.98L-118.328 580.249ZM116.911 483.274L-118.086 580.249L138.738 708.742L116.911 483.274Z" fill="#474647"/>
<path d="M125.398 482.303C125.398 477.939 122.003 474.545 117.637 474.545C113.272 474.545 109.877 477.939 109.877 482.303C109.877 486.667 113.272 490.061 117.637 490.061C122.003 490.061 125.398 486.667 125.398 482.303Z" fill="#474647"/>
<path d="M47.7976 513.579C47.7976 511.155 45.8575 508.973 43.1898 508.973C40.7647 508.973 38.582 510.912 38.582 513.579C38.582 516.003 40.5221 518.185 43.1898 518.185C45.8575 518.185 47.7976 516.003 47.7976 513.579Z" fill="#474647"/>
<path d="M61.614 60.2177C61.614 57.5508 59.4314 55.6113 57.0062 55.6113C54.3385 55.6113 52.3984 57.7933 52.3984 60.2177C52.3984 62.8845 54.5811 64.824 57.0062 64.824C59.4314 65.0665 61.614 62.8845 61.614 60.2177Z" fill="#474647"/>
</g>
<path d="M12.623 335.874L111.812 315.994L81.0123 362.3L12.623 335.874ZM111.569 316.237L12.8656 335.874L80.7698 362.058L111.569 316.237Z" fill="#474647"/>
<path d="M118.603 481.339L118.36 481.096L12.8662 335.875H13.1087L81.2554 362.301L118.603 481.339ZM13.1087 336.117L118.36 480.611L81.0129 362.301L13.1087 336.117Z" fill="#474647"/>
<path d="M-77.3477 155.984L-11.3836 -4.75391L120.545 15.1261L-77.3477 155.984ZM-11.3836 -4.51147L-77.3477 155.741L120.302 15.3686L-11.3836 -4.51147Z" fill="#474647"/>
<path d="M121.024 22.3999C117.144 22.3999 113.749 19.2482 113.749 15.1267C113.749 11.2477 116.902 7.85352 121.024 7.85352C124.905 7.85352 128.3 11.0052 128.3 15.1267C128.3 19.2482 124.905 22.3999 121.024 22.3999Z" fill="#474647"/>
<path d="M12.8656 341.933C9.4704 341.933 6.80273 339.266 6.80273 335.872C6.80273 332.477 9.4704 329.811 12.8656 329.811C16.2608 329.811 18.9285 332.477 18.9285 335.872C18.9285 339.266 16.2608 341.933 12.8656 341.933Z" fill="#474647"/>
<path d="M111.813 318.661C110.358 318.661 109.388 317.449 109.388 316.237C109.388 314.782 110.6 313.812 111.813 313.812C113.268 313.812 114.238 315.025 114.238 316.237C114.238 317.449 113.025 318.661 111.813 318.661Z" fill="#474647"/>
<path d="M123.938 229.442C123.21 229.442 122.482 228.958 122.482 227.988C122.482 227.261 122.967 226.533 123.938 226.533C124.665 226.533 125.393 227.018 125.393 227.988C125.393 228.715 124.665 229.442 123.938 229.442Z" fill="#474647"/>
<path d="M21.599 88.0988C20.1439 88.0988 19.1738 86.8866 19.1738 85.6744C19.1738 84.2198 20.3864 83.25 21.599 83.25C23.0541 83.25 24.0241 84.4622 24.0241 85.6744C24.2666 86.8866 23.0541 88.0988 21.599 88.0988Z" fill="#474647"/>
<path d="M32.751 333.45C32.0234 333.45 31.2959 332.723 31.2959 331.996C31.2959 331.268 32.0234 330.541 32.751 330.541C33.4785 330.541 34.2061 331.268 34.2061 331.996C33.9636 332.723 33.4785 333.45 32.751 333.45Z" fill="#474647"/>
<path d="M22.8037 340.966C22.0762 340.966 21.3486 340.239 21.3486 339.511C21.3486 338.784 22.0762 338.057 22.8037 338.057C23.5313 338.057 24.2588 338.784 24.2588 339.511C24.2588 340.239 23.5313 340.966 22.8037 340.966Z" fill="#474647"/>
<path d="M81.0131 368.602C77.6179 368.602 74.9502 365.936 74.9502 362.541C74.9502 359.147 77.6179 356.48 81.0131 356.48C84.4083 356.48 87.0759 359.147 87.0759 362.541C87.0759 365.693 84.4083 368.602 81.0131 368.602Z" fill="#474647"/>
</g>
<g opacity="0.75">
<path d="M169.051 374.907C168.081 375.877 168.081 377.331 169.051 378.301C170.021 379.271 171.476 379.271 172.446 378.301C173.416 377.331 173.416 375.877 172.446 374.907C171.476 373.937 170.021 373.937 169.051 374.907Z" fill="#474647"/>
</g>
<path d="M337.838 219.75C340.02 221.932 340.02 225.811 337.838 227.993C335.655 230.175 331.775 230.175 329.592 227.993C327.409 225.811 327.409 221.932 329.592 219.75C331.775 217.326 335.412 217.326 337.838 219.75Z" fill="#474647"/>
<path d="M332.99 629.713C330.565 627.288 326.928 627.288 324.502 629.713C322.077 632.137 322.077 635.774 324.502 638.198C326.928 640.623 330.565 640.623 332.99 638.198C335.173 635.774 335.173 632.137 332.99 629.713Z" fill="#474647"/>
<path d="M285.456 687.167C288.805 687.167 291.519 684.453 291.519 681.106C291.519 677.759 288.805 675.045 285.456 675.045C282.108 675.045 279.394 677.759 279.394 681.106C279.394 684.453 282.108 687.167 285.456 687.167Z" fill="#474647"/>
<path d="M172.932 591.404C170.507 588.98 166.869 588.98 164.444 591.404C162.019 593.829 162.019 597.465 164.444 599.89C166.869 602.314 170.507 602.314 172.932 599.89C175.115 597.708 175.115 593.829 172.932 591.404Z" fill="#474647"/>
<path d="M317.955 475.277C315.53 472.853 311.892 472.853 309.467 475.277C307.042 477.702 307.042 481.338 309.467 483.763C311.892 486.187 315.53 486.187 317.955 483.763C320.138 481.338 320.138 477.459 317.955 475.277Z" fill="#474647"/>
<path d="M292.251 408.603C289.826 406.179 286.188 406.179 283.763 408.603C281.338 411.028 281.338 414.664 283.763 417.089C286.188 419.513 289.826 419.513 292.251 417.089C294.434 414.664 294.434 410.785 292.251 408.603Z" fill="#474647"/>
<path d="M174.387 373.937C172.932 372.482 170.992 372.482 169.537 373.937C168.082 375.391 168.082 377.331 169.537 378.785C170.992 380.24 172.932 380.24 174.387 378.785C175.6 377.331 175.6 375.149 174.387 373.937Z" fill="#474647"/>
<path d="M248.844 384.847C252.193 384.847 254.907 382.133 254.907 378.786C254.907 375.438 252.193 372.725 248.844 372.725C245.496 372.725 242.781 375.438 242.781 378.786C242.781 382.133 245.496 384.847 248.844 384.847Z" fill="#474647"/>
<path d="M287.88 412.729L313.83 479.4H313.587L171.716 376.121H171.958L287.88 412.729ZM313.587 479.158L287.88 412.729L172.201 376.364L313.587 479.158Z" fill="#474647"/>
<path d="M288.122 412.97H287.88L171.473 376.361H171.958L247.137 378.543L288.122 412.97ZM172.2 376.361L287.395 412.727L246.895 378.543L172.2 376.361Z" fill="#474647"/>
<path d="M313.586 479.398L328.622 634.075L167.592 595.527L313.586 479.398ZM328.622 633.832L313.586 479.398L167.834 595.042L328.622 633.832Z" fill="#474647"/>
<path d="M328.621 633.835L285.696 681.111L167.349 595.045H167.591L328.621 633.835ZM285.696 681.111L328.621 634.078L168.076 595.53L285.696 681.111Z" fill="#474647"/>
<g opacity="0.75">
<path d="M35.415 82.7669C36.6276 81.5548 36.6276 79.6152 35.415 78.6455C34.2024 77.4333 32.2623 77.4333 31.2922 78.6455C30.0797 79.8577 30.0797 81.7972 31.2922 82.7669C32.2623 83.9791 34.2024 83.9791 35.415 82.7669Z" fill="#474647"/>
</g>
<path d="M-24.2432 42.2793L92.164 64.5837H91.9215L33.4754 80.5847L-24.2432 42.2793ZM91.679 64.5837L-24.0006 42.2793L33.2329 80.3423L91.679 64.5837Z" fill="#474647"/>
<path d="M89.0151 67.2508C87.5601 65.7962 87.5601 63.3718 89.0151 61.9171C90.4702 60.4625 92.8954 60.4625 94.3505 61.9171C95.8056 63.3718 95.8056 65.7962 94.3505 67.2508C92.8954 68.9479 90.7128 68.9479 89.0151 67.2508Z" fill="#474647"/>
<g opacity="0.3">
<g opacity="0.75">
<path d="M113.509 97.0713L113.751 96.8289L170.257 43.4922V43.7346L167.105 75.0093L113.509 97.0713ZM170.257 43.7346L114.236 96.5864L167.105 74.7669L170.257 43.7346Z" fill="#474647"/>
<path d="M121.028 96.8298C121.028 92.7084 117.876 89.5566 113.753 89.5566C109.63 89.5566 106.478 92.7084 106.478 96.8298C106.478 100.951 109.63 104.103 113.753 104.103C117.876 104.103 121.028 100.951 121.028 96.8298Z" fill="#474647"/>
<path d="M170.504 75.0094C170.504 73.0699 169.049 71.6152 167.109 71.6152C165.169 71.6152 163.714 73.0699 163.714 75.0094C163.714 76.9489 165.169 78.4035 167.109 78.4035C169.049 78.4035 170.504 76.9489 170.504 75.0094Z" fill="#474647"/>
<path d="M174.869 43.7353C174.869 41.3109 172.929 39.1289 170.261 39.1289C167.836 39.1289 165.653 41.0684 165.653 43.7353C165.653 46.1596 167.593 48.3416 170.261 48.3416C172.929 48.0992 174.869 46.1596 174.869 43.7353Z" fill="#474647"/>
</g>
<g opacity="0.75">
<path d="M-124.636 726.201L-80.7406 581.707V581.949L0.744492 748.263H0.501961L-124.636 726.201ZM-80.7406 582.192L-124.636 726.201L0.501961 748.021L-80.7406 582.192Z" fill="#474647"/>
<path d="M351.173 539.764C351.173 538.31 349.961 537.098 348.506 537.098C347.05 537.098 345.838 538.31 345.838 539.764C345.838 541.219 347.05 542.431 348.506 542.431C349.961 542.431 351.173 541.219 351.173 539.764Z" fill="#474647"/>
</g>
<path d="M130.001 256.355C129.516 256.355 129.273 256.113 129.273 255.628C129.273 255.143 129.516 254.9 130.001 254.9C130.486 254.9 130.729 255.143 130.729 255.628C130.729 256.113 130.486 256.355 130.001 256.355Z" fill="#474647"/>
</g>
<g opacity="0.75">
<path d="M449.395 382.666H449.152L395.799 381.212L412.532 367.635L449.395 382.666ZM396.284 380.969L448.91 382.424L412.775 367.393L396.284 380.969Z" fill="#474647"/>
<path d="M445.762 379.031C443.822 380.97 443.822 384.122 445.762 386.062C447.702 388.001 450.855 388.001 452.795 386.062C454.735 384.122 454.735 380.97 452.795 379.031C450.612 377.091 447.702 377.091 445.762 379.031Z" fill="#474647"/>
<path d="M411.083 365.696C410.113 366.666 410.113 368.12 411.083 369.09C412.053 370.06 413.508 370.06 414.478 369.09C415.448 368.12 415.448 366.666 414.478 365.696C413.508 364.726 412.053 364.726 411.083 365.696Z" fill="#474647"/>
<path d="M393.863 378.79C392.65 380.002 392.65 381.942 393.863 383.154C395.075 384.366 397.015 384.366 398.228 383.154C399.44 381.942 399.44 380.002 398.228 378.79C397.015 377.578 395.075 377.578 393.863 378.79Z" fill="#474647"/>
</g>
<path d="M186.997 409.578L167.839 531.283L147.71 485.462L186.997 409.578ZM167.839 531.04L186.997 410.063L147.71 485.462L167.839 531.04Z" fill="#474647"/>
<path d="M170.744 528.132C172.442 529.829 172.442 532.253 170.744 533.951C169.046 535.648 166.621 535.648 164.924 533.951C163.226 532.253 163.226 529.829 164.924 528.132C166.621 526.677 169.046 526.677 170.744 528.132Z" fill="#474647"/>
<path d="M150.617 482.308C152.315 484.005 152.315 486.672 150.617 488.369C148.92 490.066 146.252 490.066 144.554 488.369C142.857 486.672 142.857 484.005 144.554 482.308C146.252 480.611 148.92 480.611 150.617 482.308Z" fill="#474647"/>
<g opacity="0.75">
<path d="M105.269 469.701C106.967 468.004 106.967 465.579 105.269 463.882C103.572 462.185 101.147 462.185 99.449 463.882C97.7514 465.579 97.7514 468.004 99.449 469.701C100.904 471.398 103.572 471.398 105.269 469.701Z" fill="#474647"/>
<path d="M109.633 459.761C105.51 455.64 99.2051 455.64 95.0823 459.761C90.9595 463.882 90.9595 470.186 95.0823 474.307C99.2051 478.429 105.51 478.429 109.633 474.307C113.513 470.186 113.513 463.64 109.633 459.761ZM108.421 473.095C105.025 476.489 99.6901 476.489 96.2949 473.095C92.8997 469.701 92.8997 464.367 96.2949 460.973C99.6901 457.579 105.025 457.579 108.421 460.973C111.816 464.125 111.816 469.701 108.421 473.095Z" fill="#474647"/>
<path d="M146.256 701.716C142.133 697.595 135.828 697.595 131.705 701.716C127.583 705.838 127.583 712.141 131.705 716.262C135.828 720.384 142.133 720.384 146.256 716.262C150.379 712.141 150.379 705.595 146.256 701.716ZM145.044 714.808C141.648 718.202 136.313 718.202 132.918 714.808C129.523 711.414 129.523 706.08 132.918 702.686C136.313 699.292 141.648 699.292 145.044 702.686C148.439 706.08 148.439 711.656 145.044 714.808Z" fill="#474647"/>
<path d="M350.93 541.951C352.143 540.739 352.143 538.557 350.93 537.345C349.718 536.132 347.535 536.132 346.323 537.345C345.11 538.557 345.11 540.739 346.323 541.951C347.535 543.406 349.475 543.406 350.93 541.951Z" fill="#474647"/>
<path d="M354.327 533.95C351.175 530.798 345.839 530.798 342.687 533.95C339.534 537.101 339.534 542.435 342.687 545.587C345.839 548.739 351.175 548.739 354.327 545.587C357.48 542.435 357.48 537.101 354.327 533.95ZM353.357 544.617C350.69 547.284 346.324 547.284 343.657 544.617C340.989 541.95 340.989 537.586 343.657 534.919C346.324 532.253 350.69 532.253 353.357 534.919C356.025 537.586 356.025 541.95 353.357 544.617Z" fill="#474647"/>
</g>
<g opacity="0.75">
<path d="M18.6904 444.006L184.571 412.004L184.328 412.246L102.358 466.795L18.6904 444.006ZM184.086 412.246L19.1755 444.006L102.358 466.795L184.086 412.246Z" fill="#474647"/>
<path d="M18.6904 444.245L122.002 225.564V225.807L184.328 412.485L18.6904 444.245ZM122.002 225.807L18.933 444.002L184.328 412.243L122.002 225.807Z" fill="#474647"/>
<path d="M121.999 225.564L283.029 292.478L184.325 412.485L121.999 225.564ZM282.786 292.478L121.999 225.807L184.083 412.243L282.786 292.478Z" fill="#474647"/>
<path d="M-17.6904 146.774L151.1 123.984L122.241 225.809L-17.6904 146.774ZM150.857 123.984L-17.4479 146.774L121.998 225.567L150.857 123.984Z" fill="#474647"/>
<path d="M125.399 228.96C127.339 227.02 127.339 224.111 125.399 222.171C123.459 220.232 120.549 220.232 118.608 222.171C116.668 224.111 116.668 227.02 118.608 228.96C120.549 230.899 123.459 230.899 125.399 228.96Z" fill="#474647"/>
<path d="M154.262 127.378C156.202 125.438 156.202 122.529 154.262 120.589C152.322 118.65 149.412 118.65 147.472 120.589C145.532 122.529 145.532 125.438 147.472 127.378C149.412 129.075 152.322 129.075 154.262 127.378Z" fill="#474647"/>
<path d="M285.458 294.176C286.428 293.207 286.428 291.51 285.458 290.54C284.488 289.57 282.79 289.57 281.82 290.54C280.85 291.51 280.85 293.207 281.82 294.176C282.79 295.146 284.488 295.146 285.458 294.176Z" fill="#474647"/>
<path d="M188.698 416.609C191.123 414.184 191.123 410.305 188.698 407.881C186.273 405.456 182.392 405.456 179.967 407.881C177.542 410.305 177.542 414.184 179.967 416.609C182.392 419.033 186.273 419.033 188.698 416.609Z" fill="#474647"/>
<path d="M18.931 448.611C21.4758 448.611 23.5388 446.549 23.5388 444.005C23.5388 441.461 21.4758 439.398 18.931 439.398C16.3862 439.398 14.3232 441.461 14.3232 444.005C14.3232 446.549 16.3862 448.611 18.931 448.611Z" fill="#474647"/>
</g>
<path d="M84.163 654.922L69.6121 696.379L48.0283 674.317L84.163 654.922ZM69.6121 696.379L84.163 654.922L48.0283 674.317L69.6121 696.379Z" fill="#474647"/>
<path d="M31.296 643.287L48.0295 674.319L19.6553 675.532L31.296 643.287ZM48.0295 674.319L31.296 643.287L19.6553 675.532L48.0295 674.319Z" fill="#474647"/>
<path d="M31.2969 643.287L84.1651 654.924L48.0304 674.319L31.2969 643.287ZM84.1651 654.924L31.2969 643.287L48.0304 674.319L84.1651 654.924Z" fill="#474647"/>
<path d="M84.1674 654.922L116.422 683.287L69.859 696.379L84.1674 654.922ZM116.179 683.287L83.9249 654.922L69.374 696.379L116.179 683.287Z" fill="#474647"/>
<path d="M116.18 683.289L139.947 708.745L69.6172 696.138L116.18 683.289ZM139.947 708.988L116.18 683.532L69.6172 696.623L139.947 708.988Z" fill="#474647"/>
<path d="M48.0283 674.32L69.6121 696.382L61.3666 708.504L48.0283 674.32ZM69.6121 696.382L48.0283 674.32L61.3666 708.504L69.6121 696.382Z" fill="#474647"/>
<path d="M69.6146 696.381L139.944 708.988L61.3691 708.503L69.6146 696.381ZM139.944 708.988L69.6146 696.381L61.3691 708.503L139.944 708.988Z" fill="#474647"/>
<path d="M69.6208 697.594C70.3483 697.594 70.8334 697.109 70.8334 696.382C70.8334 695.655 70.3483 695.17 69.6208 695.17C68.8932 695.17 68.4082 695.655 68.4082 696.382C68.4082 697.109 68.8932 697.594 69.6208 697.594Z" fill="#474647"/>
<path d="M84.1677 656.623C85.1378 656.623 85.8654 655.895 85.8654 654.926C85.8654 654.683 85.8654 654.198 85.6228 653.956L85.3803 653.713C85.1378 653.471 84.6528 653.229 84.4103 653.229C83.9252 653.229 83.6827 653.471 83.4402 653.471C83.1977 653.471 83.1977 653.713 83.1977 653.713C82.9552 653.956 82.9552 654.198 82.9552 654.683C82.4701 655.895 83.1977 656.623 84.1677 656.623Z" fill="#474647"/>
<path d="M114.967 684.503C115.452 684.988 115.694 685.23 116.179 685.23C116.664 685.23 117.149 684.988 117.392 684.745C117.634 684.503 117.877 684.018 117.877 683.533C117.877 682.563 117.149 681.836 116.179 681.836C115.694 681.836 115.209 682.078 114.967 682.321C114.724 682.563 114.481 683.048 114.481 683.533C114.724 683.775 114.724 684.26 114.967 684.503Z" fill="#474647"/>
<path d="M48.0316 676.017C49.0016 676.017 49.7292 675.29 49.7292 674.32C49.7292 673.35 49.0016 672.623 48.0316 672.623C47.0615 672.623 46.334 673.35 46.334 674.32C46.334 675.29 47.0615 676.017 48.0316 676.017Z" fill="#474647"/>
<path d="M19.6602 678.201C21.1153 678.201 22.5703 676.989 22.5703 675.292C22.5703 673.837 21.3578 672.383 19.6602 672.383C18.2051 672.383 16.75 673.595 16.75 675.292C16.75 676.989 18.2051 678.201 19.6602 678.201Z" fill="#474647"/>
<path d="M31.3018 646.197C32.7569 646.197 34.212 644.985 34.212 643.288C34.212 641.833 32.9994 640.379 31.3018 640.379C29.8467 640.379 28.3916 641.591 28.3916 643.288C28.3916 644.743 29.6042 646.197 31.3018 646.197Z" fill="#474647"/>
</g>
<circle cx="1988" cy="901" r="465" fill="#F4C522"/>
</g>
<defs>
<clipPath id="clip0_1676_93261">
<rect width="1920" height="700" fill="white"/>
</clipPath>
<clipPath id="clip1_1676_93261">
<rect width="891" height="962" fill="white" transform="translate(-437 -45)"/>
</clipPath>
</defs>
</svg>
