<svg width="26" height="26" viewBox="0 0 26 26" fill="none" xmlns="http://www.w3.org/2000/svg">
<circle cx="13" cy="13" r="13" fill="#F4C522"/>
<g clip-path="url(#clip0_785_81964)">
<path d="M17.0277 10.3926L11.8141 15.6061L9.44434 13.2363" stroke="#474647" stroke-width="2" stroke-linecap="round" stroke-linejoin="round"/>
</g>
<defs>
<clipPath id="clip0_785_81964">
<rect width="11.375" height="11.375" fill="white" transform="translate(7.54883 7.54883)"/>
</clipPath>
</defs>
</svg>
