<svg width="15" height="15" viewBox="0 0 15 15" fill="none" xmlns="http://www.w3.org/2000/svg">
<g clip-path="url(#clip0_783_81967)">
<path d="M13.75 1.25L6.875 8.125" stroke="white" stroke-width="1.5" stroke-linecap="round" stroke-linejoin="round"/>
<path d="M13.75 1.25L9.375 13.75L6.875 8.125L1.25 5.625L13.75 1.25Z" stroke="white" stroke-width="1.5" stroke-linecap="round" stroke-linejoin="round"/>
</g>
<defs>
<clipPath id="clip0_783_81967">
<rect width="15" height="15" fill="white"/>
</clipPath>
</defs>
</svg>
