<svg width="20" height="20" viewBox="0 0 20 20" fill="none" xmlns="http://www.w3.org/2000/svg">
<mask id="mask0_783_81964" style="mask-type:alpha" maskUnits="userSpaceOnUse" x="0" y="0" width="20" height="20">
<rect width="20" height="20" fill="#D9D9D9"/>
</mask>
<g mask="url(#mask0_783_81964)">
<path d="M10 11.4818C10.4028 11.4818 10.7467 11.3393 11.0317 11.0543C11.3161 10.7698 11.4583 10.4262 11.4583 10.0234C11.4583 9.62066 11.3161 9.27677 11.0317 8.99177C10.7467 8.70733 10.4028 8.5651 10 8.5651C9.59722 8.5651 9.25333 8.70733 8.96833 8.99177C8.68389 9.27677 8.54167 9.62066 8.54167 10.0234C8.54167 10.4262 8.68389 10.7698 8.96833 11.0543C9.25333 11.3393 9.59722 11.4818 10 11.4818ZM6.875 14.5443H13.125V14.2526C13.125 13.9609 13.0453 13.7007 12.8858 13.4718C12.7258 13.2423 12.5069 13.0651 12.2292 12.9401C11.8819 12.7873 11.5244 12.6693 11.1567 12.5859C10.7883 12.5026 10.4028 12.4609 10 12.4609C9.59722 12.4609 9.21194 12.5026 8.84417 12.5859C8.47583 12.6693 8.11806 12.7873 7.77083 12.9401C7.49306 13.0651 7.27444 13.2423 7.115 13.4718C6.955 13.7007 6.875 13.9609 6.875 14.2526V14.5443ZM14.75 17.9193H5.25C4.83333 17.9193 4.47917 17.7734 4.1875 17.4818C3.89583 17.1901 3.75 16.8359 3.75 16.4193V3.58594C3.75 3.16927 3.89583 2.8151 4.1875 2.52344C4.47917 2.23177 4.83333 2.08594 5.25 2.08594H11.5L16.25 6.83594V16.4193C16.25 16.8359 16.1042 17.1901 15.8125 17.4818C15.5208 17.7734 15.1667 17.9193 14.75 17.9193ZM14.75 16.6693C14.8056 16.6693 14.8611 16.6415 14.9167 16.5859C14.9722 16.5304 15 16.4748 15 16.4193V7.37761L10.9583 3.33594H5.25C5.19444 3.33594 5.13889 3.36372 5.08333 3.41927C5.02778 3.47483 5 3.53038 5 3.58594V16.4193C5 16.4748 5.02778 16.5304 5.08333 16.5859C5.13889 16.6415 5.19444 16.6693 5.25 16.6693H14.75Z" fill="white"/>
</g>
</svg>
