<svg width="84" height="84" viewBox="0 0 84 84" fill="none" xmlns="http://www.w3.org/2000/svg">
<path d="M73.29 49.14C75.8039 47.2248 77.8415 44.7549 79.2439 41.9227C80.6463 39.0906 81.3756 35.9728 81.375 32.8125C81.3754 27.8203 79.4768 23.0148 76.0645 19.3709C72.6521 15.727 67.9815 13.5175 63 13.1906V6.5625C62.9969 5.51917 62.581 4.51946 61.8433 3.78171C61.1055 3.04396 60.1058 2.62812 59.0625 2.625H6.5625C5.51917 2.62812 4.51946 3.04396 3.78171 3.78171C3.04396 4.51946 2.62812 5.51917 2.625 6.5625V77.4375C2.62812 78.4808 3.04396 79.4805 3.78171 80.2183C4.51946 80.956 5.51917 81.3719 6.5625 81.375H59.0625C60.1058 81.3719 61.1055 80.956 61.8433 80.2183C62.581 79.4805 62.9969 78.4808 63 77.4375V70.77C64.9982 70.4788 66.8453 69.5385 68.2565 68.0941C69.6677 66.6497 70.5647 64.7813 70.8094 62.7769C71.5867 62.521 72.2643 62.028 72.747 61.3672C73.2297 60.7064 73.4931 59.9109 73.5004 59.0926C73.5076 58.2743 73.2583 57.4743 72.7874 56.805C72.3165 56.1357 71.6477 55.6308 70.875 55.3613V54.2194C70.8614 53.2443 71.0721 52.2791 71.4908 51.3984C71.9096 50.5177 72.5251 49.745 73.29 49.14ZM60.375 77.4375C60.375 77.7856 60.2367 78.1194 59.9906 78.3656C59.7444 78.6117 59.4106 78.75 59.0625 78.75H6.5625C6.2144 78.75 5.88056 78.6117 5.63442 78.3656C5.38828 78.1194 5.25 77.7856 5.25 77.4375V6.5625C5.25 6.2144 5.38828 5.88056 5.63442 5.63442C5.88056 5.38828 6.2144 5.25 6.5625 5.25H59.0625C59.4106 5.25 59.7444 5.38828 59.9906 5.63442C60.2367 5.88056 60.375 6.2144 60.375 6.5625V13.1775C59.7581 13.2169 59.1281 13.2825 58.5113 13.3744C55.2092 13.901 52.0969 15.2643 49.4709 17.3343C46.8449 19.4044 44.7926 22.1122 43.5094 25.2C41.8173 29.3402 41.5367 33.9227 42.7111 38.2384C43.8856 42.5541 46.4495 46.3625 50.0062 49.0744C50.7877 49.6842 51.4188 50.4651 51.8511 51.357C52.2835 52.249 52.5054 53.2282 52.5 54.2194V55.3613C51.7273 55.6308 51.0585 56.1357 50.5876 56.805C50.1167 57.4743 49.8674 58.2743 49.8746 59.0926C49.8819 59.9109 50.1453 60.7064 50.628 61.3672C51.1107 62.028 51.7883 62.521 52.5656 62.7769C52.8103 64.7813 53.7073 66.6497 55.1185 68.0941C56.5297 69.5385 58.3768 70.4788 60.375 70.77V77.4375ZM61.6875 68.25C60.1752 68.2481 58.7099 67.7249 57.5384 66.7686C56.3669 65.8122 55.5609 64.4813 55.2562 63H68.1188C67.8141 64.4813 67.0081 65.8122 65.8366 66.7686C64.6651 67.7249 63.1998 68.2481 61.6875 68.25ZM69.5625 60.375H53.8125C53.4644 60.375 53.1306 60.2367 52.8844 59.9906C52.6383 59.7444 52.5 59.4106 52.5 59.0625C52.5 58.7144 52.6383 58.3806 52.8844 58.1344C53.1306 57.8883 53.4644 57.75 53.8125 57.75H69.5625C69.9106 57.75 70.2444 57.8883 70.4906 58.1344C70.7367 58.3806 70.875 58.7144 70.875 59.0625C70.875 59.4106 70.7367 59.7444 70.4906 59.9906C70.2444 60.2367 69.9106 60.375 69.5625 60.375ZM68.25 54.2194V55.125H55.125V54.2194C55.1286 52.8242 54.8123 51.4468 54.2002 50.1931C53.5881 48.9394 52.6967 47.8427 51.5944 46.9875C48.5296 44.6003 46.3216 41.2836 45.3016 37.5351C44.2816 33.7866 44.5048 29.8084 45.9375 26.1975C47.0452 23.5248 48.8205 21.1812 51.0932 19.391C53.366 17.6008 56.0603 16.4239 58.9181 15.9731C61.3601 15.5746 63.8595 15.7114 66.2434 16.374C68.6272 17.0366 70.8387 18.2092 72.7248 19.8107C74.6108 21.4122 76.1265 23.4043 77.1668 25.6492C78.2071 27.8941 78.7473 30.3382 78.75 32.8125C78.7344 35.5625 78.0928 38.2728 76.8739 40.7379C75.655 43.203 73.8908 45.3582 71.715 47.04C70.6238 47.8893 69.7435 48.979 69.1425 50.2243C68.5415 51.4695 68.236 52.8367 68.25 54.2194Z" fill="#474647"/>
<path d="M61.6873 26.25C62.7316 26.25 63.7331 26.6648 64.4715 27.4033C65.2099 28.1417 65.6248 29.1432 65.6248 30.1875C65.6248 30.5356 65.7631 30.8694 66.0092 31.1156C66.2553 31.3617 66.5892 31.5 66.9373 31.5C67.2854 31.5 67.6192 31.3617 67.8654 31.1156C68.1115 30.8694 68.2498 30.5356 68.2498 30.1875C68.2479 28.6752 67.7247 27.2099 66.7683 26.0384C65.812 24.8669 64.481 24.0609 62.9998 23.7563V22.3125C62.9998 21.9644 62.8615 21.6306 62.6154 21.3844C62.3692 21.1383 62.0354 21 61.6873 21C61.3392 21 61.0053 21.1383 60.7592 21.3844C60.5131 21.6306 60.3748 21.9644 60.3748 22.3125V23.7563C58.7799 24.0801 57.3622 24.985 56.397 26.2953C55.4318 27.6056 54.9878 29.2278 55.1514 30.847C55.315 32.4662 56.0743 33.9669 57.2821 35.0577C58.4898 36.1485 60.0598 36.7516 61.6873 36.75C62.466 36.75 63.2273 36.9809 63.8748 37.4136C64.5223 37.8462 65.027 38.4612 65.325 39.1807C65.6231 39.9002 65.701 40.6919 65.5491 41.4557C65.3972 42.2195 65.0222 42.9211 64.4715 43.4717C63.9208 44.0224 63.2192 44.3974 62.4554 44.5493C61.6916 44.7013 60.8999 44.6233 60.1805 44.3253C59.461 44.0273 58.846 43.5226 58.4134 42.8751C57.9807 42.2275 57.7498 41.4663 57.7498 40.6875C57.7498 40.3394 57.6115 40.0056 57.3654 39.7594C57.1192 39.5133 56.7854 39.375 56.4373 39.375C56.0892 39.375 55.7553 39.5133 55.5092 39.7594C55.2631 40.0056 55.1248 40.3394 55.1248 40.6875C55.1267 42.1998 55.6499 43.6651 56.6062 44.8366C57.5625 46.0081 58.8935 46.8141 60.3748 47.1188V48.5625C60.3748 48.9106 60.5131 49.2444 60.7592 49.4906C61.0053 49.7367 61.3392 49.875 61.6873 49.875C62.0354 49.875 62.3692 49.7367 62.6154 49.4906C62.8615 49.2444 62.9998 48.9106 62.9998 48.5625V47.1188C64.5947 46.7949 66.0123 45.89 66.9775 44.5797C67.9428 43.2694 68.3867 41.6472 68.2231 40.028C68.0596 38.4088 67.3002 36.9081 66.0925 35.8173C64.8847 34.7265 63.3147 34.1234 61.6873 34.125C60.643 34.125 59.6415 33.7102 58.903 32.9717C58.1646 32.2333 57.7498 31.2318 57.7498 30.1875C57.7498 29.1432 58.1646 28.1417 58.903 27.4033C59.6415 26.6648 60.643 26.25 61.6873 26.25Z" fill="#F4C522"/>
<path d="M46.9871 55.6503L39.1121 45.1503C38.9839 44.9963 38.8233 44.8724 38.6419 44.7873C38.4604 44.7023 38.2625 44.6582 38.0621 44.6582C37.8617 44.6582 37.6637 44.7023 37.4823 44.7873C37.3008 44.8724 37.1403 44.9963 37.0121 45.1503L29.1371 55.6503C28.991 55.8462 28.9026 56.079 28.8817 56.3225C28.8609 56.566 28.9084 56.8105 29.019 57.0284C29.1252 57.2471 29.2914 57.4311 29.4982 57.5589C29.7051 57.6867 29.944 57.7531 30.1871 57.7503H32.8121V72.1878C32.8121 72.5359 32.9504 72.8697 33.1965 73.1158C33.4426 73.362 33.7765 73.5003 34.1246 73.5003H41.9996C42.1719 73.5003 42.3426 73.4663 42.5019 73.4004C42.6611 73.3344 42.8058 73.2377 42.9277 73.1158C43.0495 72.994 43.1462 72.8493 43.2122 72.69C43.2781 72.5308 43.3121 72.3601 43.3121 72.1878V57.7503H45.9371C46.1802 57.7531 46.4191 57.6867 46.6259 57.5589C46.8327 57.4311 46.999 57.2471 47.1052 57.0284C47.2158 56.8105 47.2633 56.566 47.2424 56.3225C47.2215 56.079 47.1331 55.8462 46.9871 55.6503ZM41.9996 55.1253C41.6515 55.1253 41.3176 55.2635 41.0715 55.5097C40.8254 55.7558 40.6871 56.0897 40.6871 56.4378V70.8753H35.4371V56.4378C35.4371 56.0897 35.2988 55.7558 35.0527 55.5097C34.8065 55.2635 34.4727 55.1253 34.1246 55.1253H32.8121L38.0621 48.1296L43.3121 55.1253H41.9996Z" fill="#474647"/>
<path d="M17.0625 60.375H11.8125C11.4644 60.375 11.1306 60.5133 10.8844 60.7594C10.6383 61.0056 10.5 61.3394 10.5 61.6875V72.1875C10.5 72.5356 10.6383 72.8694 10.8844 73.1156C11.1306 73.3617 11.4644 73.5 11.8125 73.5H17.0625C17.4106 73.5 17.7444 73.3617 17.9906 73.1156C18.2367 72.8694 18.375 72.5356 18.375 72.1875V61.6875C18.375 61.3394 18.2367 61.0056 17.9906 60.7594C17.7444 60.5133 17.4106 60.375 17.0625 60.375ZM15.75 70.875H13.125V63H15.75V70.875Z" fill="#F4C522"/>
<path d="M27.5625 60.375H22.3125C21.9644 60.375 21.6306 60.5133 21.3844 60.7594C21.1383 61.0056 21 61.3394 21 61.6875V72.1875C21 72.5356 21.1383 72.8694 21.3844 73.1156C21.6306 73.3617 21.9644 73.5 22.3125 73.5H27.5625C27.9106 73.5 28.2444 73.3617 28.4906 73.1156C28.7367 72.8694 28.875 72.5356 28.875 72.1875V61.6875C28.875 61.3394 28.7367 61.0056 28.4906 60.7594C28.2444 60.5133 27.9106 60.375 27.5625 60.375ZM26.25 70.875H23.625V63H26.25V70.875Z" fill="#F4C522"/>
<path d="M22.3125 26.25C21.9644 26.25 21.6306 26.1117 21.3844 25.8656C21.1383 25.6194 21 25.2856 21 24.9375C21 24.5894 20.8617 24.2556 20.6156 24.0094C20.3694 23.7633 20.0356 23.625 19.6875 23.625C19.3394 23.625 19.0056 23.7633 18.7594 24.0094C18.5133 24.2556 18.375 24.5894 18.375 24.9375C18.3784 25.749 18.6324 26.5396 19.1022 27.2012C19.5721 27.8628 20.2349 28.363 21 28.6335V30.1875C21 30.5356 21.1383 30.8694 21.3844 31.1156C21.6306 31.3617 21.9644 31.5 22.3125 31.5C22.6606 31.5 22.9944 31.3617 23.2406 31.1156C23.4867 30.8694 23.625 30.5356 23.625 30.1875V28.6335C24.5 28.3253 25.2377 27.7174 25.7075 26.9174C26.1772 26.1174 26.3486 25.1769 26.1914 24.2626C26.0342 23.3483 25.5585 22.5192 24.8486 21.922C24.1386 21.3249 23.2402 20.9982 22.3125 21C22.0529 21 21.7992 20.923 21.5833 20.7788C21.3675 20.6346 21.1992 20.4296 21.0999 20.1898C21.0006 19.9499 20.9746 19.686 21.0252 19.4314C21.0759 19.1768 21.2009 18.943 21.3844 18.7594C21.568 18.5759 21.8018 18.4509 22.0564 18.4002C22.311 18.3496 22.5749 18.3756 22.8148 18.4749C23.0546 18.5742 23.2596 18.7425 23.4038 18.9583C23.548 19.1742 23.625 19.4279 23.625 19.6875C23.625 20.0356 23.7633 20.3694 24.0094 20.6156C24.2556 20.8617 24.5894 21 24.9375 21C25.2856 21 25.6194 20.8617 25.8656 20.6156C26.1117 20.3694 26.25 20.0356 26.25 19.6875C26.2466 18.876 25.9926 18.0854 25.5228 17.4238C25.0529 16.7622 24.3901 16.262 23.625 15.9915V14.4375C23.625 14.0894 23.4867 13.7556 23.2406 13.5094C22.9944 13.2633 22.6606 13.125 22.3125 13.125C21.9644 13.125 21.6306 13.2633 21.3844 13.5094C21.1383 13.7556 21 14.0894 21 14.4375V15.9915C20.125 16.2997 19.3873 16.9076 18.9175 17.7076C18.4478 18.5076 18.2764 19.4481 18.4336 20.3624C18.5908 21.2767 19.0665 22.1058 19.7764 22.703C20.4864 23.3001 21.3848 23.6268 22.3125 23.625C22.6606 23.625 22.9944 23.7633 23.2406 24.0094C23.4867 24.2556 23.625 24.5894 23.625 24.9375C23.625 25.2856 23.4867 25.6194 23.2406 25.8656C22.9944 26.1117 22.6606 26.25 22.3125 26.25Z" fill="#474647"/>
<path d="M22.3125 7.875C19.457 7.875 16.6657 8.72174 14.2915 10.3082C11.9172 11.8946 10.0667 14.1494 8.974 16.7875C7.88126 19.4256 7.59534 22.3285 8.15242 25.1291C8.70949 27.9297 10.0845 30.5022 12.1037 32.5214C14.1228 34.5405 16.6953 35.9155 19.4959 36.4726C22.2965 37.0297 25.1994 36.7437 27.8375 35.651C30.4756 34.5583 32.7304 32.7078 34.3169 30.3335C35.9033 27.9593 36.75 25.168 36.75 22.3125C36.7476 18.4842 35.2257 14.8134 32.5187 12.1063C29.8116 9.3993 26.1408 7.87743 22.3125 7.875ZM22.3125 34.125C19.9762 34.125 17.6924 33.4322 15.7498 32.1342C13.8073 30.8363 12.2932 28.9914 11.3992 26.8329C10.5051 24.6745 10.2712 22.2994 10.727 20.008C11.1828 17.7166 12.3078 15.6118 13.9598 13.9598C15.6118 12.3078 17.7166 11.1828 20.008 10.727C22.2994 10.2712 24.6745 10.5051 26.833 11.3992C28.9914 12.2932 30.8363 13.8073 32.1342 15.7498C33.4322 17.6924 34.125 19.9762 34.125 22.3125C34.1201 25.4439 32.8741 28.4456 30.6598 30.6598C28.4456 32.8741 25.4439 34.1201 22.3125 34.125Z" fill="#474647"/>
<path d="M34.125 42C34.4731 42 34.8069 41.8617 35.0531 41.6156C35.2992 41.3694 35.4375 41.0356 35.4375 40.6875C35.4375 40.3394 35.2992 40.0056 35.0531 39.7594C34.8069 39.5133 34.4731 39.375 34.125 39.375H10.5C10.1519 39.375 9.81806 39.5133 9.57192 39.7594C9.32578 40.0056 9.1875 40.3394 9.1875 40.6875C9.1875 41.0356 9.32578 41.3694 9.57192 41.6156C9.81806 41.8617 10.1519 42 10.5 42H34.125Z" fill="#474647"/>
</svg>
