<svg width="72" height="72" viewBox="0 0 72 72" fill="none" xmlns="http://www.w3.org/2000/svg">
<path d="M47.5063 70.5499C43.4693 70.5499 40.1817 67.2616 40.1817 63.2238V58.0013H9.56605V55.9461H41.2091C41.7772 55.9461 42.2365 56.4055 42.2365 56.9737V63.2359C42.2365 66.1373 44.5934 68.5068 47.5063 68.5068C50.4071 68.5068 52.7761 66.1494 52.7761 63.2359V12.147H10.6055V53.2865H8.55078V11.1194C8.55078 10.5512 9.01008 10.0918 9.57815 10.0918H53.8035C54.3716 10.0918 54.8308 10.5512 54.8308 11.1194V63.2238C54.8308 67.2616 51.5433 70.5499 47.5063 70.5499Z" fill="#F4C522"/>
<path d="M50.8539 65.1088H48.7992C48.7992 64.3472 48.4608 63.9845 47.8323 63.3801C47.1554 62.7272 46.2247 61.8447 46.2247 60.1643C46.2247 58.496 47.1554 57.6014 47.8323 56.9486C48.4729 56.332 48.7992 55.9815 48.7992 55.2199C48.7992 54.4582 48.4729 54.1076 47.8323 53.4911C47.1554 52.8383 46.2247 51.9558 46.2247 50.2754C46.2247 48.6071 47.1554 47.7125 47.8323 47.0596C48.4729 46.4431 48.7992 46.0925 48.7992 45.3309C48.7992 44.5693 48.4608 44.2187 47.8323 43.6021C47.1554 42.9493 46.2247 42.0668 46.2247 40.3864C46.2247 38.706 47.1554 37.8235 47.8323 37.1707C48.4729 36.5541 48.7992 36.2035 48.7992 35.4419C48.7992 34.6803 48.4729 34.3297 47.8323 33.7132C47.1554 33.0604 46.2247 32.1778 46.2247 30.4974C46.2247 28.8291 47.1554 27.9345 47.8323 27.2817C48.4729 26.6652 48.7992 26.3146 48.7992 25.553C48.7992 24.7913 48.4729 24.4408 47.8323 23.8242C47.1554 23.1714 46.2247 22.2889 46.2247 20.6085C46.2247 18.9523 47.095 18.0577 47.8081 17.3323C47.9169 17.2235 48.0136 17.1147 48.1103 17.018C47.9048 17.151 47.6993 17.3202 47.4817 17.4895C46.684 18.1181 45.705 18.9039 43.8436 18.9039C41.9823 18.9039 41.0032 18.1181 40.2055 17.4895C39.5045 16.9334 38.9848 16.5223 37.8486 16.5223C36.7125 16.5223 36.2048 16.9334 35.5038 17.4895C34.7061 18.1181 33.727 18.9039 31.8778 18.9039C30.0285 18.9039 29.0374 18.1181 28.2518 17.4895C27.5507 16.9334 27.031 16.5223 25.8948 16.5223C24.7587 16.5223 24.251 16.9334 23.55 17.4895C22.7523 18.1181 21.7733 18.9039 19.924 18.9039C18.0747 18.9039 17.0836 18.1181 16.298 17.4895C16.0804 17.3202 15.887 17.1631 15.6816 17.018C15.7662 17.1147 15.8628 17.2114 15.9716 17.3202C16.6727 18.0456 17.555 18.9402 17.555 20.5964C17.555 22.2647 16.6243 23.1593 15.9475 23.8121C15.3069 24.4287 14.9805 24.7793 14.9805 25.5409C14.9805 26.3025 15.319 26.6531 15.9475 27.2696C16.6243 27.9224 17.555 28.8049 17.555 30.4853C17.555 32.1537 16.6243 33.0483 15.9475 33.7011C15.3069 34.3176 14.9805 34.6682 14.9805 35.4298C14.9805 36.1915 15.319 36.542 15.9475 37.1586C16.6243 37.8114 17.555 38.6939 17.555 40.3743C17.555 42.0426 16.6243 42.9372 15.9475 43.59C15.3069 44.2066 14.9805 44.5572 14.9805 45.3188C14.9805 46.0804 15.319 46.431 15.9475 47.0475C16.6243 47.7004 17.555 48.5829 17.555 50.2633C17.555 51.9316 16.6243 52.8262 15.9475 53.479C15.3069 54.0956 14.9805 54.4461 14.9805 55.2078C14.9805 55.9694 15.319 56.3321 15.9475 56.9365C16.6243 57.5893 17.555 58.4718 17.555 60.1522C17.555 61.8205 16.6243 62.7151 15.9475 63.368C15.3069 63.9845 14.9805 64.3351 14.9805 65.0967H12.9258C12.9258 63.4284 13.8565 62.5338 14.5333 61.881C15.1739 61.2644 15.5003 60.9139 15.5003 60.1522C15.5003 59.3906 15.1618 59.04 14.5333 58.4235C13.8565 57.7707 12.9258 56.8881 12.9258 55.2078C12.9258 53.5394 13.8565 52.6448 14.5333 51.992C15.1739 51.3755 15.5003 51.0249 15.5003 50.2633C15.5003 49.5017 15.1618 49.1511 14.5333 48.5345C13.8565 47.8817 12.9258 46.9992 12.9258 45.3188C12.9258 43.6384 13.8565 42.7559 14.5333 42.1031C15.1739 41.4865 15.5003 41.1359 15.5003 40.3743C15.5003 39.6127 15.1618 39.2621 14.5333 38.6456C13.8565 37.9927 12.9258 37.1102 12.9258 35.4298C12.9258 33.7615 13.8565 32.8669 14.5333 32.2141C15.1739 31.5976 15.5003 31.247 15.5003 30.4853C15.5003 29.7237 15.1618 29.3732 14.5333 28.7566C13.8565 28.1038 12.9258 27.2213 12.9258 25.5409C12.9258 23.8726 13.8565 22.978 14.5333 22.3251C15.1739 21.7086 15.5003 21.358 15.5003 20.5964C15.5003 19.8106 15.1618 19.4358 14.5092 18.7588C13.8081 18.0335 12.9258 17.1389 12.9258 15.4827C12.9258 14.9145 13.3851 14.4551 13.9532 14.4551C15.8024 14.4551 16.7935 15.2409 17.5792 15.8695C18.2802 16.4256 18.7878 16.8367 19.924 16.8367C21.0601 16.8367 21.5678 16.4256 22.2688 15.8695C23.0666 15.2409 24.0456 14.4551 25.8948 14.4551C27.7441 14.4551 28.7352 15.2409 29.5209 15.8695C30.2219 16.4256 30.7416 16.8367 31.8778 16.8367C33.0139 16.8367 33.5216 16.4256 34.2226 15.8695C35.0203 15.2409 35.9993 14.4551 37.8486 14.4551C39.71 14.4551 40.689 15.2409 41.4867 15.8695C42.1878 16.4256 42.7075 16.8367 43.8436 16.8367C44.9798 16.8367 45.4874 16.4256 46.2005 15.8695C46.9983 15.2409 47.9773 14.4551 49.8386 14.4551C50.4067 14.4551 50.866 14.9145 50.866 15.4827C50.866 17.1389 49.9958 18.0335 49.2827 18.7588C48.63 19.4237 48.2916 19.8106 48.2916 20.5964C48.2916 21.358 48.63 21.7086 49.2585 22.3251C49.9354 22.978 50.866 23.8605 50.866 25.5409C50.866 27.2092 49.9354 28.1038 49.2585 28.7566C48.6179 29.3732 48.2916 29.7237 48.2916 30.4853C48.2916 31.247 48.6179 31.5976 49.2585 32.2141C49.9354 32.8669 50.866 33.7494 50.866 35.4298C50.866 37.1102 49.9354 37.9927 49.2585 38.6456C48.6179 39.2621 48.2916 39.6127 48.2916 40.3743C48.2916 41.1359 48.6179 41.4865 49.2585 42.1031C49.9354 42.7559 50.866 43.6384 50.866 45.3188C50.866 46.9992 49.9354 47.8817 49.2585 48.5345C48.6179 49.1511 48.2916 49.5017 48.2916 50.2633C48.2916 51.0249 48.63 51.3755 49.2585 51.992C49.9354 52.6448 50.866 53.5274 50.866 55.2078C50.866 56.8761 49.9354 57.7707 49.2585 58.4235C48.6179 59.04 48.2916 59.3906 48.2916 60.1522C48.2916 60.9139 48.63 61.2765 49.2585 61.881C49.9233 62.5459 50.8539 63.4284 50.8539 65.1088Z" fill="#F4C522"/>
<path d="M41.221 56.9727V63.2349C41.221 66.7166 44.0372 69.5333 47.5182 69.5333H11.7294C6.93101 69.5333 3.03906 65.6406 3.03906 60.8412V56.9727H41.221V56.9727Z" fill="white"/>
<path d="M47.5065 70.5495H11.7177C6.3633 70.5495 2 66.1852 2 60.8297V56.9612C2 56.393 2.4593 55.9336 3.02737 55.9336H41.2093C41.7774 55.9336 42.2367 56.393 42.2367 56.9612V63.2234C42.2367 66.1248 44.5936 68.4943 47.5065 68.4943C48.0746 68.4943 48.5339 68.9537 48.5339 69.5219C48.5339 70.0901 48.0746 70.5495 47.5065 70.5495ZM4.05474 58.0009V60.8418C4.05474 65.0609 7.48736 68.5064 11.7177 68.5064H42.4301C41.0522 67.1765 40.1941 65.3027 40.1941 63.2355V58.0129H4.05474V58.0009Z" fill="#F4C522"/>
<path d="M49.8248 40.3141L42.4519 43.1429L43.721 30.0624C43.4067 29.3612 43.2979 28.6238 43.2012 28.0073C43.1891 27.9468 43.177 27.8864 43.165 27.8138C43.0924 27.8017 43.032 27.7897 42.9716 27.7897C41.8354 27.6204 40.107 27.3544 39.1884 25.7587C38.2698 24.175 38.8983 22.5671 39.3214 21.4912C39.3455 21.4307 39.3697 21.3582 39.3939 21.2977C39.3456 21.2615 39.2972 21.2252 39.2609 21.189C38.3544 20.4636 36.9766 19.3635 36.9766 17.5018C36.9766 15.64 38.3544 14.5399 39.2609 13.8145C39.2972 13.7783 39.3456 13.742 39.3939 13.7057C39.3697 13.6332 39.3455 13.5728 39.3214 13.5123C38.9104 12.4364 38.2819 10.8285 39.1884 9.24483C40.107 7.64905 41.8354 7.39517 42.9716 7.21383C43.032 7.20175 43.0924 7.18966 43.165 7.18966C43.177 7.11713 43.1891 7.05668 43.1891 6.99624C43.3583 5.85985 43.6243 4.13109 45.2197 3.21231C45.7515 2.89799 46.3559 2.74083 47.0085 2.74083C47.9392 2.74083 48.7611 3.05515 49.4863 3.34529C49.5468 3.36947 49.6193 3.39366 49.6918 3.41784C49.7281 3.36948 49.7643 3.32111 49.8006 3.28485C50.5258 2.37816 51.6257 1 53.487 1C55.3484 1 56.4483 2.37816 57.1735 3.28485C57.2098 3.32111 57.246 3.36948 57.2823 3.41784C57.3548 3.39366 57.4273 3.36947 57.4877 3.34529C58.2129 3.06724 59.0227 2.74083 59.9655 2.74083C60.6182 2.74083 61.2225 2.89799 61.7543 3.21231C63.3498 4.13109 63.6036 5.85985 63.7849 6.99624C63.797 7.05668 63.8091 7.11713 63.8091 7.18966C63.8816 7.20175 63.9421 7.21383 64.0025 7.21383C65.1386 7.38308 66.867 7.64905 67.7856 9.24483C68.7042 10.8285 68.0757 12.4364 67.6527 13.5123C67.6285 13.5728 67.6043 13.6453 67.5801 13.7057C67.6285 13.742 67.6769 13.7783 67.7131 13.8145C68.6196 14.5399 69.9975 15.64 69.9975 17.5018C69.9975 19.3635 68.6196 20.4636 67.7131 21.189C67.6769 21.2252 67.6285 21.2615 67.5801 21.2977C67.6043 21.3703 67.6285 21.4307 67.6527 21.4912C68.0636 22.5671 68.6921 24.175 67.7856 25.7587C66.867 27.3544 65.1386 27.6083 64.0025 27.7897C63.9421 27.8017 63.8816 27.8138 63.8091 27.8138C63.797 27.8864 63.7607 28.1644 63.7487 28.2369L66.3352 42.1637L58.7689 39.3711L55.9165 44.4365L49.8248 40.3141Z" fill="white"/>
<path d="M41.9693 36.7598H21.4219V38.8149H41.9693V36.7598Z" fill="#F4C522"/>
<path d="M41.9693 40.2168H21.4219V42.272H41.9693V40.2168Z" fill="#F4C522"/>
<path d="M29.1453 27.8262H21.4219V29.8813H29.1453V27.8262Z" fill="#F4C522"/>
<path d="M41.9693 33.3145H21.4219V35.3696H41.9693V33.3145Z" fill="#F4C522"/>
<path d="M37.3277 43.6758H26.0508V45.7309H37.3277V43.6758Z" fill="#F4C522"/>
<path d="M61.0726 27.9355L62.8372 37.4739L58.196 36.4463L54.7271 38.0421L54.582 30.5468L61.0726 27.9355Z" fill="white"/>
<path d="M54.7271 39.0694C54.5337 39.0694 54.3524 39.021 54.1832 38.9122C53.8931 38.7309 53.7118 38.4045 53.6997 38.066L53.5547 30.5707L55.6094 30.5344L55.7303 36.4581L57.7729 35.5152C57.9784 35.4185 58.2081 35.3943 58.4256 35.4426L61.5561 36.1317L60.0694 28.1287L62.0879 27.7539L63.8646 37.2923C63.9251 37.6308 63.8163 37.9814 63.5625 38.2231C63.3087 38.4649 62.9582 38.5617 62.6197 38.4891L58.3168 37.5341L55.1622 38.9848C55.0292 39.0331 54.8842 39.0694 54.7271 39.0694Z" fill="#F4C522"/>
<path d="M55.2409 29.9645L54.5398 40.881L49.8985 36.9762L45.1484 38.8017L46.9252 25.5156L55.2409 29.9645Z" fill="white"/>
<path d="M54.5408 41.9087C54.2991 41.9087 54.0695 41.8241 53.8761 41.667L49.6941 38.149L45.5241 39.7569C45.1857 39.8898 44.7989 39.8294 44.5209 39.5997C44.2308 39.37 44.0858 39.0194 44.1342 38.6568L45.8988 25.3828L47.9415 25.6488L46.4065 37.2061L49.5249 36.0092C49.8754 35.8762 50.2742 35.9367 50.5522 36.1785L53.6464 38.7776L54.2145 29.8921L56.2693 30.0251L55.5682 40.9416C55.544 41.3285 55.3023 41.667 54.9518 41.8241C54.8188 41.8846 54.6859 41.9087 54.5408 41.9087Z" fill="#F4C522"/>
<path d="M67.4267 17.5013C67.4267 18.6498 65.1544 19.484 64.8643 20.5478C64.5742 21.6479 66.1092 23.5097 65.5532 24.4647C64.9851 25.4439 62.6041 25.0329 61.8063 25.8187C61.0086 26.6166 61.4196 28.9982 60.4526 29.5664C59.4857 30.1225 57.6364 28.575 56.5365 28.8773C55.4729 29.1553 54.6389 31.4402 53.4907 31.4402C52.3424 31.4402 51.5084 29.1674 50.4448 28.8773C49.3449 28.5871 47.4836 30.1225 46.5287 29.5664C45.5497 28.9982 45.9607 26.6166 45.175 25.8187C44.3773 25.0208 41.9962 25.4319 41.4281 24.4647C40.8721 23.4976 42.4192 21.6479 42.1171 20.5478C41.8391 19.484 39.5547 18.6498 39.5547 17.5013C39.5547 16.3529 41.827 15.5187 42.1171 14.4549C42.4071 13.3547 40.8721 11.493 41.4281 10.538C41.9962 9.55873 44.3773 9.96977 45.175 9.18398C45.9727 8.38609 45.5618 6.00452 46.5287 5.43633C47.4957 4.88022 49.3449 6.42763 50.4448 6.1254C51.5084 5.84735 52.3424 3.5625 53.4907 3.5625C54.6389 3.5625 55.4729 5.83526 56.5365 6.1254C57.6364 6.41554 59.4978 4.88022 60.4526 5.43633C61.4316 6.00452 61.0207 8.38609 61.8063 9.18398C62.592 9.98186 64.9851 9.57082 65.5532 10.538C66.1092 11.5051 64.5621 13.3547 64.8643 14.4549C65.1544 15.5187 67.4267 16.3529 67.4267 17.5013Z" fill="white"/>
<path d="M53.4914 32.468C52.3795 32.468 51.618 31.525 51.0137 30.7634C50.7719 30.4612 50.361 29.9414 50.1676 29.8688C49.9742 29.8205 49.3215 30.0743 48.9347 30.2315C48.004 30.5942 46.9404 31.0052 45.9977 30.4612C45.0428 29.9172 44.8736 28.7808 44.7286 27.7774C44.6681 27.3785 44.5714 26.7015 44.4264 26.5564C44.2814 26.4234 43.6045 26.3267 43.2056 26.2663C42.2024 26.1091 41.0663 25.9398 40.5224 24.9969C39.9785 24.0539 40.3894 23.0022 40.752 22.0592C40.8971 21.6724 41.1509 21.0316 41.1026 20.8261C41.03 20.6448 40.5224 20.2337 40.2081 19.992C39.4104 19.3512 38.5039 18.6259 38.5039 17.5137C38.5039 16.4015 39.4467 15.6398 40.2081 15.0354C40.5103 14.7936 41.03 14.3826 41.1026 14.1891C41.1509 13.9957 40.8971 13.3429 40.74 12.956C40.3773 12.0252 39.9664 10.9613 40.5103 10.0184C41.0542 9.06332 42.1903 8.89408 43.1935 8.74901C43.5924 8.68856 44.2693 8.59185 44.4143 8.44678C44.5473 8.30171 44.6439 7.62471 44.7044 7.22577C44.8615 6.22237 45.0307 5.08597 45.9735 4.54196C46.9162 3.99795 47.9678 4.40898 48.9106 4.77166C49.2973 4.91673 49.9379 5.1706 50.1434 5.12225C50.3247 5.04971 50.7357 4.54196 50.9774 4.23973C51.5817 3.47811 52.3432 2.53516 53.4552 2.53516C54.5672 2.53516 55.3286 3.47811 55.933 4.23973C56.1747 4.54196 56.5856 5.0618 56.779 5.13433C56.9724 5.18269 57.6251 4.92882 58.0119 4.77166C58.9425 4.40898 60.0062 3.99795 60.949 4.54196C61.9038 5.08597 62.073 6.22237 62.2181 7.22577C62.2785 7.62471 62.3752 8.30171 62.5202 8.44678C62.6653 8.57976 63.3421 8.67647 63.741 8.73692C64.7442 8.89408 65.8803 9.06333 66.4242 10.0063C66.9681 10.9492 66.5572 12.001 66.1946 12.944C66.0495 13.3308 65.7957 13.9715 65.8441 14.1771C65.9166 14.3584 66.4242 14.7694 66.7264 15.0112C67.4879 15.6157 68.4306 16.3773 68.4306 17.4895C68.4306 18.6017 67.4879 19.3633 66.7264 19.9678C66.4242 20.2096 65.9045 20.6206 65.832 20.814C65.7836 21.0074 66.0375 21.6603 66.1946 22.0471C66.5572 22.978 66.9681 24.0418 66.4242 24.9848C65.8803 25.9398 64.7442 26.1091 63.741 26.2542C63.3421 26.3146 62.6653 26.4113 62.5202 26.5564C62.3873 26.7015 62.2906 27.3785 62.2301 27.7774C62.073 28.7808 61.9038 29.9172 60.961 30.4612C60.0183 31.0052 58.9667 30.5942 58.024 30.2315C57.6372 30.0864 56.9845 29.8326 56.7911 29.8809C56.6098 29.9534 56.1989 30.4612 55.9571 30.7755C55.3649 31.525 54.6034 32.468 53.4914 32.468ZM50.1434 27.8137C50.3368 27.8137 50.5181 27.8378 50.7115 27.8862C51.5213 28.1038 52.0894 28.805 52.6212 29.482C52.8508 29.7721 53.2739 30.304 53.4914 30.4008C53.709 30.304 54.132 29.7721 54.3617 29.482C54.9056 28.805 55.4616 28.1038 56.2714 27.8862C57.1175 27.6686 57.9998 28.0071 58.7854 28.3093C59.1359 28.4423 59.704 28.6599 59.9336 28.6599C60.0545 28.4544 60.1512 27.8378 60.2116 27.4631C60.3446 26.5926 60.4776 25.6981 61.0819 25.0936C61.6862 24.4891 62.5807 24.3562 63.4509 24.2232C63.8256 24.1627 64.442 24.0781 64.6475 23.9451C64.6475 23.7033 64.4299 23.1351 64.297 22.7846C63.9948 21.9988 63.6443 21.1162 63.8739 20.27C64.0915 19.46 64.7925 18.8918 65.4694 18.3599C65.7595 18.1302 66.2913 17.7071 66.388 17.4895C66.2913 17.2719 65.7595 16.8488 65.4694 16.6191C64.7925 16.0751 64.0915 15.5189 63.8739 14.709C63.6443 13.8748 63.9948 12.9802 64.297 12.1944C64.4299 11.8438 64.6596 11.2757 64.6475 11.0339C64.442 10.913 63.8256 10.8163 63.4509 10.7558C62.5807 10.6228 61.6862 10.4899 61.0819 9.88539C60.4776 9.28093 60.3446 8.38632 60.2116 7.5159C60.1512 7.14113 60.0545 6.5246 59.9336 6.31908C59.6919 6.31908 59.1238 6.53667 58.7854 6.66966C57.9998 6.97188 57.1175 7.32247 56.2714 7.09278C55.4616 6.87517 54.8935 6.174 54.3617 5.49701C54.132 5.20687 53.709 4.67495 53.4914 4.57823C53.2739 4.67495 52.8508 5.20687 52.6212 5.49701C52.0773 6.174 51.5213 6.87517 50.7115 7.09278C49.8654 7.31038 48.9831 6.97188 48.1975 6.66966C47.8469 6.53667 47.2789 6.31908 47.0492 6.31908C46.9283 6.5246 46.8316 7.14113 46.7712 7.5159C46.6383 8.38632 46.5053 9.28093 45.901 9.88539C45.2966 10.4899 44.4022 10.6228 43.532 10.7558C43.1573 10.8163 42.5409 10.9009 42.3354 11.0339C42.3354 11.2757 42.5529 11.8438 42.6859 12.1944C42.9881 12.9802 43.3386 13.8627 43.1089 14.709C42.8914 15.5189 42.1903 16.0871 41.5135 16.6191C41.2234 16.8488 40.6916 17.2719 40.5949 17.4895C40.6916 17.7071 41.2234 18.1302 41.5135 18.3599C42.1903 18.9039 42.8914 19.46 43.1089 20.27C43.3386 21.1042 42.9881 21.9988 42.6859 22.7846C42.5529 23.1351 42.3233 23.7033 42.3354 23.9451C42.5409 24.066 43.1573 24.1627 43.532 24.2232C44.4022 24.3562 45.2966 24.4891 45.901 25.0936C46.5053 25.6981 46.6383 26.5926 46.7712 27.4631C46.8316 27.8378 46.9163 28.4544 47.0492 28.6599C47.291 28.6599 47.859 28.4423 48.1975 28.3093C48.8018 28.0796 49.4786 27.8137 50.1434 27.8137Z" fill="#F4C522"/>
<path d="M53.4928 26.7609C58.6061 26.7609 62.7512 22.6149 62.7512 17.5006C62.7512 12.3862 58.6061 8.24023 53.4928 8.24023C48.3795 8.24023 44.2344 12.3862 44.2344 17.5006C44.2344 22.6149 48.3795 26.7609 53.4928 26.7609Z" fill="white"/>
<path d="M53.4932 27.8012C47.8125 27.8012 43.1953 23.1831 43.1953 17.5012C43.1953 11.8193 47.8125 7.20117 53.4932 7.20117C59.174 7.20117 63.7911 11.8193 63.7911 17.5012C63.779 23.1831 59.174 27.8012 53.4932 27.8012ZM53.4932 9.26842C48.9486 9.26842 45.2622 12.9677 45.2622 17.5012C45.2622 22.0467 48.9607 25.7339 53.4932 25.7339C58.0257 25.7339 61.7243 22.0346 61.7243 17.5012C61.7243 12.9556 58.0378 9.26842 53.4932 9.26842Z" fill="#F4C522"/>
</svg>
