<svg width="16" height="16" viewBox="0 0 16 16" fill="none" xmlns="http://www.w3.org/2000/svg">
<g clip-path="url(#clip0_1055_17622)">
<path d="M14.6615 1.33594L7.32812 8.66927" stroke="#474647" stroke-width="1.6" stroke-linecap="round" stroke-linejoin="round"/>
<path d="M14.6615 1.33594L9.99479 14.6693L7.32812 8.66927L1.32812 6.0026L14.6615 1.33594Z" stroke="#474647" stroke-width="1.6" stroke-linecap="round" stroke-linejoin="round"/>
</g>
<defs>
<clipPath id="clip0_1055_17622">
<rect width="16" height="16" fill="white"/>
</clipPath>
</defs>
</svg>
