<svg width="538" height="538" viewBox="0 0 538 538" fill="none" xmlns="http://www.w3.org/2000/svg">
<path d="M501.613 184.981C471.984 156.847 456.325 155.547 443.589 127.607C436.442 111.883 444.239 45.478 380.108 42.9439C371.856 42.619 340.018 44.3734 335.859 77.641C334.17 91.091 334.95 100.383 335.859 107.92C336.639 114.417 336.509 120.98 335.404 127.413C333.715 136.899 329.752 147.555 320.59 154.377C319.875 154.897 320.46 156.002 321.305 155.742C326.048 153.923 332.74 150.544 337.549 144.826C338.004 144.306 338.783 144.696 338.718 145.346C338.653 145.671 338.653 145.931 338.588 146.256C336.769 160.355 314.027 174.39 320.395 201.745C326.763 229.035 472.374 287.448 496.545 275.427C520.651 263.342 528.903 210.906 501.613 184.981Z" fill="#58595B"/>
<path d="M480.628 189.275C480.628 189.275 453.728 165.624 412.858 160.751C412.858 160.751 341.84 160.231 313.38 186.546C284.921 212.861 267.637 272.054 269.262 316.173L480.628 380.174V189.275Z" fill="#474647"/>
<path d="M393.766 196.033C393.766 196.033 410.724 200.322 423.07 191.16L456.402 290.118C456.402 290.118 439.963 196.488 480.313 189.211C480.313 189.211 508.253 205.39 503.705 259.71C498.702 319.423 491.099 360.357 462.835 362.761C434.635 365.166 401.303 354.445 393.766 196.033Z" fill="#474647"/>
<path d="M150.753 205.388L174.534 191.808C175.184 191.419 176.093 191.614 176.483 192.328C181.616 200.71 213.325 250.547 236.911 251.196C262.641 251.846 295.649 200.905 311.503 188.43L332.555 256.329C332.555 256.329 292.855 312.209 220.992 314.938C181.097 316.432 153.222 218.449 150.103 207.078C149.908 206.428 150.168 205.713 150.753 205.388Z" fill="#474647"/>
<path d="M453.862 364.193C441.061 364.193 431.9 361.269 424.623 355.031C414.551 346.39 407.794 331.12 402.661 305.585C397.982 282.063 394.539 249.446 391.225 196.555C391.16 196.035 391.615 195.581 392.135 195.516C392.654 195.516 393.109 195.905 393.174 196.425C398.892 286.937 405.52 336.058 425.922 353.602C434.499 360.944 445.48 363.413 462.828 361.854C463.348 361.789 463.868 362.179 463.868 362.763C463.933 363.283 463.543 363.803 462.958 363.803C459.71 363.998 456.721 364.193 453.862 364.193Z" fill="white"/>
<path d="M462.895 304.733C462.505 304.733 462.115 304.474 461.985 304.084L423.909 191.87C423.714 191.351 424.039 190.831 424.494 190.636C425.014 190.441 425.534 190.766 425.729 191.221L463.804 303.434C463.999 303.954 463.674 304.474 463.22 304.668C463.09 304.733 462.96 304.733 462.895 304.733Z" fill="white"/>
<path d="M453.147 247.169C452.562 247.169 452.172 246.714 452.172 246.195C452.627 222.478 457.175 205.715 465.687 196.358C466.077 195.968 466.661 195.903 467.051 196.293C467.441 196.683 467.506 197.268 467.116 197.658C458.929 206.624 454.511 222.933 454.121 246.195C454.121 246.714 453.666 247.169 453.147 247.169Z" fill="white"/>
<path d="M318.709 266.663C318.189 266.663 317.734 266.208 317.734 265.688V231.381C317.734 230.861 318.189 230.406 318.709 230.406C319.229 230.406 319.684 230.861 319.684 231.381V265.688C319.684 266.208 319.229 266.663 318.709 266.663Z" fill="white"/>
<path d="M374.191 127.604C374.191 127.604 374.841 146.252 374.061 158.663C373.672 164.511 369.643 169.449 363.99 171.008L356.583 173.022C352.749 174.062 352.36 179.325 355.998 180.949C370.358 187.187 399.272 195.179 433.189 179.715C436.828 178.091 436.373 172.828 432.54 171.788L417.92 168.019C412.462 166.59 408.434 162.042 407.719 156.454L402.131 113.18L374.191 127.604Z" fill="white"/>
<path d="M393.169 189.659C376.99 189.659 363.864 185.435 355.613 181.861C353.598 180.952 352.364 178.938 352.494 176.728C352.624 174.519 354.118 172.7 356.262 172.115L363.67 170.101C368.933 168.671 372.701 164.058 373.026 158.6C373.806 146.385 373.156 127.866 373.156 127.672V127.022L402.915 111.688L408.698 156.326C409.348 161.524 413.116 165.747 418.184 167.047L432.804 170.816C434.948 171.4 436.443 173.155 436.637 175.364C436.832 177.573 435.663 179.652 433.584 180.562C418.964 187.319 405.189 189.659 393.169 189.659ZM375.17 128.191C375.3 131.505 375.755 147.684 375.04 158.73C374.65 164.968 370.297 170.296 364.254 171.985L356.847 173.999C355.223 174.454 354.573 175.754 354.508 176.858C354.443 177.963 354.898 179.392 356.457 180.042C370.557 186.15 399.211 194.142 432.869 178.873C434.428 178.158 434.883 176.728 434.753 175.624C434.688 174.519 433.973 173.22 432.349 172.765L417.729 168.996C411.882 167.502 407.593 162.629 406.814 156.586L401.421 114.676L375.17 128.191Z" fill="#58595B"/>
<path d="M354.576 67.0541C348.663 73.2917 345.609 81.6736 345.609 90.3154C345.609 95.1886 348.143 99.9318 348.923 106.559C350.937 123.713 358.215 137.423 378.032 136.058C378.032 136.058 401.878 134.759 404.802 109.223C404.802 109.223 406.167 96.3582 400.384 82.7782C396.485 73.6816 385.375 55.2284 368.286 59.127C362.438 60.4265 357.955 63.5454 354.576 67.0541Z" fill="white"/>
<path d="M375.496 137.161C359.642 137.161 350.416 126.96 348.012 106.688C347.622 103.634 346.907 101.035 346.192 98.5007C345.412 95.7068 344.633 93.0427 344.633 90.3138C344.633 81.2171 347.882 72.7053 353.859 66.4026C357.888 62.1142 362.696 59.3203 368.089 58.1507C387.907 53.6674 399.277 77.5785 401.357 82.3867C407.205 96.0316 405.905 108.832 405.84 109.352C402.851 135.407 378.42 137.031 378.16 137.096C377.251 137.096 376.341 137.161 375.496 137.161ZM355.289 67.7671C349.701 73.6799 346.582 81.737 346.647 90.3138C346.647 92.7828 347.362 95.187 348.141 97.9809C348.856 100.45 349.636 103.244 350.026 106.493C352.43 126.895 361.592 136.252 378.095 135.147C379.07 135.082 401.162 133.588 403.956 109.157C403.956 109.027 405.255 96.3565 399.602 83.1664C397.653 78.5531 386.932 55.9415 368.609 60.035C363.541 61.1396 359.057 63.7386 355.289 67.7671Z" fill="#58595B"/>
<path d="M388.359 61.9856C388.359 61.9856 385.825 70.8873 371.855 82.388C362.824 89.7953 347.034 91.5496 344.37 97.5924C344.37 97.5924 334.689 60.6861 366.072 56.5276C397.391 52.3042 388.359 61.9856 388.359 61.9856Z" fill="#58595B"/>
<path d="M513.052 390.44C512.987 390.44 512.857 390.44 512.792 390.375L322.933 334.496C322.413 334.366 322.153 333.781 322.283 333.261C322.413 332.741 322.998 332.481 323.518 332.611L513.312 388.555C513.832 388.685 514.092 389.27 513.962 389.79C513.832 390.18 513.442 390.44 513.052 390.44Z" fill="#58595B"/>
<path d="M169.791 192.975C166.478 185.828 163.554 172.053 160.24 167.31C156.926 162.567 152.963 158.473 146.725 154.575C143.541 152.56 136.979 148.727 131.975 147.362C126.972 145.998 129.181 155.679 133.665 157.434C138.148 159.188 141.657 162.372 140.422 163.217C139.578 163.801 137.173 166.4 132.56 165.296C127.427 164.061 123.983 159.188 124.113 153.925C124.113 153.015 124.243 152.106 124.438 151.196C125.608 145.673 123.009 139.955 117.811 137.681C115.342 136.641 112.418 136.122 108.909 136.641C103.451 137.551 102.087 168.804 123.009 178.811C127.362 180.89 145.166 184.529 148.804 189.597C152.443 194.665 155.107 201.812 155.107 201.812L169.791 192.975Z" fill="white"/>
<path d="M154.71 203.306L154.32 202.201C154.32 202.136 151.656 195.119 148.147 190.246C145.808 186.997 136.192 184.073 129.824 182.124C126.64 181.149 124.106 180.369 122.677 179.72C106.952 172.117 103.379 153.079 104.873 142.813C105.458 138.525 106.887 135.991 108.837 135.666C112.151 135.146 115.334 135.471 118.258 136.771C123.716 139.11 126.77 145.282 125.406 151.39C125.211 152.17 125.146 153.014 125.146 153.989C125.016 158.927 128.265 163.281 132.813 164.385C136.387 165.23 138.336 163.671 139.44 162.826C139.505 162.761 139.57 162.696 139.635 162.631C139.245 161.851 136.906 159.772 133.333 158.407C129.694 156.978 127.42 151.39 128.394 148.336C128.914 146.647 130.409 145.932 132.293 146.452C137.361 147.816 143.924 151.65 147.302 153.794C153.02 157.368 157.244 161.396 161.077 166.789C163.092 169.648 164.846 175.171 166.665 181.084C167.965 185.243 169.329 189.596 170.694 192.585L171.084 193.364L154.71 203.306ZM111.761 137.355C110.916 137.355 110.006 137.42 109.162 137.55C108.512 137.68 107.342 139.24 106.823 143.073C105.458 152.755 108.772 170.818 123.586 177.965C124.821 178.55 127.42 179.33 130.409 180.239C137.816 182.514 147.043 185.307 149.772 189.076C152.63 193.04 154.905 198.173 155.749 200.447L168.615 192.65C167.315 189.596 166.015 185.567 164.846 181.734C163.092 176.211 161.337 170.558 159.518 167.959C155.814 162.696 151.851 158.927 146.263 155.484C142.949 153.404 136.581 149.701 131.773 148.401C130.669 148.076 130.409 148.531 130.279 148.986C129.629 150.935 131.383 155.549 134.047 156.588C137.491 157.953 141.39 160.617 141.65 162.566C141.715 163.151 141.455 163.736 141 164.06C140.935 164.125 140.805 164.19 140.675 164.32C139.57 165.23 136.906 167.374 132.358 166.27C126.9 164.97 123.066 159.772 123.196 153.924C123.196 152.885 123.326 151.91 123.521 151C124.626 145.802 122.092 140.604 117.479 138.59C115.659 137.745 113.71 137.355 111.761 137.355Z" fill="#58595B"/>
<path d="M148.993 192.717L166.926 182.645C167.706 182.191 168.746 182.515 169.135 183.295L175.178 195.056C175.568 195.835 175.308 196.745 174.528 197.2L156.465 207.206C155.685 207.661 154.646 207.336 154.256 206.556L148.278 194.926C148.018 194.081 148.278 193.106 148.993 192.717Z" fill="white"/>
<path d="M155.753 208.307C155.493 208.307 155.233 208.242 154.973 208.177C154.324 207.982 153.739 207.527 153.414 206.877L147.436 195.247C146.786 194.012 147.241 192.518 148.476 191.803L166.409 181.732C166.994 181.407 167.709 181.277 168.423 181.537C169.073 181.732 169.658 182.186 169.983 182.836L176.026 194.597C176.675 195.831 176.22 197.326 174.986 198.041L156.923 208.047C156.598 208.242 156.208 208.307 155.753 208.307ZM167.774 183.421C167.644 183.421 167.579 183.421 167.449 183.486L149.515 193.557C149.19 193.752 149.126 194.077 149.255 194.402L155.233 206.033C155.298 206.163 155.428 206.293 155.623 206.357C155.818 206.422 155.948 206.357 156.143 206.292L174.206 196.286C174.531 196.091 174.596 195.766 174.466 195.442L168.423 183.681C168.358 183.551 168.228 183.421 168.033 183.356C167.904 183.421 167.839 183.421 167.774 183.421Z" fill="#58595B"/>
<path d="M392.013 127.483C390.129 127.483 388.245 127.223 386.36 126.703L367.062 121.115L367.582 119.231L386.88 124.819C395.457 127.288 404.554 123.26 408.452 115.203L412.416 107.016L414.17 107.86L410.206 116.047C406.763 123.13 399.615 127.483 392.013 127.483Z" fill="#58595B"/>
<path d="M412.601 86.9343C412.081 86.9343 411.626 86.4795 411.626 85.9597C411.626 85.6998 410.976 61.5288 398.111 49.5083C392.978 44.765 386.546 42.4909 379.008 42.8807C378.424 42.9457 378.034 42.4909 377.969 41.9711C377.969 41.4513 378.359 40.9964 378.878 40.9314C387 40.5416 393.888 42.9457 399.411 48.0788C412.861 60.6191 413.511 84.8551 413.576 85.8947C413.576 86.4795 413.186 86.8694 412.601 86.9343Z" fill="white"/>
<path d="M360.039 120.007C359.649 117.148 361.729 114.484 364.717 114.094C367.641 113.704 370.305 115.783 370.695 118.642C371.085 121.501 369.006 124.165 366.017 124.555C363.093 124.945 360.364 122.931 360.039 120.007Z" fill="#474647"/>
<path d="M398.703 99.1519C397.663 91.0949 402.861 83.7526 410.268 82.8429C411.048 82.713 414.102 82.648 414.882 82.713C421.314 83.1678 424.628 88.5608 425.538 95.7731C426.512 103.505 423.588 110.783 416.636 112.147C416.376 112.212 414.297 112.342 413.972 112.342C405.85 112.407 399.677 107.274 398.703 99.1519Z" fill="#474647"/>
<path d="M416.913 112.119C424.335 111.327 429.652 104.118 428.787 96.0178C427.923 87.9175 421.205 81.9929 413.783 82.7848C406.361 83.5768 401.044 90.7854 401.909 98.8857C402.773 106.986 409.491 112.911 416.913 112.119Z" fill="white"/>
<path d="M378.162 111.822C379.916 109.483 392.392 114.226 397.525 116.11C402.658 117.995 415.783 135.733 416.888 147.559C417.992 159.384 414.484 179.267 417.148 186.284C417.148 186.284 410.715 192.197 398.565 190.573C398.565 190.573 397.2 179.267 394.796 175.238C392.392 171.21 377.577 160.424 378.682 153.212C379.527 147.689 389.923 143.595 394.861 141.906C395.641 141.646 395.641 140.476 394.796 140.281C392.262 139.697 388.168 139.242 383.75 140.541C376.473 142.686 370.04 139.177 372.964 135.148C375.628 131.51 386.284 127.676 393.886 128.521C394.211 128.586 394.341 128.131 394.016 128.001C388.168 125.467 373.354 118.125 378.162 111.822Z" fill="white"/>
<path d="M402.724 191.87C401.359 191.87 399.93 191.805 398.435 191.611L397.655 191.481L397.59 190.701C397.59 190.571 396.226 179.59 393.952 175.756C393.237 174.587 391.353 172.768 389.144 170.558C383.686 165.23 376.863 158.538 377.708 153.015C378.553 147.297 388.104 143.139 394.082 141.124C391.548 140.605 387.909 140.345 384.011 141.449C379.072 142.944 373.874 141.969 371.99 139.24C371.015 137.811 371.08 136.121 372.185 134.562C374.589 131.248 383.036 127.739 390.508 127.414C384.725 124.62 377.513 120.267 376.343 115.654C375.954 114.029 376.278 112.535 377.318 111.105C379.072 108.766 385.96 110.716 397.136 114.874L397.785 115.134C403.048 117.083 416.693 135.147 417.798 147.427C418.253 152.56 417.863 159.253 417.538 165.685C417.083 173.742 416.563 182.124 418.058 185.893L418.318 186.542L417.798 186.997C417.538 187.257 412.405 191.87 402.724 191.87ZM399.475 189.791C408.766 190.831 414.419 187.257 416.044 186.023C414.744 181.669 415.199 173.872 415.654 165.62C416.044 159.253 416.433 152.69 415.979 147.687C414.939 136.251 402.009 118.838 397.266 117.018L396.616 116.758C393.822 115.719 389.663 114.224 385.895 113.185C379.722 111.495 379.007 112.405 379.007 112.405C378.358 113.315 378.098 114.224 378.358 115.264C379.202 118.643 385.31 123.061 394.537 127.155C395.121 127.414 395.381 127.999 395.251 128.584C395.121 129.169 394.537 129.559 393.887 129.494C386.61 128.714 376.278 132.418 373.874 135.731C373.225 136.641 373.16 137.421 373.679 138.135C374.914 139.89 379.007 140.929 383.556 139.565C388.104 138.2 392.327 138.655 395.056 139.305C395.836 139.5 396.421 140.15 396.486 140.994C396.551 141.839 396.031 142.554 395.251 142.814C386.025 145.868 380.242 149.831 379.722 153.34C379.072 157.888 385.765 164.386 390.638 169.194C393.042 171.533 394.926 173.417 395.771 174.782C397.785 178.42 399.085 187.127 399.475 189.791Z" fill="#58595B"/>
<path d="M396.237 182.58C399.291 183.035 407.413 183.425 417.159 178.421C417.744 178.097 418.459 178.486 418.589 179.136L420.863 190.572C420.928 191.027 420.733 191.417 420.343 191.677C417.679 193.106 407.413 198.174 396.952 194.795C396.562 194.665 396.302 194.341 396.237 193.951L395.067 183.749C395.002 183.035 395.587 182.515 396.237 182.58Z" fill="white"/>
<path d="M404.484 196.873C401.95 196.873 399.351 196.548 396.687 195.704C395.972 195.444 395.452 194.794 395.322 194.014L394.153 183.813C394.088 183.163 394.283 182.578 394.738 182.189C395.192 181.734 395.777 181.539 396.427 181.669C399.351 182.059 407.213 182.513 416.764 177.64C417.349 177.38 417.934 177.38 418.519 177.64C419.104 177.9 419.493 178.42 419.623 179.07L421.897 190.505C422.092 191.35 421.703 192.195 420.923 192.65C418.649 193.689 412.151 196.873 404.484 196.873ZM396.102 183.553L397.272 193.754C407.278 197.003 417.154 192.26 419.948 190.765L417.674 179.33C407.603 184.463 399.221 184.008 396.102 183.553Z" fill="#58595B"/>
<path d="M256.721 113.311C250.158 113.311 243.466 111.491 237.488 107.788C229.236 102.655 223.518 94.5976 221.374 85.1111C219.23 75.6246 220.854 65.8783 225.987 57.6913C231.121 49.4394 239.178 43.7215 248.664 41.5773C258.151 39.4331 267.897 41.0575 276.084 46.1906C284.336 51.3237 290.054 59.3807 292.198 68.8672C294.342 78.3536 292.718 88.1 287.585 96.287C280.697 107.268 268.807 113.311 256.721 113.311ZM256.851 42.5519C254.252 42.5519 251.653 42.8768 249.054 43.4616C240.087 45.5408 232.485 50.9338 227.612 58.7309C222.739 66.528 221.179 75.7546 223.258 84.7213C225.338 93.6879 230.731 101.29 238.528 106.163C254.577 116.235 275.889 111.361 285.96 95.2474C290.833 87.4503 292.393 78.2237 290.314 69.257C288.234 60.2903 282.841 52.6882 275.044 47.815C269.521 44.3713 263.219 42.5519 256.851 42.5519Z" fill="#F4C522"/>
<path d="M264.777 100.967C263.997 100.967 263.217 100.772 262.502 100.317L233.458 82.1242C232.484 81.5395 231.834 80.5648 231.574 79.4602C231.314 78.3556 231.509 77.1861 232.094 76.2114L244.699 56.1339C245.934 54.1197 248.598 53.5349 250.547 54.7694L279.591 72.9627C280.566 73.5474 281.215 74.5221 281.475 75.6267C281.735 76.7313 281.54 77.9008 280.956 78.8755L268.35 98.953C267.765 99.9276 266.791 100.577 265.686 100.837C265.426 100.967 265.101 100.967 264.777 100.967ZM248.273 56.1339C248.078 56.1339 247.948 56.1339 247.753 56.1989C247.168 56.3288 246.648 56.7187 246.323 57.2385L233.718 77.316C233.393 77.8358 233.263 78.4856 233.393 79.0704C233.523 79.6552 233.913 80.175 234.433 80.4999L263.477 98.6931C263.997 99.018 264.647 99.1479 265.231 99.018C265.816 98.888 266.336 98.4982 266.661 97.9784L279.266 77.9008C279.591 77.381 279.721 76.7312 279.591 76.1465C279.461 75.5617 279.071 75.0419 278.551 74.717L249.507 56.5238C249.117 56.2639 248.728 56.1339 248.273 56.1339Z" fill="#F4C522"/>
<path d="M255.946 79.7855C255.556 79.7855 255.231 79.5906 255.036 79.2007L248.474 64.906C248.279 64.3862 248.474 63.8664 248.929 63.6065C249.448 63.4116 249.968 63.6065 250.228 64.0613L256.791 78.356C256.986 78.8758 256.791 79.3956 256.336 79.6555C256.206 79.7205 256.076 79.7855 255.946 79.7855Z" fill="#F4C522"/>
<path d="M256.006 79.8428C255.486 79.8428 255.031 79.388 255.031 78.8682C255.031 78.3484 255.421 77.8936 256.006 77.8936L271.73 77.5687C272.25 77.5037 272.705 77.9585 272.705 78.5433C272.705 79.0631 272.315 79.518 271.73 79.518L256.006 79.8428Z" fill="#F4C522"/>
<path d="M134.558 84.9847L112.661 89.9228C109.997 90.5076 107.853 92.6518 107.268 95.3808L104.344 109.091L94.338 97.7849C92.6486 95.8356 89.9846 94.991 87.5155 95.5757L67.373 100.124C63.5394 100.969 59.7708 98.5646 58.9262 94.796L49.3097 52.1069C48.465 48.2733 50.8692 44.5047 54.6377 43.66L121.758 28.5207C125.591 27.676 129.36 30.0801 130.205 33.8487L139.821 76.5378C140.731 80.3714 138.327 84.14 134.558 84.9847Z" fill="#F4C522"/>
<path d="M69.3236 59.1932C68.8688 59.1932 68.4789 58.8683 68.349 58.4135C68.219 57.8937 68.5439 57.3739 69.0637 57.2439L117.341 46.263C117.861 46.1331 118.38 46.458 118.51 46.9778C118.64 47.4976 118.315 48.0174 117.796 48.1473L69.5835 59.1282C69.5185 59.1932 69.3886 59.1932 69.3236 59.1932Z" fill="white"/>
<path d="M70.7533 70.7586C70.2985 70.7586 69.9086 70.4338 69.7787 69.9789C69.6487 69.4591 69.9736 68.9393 70.4934 68.8094L106.295 60.6224C106.815 60.4925 107.335 60.8173 107.465 61.3371C107.595 61.8569 107.27 62.3767 106.75 62.5067L70.9482 70.6937C70.8832 70.7586 70.8183 70.7586 70.7533 70.7586Z" fill="white"/>
<path d="M74.7142 82.0682C74.2594 82.0682 73.8695 81.7433 73.7396 81.2885C73.6096 80.7687 73.9345 80.2489 74.4543 80.1189L122.731 69.138C123.251 69.0081 123.771 69.333 123.901 69.8528C124.031 70.3726 123.706 70.8924 123.186 71.0223L74.9092 82.0032C74.8442 82.0682 74.7792 82.0682 74.7142 82.0682Z" fill="white"/>
<path d="M85.5104 147.948L74.2046 158.994C72.8401 160.358 72.3203 162.437 72.97 164.257L76.2838 173.613L66.0826 170.559C64.3282 170.04 62.4439 170.494 61.1444 171.794L50.7483 181.995C48.799 183.944 45.6152 183.879 43.6659 181.93L22.0939 159.838C20.1447 157.889 20.2096 154.705 22.1589 152.756L56.921 118.774C58.8703 116.824 62.0541 116.889 64.0034 118.839L85.5753 140.93C87.5246 142.815 87.4596 145.999 85.5104 147.948Z" fill="white"/>
<path d="M36.0696 157.11C35.8097 157.11 35.5498 156.98 35.3549 156.785C34.965 156.395 34.965 155.81 35.3549 155.421L59.331 131.964C59.7208 131.574 60.3056 131.574 60.6955 131.964C61.0853 132.354 61.0853 132.939 60.6955 133.329L36.7194 156.785C36.5245 157.045 36.3295 157.11 36.0696 157.11Z" fill="#F4C522"/>
<path d="M42.5696 162.766C42.3097 162.766 42.0498 162.636 41.8549 162.441C41.465 162.051 41.465 161.467 41.8549 161.077L65.831 137.621C66.2208 137.231 66.8056 137.231 67.1955 137.621C67.5853 138.01 67.5853 138.595 67.1955 138.985L43.2194 162.441C43.0245 162.701 42.7646 162.766 42.5696 162.766Z" fill="#F4C522"/>
<path d="M48.2181 168.415C47.9582 168.415 47.6983 168.285 47.5033 168.09C47.1135 167.7 47.1135 167.115 47.5033 166.725L71.4794 143.269C71.8693 142.879 72.4541 142.879 72.8439 143.269C73.2338 143.659 73.2338 144.244 72.8439 144.633L48.8678 168.09C48.6729 168.285 48.413 168.415 48.2181 168.415Z" fill="#F4C522"/>
<path d="M50.3538 312.855C31.8357 312.855 15.9166 298.69 14.1622 279.912C12.2779 259.965 27.0275 242.161 46.975 240.342C66.9226 238.458 84.726 253.207 86.5453 273.155C87.455 282.836 84.5311 292.258 78.3584 299.73C72.1857 307.202 63.4139 311.815 53.7325 312.725C52.6279 312.79 51.4584 312.855 50.3538 312.855ZM16.1115 279.717C17.8659 298.625 34.6946 312.53 53.6026 310.776C62.7642 309.931 71.0161 305.578 76.8639 298.495C82.7118 291.413 85.5057 282.511 84.596 273.35C83.7514 264.188 79.398 255.936 72.3156 250.088C65.2333 244.24 56.3316 241.447 47.17 242.356C28.262 244.046 14.3572 260.809 16.1115 279.717Z" fill="#F4C522"/>
<path d="M58.4157 296.933C52.048 296.933 44.7707 291.41 39.6377 282.508C33.9848 272.762 33.205 262.691 37.6234 257.493C38.728 256.258 40.2224 255.348 41.9768 255.024L43.7311 254.699C44.7707 254.504 45.9403 255.153 46.3302 256.128L48.9942 263.081C49.3191 263.925 49.1891 265.16 48.7343 265.939L48.5393 266.264C48.0195 267.174 47.3698 267.889 46.5901 268.474C45.8753 269.058 43.6662 270.748 47.6947 277.765C51.7232 284.782 54.3872 283.678 55.2319 283.353C56.0765 283.028 56.8563 282.833 57.636 282.833H58.4157C59.3253 282.833 60.4299 283.353 61.0147 284.068L65.693 289.851C66.4077 290.695 66.3427 291.995 65.628 292.839L64.4584 294.204C63.3538 295.503 61.8594 296.413 60.235 296.673C59.7802 296.868 59.1304 296.933 58.4157 296.933ZM44.121 256.648L42.3666 256.973C41.0671 257.233 39.9625 257.817 39.1828 258.792C35.3492 263.275 36.2589 272.632 41.392 281.534C46.5251 290.5 54.2572 295.958 60.0401 294.789C61.2096 294.594 62.3142 293.879 63.1589 292.969L64.3285 291.605C64.3935 291.475 64.4584 291.215 64.3285 291.085L59.6502 285.302C59.4553 285.042 58.9355 284.782 58.6106 284.782H57.8309C57.3111 284.782 56.7263 284.912 56.1415 285.172C52.7628 286.602 49.449 284.458 46.2002 278.805C42.9514 273.152 42.7565 269.253 45.6154 266.979C46.1352 266.524 46.655 266.004 47.0449 265.29L47.2398 265.03C47.4348 264.77 47.4348 264.185 47.3698 263.86L44.7058 256.908C44.5108 256.778 44.3159 256.648 44.121 256.648Z" fill="#F4C522"/>
<path d="M322.41 429.939L137.683 376.269C134.824 375.424 132.875 372.825 132.875 369.836V243.263C132.875 238.78 137.163 235.596 141.452 236.83L326.178 290.5C329.037 291.345 330.596 294.009 330.596 296.998L330.337 422.726C330.272 427.21 326.698 431.238 322.41 429.939Z" fill="white"/>
<path d="M323.967 431.175C323.382 431.175 322.732 431.11 322.148 430.915L137.421 377.245C134.173 376.27 131.898 373.281 131.898 369.838V243.265C131.898 240.795 133.003 238.586 134.952 237.092C136.902 235.597 139.371 235.208 141.71 235.857L326.436 289.527C329.555 290.437 331.569 293.361 331.569 296.935L331.309 422.663C331.309 425.457 330.01 428.186 327.931 429.745C326.696 430.72 325.397 431.175 323.967 431.175ZM322.668 429.03C324.487 429.55 325.851 428.901 326.696 428.251C328.32 427.016 329.295 424.937 329.295 422.728L329.555 297C329.555 294.271 328.125 292.126 325.851 291.477L141.125 237.807C139.371 237.287 137.551 237.612 136.057 238.716C134.627 239.821 133.783 241.51 133.783 243.33V369.902C133.783 372.437 135.472 374.711 137.941 375.425L322.668 429.03Z" fill="#58595B"/>
<path d="M326.176 290.504L324.422 289.984V430.202C327.931 430.137 330.984 427.278 330.984 423.51V296.937C330.984 293.948 329.035 291.349 326.176 290.504Z" fill="#58595B"/>
<path d="M242.42 437.669V336.306C242.42 331.238 239.106 326.82 234.233 325.326L207.268 317.333C202.524 315.904 197.781 319.478 197.781 324.416V450.144C197.781 453.068 199.731 455.667 202.524 456.447L240.21 467.688C241.705 468.142 243.264 468.012 244.694 467.428L277.377 453.588C279.651 452.613 279.456 449.364 277.117 448.65L242.42 437.669Z" fill="#8692A6"/>
<path d="M249.638 292.97L201.816 278.675C201.166 278.48 200.711 277.895 200.711 277.181V273.022C200.711 271.983 201.751 271.203 202.725 271.528L249.183 285.433C250.223 285.757 250.872 286.667 250.872 287.707V291.995C250.937 292.71 250.288 293.165 249.638 292.97Z" fill="white"/>
<path d="M243.397 462.562C242.877 462.562 242.422 462.107 242.422 461.587V434.037C242.422 433.517 242.877 433.062 243.397 433.062C243.916 433.062 244.371 433.517 244.371 434.037V461.587C244.371 462.172 243.981 462.562 243.397 462.562Z" fill="white"/>
<path d="M148.335 429.743C148.335 446.247 122.085 485.882 115.782 495.109C115.132 496.083 113.768 496.083 113.118 495.109C108.635 488.481 93.885 466.259 85.828 448.196C82.6442 440.984 80.5 434.486 80.5 429.808C80.5 411.095 95.7044 395.891 114.417 395.891C133.13 395.891 148.335 411.03 148.335 429.743Z" fill="#F4C522"/>
<path d="M129.56 433.313C131.531 424.967 126.363 416.602 118.016 414.632C109.669 412.661 101.305 417.829 99.3342 426.176C97.3633 434.523 102.532 442.887 110.879 444.858C119.225 446.829 127.589 441.66 129.56 433.313Z" fill="white"/>
<path d="M117.464 444.426C113.956 444.426 110.382 443.321 107.393 440.982C103.885 438.253 101.675 434.419 101.156 430.001C101.091 429.481 101.48 428.961 102 428.896C102.52 428.831 103.04 429.221 103.105 429.741C103.56 433.575 105.574 437.018 108.628 439.422C114.93 444.361 124.092 443.191 129.03 436.823C131.434 433.769 132.474 429.936 131.954 426.102C131.499 422.269 129.485 418.825 126.431 416.421C124.027 414.537 121.103 413.497 117.984 413.367C117.464 413.367 117.01 412.912 117.075 412.392C117.075 411.873 117.529 411.418 118.049 411.483C121.558 411.613 124.807 412.782 127.601 414.926C131.109 417.655 133.319 421.489 133.838 425.907C134.358 430.261 133.189 434.614 130.525 438.058C127.276 442.216 122.403 444.426 117.464 444.426Z" fill="#F4C522"/>
<path d="M441.055 62.5651C440.86 62.5651 440.73 62.5002 440.535 62.4352C440.081 62.1753 439.951 61.5255 440.211 61.0707L458.859 31.4417C459.119 30.9869 459.768 30.8569 460.223 31.1168C460.678 31.3767 460.808 32.0265 460.548 32.4813L441.9 62.1103C441.705 62.3702 441.38 62.5651 441.055 62.5651Z" fill="#F4C522"/>
<path d="M439.363 86.2794C439.103 86.2794 438.778 86.1495 438.583 85.9545C438.258 85.5647 438.323 84.9149 438.713 84.59L487.185 44.6299C487.575 44.305 488.225 44.37 488.549 44.7598C488.874 45.1497 488.809 45.7995 488.419 46.1243L439.947 86.0845C439.818 86.2144 439.558 86.2794 439.363 86.2794Z" fill="#F4C522"/>
<path d="M446.123 95.5678C445.733 95.5678 445.343 95.3079 445.213 94.918C445.018 94.3982 445.278 93.8784 445.798 93.6835L470.359 85.2366C470.879 85.0417 471.398 85.3016 471.593 85.8214C471.788 86.3412 471.528 86.861 471.009 87.0559L446.448 95.5028C446.383 95.5678 446.253 95.5678 446.123 95.5678Z" fill="#F4C522"/>
<path d="M108.189 324.399C111.158 321.43 111.158 316.617 108.189 313.648C105.22 310.679 100.407 310.679 97.438 313.648C94.4692 316.617 94.4692 321.43 97.438 324.399C100.407 327.368 105.22 327.368 108.189 324.399Z" fill="#F4C522"/>
<path d="M365.68 511.165C369.879 511.165 373.282 507.762 373.282 503.563C373.282 499.365 369.879 495.961 365.68 495.961C361.482 495.961 358.078 499.365 358.078 503.563C358.078 507.762 361.482 511.165 365.68 511.165Z" fill="#F4C522"/>
<path d="M248.859 171.344C248.729 171.344 248.599 171.344 248.469 171.279C247.235 170.759 245.935 170.304 244.7 169.849C244.181 169.654 243.921 169.135 244.116 168.615C244.311 168.095 244.895 167.835 245.35 168.03C246.65 168.485 247.949 169.005 249.184 169.524C249.704 169.719 249.899 170.304 249.704 170.824C249.639 171.149 249.249 171.344 248.859 171.344ZM237.683 167.38C237.618 167.38 237.488 167.38 237.423 167.315C234.954 166.535 232.485 165.886 229.951 165.236C229.431 165.106 229.106 164.586 229.236 164.066C229.366 163.547 229.886 163.222 230.406 163.352C232.94 164.001 235.474 164.651 237.943 165.431C238.463 165.561 238.723 166.146 238.593 166.665C238.463 167.12 238.073 167.38 237.683 167.38ZM168.289 164.391C167.834 164.391 167.444 164.066 167.314 163.612C167.184 163.092 167.574 162.572 168.094 162.442C170.693 161.922 173.292 161.467 175.826 161.078C176.346 161.013 176.866 161.337 176.931 161.922C176.996 162.442 176.671 162.962 176.086 163.027C173.552 163.417 171.018 163.871 168.484 164.326C168.419 164.391 168.354 164.391 168.289 164.391ZM222.544 163.677C222.479 163.677 222.414 163.677 222.349 163.677C219.815 163.222 217.281 162.832 214.682 162.507C214.162 162.442 213.772 161.922 213.837 161.402C213.902 160.883 214.422 160.493 214.942 160.558C217.541 160.883 220.14 161.272 222.674 161.727C223.193 161.857 223.583 162.312 223.453 162.832C223.388 163.352 222.999 163.677 222.544 163.677ZM183.688 162.117C183.168 162.117 182.779 161.727 182.714 161.207C182.649 160.688 183.038 160.168 183.558 160.168C186.157 159.908 188.821 159.713 191.355 159.648C191.875 159.648 192.33 160.038 192.395 160.558C192.395 161.078 192.005 161.532 191.485 161.597C188.951 161.727 186.352 161.922 183.753 162.117C183.753 162.117 183.753 162.117 183.688 162.117ZM207.079 161.727H207.014C204.48 161.532 201.881 161.467 199.282 161.402C198.763 161.402 198.308 160.948 198.308 160.428C198.308 159.908 198.763 159.453 199.282 159.453C201.881 159.453 204.545 159.583 207.144 159.778C207.664 159.843 208.119 160.298 208.054 160.818C207.989 161.337 207.599 161.727 207.079 161.727Z" fill="#F4C522"/>
<path d="M55.6234 236.834C55.4285 236.834 55.2335 236.769 55.0386 236.639C54.5838 236.314 54.5188 235.729 54.8437 235.274C56.4031 233.195 58.0275 231.116 59.6519 229.102C59.9768 228.712 60.6265 228.647 61.0164 228.972C61.4062 229.297 61.4712 229.946 61.1463 230.336C59.5219 232.35 57.8975 234.365 56.4031 236.444C56.2082 236.704 55.8833 236.834 55.6234 236.834ZM65.4347 224.748C65.1748 224.748 64.9799 224.683 64.785 224.488C64.3951 224.163 64.3301 223.514 64.72 223.124C66.4094 221.175 68.2287 219.225 69.983 217.341C70.3729 216.951 70.9577 216.951 71.3475 217.276C71.7374 217.666 71.7374 218.251 71.4125 218.64C69.6582 220.525 67.9038 222.409 66.1495 224.358C65.9545 224.618 65.6946 224.748 65.4347 224.748ZM76.2207 213.442C75.9608 213.442 75.7009 213.312 75.506 213.118C75.1161 212.728 75.1161 212.143 75.506 211.753C77.3903 209.934 79.2746 208.114 81.2239 206.425C81.6137 206.035 82.2635 206.1 82.5884 206.49C82.9782 206.88 82.9132 207.53 82.5234 207.855C80.5741 209.544 78.6898 211.363 76.8705 213.118C76.6756 213.377 76.4157 213.442 76.2207 213.442ZM87.8514 203.046C87.5915 203.046 87.2666 202.916 87.0717 202.721C86.7468 202.332 86.8118 201.682 87.2016 201.357C89.2159 199.733 91.2951 198.043 93.3743 196.484C93.8292 196.159 94.414 196.224 94.7388 196.679C95.0637 197.133 94.9987 197.718 94.5439 198.043C92.4647 199.603 90.4504 201.227 88.4362 202.851C88.2413 202.981 88.0463 203.046 87.8514 203.046ZM100.262 193.625C99.9369 193.625 99.677 193.495 99.4821 193.235C99.1572 192.78 99.2872 192.195 99.742 191.87C101.886 190.376 104.095 188.947 106.24 187.517C106.694 187.257 107.279 187.387 107.604 187.842C107.864 188.297 107.734 188.882 107.279 189.206C105.135 190.571 102.926 192 100.847 193.495C100.652 193.625 100.457 193.625 100.262 193.625ZM113.387 185.308C113.062 185.308 112.737 185.113 112.542 184.788C112.282 184.333 112.412 183.748 112.867 183.489L113.582 183.099C114.037 182.839 114.621 182.969 114.881 183.489C115.141 183.943 115.011 184.528 114.491 184.788L113.777 185.178C113.777 185.243 113.582 185.308 113.387 185.308Z" fill="#F4C522"/>
<path d="M182.321 525.262C180.242 525.262 178.098 525.197 176.018 525.132C175.499 525.132 175.044 524.678 175.109 524.093C175.109 523.573 175.564 523.118 176.148 523.183C178.747 523.313 181.346 523.313 183.881 523.313C184.4 523.313 184.855 523.768 184.855 524.288C184.855 524.808 184.4 525.262 183.881 525.262C183.296 525.262 182.841 525.262 182.321 525.262ZM191.613 525.003C191.093 525.003 190.703 524.613 190.638 524.093C190.573 523.573 191.028 523.118 191.548 523.053C192.003 523.053 192.457 522.988 192.912 522.988C195.056 522.858 197.201 522.663 199.28 522.468C199.8 522.403 200.319 522.793 200.319 523.378C200.384 523.898 199.995 524.418 199.41 524.418C197.266 524.613 195.121 524.808 192.977 524.938C192.587 524.938 192.132 524.938 191.613 525.003C191.613 525.003 191.678 525.003 191.613 525.003ZM168.286 524.613H168.221C165.622 524.353 163.023 524.093 160.424 523.703C159.904 523.638 159.515 523.118 159.58 522.598C159.645 522.079 160.164 521.689 160.684 521.754C163.218 522.079 165.817 522.403 168.351 522.598C168.871 522.663 169.261 523.118 169.261 523.638C169.196 524.223 168.741 524.613 168.286 524.613ZM207.142 523.508C206.687 523.508 206.232 523.118 206.167 522.663C206.102 522.144 206.492 521.624 207.012 521.559C209.546 521.234 212.145 520.909 214.679 520.519C215.199 520.454 215.719 520.779 215.784 521.364C215.849 521.884 215.524 522.403 214.939 522.468C212.34 522.858 209.741 523.248 207.207 523.573C207.207 523.508 207.207 523.508 207.142 523.508ZM152.822 522.468C152.757 522.468 152.692 522.468 152.627 522.468C150.093 522.014 147.494 521.429 144.96 520.844C144.44 520.714 144.115 520.194 144.245 519.674C144.375 519.155 144.895 518.83 145.415 518.96C147.949 519.545 150.483 520.064 153.017 520.584C153.537 520.714 153.927 521.169 153.797 521.754C153.732 522.144 153.277 522.468 152.822 522.468ZM222.541 521.169C222.086 521.169 221.696 520.844 221.567 520.389C221.502 519.869 221.826 519.35 222.346 519.285C224.88 518.83 227.414 518.31 229.948 517.79C230.468 517.66 230.988 517.985 231.118 518.57C231.248 519.09 230.923 519.61 230.338 519.739C227.804 520.259 225.205 520.779 222.671 521.234C222.671 521.169 222.606 521.169 222.541 521.169ZM137.683 518.96C137.618 518.96 137.488 518.96 137.423 518.895C134.954 518.18 132.42 517.4 129.951 516.556C129.431 516.361 129.171 515.841 129.366 515.321C129.561 514.801 130.081 514.541 130.6 514.736C133.069 515.581 135.539 516.296 138.008 517.01C138.527 517.14 138.852 517.725 138.657 518.245C138.462 518.635 138.073 518.96 137.683 518.96ZM237.81 517.92C237.356 517.92 236.966 517.595 236.836 517.14C236.706 516.621 237.031 516.101 237.551 515.971C240.02 515.386 242.554 514.736 245.088 514.087C245.608 513.957 246.127 514.281 246.257 514.801C246.387 515.321 246.062 515.841 245.543 515.971C243.009 516.621 240.475 517.27 237.94 517.92C237.94 517.92 237.875 517.92 237.81 517.92ZM122.868 514.022C122.738 514.022 122.608 514.022 122.543 513.957C120.139 513.047 117.67 512.007 115.266 510.968C114.746 510.773 114.551 510.188 114.746 509.668C114.941 509.148 115.526 508.953 116.046 509.148C118.385 510.188 120.789 511.163 123.193 512.072C123.713 512.267 123.973 512.852 123.778 513.307C123.648 513.762 123.323 514.022 122.868 514.022ZM252.885 513.892C252.495 513.892 252.105 513.632 251.975 513.177C251.845 512.657 252.105 512.137 252.625 511.942C255.094 511.228 257.563 510.448 260.032 509.668C260.552 509.473 261.072 509.798 261.267 510.318C261.462 510.838 261.137 511.358 260.617 511.552C258.148 512.332 255.614 513.112 253.145 513.827C253.08 513.892 252.95 513.892 252.885 513.892ZM267.699 509.148C267.31 509.148 266.92 508.888 266.79 508.499C266.595 507.979 266.855 507.459 267.374 507.264C269.779 506.419 272.248 505.575 274.717 504.665C275.237 504.47 275.756 504.73 275.951 505.25C276.146 505.77 275.886 506.289 275.367 506.484C272.897 507.394 270.428 508.304 268.024 509.148C267.959 509.148 267.829 509.148 267.699 509.148ZM473.738 508.044C473.218 508.044 472.763 507.589 472.763 507.069C472.763 506.549 473.153 506.095 473.738 506.095C476.272 506.03 478.871 505.835 481.34 505.38C481.86 505.315 482.38 505.64 482.445 506.16C482.51 506.679 482.185 507.199 481.665 507.264C479.066 507.719 476.402 507.979 473.738 508.044ZM108.639 507.784C108.509 507.784 108.379 507.784 108.184 507.654C105.845 506.484 103.505 505.315 101.231 504.08C100.776 503.82 100.582 503.236 100.841 502.781C101.101 502.326 101.686 502.131 102.141 502.391C104.415 503.625 106.754 504.795 109.028 505.965C109.483 506.224 109.743 506.809 109.483 507.264C109.353 507.589 108.963 507.784 108.639 507.784ZM465.941 507.654C465.876 507.654 465.876 507.654 465.811 507.654C463.212 507.329 460.613 506.809 458.014 506.16C457.494 506.03 457.169 505.51 457.299 504.99C457.429 504.47 457.949 504.145 458.468 504.275C460.938 504.925 463.472 505.445 466.006 505.77C466.525 505.835 466.915 506.354 466.85 506.874C466.85 507.264 466.395 507.654 465.941 507.654ZM489.007 505.445C488.617 505.445 488.227 505.185 488.097 504.795C487.903 504.275 488.227 503.755 488.747 503.56C490.956 502.846 493.101 501.936 495.18 500.961C495.375 500.831 495.635 500.767 495.83 500.637C496.284 500.377 496.869 500.572 497.129 501.091C497.389 501.546 497.194 502.131 496.674 502.391C496.479 502.521 496.219 502.586 496.024 502.716C493.88 503.755 491.671 504.665 489.397 505.445C489.267 505.445 489.137 505.445 489.007 505.445ZM282.319 503.69C281.929 503.69 281.539 503.431 281.409 503.106C281.214 502.586 281.474 502.066 281.929 501.871C284.333 500.896 286.737 499.922 289.141 498.947C289.661 498.752 290.181 498.947 290.441 499.467C290.636 499.987 290.441 500.507 289.921 500.767C287.517 501.806 285.048 502.781 282.709 503.755C282.579 503.69 282.449 503.69 282.319 503.69ZM450.931 503.625C450.801 503.625 450.671 503.625 450.541 503.56C448.137 502.586 445.733 501.416 443.394 500.247C442.939 499.987 442.744 499.402 443.004 498.947C443.264 498.492 443.849 498.297 444.304 498.557C446.578 499.727 448.917 500.831 451.256 501.806C451.776 502.001 451.971 502.586 451.776 503.106C451.646 503.366 451.321 503.625 450.931 503.625ZM94.9286 500.377C94.7337 500.377 94.6037 500.312 94.4088 500.247C92.1996 498.882 89.9255 497.518 87.7813 496.088C87.3264 495.763 87.1965 495.179 87.5214 494.724C87.8462 494.269 88.431 494.139 88.8858 494.464C91.0301 495.893 93.2392 497.258 95.4484 498.622C95.9032 498.882 96.0332 499.467 95.7733 499.987C95.5784 500.182 95.2535 500.377 94.9286 500.377ZM502.912 498.427C502.587 498.427 502.327 498.297 502.132 498.038C501.807 497.583 501.937 496.998 502.327 496.673C504.406 495.179 506.356 493.489 508.045 491.67C508.435 491.28 509.02 491.28 509.41 491.605C509.799 491.995 509.799 492.58 509.474 492.969C507.72 494.854 505.641 496.608 503.497 498.232C503.302 498.362 503.107 498.427 502.912 498.427ZM296.679 497.648C296.289 497.648 295.964 497.453 295.769 497.063C295.574 496.543 295.769 496.023 296.289 495.763C298.628 494.724 301.032 493.619 303.371 492.515C303.891 492.255 304.411 492.515 304.671 492.969C304.931 493.489 304.671 494.009 304.216 494.269C301.812 495.374 299.473 496.478 297.133 497.518C297.003 497.648 296.809 497.648 296.679 497.648ZM437.156 496.413C436.961 496.413 436.767 496.348 436.637 496.283C434.427 494.854 432.283 493.359 430.204 491.735C429.749 491.41 429.684 490.76 430.009 490.37C430.334 489.916 430.984 489.851 431.374 490.175C433.388 491.735 435.532 493.229 437.611 494.659C438.066 494.984 438.196 495.568 437.871 496.023C437.806 496.218 437.481 496.413 437.156 496.413ZM81.9334 491.8C81.7385 491.8 81.5436 491.735 81.3486 491.605C79.2694 490.045 77.1252 488.486 75.111 486.862C74.7211 486.537 74.5912 485.887 74.981 485.497C75.3059 485.107 75.9557 484.977 76.3455 485.367C78.3598 486.992 80.439 488.551 82.5182 490.046C82.973 490.37 83.038 490.955 82.7131 491.41C82.5182 491.605 82.2583 491.8 81.9334 491.8ZM310.843 491.085C310.453 491.085 310.129 490.89 309.999 490.565C309.739 490.11 309.934 489.526 310.453 489.266C312.728 488.161 315.067 486.992 317.406 485.822C317.861 485.562 318.446 485.757 318.705 486.277C318.965 486.732 318.77 487.317 318.251 487.576C315.911 488.746 313.572 489.916 311.233 491.085C311.103 491.02 310.973 491.085 310.843 491.085ZM513.503 487.122C513.308 487.122 513.178 487.057 512.983 486.992C512.528 486.732 512.398 486.082 512.658 485.627C513.958 483.483 515.062 481.209 515.907 478.805C516.102 478.285 516.622 478.025 517.142 478.22C517.661 478.415 517.921 478.935 517.726 479.454C516.817 481.989 515.647 484.393 514.283 486.667C514.153 486.992 513.828 487.122 513.503 487.122ZM424.876 486.862C424.616 486.862 424.421 486.797 424.226 486.602C422.342 484.847 420.458 482.963 418.638 481.014C418.248 480.624 418.313 479.974 418.703 479.649C419.093 479.26 419.743 479.324 420.068 479.714C421.822 481.599 423.641 483.483 425.526 485.172C425.916 485.562 425.916 486.147 425.591 486.537C425.396 486.732 425.136 486.862 424.876 486.862ZM324.748 484.003C324.423 484.003 324.033 483.808 323.903 483.483C323.644 483.028 323.839 482.443 324.293 482.183C326.567 481.014 328.842 479.714 331.116 478.48C331.571 478.22 332.155 478.415 332.415 478.87C332.675 479.324 332.48 479.909 332.025 480.169C329.751 481.404 327.412 482.703 325.138 483.873C325.073 484.003 324.878 484.003 324.748 484.003ZM69.718 482.118C69.523 482.118 69.2631 482.053 69.0682 481.859C67.1189 480.169 65.1697 478.35 63.2854 476.595C62.8955 476.206 62.8955 475.621 63.2204 475.231C63.6102 474.841 64.195 474.841 64.5849 475.166C66.4692 476.92 68.3535 478.675 70.3028 480.364C70.6926 480.689 70.7576 481.339 70.3677 481.729C70.3028 481.989 69.9779 482.118 69.718 482.118ZM338.458 476.531C338.133 476.531 337.808 476.336 337.613 476.011C337.353 475.556 337.483 474.971 338.003 474.711C340.212 473.477 342.487 472.177 344.761 470.813C345.216 470.553 345.8 470.683 346.125 471.138C346.385 471.592 346.255 472.177 345.8 472.502C343.526 473.802 341.252 475.166 339.043 476.401C338.783 476.466 338.588 476.531 338.458 476.531ZM414.35 475.426C414.09 475.426 413.765 475.296 413.57 475.036C411.946 473.022 410.386 470.878 408.892 468.733C408.567 468.279 408.697 467.694 409.152 467.369C409.607 467.044 410.191 467.174 410.516 467.629C412.011 469.773 413.57 471.852 415.13 473.802C415.454 474.191 415.389 474.841 415 475.166C414.74 475.296 414.545 475.426 414.35 475.426ZM518.766 472.567C518.701 472.567 518.636 472.567 518.636 472.567C518.116 472.502 517.726 471.982 517.856 471.462C518.246 469.058 518.441 466.459 518.441 463.86C518.441 463.34 518.896 462.886 519.416 462.886C519.936 462.886 520.39 463.34 520.39 463.86C520.39 466.589 520.196 469.253 519.741 471.787C519.676 472.242 519.286 472.567 518.766 472.567ZM58.4122 471.397C58.1523 471.397 57.8924 471.267 57.6974 471.073C55.8781 469.188 54.1238 467.239 52.3694 465.29C52.0445 464.9 52.0445 464.25 52.4344 463.925C52.8243 463.6 53.474 463.6 53.7989 463.99C55.4883 465.939 57.2426 467.824 59.0619 469.708C59.4518 470.098 59.4518 470.683 59.0619 471.073C58.932 471.267 58.6721 471.397 58.4122 471.397ZM351.908 468.668C351.583 468.668 351.258 468.474 351.063 468.214C350.803 467.759 350.933 467.174 351.388 466.849C353.662 465.485 355.872 464.185 358.081 462.821C358.536 462.561 359.12 462.691 359.445 463.145C359.705 463.6 359.575 464.185 359.12 464.51C356.911 465.874 354.702 467.174 352.428 468.538C352.233 468.603 352.103 468.668 351.908 468.668ZM405.448 462.626C405.123 462.626 404.798 462.431 404.603 462.171C403.304 459.962 401.939 457.688 400.705 455.348C400.445 454.894 400.64 454.309 401.095 454.049C401.55 453.789 402.134 453.984 402.394 454.439C403.629 456.713 404.928 458.987 406.228 461.196C406.488 461.651 406.358 462.236 405.903 462.561C405.773 462.561 405.643 462.626 405.448 462.626ZM365.228 460.546C364.903 460.546 364.578 460.352 364.383 460.092C364.124 459.637 364.253 459.052 364.708 458.727C366.917 457.363 369.127 455.933 371.336 454.569C371.791 454.309 372.375 454.439 372.7 454.894C372.96 455.348 372.83 455.933 372.375 456.258C370.166 457.623 368.022 458.987 365.748 460.416C365.553 460.481 365.423 460.546 365.228 460.546ZM48.146 459.702C47.8861 459.702 47.5612 459.572 47.3663 459.312C45.7419 457.298 44.1175 455.218 42.623 453.074C42.2982 452.619 42.4281 452.035 42.818 451.71C43.2728 451.385 43.8576 451.515 44.1825 451.905C45.6769 453.984 47.3013 456.063 48.8607 458.077C49.1856 458.467 49.1206 459.117 48.7308 459.442C48.5358 459.637 48.3409 459.702 48.146 459.702ZM519.026 457.038C518.506 457.038 518.116 456.648 518.051 456.128C517.791 453.529 517.467 450.93 517.012 448.526C516.882 448.006 517.272 447.486 517.791 447.356C518.311 447.226 518.831 447.616 518.961 448.136C519.416 450.67 519.806 453.269 520.001 455.933C520.066 456.453 519.676 456.973 519.091 456.973C519.091 457.038 519.091 457.038 519.026 457.038ZM378.418 452.23C378.093 452.23 377.768 452.1 377.573 451.775C377.314 451.32 377.444 450.735 377.898 450.41C380.108 448.981 382.317 447.616 384.461 446.187C384.916 445.927 385.501 446.057 385.825 446.447C386.085 446.902 385.955 447.486 385.566 447.811C383.421 449.176 381.212 450.605 379.003 452.035C378.808 452.165 378.613 452.23 378.418 452.23ZM398.041 448.851C397.651 448.851 397.326 448.656 397.131 448.266C396.157 446.252 395.247 444.173 394.337 442.093C393.558 442.613 392.778 443.068 391.998 443.588C391.543 443.848 390.959 443.783 390.634 443.328C390.309 442.873 390.504 442.288 390.894 441.963C393.103 440.534 395.312 439.104 397.456 437.74C397.911 437.48 398.496 437.61 398.821 438C399.081 438.455 398.951 439.039 398.496 439.364C397.651 439.884 396.806 440.469 395.897 441.054C396.806 443.263 397.781 445.407 398.756 447.486C399.016 447.941 398.756 448.526 398.301 448.786C398.366 448.851 398.236 448.851 398.041 448.851ZM38.9844 447.096C38.6595 447.096 38.3346 446.967 38.1397 446.642C36.7102 444.497 35.2808 442.223 33.9813 440.014C33.7214 439.559 33.8513 438.974 34.3061 438.65C34.761 438.39 35.3458 438.52 35.6706 438.974C36.9701 441.184 38.3346 443.393 39.7641 445.537C40.089 445.992 39.959 446.577 39.5042 446.902C39.3093 447.031 39.1143 447.096 38.9844 447.096ZM516.102 441.768C515.712 441.768 515.322 441.509 515.192 441.054C514.413 438.585 513.503 436.181 512.398 433.906C512.138 433.452 512.398 432.867 512.853 432.607C513.308 432.347 513.893 432.607 514.153 433.062C515.257 435.401 516.232 437.87 517.012 440.469C517.142 440.989 516.882 441.509 516.362 441.703C516.297 441.768 516.232 441.768 516.102 441.768ZM404.668 435.336C404.344 435.336 404.019 435.206 403.824 434.881C403.564 434.426 403.694 433.841 404.149 433.517C406.423 432.087 408.567 430.723 410.776 429.358C411.231 429.098 411.816 429.228 412.141 429.683C412.401 430.138 412.271 430.723 411.816 431.047C409.672 432.412 407.462 433.776 405.253 435.206C405.058 435.271 404.863 435.336 404.668 435.336ZM391.998 434.491C391.608 434.491 391.218 434.231 391.089 433.841C390.179 431.437 389.334 428.968 388.489 426.434C388.295 425.914 388.619 425.395 389.139 425.2C389.659 425.005 390.179 425.33 390.374 425.784C391.218 428.253 392.063 430.723 392.973 433.127C393.168 433.646 392.908 434.166 392.388 434.361C392.258 434.491 392.128 434.491 391.998 434.491ZM30.9924 433.776C30.6675 433.776 30.2776 433.581 30.1477 433.257C28.9131 430.982 27.7436 428.578 26.639 426.239C26.3791 425.784 26.639 425.2 27.0938 424.94C27.5486 424.68 28.1334 424.94 28.3933 425.395C29.4979 427.734 30.6675 430.073 31.902 432.347C32.1619 432.802 31.967 433.387 31.5122 433.646C31.3172 433.711 31.1873 433.776 30.9924 433.776ZM509.41 427.734C509.085 427.734 508.825 427.604 508.63 427.344C507.135 425.265 505.511 423.315 503.757 421.561C503.367 421.171 503.367 420.586 503.757 420.196C504.146 419.807 504.731 419.807 505.121 420.196C507.005 422.016 508.695 424.095 510.254 426.304C510.579 426.759 510.449 427.344 509.994 427.669C509.799 427.669 509.604 427.734 509.41 427.734ZM417.924 427.084C417.599 427.084 417.274 426.889 417.079 426.629C416.819 426.174 416.949 425.589 417.404 425.265C419.808 423.835 422.017 422.536 424.161 421.301C424.616 421.041 425.201 421.171 425.461 421.691C425.721 422.146 425.591 422.731 425.071 422.99C422.992 424.225 420.782 425.524 418.378 426.954C418.248 427.019 418.118 427.084 417.924 427.084ZM387.06 419.677C386.67 419.677 386.28 419.417 386.15 418.962C385.436 416.493 384.721 413.959 384.071 411.425C383.941 410.905 384.266 410.385 384.786 410.255C385.306 410.125 385.825 410.45 385.955 410.97C386.605 413.504 387.32 416.038 388.035 418.442C388.165 418.962 387.905 419.482 387.385 419.677C387.255 419.677 387.19 419.677 387.06 419.677ZM24.3648 419.677C23.975 419.677 23.6501 419.482 23.4552 419.092C22.4805 416.688 21.5059 414.219 20.6612 411.75C20.4663 411.23 20.7262 410.71 21.246 410.515C21.7658 410.32 22.2856 410.58 22.4805 411.1C23.3252 413.504 24.2999 415.973 25.2745 418.312C25.4694 418.832 25.2745 419.352 24.7547 419.612C24.6247 419.612 24.4948 419.677 24.3648 419.677ZM431.503 419.352C431.179 419.352 430.789 419.157 430.659 418.832C430.399 418.377 430.594 417.792 431.049 417.532C433.518 416.233 435.857 415.063 438.066 414.024C438.586 413.764 439.106 414.024 439.366 414.479C439.56 414.998 439.366 415.518 438.911 415.778C436.767 416.753 434.427 417.922 431.958 419.222C431.763 419.287 431.633 419.352 431.503 419.352ZM498.299 416.948C498.104 416.948 497.909 416.883 497.779 416.818C495.7 415.453 493.425 414.284 491.086 413.244C490.567 413.049 490.372 412.464 490.567 411.945C490.761 411.425 491.346 411.23 491.866 411.425C494.335 412.464 496.739 413.699 498.883 415.128C499.338 415.453 499.468 416.038 499.143 416.493C498.948 416.753 498.624 416.948 498.299 416.948ZM445.668 412.854C445.278 412.854 444.888 412.594 444.759 412.204C444.564 411.685 444.824 411.165 445.343 410.97C448.007 409.995 450.606 409.216 452.945 408.696C453.465 408.566 453.985 408.891 454.115 409.41C454.245 409.93 453.92 410.45 453.4 410.58C451.126 411.035 448.657 411.815 446.058 412.724C445.863 412.854 445.733 412.854 445.668 412.854ZM484.069 410.905C484.004 410.905 483.939 410.905 483.809 410.905C481.405 410.32 478.871 409.865 476.272 409.605C475.752 409.54 475.362 409.086 475.427 408.566C475.492 408.046 475.947 407.656 476.467 407.721C479.196 407.981 481.795 408.436 484.264 409.021C484.784 409.151 485.109 409.67 484.979 410.19C484.914 410.58 484.524 410.905 484.069 410.905ZM460.808 409.605C460.288 409.605 459.898 409.216 459.833 408.696C459.768 408.176 460.158 407.656 460.743 407.656C463.407 407.396 466.071 407.266 468.605 407.266C469.124 407.266 469.579 407.721 469.579 408.241C469.579 408.761 469.124 409.216 468.605 409.216C466.136 409.216 463.537 409.346 460.938 409.605C460.873 409.605 460.873 409.605 460.808 409.605ZM19.1018 404.992C18.7119 404.992 18.3221 404.732 18.1921 404.277C17.4124 401.808 16.7627 399.274 16.1129 396.74C15.9829 396.22 16.3078 395.701 16.8276 395.571C17.3474 395.441 17.8672 395.766 17.9972 396.285C18.647 398.754 19.2967 401.289 20.0764 403.758C20.2064 404.277 19.9465 404.797 19.4267 404.992C19.2967 404.992 19.1668 404.992 19.1018 404.992ZM383.096 404.602C382.642 404.602 382.252 404.277 382.122 403.823C381.537 401.353 380.952 398.754 380.432 396.155C380.303 395.636 380.692 395.116 381.212 394.986C381.732 394.856 382.252 395.246 382.382 395.766C382.902 398.3 383.486 400.899 384.071 403.368C384.201 403.888 383.876 404.407 383.356 404.537C383.226 404.602 383.161 404.602 383.096 404.602ZM15.3332 389.853C14.8784 389.853 14.4885 389.528 14.3586 389.073C13.8387 386.539 13.3839 383.94 12.9941 381.341C12.9291 380.821 13.254 380.301 13.8387 380.236C14.3586 380.171 14.8784 380.496 14.9433 381.081C15.3332 383.615 15.788 386.214 16.2429 388.683C16.3728 389.203 15.9829 389.723 15.4631 389.853C15.4631 389.853 15.3982 389.853 15.3332 389.853ZM379.978 389.333C379.523 389.333 379.133 389.008 379.003 388.553C378.548 386.019 378.093 383.42 377.703 380.821C377.638 380.301 377.963 379.782 378.483 379.717C379.003 379.652 379.523 379.976 379.588 380.496C379.978 383.095 380.432 385.694 380.887 388.163C380.952 388.683 380.627 389.203 380.108 389.268C380.108 389.333 380.043 389.333 379.978 389.333ZM13.059 374.453C12.5392 374.453 12.1494 374.064 12.0844 373.544C11.8245 370.945 11.6296 368.346 11.4996 365.747C11.4996 365.227 11.8895 364.772 12.4093 364.707C12.9291 364.642 13.3839 365.097 13.4489 365.617C13.5788 368.216 13.7738 370.815 14.0337 373.349C14.0986 373.869 13.7088 374.389 13.189 374.389C13.124 374.453 13.059 374.453 13.059 374.453ZM377.573 373.869C377.119 373.869 376.664 373.544 376.599 373.024C376.274 370.49 375.949 367.891 375.624 365.227C375.559 364.707 375.949 364.187 376.469 364.122C376.989 364.057 377.509 364.447 377.573 364.967C377.898 367.566 378.223 370.165 378.548 372.699C378.613 373.219 378.223 373.739 377.703 373.804C377.638 373.869 377.573 373.869 377.573 373.869ZM12.2793 358.924C11.7595 358.924 11.3047 358.469 11.3047 357.95V357.56C11.3047 355.091 11.3697 352.622 11.4996 350.153C11.4996 349.633 11.9544 349.178 12.5392 349.243C13.059 349.243 13.5139 349.698 13.4489 350.282C13.3189 352.752 13.254 355.221 13.254 357.625V358.015C13.254 358.469 12.7991 358.924 12.2793 358.924ZM375.754 358.404C375.234 358.404 374.845 358.015 374.78 357.495C374.52 354.896 374.325 352.297 374.13 349.698C374.065 349.178 374.52 348.723 375.039 348.658C375.559 348.593 376.014 349.048 376.079 349.568C376.274 352.167 376.534 354.766 376.729 357.3C376.794 357.82 376.404 358.339 375.819 358.339C375.819 358.404 375.819 358.404 375.754 358.404ZM12.9291 343.33H12.8641C12.3443 343.265 11.9544 342.81 11.9544 342.29C12.2143 339.691 12.4743 337.092 12.8641 334.493C12.9291 333.974 13.4489 333.584 13.9687 333.649C14.4885 333.714 14.8784 334.233 14.8134 334.753C14.4885 337.287 14.1636 339.886 13.9687 342.485C13.8387 342.94 13.4489 343.33 12.9291 343.33ZM374.585 342.81C374.065 342.81 373.675 342.42 373.61 341.901C373.48 339.302 373.35 336.703 373.22 334.103C373.22 333.584 373.61 333.129 374.13 333.064C374.65 333.064 375.104 333.454 375.169 333.974C375.299 336.573 375.429 339.172 375.559 341.771C375.559 342.355 375.169 342.81 374.585 342.81ZM15.0083 327.866C14.9433 327.866 14.8784 327.866 14.8134 327.866C14.2936 327.801 13.9037 327.281 14.0337 326.761C14.4885 324.227 15.0083 321.628 15.5931 319.094C15.723 318.574 16.2429 318.249 16.7627 318.379C17.2825 318.509 17.6073 319.029 17.4774 319.549C16.8926 322.083 16.3728 324.617 15.918 327.151C15.918 327.541 15.4631 327.866 15.0083 327.866ZM373.935 327.216C373.415 327.216 372.96 326.826 372.96 326.241C372.895 323.642 372.83 321.043 372.83 318.444C372.83 317.924 373.285 317.47 373.805 317.47C374.325 317.47 374.78 317.924 374.78 318.444C374.78 321.043 374.845 323.642 374.91 326.241C374.91 326.761 374.455 327.216 373.935 327.216ZM18.452 312.661C18.3871 312.661 18.2571 312.661 18.1921 312.596C17.6723 312.467 17.3474 311.947 17.4774 311.427C17.6073 310.907 17.7373 310.387 17.8672 309.867C17.9972 309.348 18.517 309.023 19.0368 309.218C19.5566 309.348 19.8815 309.867 19.6866 310.387C19.5566 310.907 19.4267 311.427 19.2967 311.882C19.2317 312.402 18.8419 312.661 18.452 312.661ZM373.74 311.622C373.22 311.622 372.765 311.167 372.765 310.647C372.765 307.983 372.83 305.384 372.895 302.85C372.895 302.33 373.35 301.875 373.87 301.875C374.39 301.875 374.845 302.33 374.845 302.85C374.78 305.384 374.715 307.983 374.715 310.647C374.715 311.167 374.325 311.622 373.74 311.622ZM374.13 296.028C373.545 296.028 373.155 295.573 373.155 294.988C373.35 290.05 373.61 287.191 373.61 287.191C373.675 286.671 374.13 286.281 374.65 286.281C375.169 286.346 375.559 286.801 375.559 287.321C375.559 287.321 375.299 290.18 375.104 295.053C375.104 295.573 374.65 296.028 374.13 296.028Z" fill="#F4C522"/>
<path d="M199.928 193.629C199.538 193.629 199.148 193.369 199.018 192.979C198.823 192.459 199.148 191.939 199.668 191.745C199.798 191.68 202.527 190.835 207.27 189.665C207.79 189.535 208.31 189.86 208.44 190.38C208.57 190.9 208.245 191.42 207.725 191.55C203.047 192.654 200.318 193.564 200.253 193.564C200.188 193.564 200.058 193.629 199.928 193.629ZM283.812 191.68C283.682 191.68 283.617 191.68 283.487 191.615C281.343 190.9 279.068 190.25 276.794 189.73C276.274 189.6 275.95 189.081 276.079 188.561C276.209 188.041 276.729 187.716 277.249 187.846C279.588 188.431 281.862 189.081 284.072 189.795C284.591 189.99 284.851 190.51 284.721 191.03C284.591 191.42 284.201 191.68 283.812 191.68ZM215.132 189.86C214.677 189.86 214.287 189.535 214.157 189.081C214.028 188.561 214.417 188.041 214.937 187.911C217.471 187.391 220.07 186.936 222.669 186.547C223.189 186.482 223.709 186.806 223.774 187.391C223.839 187.911 223.514 188.431 222.929 188.496C220.395 188.886 217.796 189.34 215.262 189.86C215.262 189.86 215.197 189.86 215.132 189.86ZM269.387 188.171C269.322 188.171 269.257 188.171 269.192 188.171C266.723 187.781 264.124 187.391 261.525 187.131C261.005 187.066 260.615 186.611 260.68 186.092C260.745 185.572 261.2 185.182 261.72 185.247C264.384 185.507 266.983 185.832 269.517 186.287C270.037 186.352 270.427 186.871 270.297 187.391C270.297 187.846 269.842 188.171 269.387 188.171ZM230.531 187.521C230.012 187.521 229.622 187.131 229.557 186.676C229.492 186.157 229.882 185.637 230.401 185.572C233 185.312 235.665 185.052 238.199 184.922C238.718 184.857 239.173 185.312 239.238 185.832C239.303 186.352 238.848 186.806 238.329 186.871C235.794 187.001 233.195 187.261 230.596 187.521C230.596 187.521 230.596 187.521 230.531 187.521ZM253.858 186.611C251.259 186.482 248.66 186.482 246.061 186.547C245.541 186.547 245.086 186.157 245.086 185.572C245.086 185.052 245.476 184.597 246.061 184.597C248.66 184.532 251.324 184.597 253.923 184.662C254.443 184.662 254.897 185.117 254.832 185.702C254.832 186.222 254.378 186.611 253.858 186.611Z" fill="#F4C522"/>
<path d="M291.415 161.204C291.155 161.204 290.83 161.074 290.635 160.814C290.635 160.814 288.686 158.475 285.372 155.161C284.983 154.771 284.983 154.186 285.372 153.797C285.762 153.407 286.347 153.407 286.737 153.797C290.116 157.175 292.065 159.514 292.13 159.579C292.455 159.969 292.39 160.619 292 160.944C291.805 161.139 291.61 161.204 291.415 161.204ZM280.304 150.223C280.109 150.223 279.849 150.158 279.655 149.963C277.64 148.274 275.626 146.714 273.547 145.22C273.092 144.895 273.027 144.31 273.287 143.855C273.612 143.4 274.197 143.335 274.651 143.595C276.731 145.09 278.81 146.714 280.889 148.404C281.279 148.728 281.344 149.378 281.019 149.768C280.889 150.093 280.564 150.223 280.304 150.223ZM267.569 141.256C267.374 141.256 267.244 141.191 267.114 141.126C264.84 139.827 262.501 138.657 260.227 137.683C259.707 137.488 259.512 136.903 259.707 136.383C259.902 135.863 260.487 135.668 261.006 135.863C263.346 136.903 265.75 138.072 268.089 139.437C268.544 139.697 268.739 140.282 268.479 140.736C268.219 141.061 267.894 141.256 267.569 141.256Z" fill="#F4C522"/>
<path d="M491.35 459.829C491.35 468.861 477.575 490.043 473.157 496.605C472.507 497.58 471.077 497.58 470.428 496.605C466.009 490.043 452.234 468.861 452.234 459.829C452.234 449.043 460.941 440.336 471.727 440.336C482.578 440.271 491.35 449.043 491.35 459.829Z" fill="#F4C522"/>
<path d="M478.798 460.907C479.419 457.082 476.821 453.477 472.996 452.856C469.17 452.236 465.565 454.833 464.944 458.659C464.324 462.485 466.922 466.089 470.747 466.71C474.573 467.331 478.177 464.733 478.798 460.907Z" fill="white"/>
</svg>
