<svg width="95" height="95" viewBox="0 0 95 95" fill="none" xmlns="http://www.w3.org/2000/svg">
<path d="M51.9531 84.6094H43.0469C42.6532 84.6094 42.2756 84.453 41.9973 84.1746C41.7189 83.8962 41.5625 83.5187 41.5625 83.125C41.5625 82.7313 41.7189 82.3538 41.9973 82.0754C42.2756 81.797 42.6532 81.6406 43.0469 81.6406H51.9531C52.3468 81.6406 52.7244 81.797 53.0027 82.0754C53.2811 82.3538 53.4375 82.7313 53.4375 83.125C53.4375 83.5187 53.2811 83.8962 53.0027 84.1746C52.7244 84.453 52.3468 84.6094 51.9531 84.6094Z" fill="#474647"/>
<path d="M66.7969 92.0312H28.2031C26.2354 92.0289 24.349 91.2462 22.9577 89.8548C21.5663 88.4635 20.7836 86.5771 20.7812 84.6094V81.6406C20.7812 81.2469 20.9376 80.8694 21.216 80.591C21.4944 80.3126 21.8719 80.1562 22.2656 80.1562C22.6593 80.1562 23.0369 80.3126 23.3152 80.591C23.5936 80.8694 23.75 81.2469 23.75 81.6406V84.6094C23.75 85.7904 24.2192 86.9231 25.0543 87.7582C25.8894 88.5933 27.0221 89.0625 28.2031 89.0625H66.7969C67.9779 89.0625 69.1106 88.5933 69.9457 87.7582C70.7808 86.9231 71.25 85.7904 71.25 84.6094V59.375C71.25 58.9813 71.4064 58.6038 71.6848 58.3254C71.9631 58.047 72.3407 57.8906 72.7344 57.8906C73.1281 57.8906 73.5056 58.047 73.784 58.3254C74.0624 58.6038 74.2188 58.9813 74.2188 59.375V84.6094C74.2164 86.5771 73.4337 88.4635 72.0423 89.8548C70.651 91.2462 68.7646 92.0289 66.7969 92.0312V92.0312Z" fill="#474647"/>
<path d="M22.2656 29.6875C21.8719 29.6875 21.4944 29.5311 21.216 29.2527C20.9376 28.9744 20.7812 28.5968 20.7812 28.2031V10.3906C20.7836 8.42294 21.5663 6.53653 22.9577 5.14517C24.349 3.75381 26.2354 2.97111 28.2031 2.96875H66.7969C68.7646 2.97111 70.651 3.75381 72.0423 5.14517C73.4337 6.53653 74.2164 8.42294 74.2188 10.3906V16.3281C74.2188 16.7218 74.0624 17.0994 73.784 17.3777C73.5056 17.6561 73.1281 17.8125 72.7344 17.8125C72.3407 17.8125 71.9631 17.6561 71.6848 17.3777C71.4064 17.0994 71.25 16.7218 71.25 16.3281V10.3906C71.25 9.20958 70.7808 8.07691 69.9457 7.24179C69.1106 6.40667 67.9779 5.9375 66.7969 5.9375H28.2031C27.0221 5.9375 25.8894 6.40667 25.0543 7.24179C24.2192 8.07691 23.75 9.20958 23.75 10.3906V28.2031C23.75 28.5968 23.5936 28.9744 23.3152 29.2527C23.0369 29.5311 22.6593 29.6875 22.2656 29.6875Z" fill="#474647"/>
<path d="M56.4062 13.3594H44.5312C44.1376 13.3594 43.76 13.203 43.4816 12.9246C43.2033 12.6462 43.0469 12.2687 43.0469 11.875C43.0469 11.4813 43.2033 11.1038 43.4816 10.8254C43.76 10.547 44.1376 10.3906 44.5312 10.3906H56.4062C56.7999 10.3906 57.1775 10.547 57.4559 10.8254C57.7342 11.1038 57.8906 11.4813 57.8906 11.875C57.8906 12.2687 57.7342 12.6462 57.4559 12.9246C57.1775 13.203 56.7999 13.3594 56.4062 13.3594Z" fill="#474647"/>
<path d="M40.0781 13.3594H38.5938C38.2001 13.3594 37.8225 13.203 37.5441 12.9246C37.2658 12.6462 37.1094 12.2687 37.1094 11.875C37.1094 11.4813 37.2658 11.1038 37.5441 10.8254C37.8225 10.547 38.2001 10.3906 38.5938 10.3906H40.0781C40.4718 10.3906 40.8494 10.547 41.1277 10.8254C41.4061 11.1038 41.5625 11.4813 41.5625 11.875C41.5625 12.2687 41.4061 12.6462 41.1277 12.9246C40.8494 13.203 40.4718 13.3594 40.0781 13.3594Z" fill="#474647"/>
<path d="M26.7188 62.3438H22.2656C21.8719 62.3438 21.4944 62.1874 21.216 61.909C20.9376 61.6306 20.7812 61.2531 20.7812 60.8594V48.9844C20.7812 48.5907 20.9376 48.2131 21.216 47.9348C21.4944 47.6564 21.8719 47.5 22.2656 47.5H26.7188C27.1124 47.5 27.49 47.6564 27.7684 47.9348C28.0467 48.2131 28.2031 48.5907 28.2031 48.9844V60.8594C28.2031 61.2531 28.0467 61.6306 27.7684 61.909C27.49 62.1874 27.1124 62.3438 26.7188 62.3438ZM23.75 59.375H25.2344V50.4688H23.75V59.375Z" fill="#F4C522"/>
<path d="M43.0481 62.3438H31.1731C31.0136 62.3439 30.8553 62.3183 30.704 62.268L26.2509 60.7837C25.8769 60.6593 25.5676 60.3914 25.3911 60.039C25.2146 59.6866 25.1854 59.2784 25.3098 58.9045C25.4342 58.5305 25.7021 58.2212 26.0545 58.0447C26.4069 57.8682 26.815 57.839 27.189 57.9634L31.4135 59.375H43.0481C43.4417 59.375 43.8193 59.2186 44.0977 58.9402C44.376 58.6619 44.5324 58.2843 44.5324 57.8906V50.4688C44.5324 50.0751 44.376 49.6975 44.0977 49.4191C43.8193 49.1408 43.4417 48.9844 43.0481 48.9844H38.5949C38.301 48.9849 38.0135 48.8981 37.7689 48.7351C37.5243 48.572 37.3336 48.34 37.221 48.0684C37.1085 47.7968 37.0791 47.498 37.1366 47.2097C37.1941 46.9214 37.3359 46.6567 37.544 46.4491C38.2887 45.4765 38.6614 44.27 38.5949 43.0469C38.5949 38.5938 37.6301 38.5938 37.1106 38.5938C36.3906 38.5938 35.6262 39.6328 35.6262 41.5625C35.6162 44.0202 34.7518 46.3979 33.1811 48.2882C31.6103 50.1784 29.4311 51.4636 27.0168 51.9234C26.8229 51.9692 26.6218 51.9755 26.4254 51.9419C26.229 51.9083 26.0414 51.8355 25.8738 51.7278C25.7061 51.6202 25.5619 51.4799 25.4496 51.3153C25.3373 51.1507 25.2593 50.9652 25.2202 50.7699C25.1812 50.5745 25.1818 50.3733 25.2222 50.1782C25.2625 49.9831 25.3417 49.7981 25.4551 49.6343C25.5684 49.4704 25.7136 49.3311 25.8819 49.2245C26.0503 49.118 26.2383 49.0464 26.4349 49.0141C28.1752 48.6861 29.7474 47.7635 30.8825 46.4042C32.0176 45.0449 32.645 43.3334 32.6574 41.5625C32.6574 37.6645 34.8973 35.625 37.1106 35.625C41.0575 35.625 41.5637 39.5912 41.5637 43.0469C41.5706 44.0552 41.4131 45.0579 41.0976 46.0156H43.0481C44.2291 46.0156 45.3618 46.4848 46.1969 47.3199C47.032 48.155 47.5012 49.2877 47.5012 50.4688V57.8906C47.5012 59.0717 47.032 60.2043 46.1969 61.0395C45.3618 61.8746 44.2291 62.3438 43.0481 62.3438Z" fill="#F4C522"/>
<path d="M16.3283 78.6719C15.9346 78.6719 15.557 78.5155 15.2787 78.2371C15.0003 77.9587 14.8439 77.5812 14.8439 77.1875C14.8439 76.7938 15.0003 76.4163 15.2787 76.1379C15.557 75.8595 15.9346 75.7031 16.3283 75.7031H16.358C17.7518 75.6705 19.2362 73.199 20.2307 69.3084C17.6318 67.2219 15.5325 64.5804 14.0868 61.5774C12.641 58.5744 11.8853 55.286 11.8751 51.9531C11.8573 46.9531 13.5402 42.0955 16.6474 38.1781C16.8947 37.88 17.2487 37.6904 17.6339 37.6497C18.019 37.609 18.4048 37.7204 18.709 37.9602C19.0131 38.2001 19.2115 38.5493 19.2617 38.9333C19.3119 39.3173 19.2101 39.7058 18.9779 40.0158C16.2858 43.4108 14.8281 47.6203 14.8439 51.9531C14.8538 54.9876 15.5765 57.9773 16.9539 60.6813C18.3312 63.3852 20.3246 65.7276 22.7734 67.5198C23.0066 67.6902 23.185 67.9248 23.2867 68.1951C23.3885 68.4653 23.4092 68.7594 23.3464 69.0413C22.9157 71.1535 22.1938 73.1957 21.2015 75.1094C24.1582 74.6074 26.915 73.2869 29.1592 71.2975C29.3311 71.1248 29.543 70.9971 29.776 70.9256C30.0089 70.8542 30.2559 70.8412 30.4951 70.8878C33.6944 71.505 36.9979 71.302 40.0975 70.2979C43.1972 69.2937 45.9921 67.521 48.2217 65.1451C50.4513 62.7691 52.043 59.8673 52.8484 56.7102C53.6538 53.553 53.6467 50.2433 52.8277 47.0897C52.0086 43.936 50.4044 41.0411 48.1646 38.6748C45.9247 36.3086 43.1221 34.548 40.0182 33.5572C36.9142 32.5664 33.6099 32.3777 30.4133 33.0087C27.2167 33.6397 24.232 35.0699 21.7373 37.1658C21.588 37.2911 21.4155 37.3858 21.2296 37.4445C21.0436 37.5031 20.848 37.5246 20.6538 37.5077C20.4596 37.4907 20.2706 37.4357 20.0976 37.3457C19.9247 37.2557 19.7712 37.1325 19.6458 36.9832C19.5205 36.8339 19.4258 36.6613 19.3671 36.4754C19.3085 36.2895 19.287 36.0939 19.304 35.8996C19.3209 35.7054 19.376 35.5165 19.466 35.3435C19.5559 35.1706 19.6791 35.0171 19.8284 34.8917C22.5708 32.5922 25.827 30.9877 29.3213 30.214C32.8155 29.4403 36.4447 29.5203 39.9014 30.4473C43.3582 31.3742 46.5405 33.1207 49.1789 35.5389C51.8172 37.957 53.8338 40.9755 55.0577 44.3386C56.2816 47.7016 56.6768 51.3102 56.2099 54.8584C55.7429 58.4067 54.4275 61.7901 52.3751 64.7219C50.3227 67.6538 47.5938 70.0478 44.4197 71.7009C41.2455 73.3541 37.7196 74.2178 34.1408 74.2188C32.9829 74.2173 31.8269 74.1244 30.6837 73.9412C25.4958 78.5234 17.0244 78.6719 16.358 78.6719H16.3283Z" fill="#474647"/>
<path d="M49.2556 34.1403C49.165 34.1406 49.0745 34.1321 48.9855 34.1151C48.5991 34.043 48.2571 33.8206 48.0345 33.4967C47.8119 33.1728 47.7268 32.7738 47.798 32.3873C48.3798 29.2378 49.8 26.3034 51.9092 23.893C54.0183 21.4827 56.7383 19.6857 59.7828 18.6911C62.8273 17.6966 66.0836 17.5413 69.2089 18.2416C72.3342 18.9419 75.2129 20.4719 77.5419 22.6706C77.6867 22.8036 77.8036 22.9641 77.8859 23.1427C77.9682 23.3213 78.0141 23.5145 78.0211 23.711C78.0281 23.9075 77.9959 24.1035 77.9266 24.2875C77.8572 24.4715 77.7519 24.6399 77.6169 24.7828C77.4819 24.9258 77.3198 25.0405 77.1401 25.1203C76.9604 25.2001 76.7666 25.2435 76.57 25.2477C76.3734 25.252 76.1779 25.2172 75.9949 25.1453C75.8118 25.0734 75.6449 24.9658 75.5038 24.8288C73.5632 22.996 71.1642 21.7204 68.5595 21.1363C65.9548 20.5522 63.2409 20.6814 60.7034 21.5101C58.166 22.3388 55.8989 23.8364 54.141 25.8452C52.3832 27.854 51.1995 30.2997 50.7148 32.9246C50.652 33.2659 50.4716 33.5743 50.2051 33.7964C49.9385 34.0185 49.6026 34.1402 49.2556 34.1403V34.1403Z" fill="#474647"/>
<path d="M80.1556 57.8903C80.1007 57.8903 80.0458 57.8903 79.9908 57.8903C75.7576 57.6983 71.7311 56.0055 68.6324 53.115C65.3488 53.7607 61.9489 53.4516 58.8355 52.2244C58.6538 52.1534 58.4879 52.0474 58.3472 51.9123C58.2065 51.7773 58.0938 51.6158 58.0155 51.4371C57.9372 51.2585 57.8949 51.0662 57.8909 50.8712C57.887 50.6762 57.9214 50.4823 57.9924 50.3007C58.0633 50.119 58.1694 49.9531 58.3045 49.8124C58.4395 49.6717 58.601 49.559 58.7797 49.4807C58.9583 49.4024 59.1506 49.36 59.3456 49.3561C59.5406 49.3521 59.7345 49.3866 59.9161 49.4575C62.7372 50.5732 65.8362 50.7807 68.7808 50.0513C69.0392 49.9896 69.3093 49.9984 69.5631 50.0768C69.8169 50.1551 70.045 50.3001 70.2236 50.4966C71.6821 52.0675 73.4979 53.2635 75.5169 53.9834C74.8528 52.1406 74.453 50.2131 74.3294 48.2582C74.3091 48.021 74.3461 47.7825 74.4373 47.5626C74.5285 47.3428 74.6712 47.1481 74.8534 46.995C77.6276 44.6644 79.4537 41.3997 79.9874 37.8159C80.5211 34.2322 79.7256 30.5771 77.7509 27.5393C77.6445 27.3759 77.5713 27.1932 77.5354 27.0015C77.4996 26.8099 77.5019 26.6131 77.5422 26.4223C77.5824 26.2315 77.6598 26.0506 77.77 25.8897C77.8802 25.7289 78.021 25.5913 78.1843 25.4849C78.3477 25.3784 78.5304 25.3052 78.7221 25.2694C78.9137 25.2336 79.1105 25.2359 79.3013 25.2761C79.4921 25.3164 79.673 25.3938 79.8339 25.504C79.9947 25.6142 80.1323 25.755 80.2387 25.9183C82.5322 29.4475 83.5019 33.6748 82.9759 37.8508C82.4499 42.0268 80.4621 45.8815 77.365 48.7317C77.788 52.4871 78.8493 54.8829 80.1244 54.9215H80.1556C80.5493 54.9215 80.9268 55.0779 81.2052 55.3563C81.4836 55.6347 81.64 56.0122 81.64 56.4059C81.64 56.7996 81.4836 57.1771 81.2052 57.4555C80.9268 57.7339 80.5493 57.8903 80.1556 57.8903Z" fill="#474647"/>
<path d="M65.3137 47.5001C64.9385 47.5 64.5774 47.3579 64.3028 47.1023L55.7246 39.1208C55.7098 39.1075 55.5212 38.9279 55.5079 38.913C54.8342 38.2481 54.3032 37.4527 53.9475 36.5755C53.5918 35.6982 53.4188 34.7577 53.4391 33.8113C53.4594 32.865 53.6725 31.9327 54.0655 31.0715C54.4585 30.2104 55.023 29.4384 55.7246 28.803C57.0936 27.4564 58.9403 26.707 60.8605 26.7189C62.4237 26.7147 63.9601 27.1244 65.3137 27.9064C66.6671 27.1243 68.2036 26.7146 69.7668 26.7189C71.6868 26.7072 73.5332 27.4571 74.9012 28.8044C75.6028 29.4398 76.1673 30.2116 76.5602 31.0726C76.9532 31.9337 77.1663 32.8658 77.1866 33.8121C77.2069 34.7583 77.0339 35.6987 76.6782 36.5758C76.3225 37.4529 75.7916 38.2482 75.118 38.913L75.0808 38.9501L74.0655 37.868L75.0066 39.0199L66.3275 47.1023C66.0521 47.3586 65.6898 47.5008 65.3137 47.5001ZM57.7433 36.9477L65.3137 43.9881L72.884 36.9477L74.0715 37.868L73.0176 36.829C73.4111 36.4465 73.7215 35.987 73.9294 35.4792C74.1373 34.9713 74.2382 34.426 74.2258 33.8774C74.2134 33.3288 74.088 32.7887 73.8573 32.2907C73.6267 31.7928 73.2959 31.3478 72.8855 30.9835C72.4777 30.5712 71.992 30.2443 71.4565 30.0218C70.921 29.7993 70.3466 29.6857 69.7668 29.6876C68.5079 29.6759 67.2816 30.0873 66.2844 30.8558C66.0151 31.0878 65.6714 31.2154 65.3159 31.2154C64.9604 31.2154 64.6167 31.0878 64.3473 30.8558C63.3487 30.0869 62.1208 29.6755 60.8605 29.6876C60.2814 29.6851 59.7075 29.7979 59.1723 30.0193C58.6371 30.2408 58.1514 30.5665 57.7433 30.9776C57.3329 31.3418 57.0021 31.7868 56.7715 32.2848C56.5408 32.7827 56.4154 33.3229 56.403 33.8715C56.3906 34.4201 56.4915 34.9654 56.6994 35.4732C56.9073 35.9811 57.2177 36.4406 57.6112 36.823L56.7325 38.0343L57.7433 36.9477Z" fill="#F4C522"/>
</svg>
