<svg width="86" height="86" viewBox="0 0 86 86" fill="none" xmlns="http://www.w3.org/2000/svg">
<path d="M71.1883 56.7034V51.0783C71.1883 44.4442 65.791 39.0469 59.1569 39.0469C52.5228 39.0469 47.1254 44.4442 47.1254 51.0783V56.7034C44.8098 57.2703 43.0861 59.3622 43.0861 61.85C43.0861 62.5458 43.6501 63.1098 44.3459 63.1098C45.0416 63.1098 45.6056 62.5458 45.6056 61.85C45.6056 60.3173 46.8525 59.0705 48.3852 59.0705H69.9286C71.4613 59.0705 72.7081 60.3173 72.7081 61.85V69.9288C72.7081 77.4009 66.629 83.4801 59.1567 83.4801C51.6846 83.4801 45.6055 77.4009 45.6055 69.9288V67.236C45.6055 66.5402 45.0414 65.9762 44.3457 65.9762C43.65 65.9762 43.0859 66.5402 43.0859 67.236V69.9288C43.0859 78.7904 50.2953 85.9996 59.1569 85.9996C68.0184 85.9996 75.2277 78.7904 75.2277 69.9288V61.85C75.2277 59.3622 73.504 57.2705 71.1883 56.7034ZM63.2829 56.5509H55.0307V51.0783C55.0307 48.8032 56.8817 46.9523 59.1567 46.9523C61.4319 46.9523 63.2829 48.8034 63.2829 51.0783V56.5509ZM68.6688 56.5511H65.8026V51.0785C65.8026 47.4141 62.8213 44.433 59.1569 44.433C55.4925 44.433 52.5114 47.4143 52.5114 51.0785V56.5511H49.6451V51.0785C49.6448 45.8337 53.9119 41.5666 59.1569 41.5666C64.4017 41.5666 68.6688 45.8337 68.6688 51.0785V56.5511V56.5511Z" fill="#474647"/>
<path d="M59.1558 64.6299C56.9764 64.6299 55.2031 66.4031 55.2031 68.5825C55.2031 70.3217 56.3325 71.8008 57.896 72.3282V75.3149C57.896 76.0106 58.46 76.5747 59.1558 76.5747C59.8515 76.5747 60.4155 76.0106 60.4155 75.3149V72.3282C61.979 71.801 63.1084 70.3217 63.1084 68.5825C63.1084 66.403 61.3352 64.6299 59.1558 64.6299ZM59.1558 70.0156C58.3656 70.0156 57.7227 69.3727 57.7227 68.5825C57.7227 67.7924 58.3656 67.1494 59.1558 67.1494C59.9461 67.1494 60.5889 67.7924 60.5889 68.5825C60.5889 69.3727 59.9459 70.0156 59.1558 70.0156Z" fill="#F4C522"/>
<path d="M60.5057 8.07881H52.3402V7.99214C52.3402 6.55499 51.1712 5.38593 49.734 5.38593H44.1418C43.5516 2.32167 40.8498 0 37.6161 0C34.3823 0 31.6805 2.32167 31.0901 5.38576H25.4979C24.0608 5.38576 22.8917 6.55483 22.8917 7.99197V8.07864H14.7261C12.5465 8.07864 10.7734 9.85189 10.7734 12.0313V71.2757C10.7734 73.4552 12.5467 75.2283 14.7261 75.2283H38.9625C39.6582 75.2283 40.2223 74.6643 40.2223 73.9685C40.2223 73.2728 39.6582 72.7089 38.9625 72.7089H14.7261C13.9358 72.7089 13.293 72.066 13.293 71.2758V12.0315C13.293 11.2412 13.936 10.5983 14.7261 10.5983H22.8916V10.685C22.8916 12.1222 24.0606 13.2912 25.4978 13.2912H49.734C51.1712 13.2912 52.3402 12.1222 52.3402 10.685V10.5983H60.5057C61.296 10.5983 61.9388 11.2413 61.9388 12.0315V35.5945C61.9388 36.2902 62.5029 36.8543 63.1986 36.8543C63.8943 36.8543 64.4584 36.2902 64.4584 35.5945V12.0315C64.4584 9.85189 62.6851 8.07881 60.5057 8.07881ZM49.8207 10.6848C49.8207 10.7327 49.7819 10.7715 49.734 10.7715H25.4978C25.4499 10.7715 25.4111 10.7327 25.4111 10.6848V7.99214C25.4109 7.94427 25.4499 7.9053 25.4978 7.9053H32.2301C32.9259 7.9053 33.4899 7.34126 33.4899 6.64553C33.4899 4.37039 35.3409 2.51954 37.6159 2.51954C39.8909 2.51954 41.7419 4.37056 41.7419 6.64553C41.7419 7.34126 42.3059 7.9053 43.0017 7.9053H49.734C49.7819 7.9053 49.8207 7.9441 49.8207 7.99197V10.6848Z" fill="#474647"/>
<path d="M37.6259 5.38477H37.6124C36.9167 5.38477 36.3594 5.94881 36.3594 6.64453C36.3594 7.34026 36.9301 7.9043 37.6259 7.9043C38.3216 7.9043 38.8856 7.34026 38.8856 6.64453C38.8856 5.94881 38.3216 5.38477 37.6259 5.38477Z" fill="#474647"/>
<path d="M53.7716 24.9092H36.2676C35.5719 24.9092 35.0078 25.4732 35.0078 26.1689C35.0078 26.8647 35.5719 27.4287 36.2676 27.4287H53.7715C54.4674 27.4287 55.0314 26.8647 55.0314 26.1689C55.0314 25.4732 54.4674 24.9092 53.7716 24.9092Z" fill="#F4C522"/>
<path d="M31.7734 21.9129C31.2814 21.4209 30.4838 21.4209 29.9919 21.9129L25.4969 26.408L23.0216 23.9326C22.5296 23.4406 21.7319 23.4406 21.2401 23.9326C20.7481 24.4246 20.7481 25.2223 21.2401 25.7141L24.6063 29.0803C24.8523 29.3262 25.1748 29.4494 25.4971 29.4494C25.8194 29.4494 26.1419 29.3264 26.3878 29.0803L31.7736 23.6946C32.2654 23.2026 32.2654 22.4049 31.7734 21.9129Z" fill="#F4C522"/>
<path d="M44.3464 41.0664H36.2676C35.5719 41.0664 35.0078 41.6304 35.0078 42.3262C35.0078 43.0219 35.5719 43.5859 36.2676 43.5859H44.3464C45.0421 43.5859 45.6062 43.0219 45.6062 42.3262C45.6062 41.6304 45.0421 41.0664 44.3464 41.0664Z" fill="#F4C522"/>
<path d="M31.7734 38.0702C31.2814 37.5782 30.4838 37.5782 29.9919 38.0702L25.4969 42.5652L23.0216 40.0898C22.5296 39.5978 21.7319 39.5978 21.2401 40.0898C20.7481 40.5818 20.7481 41.3795 21.2401 41.8713L24.6063 45.2376C24.8523 45.4835 25.1748 45.6066 25.4971 45.6066C25.8194 45.6066 26.1419 45.4836 26.3878 45.2376L31.7736 39.8518C32.2654 39.3598 32.2654 38.5621 31.7734 38.0702Z" fill="#F4C522"/>
<path d="M38.9605 57.2256H36.2676C35.5719 57.2256 35.0078 57.7896 35.0078 58.4854C35.0078 59.1811 35.5719 59.7451 36.2676 59.7451H38.9605C39.6562 59.7451 40.2202 59.1811 40.2202 58.4854C40.2202 57.7896 39.6562 57.2256 38.9605 57.2256Z" fill="#F4C522"/>
<path d="M31.7736 54.2274C31.2814 53.7354 30.4838 53.7354 29.9919 54.2274L25.4969 58.7224L23.0216 56.247C22.5296 55.7551 21.7319 55.7551 21.2401 56.247C20.7481 56.739 20.7481 57.5367 21.2401 58.0285L24.6063 61.3946C24.8523 61.6405 25.1748 61.7637 25.4971 61.7637C25.8194 61.7637 26.1419 61.6407 26.3878 61.3946L31.7736 56.0089C32.2656 55.5169 32.2656 54.7192 31.7736 54.2274Z" fill="#F4C522"/>
</svg>
