<svg width="1074" height="942" viewBox="0 0 1074 942" fill="none" xmlns="http://www.w3.org/2000/svg">
<g id="Enable Push Notifications">
<path id="Fill 1" fill-rule="evenodd" clip-rule="evenodd" d="M683.221 634.359L680.091 646.722L371.051 568.492L374.177 556.128C398.904 562.386 418.085 538.569 421.187 526.332L439.02 455.869C453.142 404.59 499.837 369.108 553.031 369.238C557.586 352.23 575.072 342.14 592.076 346.699C609.085 351.258 619.179 368.74 614.616 385.749C661.266 411.786 685.176 465.457 673.327 517.548L656.057 585.786C652.392 600.248 670.862 631.228 683.221 634.359" fill="#F4C522"/>
<path id="Fill 3" fill-rule="evenodd" clip-rule="evenodd" d="M470.039 606.709C473.006 638.261 500.987 661.437 532.538 658.473C549.723 656.861 565.27 647.596 574.87 633.244L470.039 606.709Z" fill="#F4C522"/>
<path id="Stroke 5" fill-rule="evenodd" clip-rule="evenodd" d="M971.933 514.627C971.933 748.596 782.26 938.27 548.291 938.27C314.322 938.27 124.652 748.596 124.652 514.627C124.652 280.658 314.322 90.9844 548.291 90.9844C782.26 90.9844 971.933 280.658 971.933 514.627Z" stroke="#F4C522" stroke-dasharray="5.02 5.02"/>
<path id="Stroke 7" fill-rule="evenodd" clip-rule="evenodd" d="M862.878 514.627C862.878 688.373 722.026 829.226 548.279 829.226C374.528 829.226 233.684 688.373 233.684 514.627C233.684 340.88 374.528 200.027 548.279 200.027C722.026 200.027 862.878 340.88 862.878 514.627Z" stroke="#F4C522" stroke-dasharray="5.05 5.05"/>
<path id="Fill 9" fill-rule="evenodd" clip-rule="evenodd" d="M846.329 224.679C852.436 224.679 857.375 229.614 857.375 235.724C857.375 241.834 852.436 246.769 846.329 246.769C840.219 246.769 835.28 241.834 835.28 235.724C835.28 229.614 840.219 224.679 846.329 224.679M879.457 224.679C885.568 224.679 890.503 229.614 890.503 235.724C890.503 241.834 885.568 246.769 879.457 246.769C873.347 246.769 868.412 241.834 868.412 235.724C868.412 229.614 873.347 224.679 879.457 224.679M912.59 224.679C918.7 224.679 923.635 229.614 923.635 235.724C923.635 241.834 918.7 246.769 912.59 246.769C906.479 246.769 901.544 241.834 901.544 235.724C901.544 229.614 906.479 224.679 912.59 224.679M833.968 296.478H886.68C891.651 296.478 891.651 296.514 894.031 298.273C896.414 300.033 923.615 318.568 923.615 318.568V296.478H924.889C939.452 296.478 951.224 285.502 951.224 271.832V199.724C951.224 186.055 939.424 174.973 924.889 174.973H833.968C819.437 174.973 807.633 186.055 807.633 199.724V271.832C807.633 285.502 819.437 296.478 833.968 296.478" fill="#474647"/>
<path id="Fill 11" fill-rule="evenodd" clip-rule="evenodd" d="M195.947 351.95C195.947 355.946 192.722 359.17 188.722 359.17C184.73 359.17 181.506 355.946 181.506 351.95C181.506 347.954 184.73 344.725 188.722 344.725C192.722 344.725 195.947 347.954 195.947 351.95M174.299 351.95C174.299 355.946 171.07 359.17 167.078 359.17C163.082 359.17 159.854 355.946 159.854 351.95C159.854 347.954 163.082 344.725 167.078 344.725C171.07 344.725 174.299 347.954 174.299 351.95M152.646 351.95C152.646 355.946 149.418 359.17 145.422 359.17C141.43 359.17 138.201 355.946 138.201 351.95C138.201 347.954 141.43 344.725 145.422 344.725C149.418 344.725 152.646 347.954 152.646 351.95M214.044 375.555V328.407C214.044 319.468 206.322 312.223 196.824 312.223H137.373C127.871 312.223 120.152 319.468 120.152 328.407V375.555C120.152 384.49 127.85 391.665 137.373 391.665H138.21V406.115C138.21 406.115 155.994 393.992 157.549 392.841C159.108 391.69 159.108 391.665 162.357 391.665H196.824C206.322 391.665 214.044 384.49 214.044 375.555" fill="#F4C522"/>
<path id="Fill 13" fill-rule="evenodd" clip-rule="evenodd" d="M470.062 606.779C473.03 638.331 501.01 661.507 532.562 658.544C549.746 656.931 565.293 647.666 574.894 633.315L470.062 606.779Z" fill="#F4C522"/>
<path id="Fill 15" fill-rule="evenodd" clip-rule="evenodd" d="M719.216 417.202C726.412 425.86 731.816 436.056 735.49 446.864C739.232 457.677 741.061 469.163 741.249 480.657C741.249 486.408 740.837 492.151 740.094 497.845C739.114 503.51 737.983 509.135 736.204 514.584C732.763 525.486 727.563 535.826 720.477 544.626C720.171 545.005 719.624 545.062 719.244 544.76C718.95 544.52 718.852 544.128 718.967 543.785C722.657 533.283 725.714 522.923 727.767 512.413C728.146 509.76 728.669 507.147 729.11 504.523C729.412 501.874 729.812 499.245 730.04 496.6C730.212 493.951 730.555 491.318 730.665 488.669C730.706 486.016 730.832 483.367 730.82 480.718C730.881 470.11 729.698 459.518 727.636 449.003C725.518 438.48 722.33 428.117 718.501 417.615C718.424 417.398 718.534 417.157 718.75 417.08C718.922 417.015 719.105 417.072 719.216 417.202" fill="#F4C522"/>
<path id="Fill 17" fill-rule="evenodd" clip-rule="evenodd" d="M759.748 420.88C766.696 428.884 771.928 438.378 775.573 448.456C779.226 458.546 781.337 469.264 781.712 480.048C782.12 490.828 780.806 501.665 777.924 511.988C775.047 522.307 770.561 532.168 764.234 540.666C764.193 540.719 764.116 540.731 764.067 540.695C764.026 540.662 764.01 540.609 764.022 540.564C766.642 530.335 768.838 520.384 770.169 510.38C771.5 500.379 771.936 490.383 771.565 480.424C771.157 470.469 769.953 460.546 767.834 450.697C765.724 440.835 762.74 431.104 759.34 421.116C759.299 420.99 759.365 420.855 759.491 420.81C759.585 420.778 759.687 420.806 759.748 420.88" fill="#F4C522"/>
<path id="Fill 19" fill-rule="evenodd" clip-rule="evenodd" d="M389.303 471.961C387.099 460.985 387.074 449.52 388.821 438.311C390.511 427.074 394.144 416.119 399.189 405.886C404.356 395.714 410.96 386.249 418.936 378.151C426.855 370.024 436.039 363.138 446.169 358.33C446.353 358.244 446.565 358.322 446.651 358.501C446.72 358.648 446.684 358.82 446.565 358.926C438.324 366.408 430.736 374.208 424.03 382.653C417.373 391.114 411.483 400.106 406.724 409.678C401.834 419.188 398.103 429.266 395.266 439.662C392.474 450.083 390.752 460.838 389.654 471.945C389.642 472.039 389.556 472.112 389.458 472.104C389.38 472.096 389.319 472.035 389.303 471.961" fill="#F4C522"/>
<path id="Fill 21" fill-rule="evenodd" clip-rule="evenodd" d="M354.704 450.264C352.618 439.957 352.582 429.218 354.096 418.704C355.659 408.189 358.782 397.858 363.39 388.238C367.949 378.601 373.835 369.584 380.917 361.686C387.966 353.776 396.113 346.861 405.191 341.637C397.779 349.016 390.97 356.715 385.031 364.992C379.113 373.278 373.966 382.017 369.794 391.209C365.663 400.414 362.349 409.973 359.986 419.839C357.557 429.7 356.1 439.819 355.051 450.247C355.039 450.341 354.957 450.411 354.855 450.403C354.782 450.394 354.716 450.337 354.704 450.264" fill="#F4C522"/>
<path id="Fill 23" fill-rule="evenodd" clip-rule="evenodd" d="M683.254 634.438C683.254 634.438 664.976 627.336 655.368 617.201C641.988 603.09 642.87 587.694 651.915 557.979C662.556 522.595 662.266 485.32 658.168 468.234C643.894 408.698 614.648 385.828 614.648 385.828C661.299 411.865 685.209 465.536 673.36 517.627L656.09 585.865C653.062 595.947 670.895 631.307 683.254 634.438L680.123 646.802L683.254 634.438Z" fill="#474647"/>
<path id="Stroke 25" d="M44.6038 571.665L36.7383 571.424" stroke="#D2D8DF" stroke-linecap="round"/>
<path id="Stroke 27" d="M38.9691 556.746L33.3281 562.016" stroke="#D2D8DF" stroke-linecap="round"/>
<path id="Stroke 29" d="M24.259 549.938L24.1406 557.627" stroke="#D2D8DF" stroke-linecap="round"/>
<path id="Stroke 31" d="M9.11719 555.217L14.5949 560.825" stroke="#D2D8DF" stroke-linecap="round"/>
<path id="Stroke 33" d="M2.39062 569.502L10.252 569.743" stroke="#D2D8DF" stroke-linecap="round"/>
<path id="Stroke 35" d="M8.03906 584.422L13.6841 579.152" stroke="#D2D8DF" stroke-linecap="round"/>
<path id="Stroke 37" d="M22.7344 591.225L22.8527 583.535" stroke="#D2D8DF" stroke-linecap="round"/>
<path id="Stroke 39" d="M37.88 585.944L32.4023 580.336" stroke="#D2D8DF" stroke-linecap="round"/>
<path id="Stroke 41" d="M1070.36 462.029L1066.9 465.772" stroke="#D2D8DF" stroke-linecap="round"/>
<path id="Stroke 43" d="M1054.14 465.281L1056.74 467.685" stroke="#D2D8DF" stroke-linecap="round"/>
<path id="Stroke 45" d="M1051.49 481.868L1054.95 478.125" stroke="#D2D8DF" stroke-linecap="round"/>
<path id="Stroke 47" d="M1067.74 478.619L1065.14 476.215" stroke="#D2D8DF" stroke-linecap="round"/>
<path id="Stroke 49" d="M753.723 22.121L745.359 21.8965" stroke="#FED101" stroke-linecap="round"/>
<path id="Stroke 51" d="M732.068 1.92773L731.941 9.07484" stroke="#FED101" stroke-linecap="round"/>
<path id="Stroke 53" d="M708.82 20.1035L717.184 20.3239" stroke="#FED101" stroke-linecap="round"/>
<path id="Stroke 55" d="M730.441 40.3024L730.568 33.1553" stroke="#FED101" stroke-linecap="round"/>
<path id="Fill 57" fill-rule="evenodd" clip-rule="evenodd" d="M134.373 793.808C128.357 795.608 118.336 804.449 114.907 814.931C114.332 805.192 108.148 792.951 101.344 791.188C109.646 788.253 118.638 777.465 121.03 768.375C120.597 777.902 129.246 791.735 134.373 793.808" fill="#EBECEF"/>
<path id="Fill 59" fill-rule="evenodd" clip-rule="evenodd" d="M275.31 60.4004C270.669 61.2208 262.444 66.9352 258.983 74.4456C259.395 67.1434 255.848 57.4901 250.934 55.588C257.37 54.1186 265.003 46.8613 267.571 40.2979C266.424 47.3592 271.669 58.4126 275.31 60.4004" fill="#EBECEF"/>
<path id="Fill 61" fill-rule="evenodd" clip-rule="evenodd" d="M890.401 113.424C884.2 113.29 879.286 108.159 879.425 101.963C879.559 95.7668 884.69 90.8524 890.882 90.9871C897.082 91.1218 901.997 96.2525 901.862 102.449C901.723 108.645 896.597 113.559 890.401 113.424" fill="#D1D9E0"/>
<path id="Fill 63" fill-rule="evenodd" clip-rule="evenodd" d="M890.444 848.762C885.052 848.648 880.775 844.178 880.889 838.786C881.003 833.39 885.473 829.113 890.869 829.227C896.265 829.345 900.542 833.811 900.424 839.207C900.306 844.599 895.84 848.88 890.444 848.762" fill="#EBECEF"/>
<path id="Stroke 65" fill-rule="evenodd" clip-rule="evenodd" d="M79.2284 262.355C75.8896 262.282 73.2405 259.518 73.314 256.176C73.3834 252.837 76.1508 250.192 79.4896 250.261C82.8285 250.335 85.4775 253.098 85.4082 256.437C85.3347 259.78 82.5673 262.429 79.2284 262.355Z" stroke="#FED101" stroke-linecap="round"/>
</g>
</svg>
