<svg width="84" height="84" viewBox="0 0 84 84" fill="none" xmlns="http://www.w3.org/2000/svg">
<g clip-path="url(#clip0_998_17717)">
<path d="M33.9739 46.7915C33.9739 43.8704 28.6099 45.0092 28.6099 41.048C28.6099 38.605 30.6562 37.8789 32.4224 37.8789C33.4952 37.8789 35.4261 38.1596 35.4261 39.0671C35.4261 39.3978 35.1954 40.0079 34.7 40.0079C34.2546 40.0079 33.8253 39.3811 32.4224 39.3811C31.2176 39.3811 30.3594 39.8432 30.3594 40.8827C30.3594 43.3257 35.7235 42.2195 35.7235 46.6101C35.7235 48.9704 34.1386 50.1259 31.9603 50.1259C29.8147 50.1259 28.3125 49.0031 28.3125 48.1783C28.3125 47.7816 28.6592 47.2375 29.0719 47.2375C29.666 47.2375 30.0621 48.541 31.8943 48.541C33.0825 48.541 33.9739 47.9796 33.9739 46.7915V46.7915Z" fill="#F4C522"/>
<path d="M39.9839 43.2591H42.5256C42.889 43.2591 43.1037 43.5892 43.1037 43.9686C43.1037 44.282 42.9217 44.6453 42.5256 44.6453H39.9839V48.4418H44.886C45.2487 48.4418 45.4634 48.8046 45.4634 49.2339C45.4634 49.5967 45.282 49.9927 44.886 49.9927H39.0105C38.6304 49.9927 38.2344 49.7947 38.2344 49.4153V38.5052C38.2344 38.1258 38.6304 37.9277 39.0105 37.9277H44.886C45.282 37.9277 45.4634 38.3238 45.4634 38.6872C45.4634 39.1159 45.2487 39.4793 44.886 39.4793H39.9839V43.2591Z" fill="#F4C522"/>
<path d="M47.4609 46.4116V41.6082C47.4609 38.9345 49.0618 37.9277 51.1581 37.9277C53.2377 37.9277 54.8719 38.9345 54.8719 41.6082V46.4116C54.8719 49.0853 53.2377 50.0921 51.1581 50.0921C49.0625 50.0921 47.4609 49.0853 47.4609 46.4116V46.4116ZM53.1224 41.6082C53.1224 40.156 52.3796 39.4793 51.1581 39.4793C49.9206 39.4793 49.2105 40.156 49.2105 41.6082V46.4116C49.2105 47.8638 49.9206 48.5405 51.1581 48.5405C52.3796 48.5405 53.1224 47.8638 53.1224 46.4116V41.6082Z" fill="#F4C522"/>
<path d="M62.3299 7.33487C62.3299 8.18723 61.6384 8.87872 60.786 8.87872C59.9337 8.87872 59.2422 8.18723 59.2422 7.33487C59.2422 6.48251 59.9337 5.79102 60.786 5.79102C61.6384 5.79102 62.3299 6.48251 62.3299 7.33487V7.33487Z" fill="#F4C522"/>
<path d="M69.7322 7.33487C69.7322 8.18723 69.0407 8.87872 68.1884 8.87872C67.336 8.87872 66.6445 8.18723 66.6445 7.33487C66.6445 6.48251 67.336 5.79102 68.1884 5.79102C69.0407 5.79102 69.7322 6.48251 69.7322 7.33487Z" fill="#F4C522"/>
<path d="M77.1307 7.33487C77.1307 8.18723 76.4392 8.87872 75.5868 8.87872C74.7345 8.87872 74.043 8.18723 74.043 7.33487C74.043 6.48251 74.7345 5.79102 75.5868 5.79102C76.4392 5.79102 77.1307 6.48251 77.1307 7.33487V7.33487Z" fill="#F4C522"/>
<path d="M38.3102 6.10547H8.34375C7.66443 6.10547 7.11328 6.65598 7.11328 7.33594C7.11328 8.01526 7.66443 8.56641 8.34375 8.56641H38.3102C38.9895 8.56641 39.5406 8.01526 39.5406 7.33594C39.5406 6.65598 38.9895 6.10547 38.3102 6.10547Z" fill="#F4C522"/>
<path d="M56.6382 29.812C52.7045 25.879 47.475 23.7129 41.9129 23.7129C36.3502 23.7129 31.1207 25.879 27.187 29.812C19.0679 37.9319 19.0679 51.1434 27.187 59.2632C31.1207 63.1962 36.3502 65.3623 41.9129 65.3623C47.475 65.3623 52.7045 63.1962 56.6382 59.2632C64.758 51.1434 64.758 37.9319 56.6382 29.812ZM54.8982 57.5226C51.4298 60.9916 46.8181 62.9014 41.9129 62.9014C37.0077 62.9014 32.396 60.991 28.9276 57.5226C21.7672 50.3628 21.7672 38.7124 28.9276 31.552C32.396 28.0836 37.0077 26.1738 41.9129 26.1738C46.8181 26.1738 51.4298 28.0836 54.8982 31.552C62.058 38.7124 62.058 50.3628 54.8982 57.5226Z" fill="#474647"/>
<path d="M82.7695 28.685C82.0902 28.685 81.5391 29.2355 81.5391 29.9154V79.7033C81.5391 80.7159 80.7155 81.5394 79.703 81.5394H76.6146L79.1711 78.9829C79.685 78.469 79.9683 77.7852 79.9683 77.0584C79.9683 76.3317 79.685 75.6479 79.1711 75.1339L67.6835 63.6463C66.6222 62.585 64.8957 62.585 63.8344 63.6463L63.298 64.1827L61.1389 62.0236C70.4142 51.8364 70.1322 36.0005 60.2898 26.1587C50.1563 16.0252 33.6681 16.0252 23.534 26.1587C18.6249 31.0677 15.9218 37.5943 15.9218 44.5369C15.9218 51.4788 18.6249 58.006 23.534 62.9151C28.6007 67.9818 35.2561 70.5151 41.9122 70.5151C48.1844 70.5151 54.4566 68.2638 59.399 63.7636L61.558 65.9227L61.0216 66.4584C60.5077 66.9731 60.2244 67.6562 60.2244 68.383C60.2244 69.1104 60.5077 69.7935 61.0216 70.3075L72.2529 81.5394H4.29703C3.28445 81.5394 2.46094 80.7159 2.46094 79.7033V68.9944C2.46094 68.315 1.90979 67.7639 1.23047 67.7639C0.551147 67.7639 0 68.315 0 68.9944V79.7033C0 82.0726 1.92773 84.0003 4.29703 84.0003H79.703C82.0723 84.0003 84 82.0726 84 79.7033V29.9154C84 29.2355 83.4489 28.685 82.7695 28.685V28.685ZM25.274 61.1751C20.8302 56.7307 18.3827 50.8219 18.3827 44.5369C18.3827 38.2519 20.8302 32.343 25.274 27.8993C29.8613 23.3119 35.8867 21.0182 41.9122 21.0182C47.9377 21.0182 53.9631 23.3119 58.5498 27.8993C67.7238 37.0733 67.7238 52.0004 58.5498 61.1751C49.3758 70.3492 34.4486 70.3492 25.274 61.1751V61.1751ZM62.6853 68.3836C62.6853 68.3343 62.6988 68.2625 62.7616 68.199L65.5744 65.3869C65.6256 65.3356 65.6923 65.3106 65.7589 65.3106C65.8256 65.3106 65.8922 65.3356 65.9435 65.3869L77.4311 76.8745C77.4939 76.9373 77.5074 77.0091 77.5074 77.0584C77.5074 77.1078 77.4939 77.1795 77.4311 77.243L74.6183 80.0558C74.5164 80.157 74.3511 80.157 74.2492 80.0558L62.7616 68.5682C62.6988 68.5047 62.6853 68.433 62.6853 68.3836Z" fill="#474647"/>
<path d="M79.703 0H4.29703C1.92773 0 0 1.92773 0 4.29703V64.0779C0 64.7579 0.551147 65.3084 1.23047 65.3084C1.90979 65.3084 2.46094 64.7579 2.46094 64.0779V14.6708H81.5391V24.9612C81.5391 25.6412 82.0902 26.1917 82.7695 26.1917C83.4489 26.1917 84 25.6412 84 24.9612V4.29703C84 1.92773 82.0723 0 79.703 0V0ZM2.46094 12.2098V4.29703C2.46094 3.28445 3.28445 2.46094 4.29703 2.46094H79.703C80.7155 2.46094 81.5391 3.28445 81.5391 4.29703V12.2098H2.46094Z" fill="#474647"/>
</g>
<defs>
<clipPath id="clip0_998_17717">
<rect width="84" height="84" fill="white"/>
</clipPath>
</defs>
</svg>
