<svg width="75" height="75" viewBox="0 0 75 75" fill="none" xmlns="http://www.w3.org/2000/svg">
<path d="M48.7066 45.2393H46.8306C46.5792 45.2393 46.3548 45.0768 46.2813 44.8408C46.1073 44.2528 45.8713 43.6919 45.5889 43.1621C45.4689 42.9416 45.5153 42.6708 45.6895 42.493L47.0162 41.1663C47.2406 40.942 47.2406 40.5783 47.0162 40.354L44.6413 37.9791C44.417 37.7548 44.0533 37.7548 43.829 37.9791L42.5023 39.3019C42.3283 39.4799 42.0574 39.5262 41.837 39.4064C41.3032 39.1202 40.7423 38.8881 40.1543 38.7102C39.9145 38.6406 39.7559 38.4162 39.7559 38.1648V36.2888C39.7559 35.9716 39.4967 35.7163 39.1834 35.7163H35.8182C35.5011 35.7163 35.2458 35.9716 35.2458 36.2888V38.1648C35.2458 38.4162 35.0871 38.6406 34.8473 38.7102C34.2593 38.8881 33.6984 39.1202 33.1646 39.4064C32.9442 39.5264 32.6733 39.4799 32.4955 39.3019L31.1726 37.9791C30.9483 37.7548 30.5846 37.7548 30.3604 37.9791L27.9854 40.354C27.7611 40.5784 27.7611 40.942 27.9854 41.1663L29.3083 42.493C29.4863 42.6709 29.5326 42.9416 29.4127 43.1621C29.1303 43.6921 28.8945 44.253 28.7165 44.8408C28.6469 45.0768 28.4225 45.2393 28.1711 45.2393H26.2951C25.978 45.2393 25.7227 45.4946 25.7227 45.8117V49.1731C25.7227 49.4902 25.978 49.7494 26.2951 49.7494H28.1711C28.4225 49.7494 28.6469 49.908 28.7165 50.1478C28.8945 50.7358 29.1303 51.2965 29.4127 51.8305C29.5327 52.0471 29.4863 52.3218 29.3083 52.4958L27.9854 53.8225C27.7611 54.0469 27.7611 54.4105 27.9854 54.6348L30.3604 57.0137C30.5848 57.2381 30.9483 57.2381 31.1726 57.0137L32.4955 55.687C32.6735 55.509 32.9442 55.4665 33.1646 55.5825C33.6984 55.8687 34.2593 56.1009 34.8473 56.2788C35.0871 56.3523 35.2458 56.5766 35.2458 56.8241V58.6962C35.2458 59.0133 35.5011 59.2726 35.8182 59.2726H39.1834C39.4967 59.2726 39.7559 59.0135 39.7559 58.6962V56.8241C39.7559 56.5766 39.9145 56.3521 40.1543 56.2788C40.7423 56.1008 41.3032 55.8687 41.837 55.5825C42.0574 55.4665 42.3283 55.509 42.5023 55.687L43.829 57.0137C44.0534 57.2381 44.417 57.2381 44.6413 57.0137L47.0162 54.6348C47.2406 54.4105 47.2406 54.0468 47.0162 53.8225L45.6895 52.4958C45.5155 52.3218 45.469 52.0471 45.5889 51.8305C45.8713 51.2967 46.1071 50.7358 46.2813 50.1478C46.3548 49.908 46.5791 49.7494 46.8306 49.7494H48.7066C49.0238 49.7494 49.2791 49.4902 49.2791 49.1731V45.8117C49.2791 45.4946 49.0238 45.2393 48.7066 45.2393ZM37.5009 52.4867C34.7465 52.4867 32.5085 50.2487 32.5085 47.4944C32.5085 44.74 34.7465 42.502 37.5009 42.502C40.2523 42.502 42.4932 44.74 42.4932 47.4944C42.4932 50.2487 40.2523 52.4867 37.5009 52.4867Z" fill="white"/>
<path d="M50.2682 28.4633C41.7543 33.1585 33.2405 33.1584 24.7266 28.4633C24.7266 22.4879 30.4415 17.6372 37.5003 17.6372C44.5534 17.6372 50.2682 22.4879 50.2682 28.4633Z" fill="#F4C522"/>
<path d="M42.9912 7.78467C42.9912 10.8134 40.5351 15.0661 37.4995 15.0661C34.4639 15.0661 32.0078 10.8134 32.0078 7.78467C32.0078 4.74907 34.4639 2.29297 37.4995 2.29297C40.5351 2.29297 42.9912 4.74907 42.9912 7.78467Z" fill="white"/>
<path d="M72.9322 67.8852C64.4184 72.5804 55.9046 72.5803 47.3906 67.8852C47.3906 61.9098 53.1056 57.0591 60.1644 57.0591C67.2174 57.0591 72.9322 61.9098 72.9322 67.8852Z" fill="#F4C522"/>
<path d="M65.6553 47.2061C65.6553 50.2348 63.1992 54.4875 60.1636 54.4875C57.128 54.4875 54.6719 50.2348 54.6719 47.2061C54.6719 44.1705 57.128 41.7144 60.1636 41.7144C63.1992 41.7144 65.6553 44.1705 65.6553 47.2061Z" fill="white"/>
<path d="M27.608 67.8852C19.0942 72.5804 10.5804 72.5803 2.06641 67.8852C2.06641 61.9098 7.78135 57.0591 14.8401 57.0591C21.8932 57.0591 27.608 61.9098 27.608 67.8852Z" fill="#F4C522"/>
<path d="M20.3271 47.2061C20.3271 50.2348 17.871 54.4875 14.8354 54.4875C11.7999 54.4875 9.34375 50.2348 9.34375 47.2061C9.34375 44.1705 11.7999 41.7144 14.8354 41.7144C17.871 41.7144 20.3271 44.1705 20.3271 47.2061Z" fill="white"/>
<path d="M46.7367 50.287C46.7479 50.2502 46.7856 50.2252 46.8304 50.2252H48.7064C49.2848 50.2252 49.7553 49.7531 49.7553 49.1726V45.8113C49.7553 45.2332 49.2848 44.7625 48.7064 44.7625H46.8304C46.7872 44.7625 46.7475 44.7357 46.738 44.7048C46.561 44.1076 46.3158 43.513 46.0075 42.9345C45.9897 42.9022 45.999 42.8572 46.0262 42.8292L47.3528 41.5023C47.7625 41.0926 47.7625 40.4263 47.3528 40.0167L44.9778 37.6417C44.5681 37.2317 43.9016 37.232 43.4928 37.6413L42.1615 38.9682C42.1387 38.9916 42.0996 39.0061 42.0618 38.986C41.5021 38.6857 40.9064 38.4395 40.2868 38.2523C40.2546 38.2429 40.2322 38.2066 40.2322 38.1641V36.2881C40.2322 35.7099 39.7617 35.2393 39.1834 35.2393H35.8182C35.24 35.2393 34.7695 35.7099 34.7695 36.2881V38.1641C34.7695 38.2066 34.7469 38.2426 34.7094 38.2538C34.0946 38.4398 33.499 38.6862 32.9374 38.9871C32.9002 39.0076 32.8583 38.9904 32.8322 38.9644L31.5093 37.6416C31.0996 37.2316 30.4333 37.2316 30.0237 37.6416L27.6486 40.0166C27.2389 40.4263 27.2389 41.0926 27.648 41.5019L28.9716 42.8295C28.9973 42.8551 29.0143 42.8976 28.9924 42.9377C28.6885 43.5082 28.4421 44.1016 28.2594 44.7055C28.2499 44.7379 28.2118 44.7625 28.1708 44.7625H26.2948C25.7166 44.7625 25.2461 45.2332 25.2461 45.8113V49.1726C25.2461 49.7529 25.7166 50.2252 26.2948 50.2252H28.1708C28.2133 50.2252 28.2495 50.2479 28.2604 50.2854C28.4409 50.8819 28.6869 51.4765 28.9958 52.0605C29.0104 52.0869 29.0011 52.1289 28.9708 52.1588L27.6484 53.4852C27.2387 53.8949 27.2387 54.5613 27.648 54.9706L30.0235 57.3499C30.4333 57.7592 31.0998 57.7596 31.5098 57.3495L32.8321 56.023C32.8628 55.9926 32.9072 55.9839 32.9393 56.0015C33.4967 56.3006 34.092 56.547 34.708 56.7338C34.744 56.7449 34.7693 56.7818 34.7693 56.8234V58.6957C34.7693 59.276 35.2398 59.7483 35.818 59.7483H39.1832C39.7615 59.7483 40.232 59.2762 40.232 58.6957V56.8234C40.232 56.7818 40.2571 56.7449 40.2922 56.7341C40.9088 56.5473 41.5041 56.3006 42.0587 56.0033C42.0925 55.9847 42.135 55.9921 42.1653 56.023L43.4922 57.3499C43.9022 57.7592 44.5686 57.7596 44.9783 57.3495L47.3528 54.9709C47.7625 54.5611 47.7625 53.8948 47.3528 53.4852L46.0262 52.1583C45.9996 52.1315 45.9903 52.0876 46.0098 52.0523C46.3171 51.4718 46.5621 50.876 46.7367 50.287ZM45.3527 52.832L46.6792 54.1589C46.7031 54.1828 46.708 54.2099 46.708 54.228C46.708 54.2466 46.7031 54.2737 46.679 54.298L44.3044 56.6767C44.2661 56.7146 44.204 56.7146 44.1657 56.6767L42.8424 55.3536C42.5233 55.0272 42.0183 54.9477 41.6118 55.1623C41.1093 55.4321 40.5723 55.6542 40.0151 55.8231C39.575 55.9574 39.2797 56.3597 39.2797 56.8236V58.6958C39.2797 58.749 39.2348 58.7959 39.1834 58.7959H35.8182C35.7651 58.7959 35.7219 58.7509 35.7219 58.6958V56.8236C35.7219 56.3597 35.4263 55.9574 34.9854 55.8227C34.4286 55.6538 33.8919 55.4315 33.3867 55.1604C33.2326 55.0792 33.0662 55.0398 32.9009 55.0398C32.6299 55.0398 32.3622 55.1462 32.1583 55.3501L30.8359 56.6765C30.7979 56.7145 30.7356 56.7149 30.6975 56.677L28.322 54.2976C28.2839 54.2592 28.2839 54.1971 28.3226 54.1584L29.6412 52.8357C29.9745 52.5098 30.0518 52.0015 29.8337 51.6074C29.5576 51.0851 29.3349 50.5478 29.1738 50.015C29.0471 49.5777 28.6347 49.2728 28.1708 49.2728H26.2948C26.2417 49.2728 26.1985 49.2278 26.1985 49.1727V45.8115C26.1985 45.7576 26.2407 45.7151 26.2948 45.7151H28.1708C28.6325 45.7151 29.0447 45.4107 29.172 44.9784C29.3358 44.437 29.558 43.9013 29.8312 43.3894C30.0517 42.983 29.9767 42.4875 29.6453 42.1562L28.3218 40.8291C28.2837 40.7907 28.2837 40.7286 28.3218 40.6904L30.6969 38.3154C30.7444 38.2678 30.7877 38.2678 30.8356 38.3154L32.1581 39.6377C32.4902 39.9704 32.9862 40.0448 33.3895 39.8257C33.8934 39.5556 34.4301 39.3335 34.9795 39.1671C35.4165 39.0405 35.7216 38.6283 35.7216 38.1644V36.2884C35.7216 36.2345 35.7638 36.192 35.8179 36.192H39.1832C39.2355 36.192 39.2796 36.2362 39.2796 36.2884V38.1644C39.2796 38.628 39.5847 39.0407 40.0163 39.1656C40.5704 39.3335 41.1074 39.5556 41.6094 39.8245C42.012 40.0429 42.5194 39.9651 42.8381 39.6385L44.1654 38.3154C44.213 38.2674 44.2565 38.2678 44.3042 38.3154L46.6791 40.6904C46.703 40.7143 46.7078 40.7414 46.7078 40.76C46.7078 40.7781 46.703 40.8054 46.6791 40.8291L45.3489 42.1596C45.0231 42.4923 44.9512 42.9864 45.1683 43.386C45.4448 43.905 45.6656 44.4396 45.8263 44.9818C45.9604 45.4138 46.3732 45.7151 46.8301 45.7151H48.7062C48.7601 45.7151 48.8025 45.7576 48.8025 45.8115V49.1727C48.8025 49.2278 48.7593 49.2728 48.7062 49.2728H46.8301C46.3639 49.2728 45.9602 49.5682 45.8242 50.0121C45.6665 50.5453 45.4454 51.0818 45.1718 51.5994C44.9515 51.9982 45.0256 52.5049 45.3527 52.832Z" fill="#474647"/>
<path d="M37.4998 42.0259C34.4846 42.0259 32.0312 44.4789 32.0312 47.4943C32.0312 50.51 34.4846 52.963 37.4998 52.963C40.515 52.963 42.9684 50.51 42.9684 47.4943C42.9684 44.4789 40.515 42.0259 37.4998 42.0259ZM37.4998 52.0104C35.0097 52.0104 32.9838 49.9845 32.9838 47.4941C32.9838 45.0042 35.0097 42.9783 37.4998 42.9783C39.9899 42.9783 42.0158 45.0042 42.0158 47.4941C42.0158 49.9845 39.9899 52.0104 37.4998 52.0104Z" fill="#474647"/>
<path d="M46.1331 70.7835C40.5532 72.715 34.4176 72.7116 28.8709 70.7839C28.6226 70.6984 28.3512 70.8289 28.2648 71.0775C28.1785 71.326 28.3098 71.5972 28.5583 71.6836C34.2731 73.6699 40.6257 73.6972 46.4444 71.684C46.693 71.5978 46.8248 71.3265 46.7387 71.0779C46.6531 70.8292 46.3817 70.6979 46.1331 70.7835Z" fill="#474647"/>
<path d="M11.4452 39.5085C11.4859 39.5193 11.5265 39.5242 11.5666 39.5242C11.7777 39.5242 11.9707 39.3828 12.0269 39.1688C13.5041 33.5467 16.8798 28.4948 21.532 24.9434C21.741 24.7842 21.7813 24.4851 21.6216 24.2759C21.4618 24.0672 21.163 24.027 20.9541 24.1865C16.1339 27.8656 12.6364 33.1007 11.1055 38.927C11.0389 39.1811 11.1909 39.4416 11.4452 39.5085Z" fill="#474647"/>
<path d="M62.9698 39.169C63.0372 39.4255 63.3003 39.5755 63.5515 39.5087C63.8058 39.4418 63.9579 39.1813 63.8911 38.9272C62.36 33.1002 58.8611 27.8636 54.0387 24.1826C53.8301 24.0234 53.5308 24.0628 53.3711 24.272C53.2115 24.4812 53.2518 24.7803 53.4608 24.9395C58.1153 28.4928 61.4925 33.5462 62.9698 39.169Z" fill="#474647"/>
<path d="M24.5003 28.8806C33.1257 33.6373 41.8751 33.638 50.5019 28.8806C50.6539 28.7968 50.7481 28.6369 50.7481 28.4636C50.7481 22.2314 44.8068 17.1611 37.504 17.1611C30.1979 17.1611 24.2539 22.2314 24.2539 28.4636C24.2541 28.637 24.3484 28.797 24.5003 28.8806ZM37.504 18.1137C44.1704 18.1137 49.6142 22.6054 49.7911 28.1835C41.6349 32.5896 33.3671 32.5896 25.2109 28.1835C25.3881 22.6054 30.8344 18.1137 37.504 18.1137Z" fill="#474647"/>
<path d="M37.4992 15.5421C40.9612 15.5421 43.4672 10.9084 43.4672 7.78447C43.4672 4.49385 40.7899 1.81641 37.4992 1.81641C34.2084 1.81641 31.5312 4.49385 31.5312 7.78433C31.5312 10.9083 34.0373 15.5421 37.4992 15.5421ZM37.4992 2.76885C40.2648 2.76885 42.5146 5.0187 42.5146 7.78433C42.5146 10.4717 40.2677 14.5895 37.4992 14.5895C34.7306 14.5895 32.4837 10.4719 32.4837 7.78433C32.4837 5.0187 34.7335 2.76885 37.4992 2.76885Z" fill="#474647"/>
<path d="M60.1642 56.5825C52.8581 56.5825 46.9141 61.6528 46.9141 67.885C46.9141 68.0584 47.0084 68.2184 47.1603 68.302C55.8046 73.069 64.552 73.0501 73.1619 68.302C73.3139 68.2182 73.4081 68.0583 73.4081 67.885C73.4081 61.6528 67.467 56.5825 60.1642 56.5825ZM47.871 67.6049C48.0481 62.0268 53.4946 57.5351 60.1642 57.5351C66.8305 57.5351 72.2743 62.0268 72.4513 67.6049C64.295 72.0108 56.0272 72.0108 47.871 67.6049Z" fill="#474647"/>
<path d="M54.1953 47.2063C54.1953 50.3303 56.7014 54.964 60.1634 54.964C63.6254 54.964 66.1314 50.3303 66.1314 47.2063C66.1314 43.9157 63.4542 41.2383 60.1634 41.2383C56.8726 41.2383 54.1953 43.9157 54.1953 47.2063ZM65.1789 47.2063C65.1789 49.8937 62.9319 54.0116 60.1634 54.0116C57.3948 54.0116 55.1479 49.8939 55.1479 47.2063C55.1479 44.4407 57.3978 42.1909 60.1634 42.1909C62.9289 42.1907 65.1789 44.4407 65.1789 47.2063Z" fill="#474647"/>
<path d="M14.8399 56.5825C7.53389 56.5825 1.58984 61.6528 1.58984 67.885C1.58984 68.0584 1.68418 68.2184 1.83608 68.302C10.4615 73.0586 19.2109 73.0594 27.8376 68.302C27.9897 68.2182 28.0839 68.0582 28.0839 67.885C28.084 61.6528 22.1428 56.5825 14.8399 56.5825ZM2.54683 67.6049C2.72393 62.0268 8.17036 57.5351 14.8399 57.5351C21.5063 57.5351 26.9501 62.0268 27.1271 67.6049C18.9709 72.0108 10.7031 72.0108 2.54683 67.6049Z" fill="#474647"/>
<path d="M14.8353 54.964C18.2973 54.964 20.803 50.3303 20.803 47.2063C20.803 43.9157 18.1257 41.2383 14.8353 41.2383C11.5445 41.2383 8.86719 43.9157 8.86719 47.2063C8.86719 50.3301 11.3734 54.964 14.8353 54.964ZM14.8353 42.1907C17.6007 42.1907 19.8506 44.4406 19.8506 47.2062C19.8506 49.8936 17.6037 54.0114 14.8353 54.0114C12.0667 54.0114 9.81978 49.8937 9.81978 47.2062C9.81978 44.4407 12.0696 42.1907 14.8353 42.1907Z" fill="#474647"/>
</svg>
