<svg width="75" height="75" viewBox="0 0 75 75" fill="none" xmlns="http://www.w3.org/2000/svg">
<path d="M66.1827 25.1804C66.1827 35.1929 58.072 43.3038 48.0646 43.3038C38.0572 43.3038 29.9414 35.1929 29.9414 25.1804C29.9414 15.1733 38.0574 7.0625 48.0646 7.0625C58.0718 7.0625 66.1827 15.1733 66.1827 25.1804Z" fill="#F4C522"/>
<path d="M61.119 25.1812C61.119 32.1824 55.4476 37.8539 48.45 37.8539C41.4524 37.8539 35.7773 32.1824 35.7773 25.1812C35.7773 18.1836 41.4524 12.5122 48.45 12.5122C55.4476 12.5122 61.119 18.1838 61.119 25.1812Z" fill="white"/>
<path d="M73.2775 51.6869C73.2775 52.7634 72.7229 53.8077 71.6788 54.3295L47.9265 66.5973C44.4028 68.4083 40.2265 68.3919 36.7355 66.532C33.9623 65.0639 30.83 63.4162 29.0682 62.4862C25.4303 60.5777 16.0664 61.5239 16.0664 61.5239V46.7929C16.0664 46.7929 21.8414 46.7602 25.8218 44.8681C28.5951 43.5467 35.1694 46.548 38.9051 48.4892C40.83 49.4845 42.9346 50.0882 45.0879 50.3164L53.0162 51.1485C54.7128 51.328 55.9689 52.8288 55.8384 54.5255L69.1664 48.9465C70.3573 48.457 71.7439 48.7832 72.576 49.7621C73.049 50.3327 73.2775 51.0182 73.2775 51.6869Z" fill="white"/>
<path d="M18.6635 48.2558V60.0605C18.6635 61.7346 17.3063 63.0917 15.6323 63.0917H9.93359V45.2246H15.6323C17.3063 45.2246 18.6635 46.5818 18.6635 48.2558Z" fill="#F4C522"/>
<path d="M11.5597 43.2822H3.33105C2.00273 43.2822 0.925781 44.359 0.925781 45.6875V62.6286C0.925781 63.9569 2.00259 65.0338 3.33105 65.0338H11.5598C12.8881 65.0338 13.9651 63.957 13.9651 62.6286V45.6875C13.9649 44.3592 12.8881 43.2822 11.5597 43.2822Z" fill="#F4C522"/>
<path d="M47.2736 21.1817H51.2425C51.6726 21.1817 52.0206 20.8334 52.0206 20.4036C52.0206 19.9738 51.6726 19.6255 51.2425 19.6255H48.8404V18.4173C48.8404 17.9875 48.4924 17.6392 48.0623 17.6392C47.6322 17.6392 47.2842 17.9875 47.2842 18.4173V19.6255H47.2735C45.5265 19.6255 44.1055 21.0465 44.1055 22.7935C44.1055 24.54 45.5265 25.9611 47.2735 25.9611H48.8526C49.7416 25.9611 50.4644 26.6841 50.4644 27.5729C50.4644 28.4616 49.7417 29.1846 48.8526 29.1846H44.8837C44.4537 29.1846 44.1056 29.533 44.1056 29.9627C44.1056 30.3925 44.4537 30.7409 44.8837 30.7409H47.2842V31.9491C47.2842 32.3789 47.6322 32.7272 48.0623 32.7272C48.4924 32.7272 48.8404 32.3789 48.8404 31.9491V30.7409H48.8526C50.5996 30.7409 52.0206 29.3198 52.0206 27.5729C52.0206 25.8259 50.5996 24.4048 48.8526 24.4048H47.2735C46.3845 24.4048 45.6617 23.6818 45.6617 22.7935C45.6619 21.9048 46.3845 21.1817 47.2736 21.1817Z" fill="#474647"/>
<path d="M21.2773 25.1833C21.2773 25.6131 21.6261 25.9615 22.0555 25.9615L26.2303 25.961C26.6604 25.961 27.0084 25.6127 27.0084 25.1829C27.0084 24.7531 26.6596 24.4048 26.2303 24.4048L22.0555 24.4052C21.6254 24.4054 21.2773 24.7537 21.2773 25.1833Z" fill="#474647"/>
<path d="M26.6665 21.2583C26.9704 20.9543 26.9704 20.462 26.6665 20.158L25.1641 18.6557C24.8602 18.3517 24.3679 18.3517 24.0639 18.6557C23.7599 18.9597 23.7599 19.452 24.0639 19.7559L25.5662 21.2583C25.8702 21.5622 26.3625 21.5622 26.6665 21.2583Z" fill="#474647"/>
<path d="M25.5654 29.1077L24.0639 30.6104C23.7599 30.9148 23.7599 31.4071 24.0639 31.7111C24.368 32.0144 24.8602 32.0146 25.1641 31.7106L26.6656 30.208C26.9696 29.904 26.9696 29.4113 26.6656 29.1073C26.3618 28.8042 25.8693 28.8038 25.5654 29.1077Z" fill="#474647"/>
<path d="M74.8475 25.1833C74.8475 24.7536 74.4995 24.4052 74.0694 24.4052L69.8953 24.4048C69.466 24.4048 69.1172 24.7531 69.1172 25.1829C69.1172 25.6127 69.4652 25.961 69.8953 25.961L74.0694 25.9615C74.4987 25.9615 74.8475 25.6131 74.8475 25.1833Z" fill="#474647"/>
<path d="M69.4584 21.2583C69.7624 21.5622 70.2547 21.5622 70.5587 21.2583L72.061 19.7559C72.365 19.452 72.365 18.9597 72.061 18.6557C71.7571 18.3517 71.2647 18.3517 70.9608 18.6557L69.4584 20.1579C69.1545 20.4619 69.1545 20.9543 69.4584 21.2583Z" fill="#474647"/>
<path d="M72.061 31.7107C72.365 31.4072 72.365 30.9144 72.061 30.6105L70.5587 29.1078C70.2547 28.8039 69.7624 28.8039 69.4584 29.1078C69.1545 29.4114 69.1545 29.9041 69.4584 30.2081L70.9608 31.7107C71.2647 32.0147 71.7571 32.0147 72.061 31.7107Z" fill="#474647"/>
<path d="M73.1683 49.2595C72.1128 48.017 70.3833 47.6021 68.8666 48.2287L56.5208 53.3962C56.1439 51.8145 54.7897 50.5535 53.0945 50.3745L45.1659 49.5417C43.0572 49.3203 41.0716 48.7332 39.2646 47.7967C34.5906 45.3722 28.4035 42.7751 25.4841 44.1659C23.3454 45.1811 20.6318 45.642 18.5851 45.8539C17.8717 44.9774 16.7817 44.4485 15.6321 44.4485H14.4935C14.0091 43.3069 12.8769 42.5039 11.5607 42.5039H3.33242C1.5771 42.5039 0.148438 43.9321 0.148438 45.6875V62.6284C0.148438 64.3837 1.57695 65.8119 3.33242 65.8119H11.5604C12.875 65.8119 14.0062 65.0105 14.4913 63.8708H15.6318C16.937 63.8708 18.1465 63.1923 18.8357 62.1157C21.735 61.9942 26.472 62.0036 28.7057 63.173C30.1988 63.9658 33.836 65.8739 36.3692 67.219C40.0697 69.1885 44.5219 69.2186 48.2812 67.2858L72.0283 55.027C74.1522 53.965 74.7274 51.1274 73.1683 49.2595ZM13.1882 62.6285C13.1882 63.5259 12.458 64.2558 11.5604 64.2558H3.33242C2.43506 64.2558 1.70469 63.5259 1.70469 62.6285V45.6876C1.70469 44.7902 2.43491 44.0603 3.33242 44.0603H11.5604C12.4578 44.0603 13.1882 44.7902 13.1882 45.6876V62.6285ZM17.8889 60.0577C17.8889 61.2795 16.8917 62.3146 15.632 62.3146H14.7444V46.0049H15.632C16.8721 46.0049 17.8889 47.0206 17.8889 48.2537V60.0577ZM71.3232 53.6394L47.5684 65.9024C44.2697 67.5989 40.3555 67.5779 37.0994 65.8447C34.8065 64.6271 30.8775 62.5641 29.4314 61.7965C27.1314 60.5925 22.9074 60.4249 19.4114 60.537C19.4337 60.3645 19.5406 48.1961 19.3262 47.3373C21.4174 47.0854 24.021 46.5828 26.1519 45.5713C27.9589 44.713 32.4742 46.0276 38.5479 49.178C40.5282 50.2046 42.6998 50.8475 45.0031 51.0895L52.9317 51.9223C54.1414 52.0497 55.0533 53.0883 55.0574 54.2792C54.3569 55.149 49.9956 59.4457 35.6703 53.9486C35.2676 53.7939 34.8185 53.9949 34.665 54.3961C34.5107 54.7973 34.7113 55.2476 35.1125 55.4014C40.6786 57.5379 44.8679 58.2662 47.994 58.2662C53.588 58.2662 55.7727 55.9362 56.3488 55.1547L69.4631 49.666C70.337 49.3046 71.375 49.5516 71.9784 50.2617C72.8639 51.3246 72.6014 53.0004 71.3232 53.6394Z" fill="#474647"/>
<path d="M66.9614 25.1802C66.9614 14.7611 58.485 6.28418 48.0654 6.28418C37.6429 6.28418 29.1641 14.7611 29.1641 25.1802C29.1641 35.6024 37.6429 44.0815 48.0654 44.0815C58.485 44.0815 66.9614 35.6024 66.9614 25.1802ZM30.7202 25.1802C30.7202 15.619 38.5014 7.84043 48.0652 7.84043C57.6261 7.84043 65.405 15.619 65.405 25.1802C65.405 34.7445 57.6261 42.5253 48.0652 42.5253C38.5014 42.5253 30.7202 34.7445 30.7202 25.1802Z" fill="#474647"/>
<path d="M61.511 25.1812C61.511 17.7663 55.4791 11.7339 48.0641 11.7339C40.6476 11.7339 34.6133 17.7663 34.6133 25.1812C34.6133 32.5979 40.6476 38.6319 48.0641 38.6319C55.4791 38.6318 61.511 32.5979 61.511 25.1812ZM48.0642 37.0755C41.5057 37.0755 36.1697 31.7397 36.1697 25.181C36.1697 18.6244 41.5055 13.29 48.0642 13.29C54.6206 13.29 59.9549 18.6244 59.9549 25.181C59.9548 31.7397 54.6204 37.0755 48.0642 37.0755Z" fill="#474647"/>
</svg>
