<svg width="228" height="228" viewBox="0 0 228 228" fill="none" xmlns="http://www.w3.org/2000/svg">
<rect x="0.5" y="0.5" width="227" height="227" fill="white" stroke="#474647"/>
<path d="M114 112.493L166.5 165.727L114 165.727L114 112.493Z" fill="#474647"/>
<path d="M114.5 116.511L62 63.2773H114.5V116.511Z" fill="#F4C522"/>
</svg>
