<svg width="337" height="49" viewBox="0 0 337 49" fill="none" xmlns="http://www.w3.org/2000/svg">
<path d="M64.3042 48.8273H76.4029L65.2448 0.173828H50.8591L39.5645 48.8273H51.7655L58.0159 9.49284L64.3004 48.8273H64.3042Z" fill="#474647"/>
<path d="M76.3725 13.3867C72.8339 27.107 60.2345 37.2531 45.2269 37.2531C43.3078 37.2531 41.4228 37.0884 39.5947 36.7666V29.6145C42.2041 30.2882 44.9386 30.6475 47.7566 30.6475C60.227 30.6475 71.0437 23.6339 76.3687 13.3867H76.3725Z" fill="#F4C522"/>
<path d="M148.817 48.8273H160.915L149.757 0.173828H135.372L124.077 48.8273H136.278L142.528 9.49284L148.813 48.8273H148.817Z" fill="#474647"/>
<path d="M160.885 13.3867C157.346 27.107 144.747 37.2531 129.739 37.2531C127.82 37.2531 125.935 37.0884 124.107 36.7666V29.6145C126.717 30.2882 129.451 30.6475 132.269 30.6475C144.74 30.6475 155.556 23.6339 160.881 13.3867H160.885Z" fill="#F4C522"/>
<path d="M0.0407715 11.8058H12.1243V48.8273H24.2609V11.8058H36.8488V0.173828H0.0407715V11.8058Z" fill="#474647"/>
<path d="M118.578 0.173828H106.21L94.0047 20.3613V0.173828H81.906V48.8273H94.0047V35.8743L96.6292 31.2297L105.861 48.8273H118.566L104.192 21.4691L118.578 0.173828Z" fill="#474647"/>
<path d="M194.371 29.9126C193.98 28.5578 193.411 27.3452 192.671 26.2824C191.484 24.6356 188.773 22.6034 184.536 20.1932C183.975 19.8526 183.539 19.6019 183.224 19.4409C182.841 19.2201 182.295 18.8982 181.578 18.4753C177.633 16.2635 175.661 14.1751 175.661 12.2065C175.661 11.0014 176.01 10.0321 176.704 9.29855C177.398 8.56501 178.316 8.19823 179.462 8.19823C180.804 8.19823 181.832 8.72219 182.537 9.76637C183.243 10.8106 183.596 12.3487 183.596 14.3772V14.9498H194.454C194.454 14.7664 194.465 14.5157 194.488 14.1976C194.511 13.8757 194.522 13.625 194.522 13.4453C194.522 9.14511 193.206 5.85912 190.574 3.58738C187.942 1.31564 184.127 0.181641 179.132 0.181641C174.535 0.181641 170.928 1.33809 168.307 3.64726C165.683 5.95643 164.374 9.1451 164.374 13.2021C164.374 14.8712 164.598 16.4094 165.046 17.8129C165.493 19.2201 166.142 20.4851 166.995 21.6116C168.182 23.1012 171.209 25.3093 176.071 28.2435C176.34 28.4044 176.53 28.5129 176.644 28.5728C176.958 28.7524 177.406 29.0257 177.986 29.3887C181.593 31.4583 183.398 33.6178 183.398 35.8708C183.398 37.2369 183.027 38.3185 182.287 39.1119C181.548 39.9053 180.539 40.302 179.261 40.302C177.671 40.302 176.537 39.7818 175.866 38.7339C175.195 37.6897 174.857 35.8895 174.857 33.3371V31.9823H163.764C163.695 32.7083 163.657 33.2323 163.646 33.5654C163.635 33.8985 163.631 34.2129 163.631 34.516C163.631 39.2579 164.947 42.832 167.579 45.231C170.211 47.6337 174.148 48.8314 179.393 48.8314C184.639 48.8314 188.234 47.5739 190.923 45.0626C193.612 42.5513 194.958 38.9734 194.958 34.3326C194.958 32.7458 194.761 31.2749 194.371 29.9164" fill="#474647"/>
<path d="M235.096 28.8476H246.418C246.44 29.1433 246.456 29.4577 246.467 29.7945C246.478 30.1313 246.482 30.6366 246.482 31.3103C246.482 37.2422 245.166 41.6435 242.534 44.5178C239.902 47.3883 235.866 48.8255 230.428 48.8255C227.23 48.8255 224.488 48.2978 222.209 47.2461C219.926 46.1945 218.082 44.6076 216.675 42.4818C215.693 40.9661 214.991 38.8628 214.563 36.1719C214.138 33.4772 213.922 29.2069 213.922 23.361C213.922 17.5151 214.134 15.5241 214.563 12.8294C214.988 10.1348 215.693 8.03145 216.675 6.51945C218.06 4.41612 219.884 2.83301 222.144 1.77012C224.405 0.70723 227.101 0.175781 230.234 0.175781C235.627 0.175781 239.674 1.6541 242.371 4.61073C245.067 7.56737 246.418 11.9911 246.418 17.8819V18.3535L235.225 18.3235C235.184 15.0226 234.801 12.7022 234.072 11.3661C233.348 10.03 232.131 9.3638 230.428 9.3638C228.573 9.3638 227.302 10.1797 226.624 11.8077C225.941 13.4395 225.6 15.4642 225.6 22.4478V23.3648C225.6 30.8761 225.941 35.4795 226.624 37.1711C227.306 38.8665 228.573 39.7123 230.428 39.7123C232.153 39.7123 233.363 39.0986 234.057 37.8672C234.751 36.6359 235.096 34.3492 235.096 31.0034V28.8589V28.8476Z" fill="#F4C522"/>
<path d="M253.965 48.7983V0.197266H266.917C271.161 0.197266 274.241 0.391879 276.16 0.781106C278.079 1.17033 279.634 1.83651 280.829 2.78338C282.236 3.92112 283.286 5.3171 283.98 6.97881C284.674 8.64051 285.02 10.6203 285.02 12.9108C285.02 15.7102 284.523 18.0531 283.533 19.9468C282.543 21.8406 280.999 23.3975 278.913 24.6176C282.475 26.1745 284.348 29.8684 284.542 35.6956V35.8528C284.565 36.4628 284.583 37.3461 284.606 38.5025C284.69 43.9742 285.608 47.4023 287.356 48.7908H273.892C273.592 47.7803 273.376 46.7249 273.236 45.6209C273.095 44.5168 273.027 43.3342 273.027 42.0692C273.027 41.2907 273.05 40.3476 273.092 39.2435C273.133 38.1395 273.156 37.4172 273.156 37.0803C273.156 34.1125 272.762 32.084 271.973 30.9912C271.184 29.8983 269.765 29.3519 267.721 29.3519H265.355V48.7908H253.969L253.965 48.7983ZM265.351 20.4259C265.544 20.4259 265.794 20.4371 266.102 20.4558C266.409 20.4783 266.64 20.4858 266.788 20.4858C269.178 20.4858 270.865 20.0142 271.855 19.0673C272.845 18.1204 273.342 16.5224 273.342 14.2693C273.342 12.1847 272.845 10.7102 271.855 9.83439C270.865 8.96237 269.174 8.52449 266.788 8.52449C266.64 8.52449 266.409 8.53571 266.102 8.55443C265.791 8.57688 265.54 8.58437 265.351 8.58437V20.4184V20.4259Z" fill="#F4C522"/>
<path d="M292.343 48.7983V0.197266H308.462L312.843 20.8675C312.866 20.9723 313.04 22.271 313.37 24.7635C313.7 27.2561 314.045 29.7561 314.409 32.2599C314.686 30.3886 315.031 28.0682 315.448 25.3024C315.866 22.5367 316.105 21.006 316.169 20.7103L320.519 0.197266H336.479V48.7983H325.605L326.595 11.2453L318.794 48.7983H310.032L302.231 11.2453L303.221 48.7983H292.347H292.343Z" fill="#F4C522"/>
</svg>
