<svg width="339" height="50" viewBox="0 0 339 50" fill="none" xmlns="http://www.w3.org/2000/svg">
<path d="M65.1403 49.7129H77.28L66.0841 0.287109H51.6496L40.3167 49.7129H52.5591L58.8307 9.75404L65.1365 49.7129H65.1403Z" fill="#474647"/>
<path d="M77.2496 13.709C73.6991 27.647 61.057 37.9542 45.9984 37.9542C44.0728 37.9542 42.1814 37.7869 40.3472 37.4599V30.1944C42.9654 30.8787 45.7092 31.2437 48.5367 31.2437C61.0494 31.2437 71.9028 24.1188 77.2458 13.709H77.2496Z" fill="#F4C522"/>
<path d="M149.939 49.7129H162.079L150.883 0.287109H136.449L125.116 49.7129H137.358L143.63 9.75404L149.936 49.7129H149.939Z" fill="#474647"/>
<path d="M162.049 13.709C158.498 27.647 145.856 37.9542 130.797 37.9542C128.872 37.9542 126.981 37.7869 125.146 37.4599V30.1944C127.764 30.8787 130.508 31.2437 133.336 31.2437C145.848 31.2437 156.702 24.1188 162.045 13.709H162.049Z" fill="#F4C522"/>
<path d="M0.658936 12.1037H12.7834V49.7129H24.9612V12.1037H37.5919V0.287109H0.658936V12.1037Z" fill="#474647"/>
<path d="M119.598 0.287109H107.188L94.9453 20.795V0.287109H82.8018V49.7129H94.9453V36.5542L97.5749 31.8359L106.838 49.7129H119.586L105.163 21.9204L119.598 0.287109Z" fill="#474647"/>
<path d="M195.652 30.4979C195.26 29.1215 194.689 27.8897 193.947 26.8099C192.756 25.1371 190.035 23.0726 185.784 20.6241C185.221 20.2781 184.783 20.0234 184.467 19.8599C184.083 19.6356 183.535 19.3086 182.816 18.879C178.858 16.632 176.879 14.5105 176.879 12.5107C176.879 11.2864 177.229 10.3017 177.926 9.55655C178.622 8.81136 179.543 8.43876 180.692 8.43876C182.039 8.43876 183.071 8.97104 183.779 10.0318C184.486 11.0925 184.84 12.6552 184.84 14.7158V15.2975H195.736C195.736 15.1112 195.747 14.8565 195.77 14.5333C195.793 14.2064 195.804 13.9516 195.804 13.7691C195.804 9.40067 194.484 6.06252 191.843 3.75472C189.201 1.44692 185.373 0.294922 180.361 0.294922C175.749 0.294922 172.13 1.46973 169.5 3.81555C166.867 6.16138 165.554 9.40066 165.554 13.522C165.554 15.2177 165.778 16.7803 166.227 18.2061C166.676 19.6356 167.327 20.9207 168.183 22.0651C169.375 23.5782 172.411 25.8214 177.29 28.8022C177.56 28.9657 177.751 29.0759 177.865 29.1367C178.181 29.3192 178.63 29.5968 179.212 29.9656C182.831 32.0681 184.642 34.2618 184.642 36.5506C184.642 37.9383 184.269 39.0371 183.527 39.8431C182.785 40.6491 181.773 41.0522 180.491 41.0522C178.896 41.0522 177.758 40.5237 177.085 39.4591C176.411 38.3984 176.072 36.5696 176.072 33.9767V32.6003H164.941C164.873 33.3379 164.835 33.8702 164.823 34.2086C164.812 34.547 164.808 34.8663 164.808 35.1743C164.808 39.9914 166.128 43.6223 168.769 46.0594C171.411 48.5002 175.361 49.7169 180.624 49.7169C185.887 49.7169 189.495 48.4394 192.193 45.8883C194.891 43.3371 196.242 39.7024 196.242 34.988C196.242 33.3759 196.044 31.8818 195.652 30.5017" fill="#474647"/>
<path d="M215.27 49.7129V0.287109H226.835V18.9662H236.12V0.287109H247.426V49.7129H236.12V29.205H226.835V49.7129H215.27Z" fill="#F4C522"/>
<path d="M255.456 49.7129V0.287109H268.467C272.73 0.287109 275.824 0.484811 277.753 0.880217C279.679 1.27562 281.243 1.95618 282.441 2.91808C283.853 4.07388 284.911 5.49582 285.604 7.1877C286.3 8.87958 286.647 10.8908 286.647 13.2214C286.647 16.0691 286.148 18.453 285.151 20.3768C284.154 22.3006 282.609 23.886 280.508 25.1254C284.085 26.7109 285.969 30.4634 286.163 36.3907V36.5504C286.186 37.1701 286.205 38.0712 286.228 39.246C286.312 44.8083 287.233 48.2985 288.991 49.709H275.466C275.165 48.6825 274.944 47.6066 274.807 46.485C274.667 45.3634 274.598 44.1582 274.598 42.8731C274.598 42.0823 274.621 41.1242 274.663 39.9988C274.705 38.8772 274.728 38.1434 274.728 37.8013C274.728 34.7825 274.332 32.718 273.54 31.6078C272.749 30.4938 271.325 29.9387 269.267 29.9387H266.888V49.709H255.452L255.456 49.7129ZM266.892 20.8596C267.086 20.8596 267.337 20.871 267.645 20.89C267.957 20.9129 268.186 20.9205 268.338 20.9205C270.735 20.9205 272.433 20.4376 273.43 19.4757C274.427 18.5138 274.925 16.8866 274.925 14.5978C274.925 12.4801 274.427 10.9783 273.43 10.0886C272.433 9.20275 270.735 8.75792 268.338 8.75792C268.19 8.75792 267.957 8.76933 267.645 8.78834C267.333 8.81115 267.082 8.81875 266.892 8.81875V20.8558V20.8596Z" fill="#F4C522"/>
<path d="M294.006 49.7128V0.287109H310.199L314.598 21.3083C314.621 21.4147 314.796 22.7378 315.127 25.2737C315.458 27.8096 315.809 30.3494 316.17 32.8967C316.448 30.9919 316.798 28.6347 317.213 25.8212C317.631 23.0077 317.871 21.4527 317.936 21.1524L322.305 0.290909H338.334V49.7167H327.412L328.409 11.5258L320.569 49.7167H311.767L303.928 11.5258L304.925 49.7167H294.003L294.006 49.7128Z" fill="#F4C522"/>
</svg>
