<svg width="18" height="15" viewBox="0 0 18 15" fill="none" xmlns="http://www.w3.org/2000/svg">
<path d="M5.27594 10.8159L1.87177 7.41181L0 9.28358L4.49225 13.7758L4.4974 13.7706L5.31751 14.5907L18 1.90814L16.0919 0L5.27594 10.8159Z" fill="#474647"/>
</svg>
