<svg width="77" height="93" viewBox="0 0 77 93" fill="none" xmlns="http://www.w3.org/2000/svg">
<path d="M65.8205 92.9888H12.0876C11.6039 92.9888 11.1547 92.7468 10.8782 92.3494C10.6018 91.9519 10.5499 91.4335 10.7227 90.9842L13.8154 82.9485C14.04 82.3782 14.5756 81.998 15.1803 81.998H47.0399V84.9358H16.1824L14.2301 90.0337H63.6954L61.7431 84.9358H52.6724V81.998H62.7624C63.3671 81.998 63.92 82.3782 64.1273 82.9485L67.22 90.9842C67.3928 91.4335 67.3409 91.9519 67.0645 92.3494C66.7708 92.7468 66.3043 92.9888 65.8205 92.9888Z" fill="#474647"/>
<path d="M56.5598 83.7775L55.575 79.0943H22.3504L21.3656 83.7775L18.4976 83.1726L19.7415 77.3316C19.8798 76.6577 20.4845 76.1738 21.1756 76.1738H56.7499C57.441 76.1738 58.0457 76.6577 58.1839 77.3316L59.4279 83.1726L56.5598 83.7775Z" fill="#474647"/>
<path d="M43.429 54.919H34.4793C31.6803 54.919 29.417 52.6379 29.417 49.8557V46.3477H32.3542V49.8557C32.3542 51.0308 33.3044 51.9812 34.4793 51.9812H43.429C44.6039 51.9812 45.5541 51.0308 45.5541 49.8557V46.3477H48.4913V49.8557C48.4913 52.6552 46.228 54.919 43.429 54.919Z" fill="#474647"/>
<path d="M40.1808 48.4904H37.7447C26.0305 48.4904 16.3379 40.3856 15.2148 29.6541L12.8306 7.18885C12.7787 6.7741 12.917 6.35934 13.1934 6.04829C13.4698 5.73723 13.8672 5.56445 14.2819 5.56445H63.609C64.0236 5.56445 64.421 5.73723 64.6975 6.04829C64.9739 6.35934 65.1121 6.7741 65.0603 7.18885L62.6933 29.6368C61.5703 40.3856 51.8949 48.4904 40.1808 48.4904ZM15.9232 8.50222L18.1175 29.3258C19.085 38.5711 27.5164 45.5353 37.7274 45.5353H40.1635C50.3745 45.5353 58.8059 38.5711 59.7734 29.3258L61.9676 8.50222H15.9232Z" fill="#474647"/>
<path d="M51.3939 79.0944H26.5143C25.8578 79.0944 25.2876 78.6623 25.1148 78.0402C24.9248 77.4181 25.1667 76.7441 25.7196 76.3985L30.6955 73.1324C33.0106 71.6117 34.4101 69.0368 34.4101 66.2546V53.4494C34.4101 52.6371 35.0667 51.9805 35.8787 51.9805H42.064C42.8761 51.9805 43.5326 52.6371 43.5326 53.4494V66.099C43.5326 68.8121 44.863 71.3352 47.0918 72.8732L52.2405 76.4158C52.7761 76.7787 53.0007 77.4527 52.8106 78.0575C52.6033 78.6796 52.0504 79.0944 51.3939 79.0944ZM31.4211 76.1566H46.6598L45.4159 75.3098C42.3923 73.2361 40.5782 69.7799 40.5782 66.1163V54.9355H37.33V66.2718C37.33 70.0391 35.4468 73.5298 32.3023 75.6036L31.4211 76.1566Z" fill="#474647"/>
<path d="M13.1592 7.96655L8.63247 2.38478C8.26965 1.93548 8.20054 1.33064 8.44243 0.829496C8.68431 0.311066 9.20263 0 9.77278 0H19.9492V2.93777H12.8655L15.4571 6.11749L13.1592 7.96655Z" fill="#474647"/>
<path d="M64.9912 7.96655L62.7106 6.11749L65.3022 2.93777H24.251V0H68.3776C68.9478 0 69.4661 0.328347 69.708 0.829496C69.9498 1.34793 69.8807 1.95276 69.5179 2.38478L64.9912 7.96655Z" fill="#474647"/>
<path d="M30.8857 48.1282C7.56117 48.1282 2.20515 28.8944 0.978455 20.6168C0.702016 18.7159 1.25489 16.815 2.49887 15.3634C3.74285 13.9291 5.5397 13.0996 7.4575 13.0996H15.1114V16.0374H7.4575C6.40358 16.0374 5.41876 16.4867 4.72766 17.2816C4.03657 18.0765 3.72557 19.1307 3.88107 20.1848C5.26326 29.5165 10.602 45.1731 30.8857 45.1731V48.1282Z" fill="#474647"/>
<path d="M47.0229 48.1284V45.1907C67.2894 45.1907 72.6454 29.5341 74.0276 20.2024C74.1831 19.1483 73.8721 18.0941 73.181 17.2992C72.4899 16.5043 71.5051 16.055 70.4512 16.055H62.7973V13.1172H70.4512C72.3517 13.1172 74.1658 13.9466 75.4098 15.381C76.6538 16.8326 77.2067 18.7508 76.9302 20.6344C75.7035 28.8947 70.3475 48.1284 47.0229 48.1284Z" fill="#474647"/>
<path d="M44.2412 29.3613H34.3931V32.2991H44.2412V29.3613Z" fill="#F4C522"/>
<path d="M40.7858 30.8294H37.8486V20.72C36.7947 21.2903 35.4298 21.6877 33.6675 21.6877V18.7499C37.2612 18.7499 37.8314 16.6935 37.8832 16.4689C38.056 15.7431 38.747 15.2419 39.49 15.3111C40.2329 15.3975 40.8031 16.0023 40.8031 16.7626V30.8294H40.7858Z" fill="#F4C522"/>
</svg>
