<svg width="20" height="20" viewBox="0 0 20 20" fill="none" xmlns="http://www.w3.org/2000/svg">
<g clip-path="url(#clip0_694_12292)">
<path d="M10.7812 8.04688H9.21875C9.00301 8.04688 8.82812 8.2218 8.82812 8.4375V15.4688C8.82812 15.6845 9.00301 15.8594 9.21875 15.8594H10.7812C10.997 15.8594 11.1719 15.6845 11.1719 15.4688V8.4375C11.1719 8.2218 10.997 8.04688 10.7812 8.04688Z" fill="#333333"/>
<path d="M10 0C4.46961 0 0 4.46828 0 10C0 15.5305 4.46832 20 10 20C15.5305 20 20 15.5317 20 10C20 4.46953 15.5317 0 10 0ZM10 19.2188C4.91676 19.2188 0.78125 15.0832 0.78125 10C0.78125 4.91676 4.91676 0.78125 10 0.78125C15.0832 0.78125 19.2188 4.91676 19.2188 10C19.2188 15.0832 15.0832 19.2188 10 19.2188Z" fill="#333333"/>
<path d="M10 6.48438C10.6472 6.48438 11.1719 5.95971 11.1719 5.3125C11.1719 4.66529 10.6472 4.14062 10 4.14062C9.35279 4.14062 8.82812 4.66529 8.82812 5.3125C8.82812 5.95971 9.35279 6.48438 10 6.48438Z" fill="#333333"/>
</g>
<defs>
<clipPath id="clip0_694_12292">
<rect width="20" height="20" fill="white"/>
</clipPath>
</defs>
</svg>
