<svg width="56" height="56" viewBox="0 0 56 56" fill="none" xmlns="http://www.w3.org/2000/svg">
<path d="M51.3314 39.4801V46.4801C51.334 47.1299 51.2009 47.7731 50.9406 48.3685C50.6802 48.964 50.2984 49.4984 49.8196 49.9377C49.3407 50.3771 48.7754 50.7115 48.1598 50.9197C47.5442 51.1279 46.8919 51.2052 46.2447 51.1467C39.0647 50.3666 32.1677 47.9131 26.1081 43.9834C20.4703 40.4009 15.6905 35.6211 12.1081 29.9834C8.16467 23.8962 5.71062 16.9657 4.94472 9.7534C4.88641 9.10815 4.9631 8.45784 5.16989 7.84385C5.37668 7.22987 5.70905 6.66567 6.14584 6.18718C6.58263 5.70869 7.11426 5.32639 7.7069 5.06461C8.29953 4.80284 8.94018 4.66734 9.58805 4.66673H16.5881C17.7204 4.65559 18.8182 5.05658 19.6768 5.79497C20.5354 6.53337 21.0962 7.55877 21.2547 8.68006C21.5502 10.9202 22.0981 13.1198 22.8881 15.2367C23.202 16.0719 23.2699 16.9795 23.0838 17.8521C22.8977 18.7247 22.4654 19.5257 21.8381 20.1601L18.8747 23.1234C22.1963 28.965 27.0331 33.8018 32.8747 37.1234L35.8381 34.1601C36.4725 33.5327 37.2734 33.1004 38.146 32.9143C39.0186 32.7282 39.9262 32.7961 40.7614 33.1101C42.8784 33.9 45.0779 34.4479 47.3181 34.7434C48.4515 34.9033 49.4867 35.4742 50.2266 36.3476C50.9666 37.2209 51.3598 38.3357 51.3314 39.4801Z" stroke="#2A6BBC" stroke-width="2" stroke-linecap="round" stroke-linejoin="round"/>
</svg>
