<svg width="56" height="56" viewBox="0 0 56 56" fill="none" xmlns="http://www.w3.org/2000/svg">
<g clip-path="url(#clip0_479_3582)">
<path d="M52.9384 23.38L49.6554 20.7533C49.6423 20.7428 49.6291 20.7296 49.616 20.7191L52.6724 20.1075C53.081 20.0261 53.375 19.6674 53.375 19.25V16.625C53.375 16.142 52.983 15.75 52.5 15.75H48.125C47.642 15.75 47.25 16.142 47.25 16.625V18.158C47.2299 18.1309 47.2097 18.1038 47.1896 18.0766C47.1345 17.9244 47.0365 17.8001 46.9122 17.7012C46.4196 17.0039 45.9979 16.3056 45.7231 15.7019L44.2444 12.4495C43.302 10.3749 40.7785 8.75 38.5 8.75H17.5C15.2215 8.75 12.698 10.3749 11.7556 12.4495L10.2778 15.701C10.003 16.3048 9.58125 17.0039 9.08863 17.7012C8.96438 17.8001 8.86725 17.9244 8.81125 18.0766C8.79112 18.1038 8.77188 18.13 8.75088 18.158V16.625C8.75088 16.142 8.35888 15.75 7.87588 15.75H3.5C3.017 15.75 2.625 16.142 2.625 16.625V19.25C2.625 19.6674 2.919 20.0261 3.3285 20.1075L6.38487 20.7191C6.37175 20.7296 6.35862 20.7428 6.3455 20.7533L3.06163 23.38C1.34488 24.7537 0 27.552 0 29.75V44.625C0 46.0723 1.17775 47.25 2.625 47.25H9.625C11.0723 47.25 12.25 46.0723 12.25 44.625V42.875H43.75V44.625C43.75 46.0723 44.9277 47.25 46.375 47.25H53.375C54.8223 47.25 56 46.0723 56 44.625V29.75C56 27.552 54.6551 24.7537 52.9384 23.38V23.38ZM44.9873 41.125L42.9809 39.1186C42.1295 38.2673 40.579 37.625 39.375 37.625H16.1875C14.9835 37.625 13.433 38.2673 12.5816 39.1186L10.5753 41.125H4.375C2.92775 41.125 1.75 39.9473 1.75 38.5V34.125H2.625V35C2.625 36.9303 4.19475 38.5 6.125 38.5H8.75C9.233 38.5 9.625 38.108 9.625 37.625C9.625 37.142 9.233 36.75 8.75 36.75H6.125C5.15987 36.75 4.375 35.9651 4.375 35V34.125H6.125C6.85125 34.125 7.98 34.5922 8.49362 35.1059C8.66425 35.2765 8.88825 35.3623 9.11225 35.3623C9.33625 35.3623 9.56025 35.2765 9.73088 35.1059C10.073 34.7637 10.073 34.2108 9.73088 33.8686C8.8795 33.0173 7.32987 32.375 6.125 32.375H1.75V29.75C1.75 29.4411 1.799 29.1077 1.86812 28.7674C2.42812 29.3519 3.24275 29.75 4.375 29.75H11.375C11.6069 29.75 11.8291 29.6581 11.9936 29.4936L13.125 28.3623L14.2564 29.4936C14.42 29.6581 14.6431 29.75 14.875 29.75H25.0128L27.3814 32.1186C27.552 32.2893 27.776 32.375 28 32.375C28.224 32.375 28.448 32.2893 28.6186 32.1186L30.9873 29.75H41.125C41.3569 29.75 41.58 29.6581 41.7436 29.4936L42.875 28.3623L44.0064 29.4936C44.17 29.6581 44.3931 29.75 44.625 29.75H51.625C52.7573 29.75 53.5719 29.3519 54.1319 28.7674C54.201 29.1077 54.25 29.4411 54.25 29.75V32.375H49.875C48.671 32.375 47.1205 33.0173 46.2691 33.8686C45.927 34.2108 45.927 34.7637 46.2691 35.1059C46.4398 35.2765 46.6637 35.3623 46.8877 35.3623C47.1117 35.3623 47.3357 35.2765 47.5064 35.1059C48.02 34.5922 49.1488 34.125 49.875 34.125H51.625V35C51.625 35.9651 50.8401 36.75 49.875 36.75H47.25C46.767 36.75 46.375 37.142 46.375 37.625C46.375 38.108 46.767 38.5 47.25 38.5H49.875C51.8053 38.5 53.375 36.9303 53.375 35V34.125H54.25V38.5C54.25 39.9473 53.0723 41.125 51.625 41.125H44.9873ZM42.5127 41.125H13.0497L13.8189 40.3559C14.3325 39.8422 15.4613 39.375 16.1875 39.375H39.375C40.1012 39.375 41.23 39.8422 41.7436 40.3559L42.5127 41.125ZM10.115 19.25H45.885C46.7329 20.3709 47.7015 21.4314 48.5616 22.12L49.6142 22.9618L43.4254 25.4371C43.4245 25.4371 43.4245 25.438 43.4236 25.438C43.3177 25.4809 43.218 25.5447 43.1322 25.6305L42.2572 26.5055L40.7627 28H30.625C30.3931 28 30.17 28.0919 30.0064 28.2564L28 30.2627L25.9936 28.2564C25.83 28.0919 25.6069 28 25.375 28H15.2372L13.7436 26.5064L12.8686 25.6314C12.7829 25.5456 12.6831 25.4817 12.5772 25.4389C12.5764 25.4389 12.5764 25.438 12.5755 25.438L6.38662 22.9626L7.43925 22.1209C8.2985 21.4314 9.26713 20.3709 10.115 19.25V19.25ZM53.3234 26.6166C53.1475 27.531 52.5805 28 51.625 28H44.9873L44.1123 27.125L44.2418 26.9955L51.1849 24.2182L51.8446 24.7467C52.3994 25.1904 52.9113 25.865 53.3234 26.6166ZM49 17.5H51.625V18.5325L49 19.0575V17.5ZM11.8694 16.4255L13.3472 13.174C14.007 11.7241 15.9084 10.5 17.5 10.5H38.5C40.0916 10.5 41.993 11.7241 42.6519 13.1731L44.1306 16.4255C44.2846 16.7632 44.485 17.1281 44.7046 17.5H11.2954C11.515 17.1281 11.7162 16.7632 11.8694 16.4255V16.4255ZM4.375 17.5H7V19.0575L4.375 18.5325V17.5ZM4.1545 24.7467L4.81425 24.2182L11.7582 26.9955L11.8878 27.125L11.0128 28H4.375C3.4195 28 2.8525 27.531 2.67663 26.6166C3.08875 25.865 3.59975 25.1904 4.1545 24.7467ZM9.625 45.5H2.625C2.14288 45.5 1.75 45.1071 1.75 44.625V41.9781C2.48325 42.5329 3.38625 42.875 4.375 42.875H10.5V44.625C10.5 45.1071 10.1071 45.5 9.625 45.5ZM53.375 45.5H46.375C45.8929 45.5 45.5 45.1071 45.5 44.625V42.875H51.625C52.6137 42.875 53.5168 42.5329 54.25 41.9781V44.625C54.25 45.1071 53.8571 45.5 53.375 45.5Z" fill="white"/>
</g>
<defs>
<clipPath id="clip0_479_3582">
<rect width="56" height="56" fill="white"/>
</clipPath>
</defs>
</svg>
