<svg width="56" height="56" viewBox="0 0 56 56" fill="none" xmlns="http://www.w3.org/2000/svg">
<path d="M5.35087 42.6032H50.6491C51.5863 42.6032 52.3478 41.8413 52.3478 40.9045V11.7841C52.3478 10.8474 51.5863 10.0854 50.6491 10.0854H5.35087C4.41417 10.0854 3.65218 10.8474 3.65218 11.7841V40.9045C3.65218 41.8413 4.41465 42.6032 5.35087 42.6032ZM5.1082 11.7841C5.1082 11.6502 5.21692 11.5415 5.35087 11.5415H50.6491C50.7831 11.5415 50.8918 11.6502 50.8918 11.7841V40.9045C50.8918 41.0385 50.7831 41.1472 50.6491 41.1472H5.35087C5.21692 41.1472 5.1082 41.0385 5.1082 40.9045V11.7841ZM56 43.903V45.2624C56 45.6225 55.7078 45.9147 55.3477 45.9147H0.652297C0.292175 45.9147 0 45.6225 0 45.2624V43.903H22.9988C23.1124 44.282 23.4599 44.5601 23.8758 44.5601H32.1247C32.5401 44.5601 32.8876 44.2825 33.0017 43.903H56Z" fill="#2A6BBC"/>
</svg>
