<svg width="56" height="56" viewBox="0 0 56 56" fill="none" xmlns="http://www.w3.org/2000/svg">
<g clip-path="url(#clip0_479_3572)">
<path d="M51.3333 8.3999H4.66667C2.09067 8.40294 0.00303333 10.4906 0 13.0666V42.9332C0.00303333 45.5092 2.09067 47.5969 4.66667 47.5999H51.3333C51.5952 47.601 51.8567 47.5781 52.1145 47.5318C54.3603 47.1559 56.0043 45.2102 56 42.9332V13.0666C55.997 10.4905 53.9093 8.40294 51.3333 8.3999ZM4.66667 45.7332C3.21592 45.733 2.0055 44.6248 1.87787 43.1796L20.4867 31.0127L39.4109 45.7332H4.66667ZM54.1333 42.9332C54.1348 44.3031 53.1426 45.472 51.7907 45.6931C51.6397 45.7203 51.4866 45.7337 51.3333 45.7332H42.4508L30.0851 36.1096L41.1432 27.2672L54.1333 35.0615V42.9332ZM54.1333 32.885L41.5473 25.3334C41.2127 25.1321 40.7883 25.1605 40.4833 25.4043L28.5675 34.9336L21.1055 29.1302C20.791 28.8859 20.3563 28.8678 20.0228 29.0854L1.86667 40.9564V13.0666C1.86667 11.5202 3.12025 10.2666 4.66667 10.2666H51.3333C52.8797 10.2666 54.1333 11.5202 54.1333 13.0666V32.885Z" fill="#2A6BBC"/>
<path d="M27.9984 14C24.9056 14 22.3984 16.5072 22.3984 19.6C22.4015 22.6916 24.9069 25.197 27.9984 25.2C31.0913 25.2 33.5984 22.6928 33.5984 19.6C33.5984 16.5072 31.0913 14 27.9984 14ZM27.9984 23.3333C25.9366 23.3333 24.2651 21.6618 24.2651 19.6C24.2651 17.5382 25.9366 15.8667 27.9984 15.8667C30.0603 15.8667 31.7318 17.5382 31.7318 19.6C31.7318 21.6618 30.0603 23.3333 27.9984 23.3333Z" fill="#2A6BBC"/>
</g>
<defs>
<clipPath id="clip0_479_3572">
<rect width="56" height="56" fill="white"/>
</clipPath>
</defs>
</svg>
