<svg width="56" height="56" viewBox="0 0 56 56" fill="none" xmlns="http://www.w3.org/2000/svg">
<path d="M18.6641 39.6665L27.9974 48.9998L37.3307 39.6665" stroke="#2A6BBC" stroke-width="2" stroke-linecap="round" stroke-linejoin="round"/>
<path d="M28 28V49" stroke="#2A6BBC" stroke-width="2" stroke-linecap="round" stroke-linejoin="round"/>
<path d="M48.7201 42.2098C50.7487 40.7833 52.2699 38.7475 53.0631 36.3979C53.8562 34.0482 53.88 31.5069 53.131 29.1428C52.382 26.7787 50.8991 24.7147 48.8976 23.2505C46.8961 21.7863 44.48 20.9979 42.0001 20.9998H39.0601C38.3583 18.2649 37.0452 15.7248 35.2197 13.5707C33.3942 11.4166 31.1038 9.70478 28.5209 8.564C25.9381 7.42322 23.1301 6.88324 20.3083 6.98472C17.4866 7.08619 14.7246 7.82648 12.2304 9.14984C9.73614 10.4732 7.57461 12.3452 5.90853 14.6248C4.24244 16.9044 3.11521 19.5323 2.6117 22.3106C2.10818 25.0889 2.24151 27.9452 3.00164 30.6646C3.76177 33.3839 5.12889 35.8953 7.00009 38.0098" stroke="#2A6BBC" stroke-width="2" stroke-linecap="round" stroke-linejoin="round"/>
</svg>
