<svg width="56" height="56" viewBox="0 0 56 56" fill="none" xmlns="http://www.w3.org/2000/svg">
<path d="M24.5327 44.7131C24.449 44.7131 24.3659 44.6993 24.2867 44.6723C21.2488 43.7053 18.487 42.0242 16.2327 39.7699C13.9784 37.5156 12.2973 34.7537 11.3303 31.7158C11.2914 31.6028 11.2798 31.4821 11.2965 31.3638C11.3132 31.2454 11.3577 31.1326 11.4264 31.0348L22.6794 14.9779C29.8686 5.64784 41.4575 0.654003 53.7064 1.59768C53.8866 1.61141 54.0559 1.68916 54.1837 1.81685C54.3115 1.94454 54.3894 2.11375 54.4034 2.29389C55.3448 14.5412 50.3532 26.1317 41.0504 33.3012L41.0232 33.3217L24.9663 44.5731C24.8397 44.6636 24.6882 44.7125 24.5327 44.7131V44.7131ZM12.8892 31.5857C13.7971 34.263 15.3092 36.6953 17.3082 38.6944C19.3072 40.6934 21.7396 42.2054 24.4169 43.1134L40.14 32.0935C48.8632 25.3644 53.6179 14.5526 52.939 3.06427C41.4363 2.38319 30.6268 7.14395 23.8985 15.8762L12.8892 31.5857Z" fill="#F71729"/>
<path d="M51.8625 17.6265C51.8145 17.6267 51.7666 17.6224 51.7195 17.6136C48.4175 16.9845 45.3822 15.3735 43.0107 12.9914C40.6285 10.6198 39.0175 7.58459 38.3884 4.28262C38.3508 4.08542 38.393 3.88136 38.5059 3.71531C38.6187 3.54927 38.7929 3.43484 38.99 3.39721C39.1872 3.35958 39.3913 3.40182 39.5573 3.51465C39.7234 3.62747 39.8378 3.80164 39.8754 3.99883C40.4478 7.00274 41.9135 9.76397 44.0807 11.9213C46.2381 14.0886 48.9993 15.5542 52.0032 16.1266C52.1879 16.1621 52.3528 16.2652 52.4657 16.4156C52.5785 16.5661 52.6313 16.7532 52.6138 16.9405C52.5962 17.1277 52.5095 17.3017 52.3706 17.4286C52.2317 17.5554 52.0506 17.626 51.8625 17.6265V17.6265Z" fill="#F71729"/>
<path d="M34.5714 27.3538C33.2003 27.353 31.872 26.8769 30.8126 26.0066C29.7533 25.1362 29.0285 23.9255 28.7617 22.5807C28.4949 21.2359 28.7027 19.8401 29.3497 18.6313C29.9966 17.4225 31.0426 16.4754 32.3096 15.9514C33.5765 15.4274 34.986 15.3589 36.2977 15.7575C37.6095 16.1562 38.7425 16.9973 39.5037 18.1377C40.2648 19.278 40.607 20.647 40.472 22.0114C40.3369 23.3757 39.733 24.6511 38.763 25.6201C38.2129 26.1708 37.5595 26.6075 36.8401 26.9051C36.1208 27.2026 35.3498 27.3551 34.5714 27.3538V27.3538ZM34.5714 17.0127C33.5497 17.0125 32.5597 17.3666 31.7699 18.0146C30.98 18.6626 30.4394 19.5644 30.2399 20.5664C30.0405 21.5684 30.1947 22.6085 30.6762 23.5095C31.1577 24.4106 31.9367 25.1168 32.8805 25.5078C33.8244 25.8988 34.8746 25.9505 35.8522 25.654C36.8299 25.3575 37.6745 24.7312 38.2421 23.8817C38.8097 23.0323 39.0652 22.0123 38.9651 20.9956C38.8649 19.9789 38.4154 19.0284 37.693 18.306C37.2839 17.8949 36.7974 17.5689 36.2616 17.3469C35.7258 17.1249 35.1513 17.0114 34.5714 17.0127V17.0127Z" fill="#F71729"/>
<path d="M30.4849 54.4576H30.4395C30.3178 54.4503 30.1997 54.4136 30.0952 54.3508C29.9907 54.2879 29.9029 54.2007 29.8394 54.0967L23.8845 44.3527C23.7798 44.1814 23.7475 43.9755 23.7946 43.7804C23.8417 43.5852 23.9644 43.4168 24.1357 43.3121C24.307 43.2075 24.5129 43.1751 24.708 43.2223C24.9032 43.2694 25.0716 43.3921 25.1762 43.5634L30.5636 52.3788L34.6418 47.214C35.5408 46.0692 36.2034 44.7572 36.5911 43.3541C36.9787 41.9511 37.0837 40.485 36.8999 39.041L36.402 35.2118C36.3873 35.1124 36.3926 35.0111 36.4175 34.9138C36.4425 34.8165 36.4865 34.7251 36.5471 34.645C36.6077 34.5649 36.6836 34.4976 36.7705 34.4471C36.8574 34.3967 36.9534 34.364 37.053 34.3511C37.1526 34.3381 37.2538 34.3451 37.3507 34.3717C37.4476 34.3982 37.5382 34.4438 37.6173 34.5057C37.6964 34.5677 37.7623 34.6448 37.8113 34.7325C37.8603 34.8202 37.8914 34.9167 37.9026 35.0166L38.4006 38.8465C38.6101 40.4911 38.4906 42.161 38.0488 43.759C37.6071 45.3569 36.8521 46.8511 35.8276 48.1546L31.0759 54.1731C31.0051 54.2618 30.9152 54.3335 30.8128 54.3827C30.7105 54.432 30.5984 54.4576 30.4849 54.4576V54.4576Z" fill="#F71729"/>
<path d="M12.0381 32.225C11.899 32.2251 11.7626 32.1869 11.6438 32.1145L1.90135 26.1596C1.79736 26.0961 1.71025 26.0084 1.64742 25.904C1.58459 25.7996 1.5479 25.6816 1.54047 25.5599C1.53304 25.4383 1.55509 25.3167 1.60475 25.2054C1.6544 25.0941 1.73019 24.9965 1.82568 24.9208L7.84416 20.1691C9.1478 19.1449 10.642 18.39 12.2399 17.9483C13.8379 17.5066 15.5077 17.3869 17.1523 17.5961L20.9822 18.0941C21.082 18.1054 21.1786 18.1364 21.2663 18.1854C21.354 18.2344 21.4311 18.3003 21.493 18.3794C21.555 18.4585 21.6006 18.5491 21.6271 18.646C21.6537 18.7429 21.6607 18.8441 21.6477 18.9437C21.6348 19.0433 21.6021 19.1394 21.5516 19.2262C21.5012 19.3131 21.4339 19.389 21.3538 19.4496C21.2737 19.5102 21.1823 19.5543 21.085 19.5792C20.9877 19.6041 20.8864 19.6094 20.787 19.5947L16.9578 19.0968C15.5138 18.9132 14.0478 19.0183 12.6448 19.406C11.2417 19.7936 9.9297 20.4561 8.78481 21.355L3.61768 25.4354L12.4331 30.8227C12.5738 30.9088 12.6826 31.0385 12.7427 31.1921C12.8029 31.3457 12.8113 31.5147 12.7666 31.6735C12.7219 31.8322 12.6265 31.972 12.495 32.0716C12.3635 32.1712 12.2031 32.225 12.0381 32.225V32.225Z" fill="#F71729"/>
<path d="M11.5222 54.5153C11.3726 54.5153 11.2263 54.4709 11.1019 54.3877C10.9775 54.3045 10.8805 54.1864 10.8232 54.0481C10.766 53.9099 10.751 53.7577 10.7802 53.6109C10.8093 53.4642 10.8814 53.3293 10.9872 53.2235L17.7458 46.4649C17.8156 46.3926 17.8991 46.335 17.9914 46.2953C18.0838 46.2557 18.1831 46.2348 18.2835 46.2339C18.384 46.233 18.4837 46.2522 18.5767 46.2902C18.6697 46.3283 18.7542 46.3845 18.8252 46.4555C18.8963 46.5266 18.9525 46.6111 18.9905 46.7041C19.0286 46.7971 19.0477 46.8967 19.0468 46.9972C19.046 47.0977 19.0251 47.197 18.9854 47.2893C18.9458 47.3817 18.8881 47.4652 18.8158 47.535L12.0572 54.2936C11.9154 54.4355 11.7229 54.5153 11.5222 54.5153V54.5153Z" fill="#F71729"/>
<path d="M2.24097 45.236C2.09132 45.236 1.94504 45.1916 1.82062 45.1084C1.69621 45.0253 1.59923 44.9071 1.54197 44.7688C1.48471 44.6306 1.46972 44.4784 1.49891 44.3316C1.52809 44.1849 1.60014 44.05 1.70594 43.9442L8.46454 37.1856C8.53435 37.1133 8.61785 37.0557 8.71018 37.016C8.80251 36.9764 8.90181 36.9555 9.00229 36.9546C9.10277 36.9537 9.20242 36.9729 9.29542 37.0109C9.38842 37.049 9.47292 37.1052 9.54397 37.1762C9.61503 37.2473 9.67122 37.3318 9.70927 37.4248C9.74732 37.5178 9.76647 37.6174 9.76559 37.7179C9.76472 37.8184 9.74384 37.9177 9.70418 38.01C9.66452 38.1024 9.60687 38.1859 9.53459 38.2557L2.776 45.0143C2.63411 45.1562 2.44166 45.236 2.24097 45.236V45.236Z" fill="#F71729"/>
<path d="M2.70191 54.0565C2.55226 54.0564 2.40598 54.0121 2.28156 53.9289C2.15714 53.8457 2.06017 53.7276 2.00291 53.5893C1.94564 53.451 1.93066 53.2989 1.95984 53.1521C1.98903 53.0054 2.06108 52.8705 2.16688 52.7647L9.44083 45.4908C9.58355 45.3529 9.77471 45.2766 9.97313 45.2783C10.1716 45.2801 10.3614 45.3597 10.5017 45.5C10.642 45.6403 10.7216 45.8301 10.7233 46.0285C10.725 46.2269 10.6487 46.4181 10.5109 46.5608L3.23694 53.8348C3.09505 53.9767 2.9026 54.0564 2.70191 54.0565V54.0565Z" fill="#F71729"/>
</svg>
