<svg width="56" height="56" viewBox="0 0 56 56" fill="none" xmlns="http://www.w3.org/2000/svg">
<g clip-path="url(#clip0_479_3368)">
<path d="M55.3669 14.1904C56.2008 11.7685 56.1277 9.15415 55.1488 6.79064C54.1697 4.42714 52.3729 2.52687 50.0706 1.40392L49.6992 0.507369C49.6158 0.305945 49.4558 0.145945 49.2544 0.0625478C49.053 -0.0208493 48.8268 -0.0208493 48.6254 0.0625478L41.3356 3.08205C40.7001 3.34528 40.2051 3.84018 39.9419 4.4758C39.6786 5.11131 39.6786 5.81136 39.9419 6.44686L39.9643 6.50111L11.3062 18.5314C10.887 18.705 10.5605 19.0315 10.3869 19.4507C10.2133 19.8699 10.2133 20.3315 10.3869 20.7507L10.7434 21.6113L4.9723 24.0018L4.95137 23.9512C4.77778 23.532 4.45131 23.2055 4.03203 23.0318C3.61285 22.8583 3.15115 22.8582 2.73197 23.0318L1.11203 23.7028C0.692855 23.8764 0.36639 24.203 0.192692 24.6222C0.0191028 25.0413 0.0191028 25.503 0.192692 25.9222L2.87674 32.402C3.05033 32.8212 3.37679 33.1476 3.79608 33.3213C4.00573 33.4081 4.22589 33.4515 4.44616 33.4515C4.66644 33.4515 4.8866 33.4081 5.09624 33.3213L6.71619 32.6503C7.13536 32.4767 7.46183 32.1503 7.63553 31.731C7.80922 31.3117 7.80911 30.8501 7.63553 30.4309L7.61459 30.3803L13.3857 27.9898L13.7421 28.8504C13.9157 29.2696 14.2422 29.5962 14.6615 29.7698C14.8707 29.8565 15.0903 29.8999 15.3105 29.8999C15.5316 29.8999 15.7533 29.856 15.965 29.7684L18.2629 28.8038C18.3061 28.7937 18.3491 28.7808 18.3914 28.7633C18.4364 28.7447 18.4782 28.7219 18.5179 28.6967L25.3638 25.8228C25.4591 25.9371 25.5617 26.045 25.6707 26.146L9.7633 54.7789C9.54281 55.1758 9.68582 55.6761 10.0826 55.8965C10.209 55.9668 10.346 56.0001 10.481 56.0001C10.7699 56.0001 11.05 55.8475 11.2002 55.5772L17.7842 43.726H27.1941V55.1781C27.1941 55.632 27.5621 56 28.016 56C28.4699 56 28.8379 55.632 28.8379 55.1781V43.726H38.2477L44.8317 55.5773C44.982 55.8476 45.2621 56.0002 45.551 56.0002C45.686 56.0002 45.823 55.9668 45.9493 55.8966C46.3461 55.6761 46.4892 55.1758 46.2687 54.7789L30.3616 26.1461C31.0415 25.5152 31.468 24.6149 31.468 23.6165C31.468 23.4988 31.462 23.3825 31.4505 23.2678L44.6193 17.7397L44.6389 17.7867C45.0493 18.7775 46.0105 19.3765 47.0215 19.3765C47.3493 19.3765 47.6826 19.3135 48.0037 19.1804L55.2934 16.1609C55.7128 15.9872 55.9119 15.5064 55.7382 15.0871L55.3669 14.1904ZM6.11662 31.102C6.10797 31.123 6.09219 31.1296 6.08693 31.1317L4.46698 31.8028C4.46172 31.805 4.44616 31.8115 4.42501 31.8028C4.40408 31.7941 4.39751 31.7783 4.39531 31.7731L1.71126 25.2933C1.70907 25.2881 1.7025 25.2724 1.71126 25.2513C1.71992 25.2304 1.7357 25.2238 1.74096 25.2216L3.3609 24.5506C3.36419 24.5493 3.37153 24.5462 3.38162 24.5462C3.38775 24.5462 3.39488 24.5473 3.40277 24.5506C3.4237 24.5593 3.43027 24.575 3.43247 24.5803L4.77449 27.8202L5.78095 30.2501L6.11641 31.0601C6.11871 31.0652 6.12528 31.0811 6.11662 31.102ZM6.98523 28.8617L6.29328 27.1912L5.60134 25.5206L11.3724 23.1301L12.7563 26.4713L6.98523 28.8617ZM53.63 7.41979C54.1742 8.73354 54.3858 10.1399 54.2655 11.5315L51.1719 4.06298C52.241 4.96183 53.0857 6.10604 53.63 7.41979ZM15.3322 28.2511C15.3269 28.2533 15.3111 28.2598 15.2902 28.2511C15.2693 28.2424 15.2628 28.2267 15.2606 28.2214L13.5831 24.1715L12.5767 21.7416V21.7415L11.9057 20.1217C11.9035 20.1165 11.8969 20.1008 11.9057 20.0797C11.9143 20.0588 11.9301 20.0523 11.9389 20.0486L13.6025 19.3502L16.9995 27.5512L15.3322 28.2511ZM29.8242 23.6165C29.8242 24.6135 29.013 25.4247 28.016 25.4247C27.0189 25.4247 26.2078 24.6135 26.2078 23.6165C26.2078 22.6194 27.0189 21.8083 28.016 21.8083C29.013 21.8083 29.8242 22.6194 29.8242 23.6165ZM18.6974 42.0822L27.1064 26.946C27.1355 26.954 27.1647 26.9617 27.1941 26.9688V42.0822H18.6974ZM37.3344 42.0822H28.8379V26.9688C28.8673 26.9616 28.8964 26.954 28.9255 26.946L37.3344 42.0822ZM30.8967 21.7174C30.2784 20.7826 29.2183 20.1644 28.016 20.1644C26.1125 20.1644 24.5639 21.713 24.5639 23.6165C24.5639 23.8658 24.5911 24.1087 24.6415 24.3432L18.5152 26.915L15.1181 18.714L40.5933 8.02001L43.9902 16.221L30.8967 21.7174ZM47.3746 17.6616C46.8999 17.8583 46.3541 17.632 46.1575 17.1575L41.4606 5.81782C41.3653 5.58802 41.3653 5.33487 41.4606 5.10495C41.5558 4.87503 41.7347 4.69607 41.9647 4.60084L48.4951 1.89586L53.905 14.9567L47.3746 17.6616Z" fill="#2A6BBC"/>
</g>
<defs>
<clipPath id="clip0_479_3368">
<rect width="56" height="56" fill="white"/>
</clipPath>
</defs>
</svg>
