<svg width="56" height="56" viewBox="0 0 56 56" fill="none" xmlns="http://www.w3.org/2000/svg">
<path d="M24.5288 44.7129C24.4451 44.7129 24.362 44.6991 24.2828 44.672C21.2449 43.7051 18.4831 42.024 16.2288 39.7696C13.9745 37.5153 12.2934 34.7535 11.3264 31.7156C11.2875 31.6026 11.2759 31.4819 11.2926 31.3635C11.3093 31.2451 11.3538 31.1324 11.4225 31.0345L22.6755 14.9777C29.8646 5.6476 41.4536 0.653759 53.7025 1.59743C53.8826 1.61117 54.0519 1.68891 54.1798 1.8166C54.3076 1.94429 54.3855 2.11351 54.3995 2.29365C55.3409 14.541 50.3493 26.1315 41.0465 33.301L41.0192 33.3214L24.9624 44.5729C24.8358 44.6633 24.6843 44.7122 24.5288 44.7129V44.7129ZM12.8853 31.5854C13.7932 34.2627 15.3053 36.6951 17.3043 38.6941C19.3033 40.6931 21.7357 42.2052 24.413 43.1131L40.1361 32.0932C48.8592 25.3641 53.614 14.5524 52.9351 3.06403C41.4324 2.38295 30.6229 7.14371 23.8946 15.8759L12.8853 31.5854Z" fill="#2A6BBC"/>
<path d="M51.8625 17.6263C51.8145 17.6264 51.7666 17.6221 51.7195 17.6134C48.4175 16.9843 45.3822 15.3733 43.0107 12.9911C40.6285 10.6196 39.0175 7.58435 38.3884 4.28237C38.3508 4.08518 38.393 3.88111 38.5059 3.71507C38.6187 3.54902 38.7929 3.4346 38.99 3.39697C39.1872 3.35933 39.3913 3.40158 39.5573 3.5144C39.7234 3.62723 39.8378 3.8014 39.8754 3.99859C40.4478 7.0025 41.9135 9.76373 44.0807 11.9211C46.2381 14.0883 48.9993 15.554 52.0032 16.1264C52.1879 16.1619 52.3528 16.2649 52.4657 16.4154C52.5785 16.5658 52.6313 16.753 52.6138 16.9402C52.5962 17.1275 52.5095 17.3015 52.3706 17.4283C52.2317 17.5552 52.0506 17.6257 51.8625 17.6263V17.6263Z" fill="#2A6BBC"/>
<path d="M34.5714 27.3538C33.2003 27.353 31.872 26.8769 30.8126 26.0066C29.7533 25.1362 29.0285 23.9255 28.7617 22.5807C28.4949 21.2359 28.7027 19.8401 29.3497 18.6313C29.9966 17.4225 31.0426 16.4754 32.3096 15.9514C33.5765 15.4274 34.986 15.3589 36.2977 15.7575C37.6095 16.1562 38.7425 16.9973 39.5037 18.1377C40.2648 19.278 40.607 20.647 40.472 22.0114C40.3369 23.3757 39.733 24.6511 38.763 25.6201C38.2129 26.1708 37.5595 26.6075 36.8401 26.9051C36.1208 27.2026 35.3498 27.3551 34.5714 27.3538V27.3538ZM34.5714 17.0127C33.5497 17.0125 32.5597 17.3666 31.7699 18.0146C30.98 18.6626 30.4394 19.5644 30.2399 20.5664C30.0405 21.5684 30.1947 22.6085 30.6762 23.5095C31.1577 24.4106 31.9367 25.1168 32.8805 25.5078C33.8244 25.8988 34.8746 25.9505 35.8522 25.654C36.8299 25.3575 37.6745 24.7312 38.2421 23.8817C38.8097 23.0323 39.0652 22.0123 38.9651 20.9956C38.8649 19.9789 38.4154 19.0284 37.693 18.306C37.2839 17.8949 36.7974 17.5689 36.2616 17.3469C35.7258 17.1249 35.1513 17.0114 34.5714 17.0127V17.0127Z" fill="#2A6BBC"/>
<path d="M30.4849 54.4576H30.4395C30.3178 54.4503 30.1997 54.4136 30.0952 54.3508C29.9907 54.2879 29.9029 54.2007 29.8394 54.0967L23.8845 44.3527C23.7798 44.1814 23.7475 43.9755 23.7946 43.7804C23.8417 43.5852 23.9644 43.4168 24.1357 43.3121C24.307 43.2075 24.5129 43.1751 24.708 43.2223C24.9032 43.2694 25.0716 43.3921 25.1762 43.5634L30.5636 52.3788L34.6418 47.214C35.5408 46.0692 36.2034 44.7572 36.5911 43.3541C36.9787 41.9511 37.0837 40.485 36.8999 39.041L36.402 35.2118C36.3873 35.1124 36.3926 35.0111 36.4175 34.9138C36.4425 34.8165 36.4865 34.7251 36.5471 34.645C36.6077 34.5649 36.6836 34.4976 36.7705 34.4471C36.8574 34.3967 36.9534 34.364 37.053 34.3511C37.1526 34.3381 37.2538 34.3451 37.3507 34.3717C37.4476 34.3982 37.5382 34.4438 37.6173 34.5057C37.6964 34.5677 37.7623 34.6448 37.8113 34.7325C37.8603 34.8202 37.8914 34.9167 37.9026 35.0166L38.4006 38.8465C38.6101 40.4911 38.4906 42.161 38.0488 43.759C37.6071 45.3569 36.8521 46.8511 35.8276 48.1546L31.0759 54.1731C31.0051 54.2618 30.9152 54.3335 30.8128 54.3827C30.7105 54.432 30.5984 54.4576 30.4849 54.4576V54.4576Z" fill="#2A6BBC"/>
<path d="M12.042 32.225C11.9029 32.2251 11.7665 32.1869 11.6477 32.1145L1.90526 26.1596C1.80127 26.0961 1.71416 26.0084 1.65133 25.904C1.5885 25.7996 1.55181 25.6816 1.54438 25.5599C1.53695 25.4383 1.559 25.3167 1.60865 25.2054C1.65831 25.0941 1.7341 24.9965 1.82958 24.9208L7.84807 20.1691C9.15171 19.1449 10.6459 18.39 12.2439 17.9483C13.8418 17.5066 15.5116 17.3869 17.1562 17.5961L20.9861 18.0941C21.0859 18.1054 21.1825 18.1364 21.2702 18.1854C21.3579 18.2344 21.435 18.3003 21.497 18.3794C21.5589 18.4585 21.6045 18.5491 21.631 18.646C21.6576 18.7429 21.6646 18.8441 21.6516 18.9437C21.6387 19.0433 21.606 19.1394 21.5556 19.2262C21.5051 19.3131 21.4378 19.389 21.3577 19.4496C21.2776 19.5102 21.1862 19.5543 21.0889 19.5792C20.9916 19.6041 20.8903 19.6094 20.7909 19.5947L16.9617 19.0968C15.5177 18.9132 14.0517 19.0183 12.6487 19.406C11.2456 19.7936 9.93361 20.4561 8.78872 21.355L3.62158 25.4354L12.437 30.8227C12.5777 30.9088 12.6865 31.0385 12.7466 31.1921C12.8068 31.3457 12.8152 31.5147 12.7705 31.6735C12.7258 31.8322 12.6304 31.972 12.4989 32.0716C12.3674 32.1712 12.207 32.225 12.042 32.225V32.225Z" fill="#2A6BBC"/>
<path d="M11.5222 54.5153C11.3726 54.5153 11.2263 54.4709 11.1019 54.3877C10.9775 54.3045 10.8805 54.1864 10.8232 54.0481C10.766 53.9099 10.751 53.7577 10.7802 53.6109C10.8093 53.4642 10.8814 53.3293 10.9872 53.2235L17.7458 46.4649C17.8156 46.3926 17.8991 46.335 17.9914 46.2953C18.0838 46.2557 18.1831 46.2348 18.2835 46.2339C18.384 46.233 18.4837 46.2522 18.5767 46.2902C18.6697 46.3283 18.7542 46.3845 18.8252 46.4555C18.8963 46.5266 18.9525 46.6111 18.9905 46.7041C19.0286 46.7971 19.0477 46.8967 19.0468 46.9972C19.046 47.0977 19.0251 47.197 18.9854 47.2893C18.9458 47.3817 18.8881 47.4652 18.8158 47.535L12.0572 54.2936C11.9154 54.4355 11.7229 54.5153 11.5222 54.5153V54.5153Z" fill="#2A6BBC"/>
<path d="M2.24097 45.236C2.09132 45.236 1.94504 45.1916 1.82062 45.1084C1.69621 45.0253 1.59923 44.9071 1.54197 44.7688C1.48471 44.6306 1.46972 44.4784 1.49891 44.3316C1.52809 44.1849 1.60014 44.05 1.70594 43.9442L8.46454 37.1856C8.53435 37.1133 8.61785 37.0557 8.71018 37.016C8.80251 36.9764 8.90181 36.9555 9.00229 36.9546C9.10277 36.9537 9.20242 36.9729 9.29542 37.0109C9.38842 37.049 9.47292 37.1052 9.54397 37.1762C9.61503 37.2473 9.67122 37.3318 9.70927 37.4248C9.74732 37.5178 9.76647 37.6174 9.76559 37.7179C9.76472 37.8184 9.74384 37.9177 9.70418 38.01C9.66452 38.1024 9.60687 38.1859 9.53459 38.2557L2.776 45.0143C2.63411 45.1562 2.44166 45.236 2.24097 45.236V45.236Z" fill="#2A6BBC"/>
<path d="M2.70191 54.0567C2.55226 54.0567 2.40598 54.0123 2.28156 53.9291C2.15714 53.846 2.06017 53.7278 2.00291 53.5895C1.94564 53.4513 1.93066 53.2992 1.95984 53.1524C1.98903 53.0056 2.06108 52.8708 2.16688 52.7649L9.44083 45.491C9.58355 45.3531 9.77471 45.2769 9.97313 45.2786C10.1716 45.2803 10.3614 45.3599 10.5017 45.5002C10.642 45.6405 10.7216 45.8303 10.7233 46.0287C10.725 46.2272 10.6487 46.4183 10.5109 46.5611L3.23694 53.835C3.09505 53.9769 2.9026 54.0567 2.70191 54.0567V54.0567Z" fill="#2A6BBC"/>
</svg>
