<svg width="60" height="60" viewBox="0 0 60 60" fill="none" xmlns="http://www.w3.org/2000/svg">
<circle cx="30" cy="30" r="30" fill="#FFF1D8"/>
<g clip-path="url(#clip0_3092_14790)">
<path fill-rule="evenodd" clip-rule="evenodd" d="M35.1094 23.0164C37.1902 23.4992 37.9861 24.7159 38.9841 26.3906H35.1094V23.0164ZM22.949 26.5312C23.3564 26.5312 23.6521 26.7279 23.6521 27.1875C23.6521 27.5751 23.3384 27.8895 22.951 27.8906H18.7031C18.3148 27.8906 18 28.2056 18 28.5938C18 28.9821 18.3148 29.2969 18.7031 29.2969H25.0312C25.4233 29.2969 25.7371 29.6115 25.7371 30C25.7371 30.3884 25.4224 30.7031 25.034 30.7031H18.7031C18.3148 30.7031 18 31.0179 18 31.4062C18 31.7946 18.3148 32.1094 18.7031 32.1094H20.25V34.2188C20.25 34.6071 20.5648 34.9219 20.9531 34.9219H22.3665C22.6185 36.163 23.7151 37.0781 25.0078 37.0781C26.3005 37.0781 27.3972 36.163 27.6491 34.9219H34.7884C35.0403 36.163 36.137 37.0781 37.4297 37.0781C38.7224 37.0781 39.819 36.163 40.071 34.9219H41.2969C41.6852 34.9219 42 34.6071 42 34.2188V30C42 27.937 39.824 27.8 39.822 27.7969H34.4062C34.0179 27.7969 33.7031 27.4821 33.7031 27.0938V22.875H20.9531C20.5648 22.875 20.25 23.1898 20.25 23.5781V25.125H19.4062C19.0179 25.125 18.7031 25.4398 18.7031 25.8281C18.7031 26.2165 19.0179 26.5312 19.4062 26.5312H22.949ZM38.3412 33.4713C38.8445 33.9747 38.8445 34.7911 38.3412 35.2945C37.5315 36.1042 36.1406 35.5281 36.1406 34.3828C36.1406 33.2377 37.5315 32.6616 38.3412 33.4713ZM25.9193 33.4713C26.4227 33.9747 26.4227 34.7911 25.9193 35.2945C25.1096 36.1042 23.7188 35.5281 23.7188 34.3828C23.7188 33.2377 25.1096 32.6616 25.9193 33.4713Z" fill="black"/>
</g>
<defs>
<clipPath id="clip0_3092_14790">
<rect width="24" height="24" fill="white" transform="translate(18 18)"/>
</clipPath>
</defs>
</svg>
