<svg width="22" height="22" viewBox="0 0 22 22" fill="none" xmlns="http://www.w3.org/2000/svg">
<path d="M2.75 8.24992L11 1.83325L19.25 8.24992V18.3333C19.25 18.8195 19.0568 19.2858 18.713 19.6296C18.3692 19.9734 17.9029 20.1666 17.4167 20.1666H4.58333C4.0971 20.1666 3.63079 19.9734 3.28697 19.6296C2.94315 19.2858 2.75 18.8195 2.75 18.3333V8.24992Z" stroke="#333333" stroke-linecap="round" stroke-linejoin="round"/>
<path d="M8.25 20.1667V11H13.75V20.1667" stroke="#333333" stroke-linecap="round" stroke-linejoin="round"/>
</svg>
