<svg width="42" height="42" viewBox="0 0 42 42" fill="none" xmlns="http://www.w3.org/2000/svg">
<circle cx="21" cy="21" r="21" fill="#E9E9E9"/>
<g clip-path="url(#clip0_2019_10249)">
<path d="M21.5611 14.6143C23.1115 14.6143 24.3684 13.3575 24.3684 11.8071C24.3684 10.2568 23.1115 9 21.5611 9C20.0108 9 18.7539 10.2568 18.7539 11.8071C18.7539 13.3575 20.0108 14.6143 21.5611 14.6143Z" fill="#2A6BBC"/>
<path d="M21.5631 33C22.4932 33 23.2472 32.246 23.2472 31.3159C23.2472 30.3858 22.4932 29.6318 21.5631 29.6318C20.6329 29.6318 19.8789 30.3858 19.8789 31.3159C19.8789 32.246 20.6329 33 21.5631 33Z" fill="#2A6BBC"/>
<path d="M14.6634 17.1899C16.0589 17.1899 17.1901 16.0587 17.1901 14.6633C17.1901 13.2679 16.0589 12.1367 14.6634 12.1367C13.268 12.1367 12.1367 13.2679 12.1367 14.6633C12.1367 16.0587 13.268 17.1899 14.6634 17.1899Z" fill="#2A6BBC"/>
<path d="M28.4622 29.8613C29.2374 29.8613 29.8658 29.2329 29.8658 28.4578C29.8658 27.6826 29.2374 27.0542 28.4622 27.0542C27.687 27.0542 27.0586 27.6826 27.0586 28.4578C27.0586 29.2329 27.687 29.8613 28.4622 29.8613Z" fill="#2A6BBC"/>
<path d="M11.8077 23.8072C13.0478 23.8072 14.053 22.802 14.053 21.5621C14.053 20.3221 13.0478 19.3169 11.8077 19.3169C10.5677 19.3169 9.5625 20.3221 9.5625 21.5621C9.5625 22.802 10.5677 23.8072 11.8077 23.8072Z" fill="#2A6BBC"/>
<path d="M31.3175 22.6832C31.9372 22.6832 32.4396 22.1808 32.4396 21.5611C32.4396 20.9414 31.9372 20.439 31.3175 20.439C30.6977 20.439 30.1953 20.9414 30.1953 21.5611C30.1953 22.1808 30.6977 22.6832 31.3175 22.6832Z" fill="#2A6BBC"/>
<path d="M13.2751 27.0705C12.5073 27.8383 12.5073 29.0807 13.2751 29.8485C14.042 30.6163 15.2863 30.6163 16.0532 29.8485C16.821 29.0807 16.821 27.8383 16.0532 27.0705C15.2863 26.3018 14.043 26.2945 13.2751 27.0705Z" fill="#2A6BBC"/>
<path d="M28.4588 15.505C28.9236 15.505 29.3004 15.1282 29.3004 14.6634C29.3004 14.1986 28.9236 13.8218 28.4588 13.8218C27.994 13.8218 27.6172 14.1986 27.6172 14.6634C27.6172 15.1282 27.994 15.505 28.4588 15.505Z" fill="#2A6BBC"/>
</g>
<defs>
<clipPath id="clip0_2019_10249">
<rect width="24" height="24" fill="white" transform="translate(9 9)"/>
</clipPath>
</defs>
</svg>
