<svg width="36" height="36" viewBox="0 0 36 36" fill="none" xmlns="http://www.w3.org/2000/svg">
<g clip-path="url(#clip0_973_7591)">
<path d="M31.8318 11.1049L22.4281 10.2328L18.6927 1.55879C18.4311 0.951431 17.57 0.951431 17.3085 1.55879L13.5731 10.2327L4.16938 11.1049C3.5109 11.166 3.24484 11.985 3.74159 12.4214L10.8367 18.6543L8.7603 27.8673C8.61489 28.5124 9.31162 29.0186 9.88017 28.681L18.0006 23.8592L26.121 28.681C26.6896 29.0186 27.3862 28.5124 27.2409 27.8673L25.1644 18.6543L32.2596 12.4214C32.7563 11.985 32.4902 11.166 31.8318 11.1049Z" fill="#2A6BBC" fill-opacity="0.9"/>
<path d="M8.38744 1.26027C8.86683 1.92613 10.2199 4.78575 10.9935 6.4523C11.1151 6.71428 10.7864 6.95096 10.5766 6.75246C9.24152 5.49021 6.95882 3.29983 6.47943 2.6339C6.1001 2.10705 6.2197 1.37242 6.74662 0.993085C7.27347 0.613748 8.0081 0.73342 8.38744 1.26027Z" fill="#2A6BBC"/>
<path d="M27.6128 1.26027C27.1334 1.92613 25.7803 4.78575 25.0067 6.4523C24.8851 6.71428 25.2138 6.95096 25.4237 6.75246C26.7587 5.49021 29.0413 3.29976 29.5208 2.6339C29.9001 2.10705 29.7805 1.37242 29.2536 0.993085C28.7268 0.613748 27.9921 0.73342 27.6128 1.26027Z" fill="#2A6BBC"/>
<path d="M35.1902 20.7866C34.4101 20.5322 31.2745 20.1119 29.4518 19.8813C29.1653 19.845 29.0397 20.2301 29.2925 20.3698C30.9007 21.2582 33.6811 22.7674 34.4611 23.0217C35.0784 23.2231 35.7419 22.8859 35.9432 22.2686C36.1445 21.6514 35.8074 20.9879 35.1902 20.7866Z" fill="#2A6BBC"/>
<path d="M0.811306 20.7866C1.59135 20.5322 4.72695 20.1119 6.54966 19.8813C6.83618 19.845 6.96176 20.2301 6.70899 20.3698C5.10073 21.2582 2.32036 22.7674 1.54031 23.0217C0.923103 23.2231 0.259562 22.8859 0.0582573 22.2686C-0.143048 21.6514 0.194101 20.9879 0.811306 20.7866Z" fill="#2A6BBC"/>
<path d="M16.8594 34.0532C16.8594 33.2327 17.4321 30.1214 17.778 28.317C17.8324 28.0333 18.2374 28.0333 18.2918 28.317C18.6377 30.1214 19.2104 33.2327 19.2104 34.0532C19.2104 34.7024 18.6841 35.2287 18.0349 35.2287C17.3857 35.2288 16.8594 34.7024 16.8594 34.0532Z" fill="#2A6BBC"/>
<path d="M20.051 4.71302L18.6926 1.55879C18.431 0.951431 17.5699 0.951431 17.3084 1.55879L13.573 10.2327L4.16938 11.1049C3.5109 11.166 3.24484 11.985 3.74159 12.4214L10.8367 18.6543L8.7603 27.8673C8.61489 28.5124 9.31162 29.0186 9.88017 28.681L10.9609 28.0392C12.7328 16.5698 17.7138 8.15046 20.051 4.71302Z" fill="#2A6BBC"/>
</g>
<defs>
<clipPath id="clip0_973_7591">
<rect width="36" height="36" fill="white"/>
</clipPath>
</defs>
</svg>
