<svg width="56" height="56" viewBox="0 0 56 56" fill="none" xmlns="http://www.w3.org/2000/svg">
<rect width="56" height="56" rx="8" fill="#EBF2FD"/>
<g clip-path="url(#clip0_2007_10242)">
<path d="M28.2993 19.3469V16.3001C28.2993 16.1344 28.165 16 27.9993 16C27.8336 16 27.6992 16.1344 27.6992 16.3001V19.3469C27.6992 19.5126 27.8336 19.647 27.9993 19.647C28.165 19.647 28.2993 19.5126 28.2993 19.3469Z" fill="#2A6BBC"/>
<path d="M22.4115 17.7175C22.3286 17.574 22.1448 17.5248 22.0016 17.6076C21.8581 17.6905 21.8091 17.874 21.8917 18.0175L23.4154 20.6563C23.471 20.7525 23.5719 20.8062 23.6756 20.8062C23.7264 20.8062 23.7781 20.7934 23.8253 20.7662C23.9688 20.6831 24.0178 20.4998 23.9352 20.3563L22.4115 17.7175Z" fill="#2A6BBC"/>
<path d="M20.6554 23.4136L18.0166 21.8899C17.8726 21.8068 17.6895 21.8565 17.6066 21.9998C17.5238 22.1433 17.573 22.3268 17.7165 22.4097L20.3553 23.9334C20.4027 23.9606 20.4542 23.9734 20.505 23.9734C20.6087 23.9734 20.7094 23.9196 20.7652 23.8235C20.8478 23.68 20.7989 23.4964 20.6554 23.4136Z" fill="#2A6BBC"/>
<path d="M16 28.0003C16 28.166 16.1344 28.3003 16.3001 28.3003H19.3469C19.5126 28.3003 19.647 28.166 19.647 28.0003C19.647 27.8345 19.5126 27.7002 19.3469 27.7002H16.3001C16.1344 27.7002 16 27.8345 16 28.0003V28.0003Z" fill="#2A6BBC"/>
<path d="M17.8669 34.1502C17.9177 34.1502 17.9694 34.1372 18.0166 34.1099L20.6554 32.5865C20.7989 32.5034 20.8478 32.3199 20.7652 32.1766C20.6821 32.0331 20.4983 31.9836 20.3553 32.0667L17.7165 33.5901C17.573 33.6732 17.5238 33.8568 17.6066 34.0001C17.6623 34.0964 17.7632 34.1502 17.8669 34.1502Z" fill="#2A6BBC"/>
<path d="M22.0016 38.3927C22.0489 38.4199 22.1004 38.4327 22.1513 38.4327C22.2552 38.4327 22.3559 38.3789 22.4115 38.2828L23.9352 35.644C24.0178 35.5005 23.9688 35.3169 23.8253 35.2341C23.6809 35.1512 23.4982 35.2004 23.4154 35.3439L21.8917 37.9827C21.8091 38.126 21.8581 38.3096 22.0016 38.3927Z" fill="#2A6BBC"/>
<path d="M27.6992 36.6529V39.7C27.6992 39.8657 27.8336 40 27.9993 40C28.165 40 28.2993 39.8657 28.2993 39.7V36.6529C28.2993 36.4872 28.165 36.353 27.9993 36.353C27.8336 36.353 27.6992 36.4872 27.6992 36.6529Z" fill="#2A6BBC"/>
<path d="M32.5874 35.3439C32.5041 35.2004 32.3207 35.1512 32.1774 35.2341C32.0339 35.3169 31.9847 35.5005 32.0676 35.644L33.591 38.2828C33.6469 38.3789 33.7476 38.4327 33.8513 38.4327C33.9021 38.4327 33.9538 38.4199 34.0009 38.3927C34.1445 38.3096 34.1937 38.126 34.1108 37.9827L32.5874 35.3439Z" fill="#2A6BBC"/>
<path d="M35.3454 32.5865L37.9842 34.1099C38.0316 34.1372 38.0831 34.1502 38.1339 34.1502C38.2376 34.1502 38.3383 34.0964 38.3941 34.0001C38.4767 33.8568 38.4278 33.6732 38.2843 33.5901L35.6455 32.0667C35.5015 31.9836 35.3184 32.0331 35.2356 32.1766C35.1527 32.3199 35.2019 32.5034 35.3454 32.5865Z" fill="#2A6BBC"/>
<path d="M39.6985 27.7002H36.6514C36.4857 27.7002 36.3516 27.8345 36.3516 28.0003C36.3516 28.166 36.4857 28.3003 36.6514 28.3003H39.6985C39.8642 28.3003 39.9986 28.166 39.9986 28.0003C39.9986 27.8345 39.8642 27.7002 39.6985 27.7002Z" fill="#2A6BBC"/>
<path d="M35.4958 23.9734C35.5466 23.9734 35.5983 23.9606 35.6455 23.9334L38.2843 22.4097C38.4278 22.3268 38.4767 22.1433 38.3941 21.9998C38.311 21.8565 38.1272 21.8068 37.9842 21.8899L35.3454 23.4136C35.2019 23.4964 35.1527 23.68 35.2356 23.8235C35.2912 23.9196 35.3919 23.9734 35.4958 23.9734Z" fill="#2A6BBC"/>
<path d="M34.0009 17.6076C33.8568 17.5248 33.6741 17.574 33.591 17.7175L32.0676 20.3563C31.9847 20.4998 32.0339 20.6831 32.1774 20.7662C32.2248 20.7934 32.2763 20.8062 32.3271 20.8062C32.4308 20.8062 32.5315 20.7525 32.5874 20.6563L34.1108 18.0175C34.1937 17.874 34.1445 17.6905 34.0009 17.6076Z" fill="#2A6BBC"/>
<path d="M26.4531 29.9286C26.336 29.8114 26.1462 29.8114 26.029 29.9286C25.9118 30.0458 25.9118 30.2357 26.029 30.3527C26.8468 31.1709 28.1778 31.1705 28.9958 30.3527C29.4767 29.8716 29.7417 29.2321 29.7417 28.5516C29.7417 27.8712 29.4767 27.2314 28.9958 26.7503C27.7834 25.5382 25.8109 25.5384 24.599 26.7503C23.1128 28.2362 23.1128 30.6544 24.599 32.1403C25.4715 33.0128 26.6312 33.5005 27.8683 33.5138C30.8896 33.5138 33.3478 31.0556 33.3478 28.0341C33.3478 25.0129 30.8896 22.5547 27.8683 22.5547C26.623 22.5547 25.4039 22.9838 24.4356 23.763C24.3067 23.8666 24.2861 24.0557 24.39 24.1848C24.4939 24.3141 24.683 24.3342 24.8118 24.2303C25.6864 23.5267 26.7431 23.1548 27.8683 23.1548C30.5588 23.1548 32.7479 25.3436 32.7479 28.0341C32.7479 29.3376 32.2402 30.563 31.3185 31.4845C30.397 32.406 29.172 32.9134 27.872 32.9134C27.8718 32.9134 27.8715 32.9134 27.8713 32.9134C26.7956 32.9022 25.7841 32.4769 25.0231 31.7161C23.7711 30.4639 23.7711 28.4267 25.0231 27.1747C26.0013 26.1964 27.5932 26.1964 28.5714 27.1747C28.9393 27.5425 29.1418 28.0314 29.1418 28.5516C29.1418 29.0716 28.9393 29.5608 28.5714 29.9286C27.9876 30.5122 27.037 30.5125 26.4531 29.9286Z" fill="#2A6BBC"/>
</g>
<defs>
<clipPath id="clip0_2007_10242">
<rect width="24" height="24" fill="white" transform="translate(16 16)"/>
</clipPath>
</defs>
</svg>
