<svg width="333" height="333" viewBox="0 0 333 333" fill="none" xmlns="http://www.w3.org/2000/svg">
<g clip-path="url(#clip0_1116_8322)">
<path d="M223.85 244.704H109.152C97.6338 244.704 88.2969 235.367 88.2969 223.849V109.151C88.2969 97.633 97.6338 88.296 109.152 88.296H223.851C235.368 88.296 244.705 97.633 244.705 109.151V223.85C244.705 235.367 235.368 244.704 223.85 244.704Z" fill="#2A6BBC"/>
<path d="M223.85 229.063H109.151C106.272 229.063 103.938 226.729 103.938 223.85V109.151C103.938 106.272 106.272 103.937 109.151 103.937H223.85C226.729 103.937 229.064 106.272 229.064 109.151V223.85C229.064 226.729 226.729 229.063 223.85 229.063Z" fill="#2A6BBC"/>
<path d="M25.7343 135.216C31.4923 135.216 36.16 130.549 36.16 124.791C36.16 119.033 31.4923 114.365 25.7343 114.365C19.9763 114.365 15.3086 119.033 15.3086 124.791C15.3086 130.549 19.9763 135.216 25.7343 135.216Z" fill="#2A6BBC"/>
<path d="M307.269 218.635C313.027 218.635 317.695 213.967 317.695 208.209C317.695 202.451 313.027 197.784 307.269 197.784C301.512 197.784 296.844 202.451 296.844 208.209C296.844 213.967 301.512 218.635 307.269 218.635Z" fill="#2A6BBC"/>
<path d="M15.3046 265.554C21.0626 265.554 25.7303 260.886 25.7303 255.128C25.7303 249.37 21.0626 244.703 15.3046 244.703C9.54666 244.703 4.87891 249.37 4.87891 255.128C4.87891 260.886 9.54666 265.554 15.3046 265.554Z" fill="#2A6BBC"/>
<path d="M317.695 88.2974C323.453 88.2974 328.121 83.6296 328.121 77.8716C328.121 72.1137 323.453 67.4459 317.695 67.4459C311.937 67.4459 307.27 72.1137 307.27 77.8716C307.27 83.6296 311.937 88.2974 317.695 88.2974Z" fill="#2A6BBC"/>
<path d="M208.207 36.1589C213.965 36.1589 218.633 31.4912 218.633 25.7332C218.633 19.9753 213.965 15.3075 208.207 15.3075C202.449 15.3075 197.781 19.9753 197.781 25.7332C197.781 31.4912 202.449 36.1589 208.207 36.1589Z" fill="#2A6BBC"/>
<path d="M124.789 317.696C130.547 317.696 135.215 313.028 135.215 307.27C135.215 301.512 130.547 296.844 124.789 296.844C119.031 296.844 114.363 301.512 114.363 307.27C114.363 313.028 119.031 317.696 124.789 317.696Z" fill="#2A6BBC"/>
<path d="M77.871 25.7313C83.629 25.7313 88.2968 21.0636 88.2968 15.3056C88.2968 9.54764 83.629 4.87988 77.871 4.87988C72.1131 4.87988 67.4453 9.54764 67.4453 15.3056C67.4453 21.0636 72.1131 25.7313 77.871 25.7313Z" fill="#2A6BBC"/>
<path d="M255.129 328.121C260.887 328.121 265.555 323.454 265.555 317.696C265.555 311.938 260.887 307.27 255.129 307.27C249.371 307.27 244.703 311.938 244.703 317.696C244.703 323.454 249.371 328.121 255.129 328.121Z" fill="#2A6BBC"/>
<path d="M166.5 210.887C167.987 210.887 169.402 211.521 170.39 212.628C173.796 216.447 178.791 218.636 184.096 218.636C193.22 218.636 200.882 212.248 201.539 204.097C201.677 202.399 202.639 200.874 204.11 200.014C209.853 196.661 213.423 190.811 213.423 184.747C213.423 180.371 211.6 176.12 208.285 172.775C206.274 170.744 206.274 167.47 208.285 165.438C211.6 162.093 213.423 157.841 213.423 153.466C213.423 145.592 207.674 138.652 199.121 136.196C196.458 135.432 194.859 132.713 195.48 130.013C195.714 128.994 195.826 128.164 195.826 127.398C195.826 120.211 189.248 114.364 181.163 114.364C176.983 114.364 172.981 115.971 170.197 118.771C168.231 120.736 164.769 120.736 162.804 118.771C160.019 115.97 156.017 114.364 151.837 114.364C143.752 114.364 137.174 120.212 137.174 127.398C137.174 128.259 137.271 129.124 137.454 129.966C138.045 132.654 136.451 135.338 133.803 136.099C125.296 138.55 119.578 145.528 119.578 153.466C119.578 157.261 120.943 160.922 123.524 164.056C125.056 165.922 125.112 168.595 123.652 170.519C120.989 174.037 119.578 178.057 119.578 182.141C119.578 188.647 123.101 194.882 129.007 198.82C130.444 199.777 131.314 201.386 131.329 203.114C131.401 211.673 139.287 218.635 148.905 218.635C154.21 218.635 159.205 216.446 162.611 212.627C163.598 211.521 165.013 210.887 166.5 210.887Z" fill="#EBF2FD"/>
<path d="M328.12 161.622H249.58V150.524H270.771C273.465 150.524 275.649 148.34 275.649 145.646C275.649 142.952 273.465 140.768 270.771 140.768H249.58V129.669H264.292C269.773 129.669 274.926 127.535 278.801 123.66L310.882 91.5785C312.972 92.6198 315.29 93.1739 317.694 93.1739C321.782 93.1739 325.625 91.5817 328.516 88.6914C331.407 85.8005 332.999 81.9573 332.999 77.869C332.999 73.7806 331.407 69.9375 328.516 67.0465C325.626 64.1555 321.782 62.5634 317.694 62.5634C313.605 62.5634 309.762 64.1555 306.871 67.0459C303.98 69.9368 302.388 73.78 302.388 77.8683C302.388 80.2722 302.942 82.5895 303.983 84.6798L271.902 116.761C269.87 118.793 267.167 119.913 264.292 119.913H249.58V109.151C249.58 94.9618 238.036 83.4187 223.848 83.4187H213.085V40.2362C219.139 38.1947 223.512 32.4667 223.512 25.7326C223.512 17.2931 216.646 10.4276 208.207 10.4276C199.769 10.4276 192.902 17.2938 192.902 25.7326C192.902 32.4667 197.276 38.194 203.329 40.2362V83.4181H192.231V62.2278C192.231 59.5339 190.047 57.3499 187.353 57.3499C184.659 57.3499 182.475 59.5339 182.475 62.2278V83.4181H171.376V4.87852C171.376 2.18461 169.192 0.000610352 166.499 0.000610352C163.805 0.000610352 161.621 2.18461 161.621 4.87852V83.4181H150.522V62.2278C150.522 59.5339 148.338 57.3499 145.645 57.3499C142.951 57.3499 140.767 59.5339 140.767 62.2278V83.4181H129.668V68.707C129.668 63.2261 127.534 58.0731 123.658 54.1981L91.5661 22.106C94.4011 16.3819 93.4509 9.24458 88.6907 4.48374C82.7228 -1.48358 73.0131 -1.48292 67.0458 4.48374C61.0785 10.451 61.0785 20.1607 67.0458 26.1287C70.0298 29.112 73.949 30.604 77.8683 30.604C80.2018 30.604 82.5315 30.0622 84.6681 29.004L116.76 61.0968C118.793 63.1292 119.913 65.8322 119.913 68.707V83.4181H109.15C106.974 83.4181 104.811 83.6912 102.719 84.2291C100.11 84.9003 98.5395 87.5598 99.2107 90.1691C99.8819 92.7785 102.542 94.3492 105.151 93.6773C106.448 93.3437 107.793 93.1739 109.149 93.1739H223.848C232.657 93.1739 239.824 100.341 239.824 109.15V223.849C239.824 225.204 239.655 226.548 239.322 227.845C238.651 230.454 240.223 233.113 242.831 233.783C243.239 233.888 243.647 233.938 244.05 233.938C246.223 233.938 248.204 232.475 248.77 230.273C249.307 228.184 249.58 226.022 249.58 223.849V213.086H292.762C294.803 219.14 300.531 223.513 307.265 223.513C315.705 223.513 322.57 216.647 322.57 208.208C322.57 199.769 315.704 192.903 307.265 192.903C300.531 192.903 294.804 197.276 292.762 203.33H249.58V192.231H270.77C273.464 192.231 275.648 190.047 275.648 187.353C275.648 184.659 273.464 182.475 270.77 182.475H249.58V171.378H328.12C330.814 171.378 332.998 169.194 332.998 166.5C332.998 163.806 330.814 161.622 328.12 161.622ZM313.769 73.9452C314.818 72.8968 316.211 72.3199 317.693 72.3199C319.175 72.3199 320.568 72.8968 321.617 73.9452C322.665 74.9936 323.242 76.3867 323.242 77.869C323.242 79.3512 322.665 80.7443 321.617 81.7928C320.568 82.8412 319.175 83.4181 317.693 83.4181C316.211 83.4181 314.818 82.8412 313.769 81.7928C312.721 80.7443 312.144 79.3512 312.144 77.869C312.144 76.3867 312.721 74.993 313.769 73.9452ZM208.207 20.1835C211.267 20.1835 213.756 22.6731 213.756 25.7326C213.756 28.792 211.267 31.2817 208.207 31.2817C205.148 31.2817 202.658 28.792 202.658 25.7326C202.658 22.6731 205.147 20.1835 208.207 20.1835ZM73.9432 19.23C71.7793 17.0661 71.7793 13.5456 73.9432 11.3824C75.0254 10.3002 76.4459 9.75968 77.8676 9.75968C79.2887 9.75968 80.7098 10.3008 81.7914 11.3824C83.9552 13.5462 83.9552 17.0668 81.7914 19.2306C79.6282 21.3932 76.1077 21.3938 73.9432 19.23ZM307.266 202.66C310.326 202.66 312.815 205.149 312.815 208.209C312.815 211.269 310.325 213.758 307.266 213.758C304.207 213.758 301.717 211.268 301.717 208.209C301.716 205.149 304.206 202.66 307.266 202.66Z" fill="#333333"/>
<path d="M248.331 303.996L216.238 271.903C214.205 269.871 213.086 267.168 213.086 264.293V249.582H223.849C226.024 249.582 228.187 249.309 230.278 248.771C232.887 248.1 234.458 245.44 233.787 242.831C233.115 240.222 230.457 238.651 227.847 239.323C226.55 239.656 225.205 239.825 223.849 239.825H109.15C100.341 239.825 93.1739 232.658 93.1739 223.849V109.151C93.1739 107.795 93.343 106.45 93.6767 105.153C94.3485 102.545 92.7779 99.8853 90.1692 99.2134C87.5598 98.5416 84.9004 100.112 84.2292 102.721C83.6906 104.811 83.4181 106.975 83.4181 109.151V119.913H40.2356C38.194 113.86 32.4661 109.486 25.732 109.486C17.2925 109.486 10.427 116.352 10.427 124.791C10.427 133.231 17.2932 140.096 25.732 140.096C32.4661 140.096 38.1934 135.723 40.2356 129.669H83.4175V140.768H62.2272C59.5333 140.768 57.3493 142.952 57.3493 145.646C57.3493 148.34 59.5333 150.524 62.2272 150.524H83.4175V161.622H4.87791C2.184 161.622 0 163.806 0 166.5C0 169.194 2.184 171.378 4.87791 171.378H83.4175V182.476H62.2272C59.5333 182.476 57.3493 184.66 57.3493 187.354C57.3493 190.048 59.5333 192.232 62.2272 192.232H83.4175V203.331H68.7057C63.2249 203.331 58.0718 205.465 54.1968 209.34L22.1158 241.421C20.0254 240.38 17.7081 239.826 15.3043 239.826C11.2159 239.826 7.3728 241.418 4.48182 244.309C1.59215 247.199 0 251.043 0 255.131C0 259.219 1.59215 263.062 4.48313 265.953C7.37345 268.844 11.2172 270.436 15.3056 270.436C19.3939 270.436 23.2371 268.844 26.128 265.953C29.019 263.062 30.6112 259.219 30.6112 255.131C30.6112 252.727 30.057 250.41 29.0158 248.319L61.0968 216.238C63.1293 214.206 65.8323 213.086 68.7076 213.086H83.4194V223.849C83.4194 238.037 94.9632 249.581 109.151 249.581H119.914V292.762C113.86 294.804 109.487 300.532 109.487 307.266C109.487 315.706 116.353 322.571 124.792 322.571C133.231 322.571 140.097 315.705 140.097 307.266C140.097 300.532 135.724 294.805 129.67 292.762V249.581H140.768V270.771C140.768 273.465 142.952 275.649 145.646 275.649C148.34 275.649 150.524 273.465 150.524 270.771V249.581H161.621V328.121C161.621 330.815 163.805 332.999 166.499 332.999C169.193 332.999 171.377 330.815 171.377 328.121V249.582H182.475V270.772C182.475 273.466 184.659 275.65 187.353 275.65C190.047 275.65 192.231 273.466 192.231 270.772V249.582H203.33V264.293C203.33 269.774 205.464 274.927 209.34 278.802L241.432 310.894C238.597 316.618 239.547 323.755 244.308 328.516C247.291 331.5 251.211 332.992 255.13 332.992C259.05 332.992 262.969 331.5 265.953 328.516C271.92 322.549 271.92 312.839 265.953 306.872C261.193 302.111 254.055 301.161 248.331 303.996ZM25.732 130.34C22.6719 130.34 20.1828 127.851 20.1828 124.791C20.1828 121.731 22.6725 119.242 25.732 119.242C28.7914 119.242 31.2811 121.732 31.2811 124.791C31.2817 127.851 28.792 130.34 25.732 130.34ZM19.2287 259.055C18.1803 260.103 16.7872 260.68 15.3049 260.68C13.8227 260.68 12.4296 260.103 11.3811 259.055C10.3327 258.006 9.75582 256.613 9.75582 255.131C9.75582 253.649 10.3327 252.256 11.3811 251.207C12.4296 250.159 13.8227 249.582 15.3049 249.582C16.7872 249.582 18.1803 250.159 19.2287 251.207C20.2771 252.256 20.854 253.649 20.854 255.131C20.854 256.613 20.2771 258.007 19.2287 259.055ZM124.791 312.816C121.731 312.816 119.242 310.327 119.242 307.267C119.242 304.208 121.731 301.718 124.791 301.718C127.85 301.718 130.34 304.208 130.34 307.267C130.34 310.327 127.851 312.816 124.791 312.816ZM259.055 321.618C256.891 323.782 253.37 323.781 251.207 321.618C249.043 319.454 249.043 315.934 251.207 313.771C252.289 312.689 253.71 312.148 255.131 312.148C256.552 312.148 257.973 312.689 259.055 313.771C261.218 315.934 261.218 319.454 259.055 321.618Z" fill="#333333"/>
<path d="M126.429 202.984C126.429 202.987 126.429 202.991 126.429 202.995C126.429 214.309 136.511 223.514 148.903 223.514C156.025 223.514 162.379 220.471 166.499 215.738C170.619 220.471 176.973 223.514 184.094 223.514C196.02 223.514 205.802 214.988 206.521 204.262C213.764 200.059 218.298 192.697 218.298 184.748C218.298 178.901 215.805 173.323 211.515 169.107C215.805 164.892 218.298 159.313 218.298 153.467C218.298 143.035 210.668 134.198 200.222 131.326C200.531 130.051 200.703 128.739 200.703 127.399C200.703 117.522 191.936 109.486 181.162 109.486C175.325 109.486 170.082 111.847 166.499 115.577C162.915 111.847 157.672 109.486 151.836 109.486C141.061 109.486 132.295 117.522 132.295 127.399C132.295 128.739 132.467 130.051 132.775 131.326C122.33 134.197 114.699 143.034 114.699 153.467C114.699 158.565 116.503 163.376 119.837 167.348C116.578 171.567 114.699 176.689 114.699 182.142C114.698 190.436 119.13 198.18 126.429 202.984ZM139.983 140.099C140.027 140.1 140.07 140.106 140.113 140.106C141.227 140.106 142.346 139.727 143.262 138.951C145.132 137.368 145.507 134.682 144.252 132.661C144.215 132.601 144.181 132.54 144.142 132.482C144.122 132.453 144.098 132.425 144.077 132.396C144.002 132.29 143.924 132.186 143.841 132.085C143.838 132.082 143.836 132.079 143.833 132.076C143.02 131.114 142.049 129.522 142.049 127.398C142.049 122.901 146.439 119.242 151.834 119.242C157.229 119.242 161.619 122.901 161.619 127.398C161.619 130.092 163.803 132.276 166.497 132.276C169.191 132.276 171.375 130.092 171.375 127.398C171.375 122.901 175.765 119.242 181.16 119.242C186.555 119.242 190.945 122.901 190.945 127.398C190.945 128.6 190.63 129.625 190.213 130.468C187.439 130.73 184.755 131.401 182.208 132.475C179.725 133.521 178.561 136.382 179.608 138.865C180.654 141.347 183.515 142.512 185.998 141.465C188.107 140.576 190.375 140.118 192.741 140.1C192.788 140.101 192.834 140.106 192.881 140.106C192.925 140.106 192.968 140.1 193.011 140.099C201.585 140.155 208.54 146.129 208.54 153.466C208.54 158.077 205.735 162.312 201.034 164.793C199.434 165.637 198.433 167.297 198.433 169.107C198.433 170.916 199.434 172.577 201.034 173.421C205.735 175.901 208.54 180.136 208.54 184.748C208.54 188.187 206.942 191.466 204.243 193.919C201.679 189.171 197.146 185.391 191.42 183.592C188.851 182.784 186.112 184.213 185.304 186.783C184.496 189.353 185.926 192.091 188.495 192.899C193.468 194.461 196.81 198.519 196.81 202.996C196.81 208.931 191.105 213.759 184.092 213.759C177.079 213.759 171.374 208.931 171.374 202.996V171.714C171.374 165.779 177.079 160.952 184.092 160.952C186.786 160.952 188.97 158.768 188.97 156.074C188.97 153.38 186.786 151.196 184.092 151.196C179.374 151.196 174.993 152.533 171.374 154.81V148.579C171.374 145.885 169.19 143.701 166.496 143.701C163.802 143.701 161.618 145.885 161.618 148.579V175.659C159.977 174.629 158.176 173.777 156.229 173.165C153.657 172.357 150.921 173.786 150.114 176.355C149.306 178.926 150.735 181.664 153.304 182.472C158.277 184.034 161.618 188.092 161.618 192.568V202.995C161.618 208.93 155.913 213.758 148.901 213.758C141.887 213.758 136.182 208.93 136.182 202.995C136.182 200.452 137.261 197.979 139.218 196.033C141.129 194.134 141.138 191.045 139.239 189.134C137.34 187.223 134.252 187.214 132.341 189.113C131.172 190.276 130.166 191.545 129.33 192.895C126.249 189.981 124.451 186.148 124.451 182.141C124.451 174.913 130.123 168.564 138.245 166.701C140.87 166.099 142.51 163.482 141.908 160.856C141.306 158.23 138.688 156.59 136.063 157.192C132.794 157.942 129.784 159.194 127.114 160.838C125.384 158.664 124.452 156.119 124.452 153.466C124.454 146.129 131.409 140.155 139.983 140.099Z" fill="#333333"/>
</g>
<defs>
<clipPath id="clip0_1116_8322">
<rect width="333" height="333" fill="white"/>
</clipPath>
</defs>
</svg>
