<svg width="42" height="42" viewBox="0 0 42 42" fill="none" xmlns="http://www.w3.org/2000/svg">
<circle cx="21" cy="21" r="21" fill="#2A6BBC"/>
<path d="M21 31.6648C20.6583 31.6648 20.3289 31.541 20.0722 31.3162C19.1026 30.4684 18.1679 29.6717 17.3432 28.9689L17.339 28.9653C14.9211 26.9048 12.8331 25.1254 11.3804 23.3725C9.75641 21.4129 9 19.5549 9 17.5252C9 15.5532 9.67621 13.7338 10.9039 12.4021C12.1463 11.0546 13.851 10.3125 15.7046 10.3125C17.09 10.3125 18.3587 10.7505 19.4754 11.6142C20.039 12.0502 20.5499 12.5837 21 13.2061C21.4502 12.5837 21.9609 12.0502 22.5247 11.6142C23.6415 10.7505 24.9102 10.3125 26.2956 10.3125C28.149 10.3125 29.8538 11.0546 31.0962 12.4021C32.3239 13.7338 33 15.5532 33 17.5252C33 19.5549 32.2437 21.4129 30.6198 23.3723C29.167 25.1254 27.0793 26.9046 24.6617 28.9649C23.8355 29.6688 22.8993 30.4667 21.9276 31.3165C21.6711 31.541 21.3415 31.6648 21 31.6648V31.6648ZM15.7046 11.7184C14.2483 11.7184 12.9106 12.2996 11.9374 13.355C10.9497 14.4263 10.4057 15.9073 10.4057 17.5252C10.4057 19.2323 11.0402 20.759 12.4627 22.4755C13.8376 24.1346 15.8827 25.8774 18.2507 27.8954L18.255 27.899C19.0829 28.6046 20.0213 29.4044 20.998 30.2584C21.9805 29.4027 22.9204 28.6016 23.7498 27.895C26.1176 25.877 28.1625 24.1346 29.5374 22.4755C30.9598 20.759 31.5943 19.2323 31.5943 17.5252C31.5943 15.9073 31.0503 14.4263 30.0626 13.355C29.0896 12.2996 27.7516 11.7184 26.2956 11.7184C25.2288 11.7184 24.2494 12.0575 23.3846 12.7262C22.6139 13.3224 22.077 14.076 21.7622 14.6034C21.6004 14.8746 21.3155 15.0364 21 15.0364C20.6845 15.0364 20.3996 14.8746 20.2377 14.6034C19.9231 14.076 19.3863 13.3224 18.6154 12.7262C17.7506 12.0575 16.7712 11.7184 15.7046 11.7184V11.7184Z" fill="white"/>
</svg>
