<svg width="56" height="56" viewBox="0 0 56 56" fill="none" xmlns="http://www.w3.org/2000/svg">
<rect width="56" height="56" rx="8" fill="#FFF1D8"/>
<path d="M22.5604 30.7399L21.4504 37.2299C21.4204 37.4199 21.4954 37.6049 21.6504 37.7199C21.8054 37.8299 22.0104 37.8449 22.1754 37.7599L28.0004 34.6899L33.8254 37.7549C33.9004 37.7949 33.9804 37.8099 34.0604 37.8099C34.1654 37.8099 34.2654 37.7799 34.3554 37.7149C34.5104 37.6049 34.5854 37.4149 34.5554 37.2249L33.4454 30.7349L38.1604 26.1399C38.2954 26.0049 38.3454 25.8099 38.2854 25.6249C38.2254 25.4449 38.0704 25.3099 37.8804 25.2849L31.3654 24.3399L28.4504 18.4449C28.2804 18.1049 27.7204 18.1049 27.5554 18.4449L24.6404 24.3449L18.1254 25.2949C17.9354 25.3199 17.7804 25.4549 17.7204 25.6349C17.6604 25.8149 17.7104 26.0149 17.8454 26.1499L22.5604 30.7399ZM25.0404 25.2999C25.2054 25.2749 25.3454 25.1749 25.4154 25.0249L28.0004 19.7949L30.5804 25.0249C30.6554 25.1749 30.7954 25.2749 30.9554 25.2999L36.7254 26.1399L32.5504 30.2099C32.4304 30.3249 32.3804 30.4899 32.4054 30.6549L33.3904 36.4049L28.2304 33.6899C28.1554 33.6499 28.0754 33.6349 27.9954 33.6349C27.9154 33.6349 27.8354 33.6549 27.7604 33.6899L22.6054 36.3999L23.5904 30.6499C23.6204 30.4899 23.5654 30.3199 23.4454 30.2049L19.2704 26.1349L25.0404 25.2999Z" fill="#E8A43F"/>
</svg>
