<svg width="72" height="72" viewBox="0 0 72 72" fill="none" xmlns="http://www.w3.org/2000/svg">
<g clip-path="url(#clip0_860_6576)">
<path d="M46.8063 12.0452C40.603 12.0376 34.6186 14.3392 30.019 18.5014C24.7167 11.7085 15.1327 10.0328 7.84097 14.6249C0.54862 19.2163 -2.0826 28.5831 1.75181 36.3005C5.58623 44.0173 14.6409 47.5777 22.7044 44.5396C23.0445 45.6562 23.4649 46.7463 23.9614 47.8026C19.0573 51.031 16.8799 57.1131 18.6199 62.7204C20.36 68.3271 25.5985 72.1083 31.4681 71.9935C37.3382 71.8787 42.4244 67.8962 43.9444 62.2251C53.2233 63.2942 62.3313 59.1378 67.6043 51.428C72.8767 43.7182 73.4469 33.7226 69.085 25.463C64.7231 17.2034 56.1467 12.0382 46.8063 12.0452ZM2.43977 28.8325C2.42982 22.6438 6.38484 17.1448 12.255 15.1852C18.1252 13.2255 24.5908 15.2461 28.3005 20.1994C24.003 24.8271 21.6183 30.911 21.6253 37.2262C21.6288 38.8943 21.7974 40.5571 22.1277 42.1918C17.7001 43.9664 12.6795 43.4248 8.73209 40.7462C4.78468 38.0681 2.42689 33.6031 2.43977 28.8325ZM31.2181 69.6018C25.2577 69.6018 20.4262 64.7702 20.4262 58.8099C20.4262 52.8501 25.2577 48.018 31.2181 48.018C37.1784 48.018 42.0099 52.8501 42.0099 58.8099C42.0035 64.7673 37.1755 69.5953 31.2181 69.6018ZM46.8063 60.009C45.9872 60.0031 45.1693 59.9534 44.3554 59.8591C44.3829 59.5125 44.4081 59.1641 44.4081 58.8099C44.4081 54.3876 42.1908 50.2593 38.5046 47.816C34.8177 45.3728 30.1519 44.9401 26.0786 46.6632C25.4825 45.3693 25.0118 44.0214 24.6734 42.6379C24.2425 40.8662 24.0241 39.0494 24.0235 37.2262C24.0235 24.6439 34.224 14.4434 46.8063 14.4434C59.3892 14.4434 69.5891 24.6439 69.5891 37.2262C69.5891 49.8091 59.3892 60.009 46.8063 60.009Z" fill="white"/>
<path d="M10.8352 54.0135C10.8352 53.3514 10.2983 52.8145 9.6361 52.8145C8.97391 52.8145 8.43701 53.3514 8.43701 54.0135C8.43701 56.0007 6.82631 57.6108 4.83972 57.6108C4.17752 57.6108 3.64062 58.1477 3.64062 58.8099C3.64062 59.4721 4.17752 60.009 4.83972 60.009C6.82631 60.009 8.43701 61.6197 8.43701 63.6063C8.43701 64.2685 8.97391 64.8054 9.6361 64.8054C10.2983 64.8054 10.8352 64.2685 10.8352 63.6063C10.8352 61.6197 12.4459 60.009 14.4325 60.009C15.0947 60.009 15.6316 59.4721 15.6316 58.8099C15.6316 58.1477 15.0947 57.6108 14.4325 57.6108C12.4459 57.6108 10.8352 56.0007 10.8352 54.0135ZM9.6361 60.0465C9.28715 59.5758 8.87027 59.1595 8.40012 58.8099C8.87027 58.461 9.28715 58.0441 9.6361 57.5739C9.98564 58.0441 10.4019 58.461 10.8727 58.8099C10.4019 59.1595 9.98564 59.5758 9.6361 60.0465Z" fill="white"/>
<path d="M58.8003 10.8461C58.8003 11.5083 59.3372 12.0452 59.9994 12.0452C60.6616 12.0452 61.1985 11.5083 61.1985 10.8461C61.1985 8.85947 62.8092 7.24877 64.7958 7.24877C65.458 7.24877 65.9949 6.71187 65.9949 6.04968C65.9949 5.38748 65.458 4.85058 64.7958 4.85058C62.8092 4.85058 61.1985 3.24047 61.1985 1.25329C61.1985 0.591099 60.6616 0.0541992 59.9994 0.0541992C59.3372 0.0541992 58.8003 0.591099 58.8003 1.25329C58.8003 3.24047 57.1896 4.85058 55.203 4.85058C54.5408 4.85058 54.0039 5.38748 54.0039 6.04968C54.0039 6.71187 54.5408 7.24877 55.203 7.24877C57.1896 7.24877 58.8003 8.85947 58.8003 10.8461ZM59.9994 4.81369C60.3489 5.28385 60.7652 5.70072 61.236 6.04968C60.7652 6.39922 60.3489 6.81551 59.9994 7.28624C59.6504 6.81551 59.2336 6.39922 58.7634 6.04968C59.2336 5.70072 59.6504 5.28385 59.9994 4.81369Z" fill="white"/>
<path d="M62.3973 37.2261C60.4107 37.2261 58.8 35.616 58.8 33.6288C58.8 32.9666 58.2631 32.4297 57.6009 32.4297C56.9388 32.4297 56.4019 32.9666 56.4019 33.6288C56.4019 35.616 54.7912 37.2261 52.8046 37.2261C52.1424 37.2261 51.6055 37.763 51.6055 38.4252C51.6055 39.0874 52.1424 39.6243 52.8046 39.6243C54.7912 39.6243 56.4019 41.235 56.4019 43.2215C56.4019 43.8837 56.9388 44.4206 57.6009 44.4206C58.2631 44.4206 58.8 43.8837 58.8 43.2215C58.8 41.235 60.4107 39.6243 62.3973 39.6243C63.0595 39.6243 63.5964 39.0874 63.5964 38.4252C63.5964 37.763 63.0595 37.2261 62.3973 37.2261ZM57.6009 39.6617C57.252 39.191 56.8351 38.7747 56.365 38.4252C56.8351 38.0762 57.252 37.6593 57.6009 37.1892C57.9505 37.6593 58.3668 38.0762 58.8375 38.4252C58.3668 38.7747 57.9505 39.191 57.6009 39.6617Z" fill="white"/>
<path d="M49.2058 27.6332C49.2058 26.971 48.6689 26.4341 48.0067 26.4341C46.0201 26.4341 44.4094 24.824 44.4094 22.8368C44.4094 22.1746 43.8725 21.6377 43.2103 21.6377C42.5481 21.6377 42.0112 22.1746 42.0112 22.8368C42.0112 24.824 40.4005 26.4341 38.4139 26.4341C37.7517 26.4341 37.2148 26.971 37.2148 27.6332C37.2148 28.2954 37.7517 28.8323 38.4139 28.8323C40.4005 28.8323 42.0112 30.443 42.0112 32.4296C42.0112 33.0918 42.5481 33.6287 43.2103 33.6287C43.8725 33.6287 44.4094 33.0918 44.4094 32.4296C44.4094 30.443 46.0201 28.8323 48.0067 28.8323C48.6689 28.8323 49.2058 28.2954 49.2058 27.6332ZM43.2103 28.8697C42.8614 28.399 42.4445 27.9827 41.9743 27.6332C42.4445 27.2842 42.8614 26.8673 43.2103 26.3972C43.5599 26.8673 43.9762 27.2842 44.4469 27.6332C43.9762 27.9827 43.5599 28.399 43.2103 28.8697Z" fill="white"/>
<path d="M14.4336 49.2168H16.8318V51.615H14.4336V49.2168Z" fill="white"/>
<path d="M2.44141 66.0044H4.8396V68.4026H2.44141V66.0044Z" fill="white"/>
<path d="M70.7883 62.4069C70.7883 60.4203 69.1776 58.8096 67.191 58.8096C65.2044 58.8096 63.5938 60.4203 63.5938 62.4069C63.5938 64.394 65.2044 66.0041 67.191 66.0041C69.1776 66.0041 70.7883 64.394 70.7883 62.4069ZM65.9919 62.4069C65.9919 61.7447 66.5288 61.2078 67.191 61.2078C67.8532 61.2078 68.3901 61.7447 68.3901 62.4069C68.3901 63.0691 67.8532 63.606 67.191 63.606C66.5288 63.606 65.9919 63.0691 65.9919 62.4069Z" fill="white"/>
<path d="M36.0146 8.44775C36.0146 5.79897 33.867 3.65137 31.2183 3.65137C28.5695 3.65137 26.4219 5.79897 26.4219 8.44775C26.4219 11.0971 28.5695 13.2441 31.2183 13.2441C33.867 13.2441 36.0146 11.0971 36.0146 8.44775ZM28.8201 8.44775C28.8201 7.12336 29.8939 6.04956 31.2183 6.04956C32.5426 6.04956 33.6164 7.12336 33.6164 8.44775C33.6164 9.77273 32.5426 10.8459 31.2183 10.8459C29.8939 10.8459 28.8201 9.77273 28.8201 8.44775Z" fill="white"/>
<path d="M43.2109 6.04932H45.6091V8.44751H43.2109V6.04932Z" fill="white"/>
<path d="M48.0078 50.416H50.406V52.8142H48.0078V50.416Z" fill="white"/>
<path d="M55.2031 66.0044H57.6013V68.4026H55.2031V66.0044Z" fill="white"/>
<path d="M14.4336 31.2305H16.8318V33.6287H14.4336V31.2305Z" fill="white"/>
<path d="M4.8383 31.3388L7.23649 31.1228C7.23064 31.0654 6.75697 25.3586 9.91631 21.8895C11.729 20.0487 14.2501 19.082 16.8293 19.2395V16.8413C13.5721 16.6692 10.4011 17.9228 8.14167 20.2759C4.27096 24.516 4.81781 31.063 4.8383 31.3388Z" fill="white"/>
<path d="M48.0078 16.8413V19.2395C48.6074 19.2395 62.5831 19.4954 64.8086 36.1855L67.1851 35.8688C64.6751 17.0597 48.1747 16.8413 48.0078 16.8413Z" fill="white"/>
</g>
<defs>
<clipPath id="clip0_860_6576">
<rect width="72" height="72" fill="white"/>
</clipPath>
</defs>
</svg>
