<svg width="72" height="72" viewBox="0 0 72 72" fill="none" xmlns="http://www.w3.org/2000/svg">
<g clip-path="url(#clip0_860_6612)">
<path d="M66.1701 0.18266C63.5311 1.3822 61.0122 2.7017 58.493 4.14115C56.2138 5.34069 53.4549 6.54024 51.5356 8.33955C50.456 9.29918 51.5356 11.3384 52.9751 10.8586C52.9751 10.8586 53.095 10.8586 53.095 10.7386C53.4549 10.9785 53.695 11.2185 54.0546 11.5783C54.0546 11.6983 54.1744 11.9382 54.1744 12.0581C54.2944 12.298 54.5343 12.538 54.7744 12.7779C51.2957 19.2554 48.0569 25.7329 43.9785 31.7306C42.7789 33.5299 41.4592 35.2093 39.9 36.7687C36.0615 30.651 29.8236 23.5737 22.2665 24.8932C12.3103 26.6926 17.7082 37.3683 22.8663 40.9671C28.9839 45.4054 34.2619 45.1655 39.5399 40.9671C41.939 45.0456 43.6186 49.6036 43.3785 54.0421C43.0186 64.7181 33.4223 66.5172 25.3853 63.7582C26.5849 60.6394 26.9447 57.041 26.225 53.922C25.0254 48.2841 16.3887 43.246 11.3506 47.2045C6.43248 51.163 15.669 61.2392 18.6678 63.2786C19.5075 63.8784 20.4672 64.478 21.4268 64.9578C21.3069 65.0777 21.3068 65.1979 21.1869 65.3176C15.669 73.9543 8.35175 66.5172 4.99302 60.3995C4.51321 59.4399 3.19371 60.2795 3.55357 61.2392C6.31252 67.5968 11.9504 75.0339 19.5075 70.7156C21.3069 69.636 22.8663 68.0766 23.9459 66.1573C30.5434 68.7963 38.2206 68.7963 43.0186 62.7986C48.7765 55.6013 45.178 46.2449 41.3395 39.2876C41.4592 39.1676 41.4592 39.1676 41.5794 39.0476C48.4168 32.4502 52.6152 23.0937 56.9336 14.6969C57.7732 15.2967 58.7331 15.8965 59.5726 16.4962C60.1725 16.8561 61.0122 16.7362 61.4918 16.2563C64.9705 12.1779 67.6095 7.25977 68.4492 1.86182C68.8091 0.542523 67.4898 -0.417111 66.1701 0.18266ZM34.9819 40.727C30.4236 43.366 25.8653 40.1272 22.5066 37.0084C18.0683 32.93 19.2678 26.3325 26.1052 27.6522C29.5839 28.3719 32.3429 31.4907 34.622 34.0098C35.8215 35.3293 37.0213 36.8885 38.1009 38.5678C37.1412 39.4077 36.0615 40.1274 34.9819 40.727ZM22.7465 62.5587C22.7465 62.5587 22.6265 62.5587 22.7465 62.5587C19.5077 60.8795 17.1086 58.4802 15.1894 55.4816C14.3497 54.1621 13.63 52.7226 13.2701 51.1632C12.0705 47.0848 18.5481 49.124 20.2275 49.9637C24.7857 52.4827 24.4259 58.2405 22.7465 62.5587ZM60.0524 13.1377C59.9324 13.1377 59.9324 13.0178 59.8125 13.0178C59.8125 12.6579 59.5724 12.298 59.0927 12.0581C58.2531 11.6983 57.4134 11.2185 56.5735 10.7386C56.2136 10.4987 55.4939 9.779 55.4939 10.0189C55.4939 9.89896 55.374 9.779 55.254 9.779C56.5733 9.05928 57.893 8.09964 59.2123 7.37992C60.8917 6.42028 62.691 5.46065 64.4905 4.50101C63.6512 7.49987 62.0918 10.4987 60.0524 13.1377Z" fill="white"/>
</g>
<defs>
<clipPath id="clip0_860_6612">
<rect width="72" height="72" fill="white"/>
</clipPath>
</defs>
</svg>
