<svg width="56" height="56" viewBox="0 0 56 56" fill="none" xmlns="http://www.w3.org/2000/svg">
<rect width="56" height="56" rx="8" fill="#E9F6ED"/>
<path d="M38.3125 18.25H17.6875C17.3395 18.2504 17.0059 18.3888 16.7598 18.6348C16.5138 18.8809 16.3754 19.2145 16.375 19.5625V33.4375C16.3754 33.7855 16.5138 34.1191 16.7598 34.3652C17.0059 34.6112 17.3395 34.7496 17.6875 34.75H25.2925L25.0675 35.875H23.5C23.4005 35.875 23.3052 35.9145 23.2348 35.9848C23.1645 36.0552 23.125 36.1505 23.125 36.25V37.375C23.125 37.4745 23.1645 37.5698 23.2348 37.6402C23.3052 37.7105 23.4005 37.75 23.5 37.75H32.5C32.5995 37.75 32.6948 37.7105 32.7652 37.6402C32.8355 37.5698 32.875 37.4745 32.875 37.375V36.25C32.875 36.1505 32.8355 36.0552 32.7652 35.9848C32.6948 35.9145 32.5995 35.875 32.5 35.875H30.9325L30.7075 34.75H38.3125C38.6605 34.7496 38.9941 34.6112 39.2402 34.3652C39.4862 34.1191 39.6246 33.7855 39.625 33.4375V19.5625C39.6246 19.2145 39.4862 18.8809 39.2402 18.6348C38.9941 18.3888 38.6605 18.2504 38.3125 18.25ZM32.125 36.625V37H23.875V36.625H32.125ZM25.8325 35.875L26.0575 34.75H29.9425L30.1675 35.875H25.8325ZM38.875 33.4375C38.8749 33.5866 38.8156 33.7296 38.7101 33.8351C38.6046 33.9406 38.4616 33.9999 38.3125 34H17.6875C17.5384 33.9999 17.3954 33.9406 17.2899 33.8351C17.1844 33.7296 17.1251 33.5866 17.125 33.4375V32.5H38.875V33.4375ZM38.875 31.75H17.125V19.5625C17.1251 19.4134 17.1844 19.2704 17.2899 19.1649C17.3954 19.0594 17.5384 19.0001 17.6875 19H38.3125C38.4616 19.0001 38.6046 19.0594 38.7101 19.1649C38.8156 19.2704 38.8749 19.4134 38.875 19.5625V31.75Z" fill="#5AAE37"/>
<path d="M28.375 32.875H27.625C27.5255 32.875 27.4302 32.9145 27.3598 32.9848C27.2895 33.0552 27.25 33.1505 27.25 33.25C27.25 33.3495 27.2895 33.4448 27.3598 33.5152C27.4302 33.5855 27.5255 33.625 27.625 33.625H28.375C28.4745 33.625 28.5698 33.5855 28.6402 33.5152C28.7105 33.4448 28.75 33.3495 28.75 33.25C28.75 33.1505 28.7105 33.0552 28.6402 32.9848C28.5698 32.9145 28.4745 32.875 28.375 32.875Z" fill="#5AAE37"/>
</svg>
