<svg width="100" height="100" viewBox="0 0 100 100" fill="none" xmlns="http://www.w3.org/2000/svg">
<circle cx="50" cy="50" r="49.5" fill="white" stroke="#5AAE37"/>
<path d="M47.0255 64.3257C46.9538 64.3257 46.8825 64.3138 46.8147 64.2907C44.2108 63.4618 41.8435 62.0209 39.9112 60.0886C37.9789 58.1564 36.538 55.7891 35.7092 53.1851C35.6758 53.0883 35.6659 52.9848 35.6802 52.8834C35.6945 52.7819 35.7327 52.6852 35.7915 52.6014L45.4369 38.8383C51.5991 30.8411 61.5325 26.5607 72.0315 27.3696C72.186 27.3814 72.3311 27.448 72.4406 27.5574C72.5502 27.6669 72.617 27.8119 72.6289 27.9663C73.4359 38.4641 69.1574 48.3988 61.1835 54.5441L61.1602 54.5616L47.3972 64.2057C47.2887 64.2832 47.1588 64.3251 47.0255 64.3257V64.3257ZM37.0454 53.0736C37.8236 55.3684 39.1196 57.4533 40.8331 59.1667C42.5465 60.8802 44.6314 62.1762 46.9262 62.9544L60.4032 53.5088C67.8802 47.741 71.9556 38.4738 71.3738 28.6267C61.5144 28.0429 52.2491 32.1235 46.4819 39.6083L37.0454 53.0736Z" fill="#5AAE37"/>
<path d="M70.4513 41.1084C70.4102 41.1086 70.3692 41.1049 70.3287 41.0974C67.4985 40.5582 64.8968 39.1773 62.8641 37.1355C60.8222 35.1027 59.4414 32.5011 58.9021 29.6708C58.8699 29.5018 58.9061 29.3269 59.0028 29.1846C59.0995 29.0422 59.2488 28.9442 59.4178 28.9119C59.5868 28.8796 59.7617 28.9158 59.9041 29.0126C60.0464 29.1093 60.1445 29.2585 60.1767 29.4276C60.6673 32.0024 61.9236 34.3691 63.7813 36.2183C65.6304 38.0759 67.9972 39.3322 70.572 39.8228C70.7303 39.8533 70.8716 39.9416 70.9683 40.0705C71.0651 40.1995 71.1103 40.3599 71.0953 40.5204C71.0802 40.6809 71.0059 40.8301 70.8869 40.9388C70.7678 41.0475 70.6125 41.108 70.4513 41.1084V41.1084Z" fill="#5AAE37"/>
<path d="M55.6334 49.4462C54.4583 49.4456 53.3197 49.0375 52.4117 48.2915C51.5036 47.5455 50.8824 46.5077 50.6537 45.355C50.4251 44.2023 50.6032 43.006 51.1577 41.9698C51.7122 40.9337 52.6088 40.1219 53.6948 39.6728C54.7807 39.2236 55.9888 39.1649 57.1132 39.5066C58.2376 39.8483 59.2087 40.5693 59.8611 41.5467C60.5135 42.5242 60.8068 43.6976 60.6911 44.867C60.5753 46.0365 60.0577 47.1296 59.2263 47.9602C58.7548 48.4323 58.1947 48.8066 57.5781 49.0616C56.9615 49.3166 56.3007 49.4474 55.6334 49.4462V49.4462ZM55.6334 40.5825C54.7578 40.5823 53.9091 40.8858 53.2321 41.4413C52.5552 41.9967 52.0917 42.7697 51.9208 43.6285C51.7498 44.4873 51.882 45.3789 52.2947 46.1512C52.7074 46.9235 53.3752 47.5288 54.1842 47.864C54.9931 48.1991 55.8933 48.2434 56.7313 47.9893C57.5693 47.7351 58.2932 47.1983 58.7798 46.4702C59.2663 45.7421 59.4853 44.8679 59.3995 43.9964C59.3136 43.1249 58.9283 42.3102 58.3091 41.691C57.9585 41.3386 57.5415 41.0592 57.0822 40.8689C56.623 40.6787 56.1305 40.5813 55.6334 40.5825V40.5825Z" fill="#5AAE37"/>
<path d="M52.1316 72.6781H52.0927C51.9883 72.6718 51.8871 72.6404 51.7975 72.5865C51.708 72.5326 51.6328 72.4579 51.5783 72.3687L46.4741 64.0167C46.3844 63.8699 46.3566 63.6934 46.397 63.5262C46.4374 63.3589 46.5426 63.2145 46.6894 63.1248C46.8363 63.0351 47.0127 63.0074 47.18 63.0478C47.3472 63.0882 47.4916 63.1934 47.5813 63.3402L52.199 70.8963L55.6946 66.4693C56.4652 65.488 57.0332 64.3634 57.3655 63.1608C57.6977 61.9582 57.7877 60.7015 57.6302 59.4639L57.2034 56.1817C57.1908 56.0965 57.1954 56.0097 57.2167 55.9263C57.2381 55.8428 57.2758 55.7645 57.3278 55.6958C57.3797 55.6272 57.4448 55.5695 57.5192 55.5263C57.5937 55.483 57.676 55.455 57.7614 55.4439C57.8468 55.4328 57.9335 55.4388 58.0166 55.4616C58.0996 55.4843 58.1773 55.5234 58.2451 55.5765C58.3129 55.6296 58.3694 55.6956 58.4114 55.7708C58.4534 55.846 58.48 55.9288 58.4896 56.0143L58.9165 59.2972C59.0961 60.7068 58.9936 62.1381 58.615 63.5078C58.2364 64.8775 57.5892 66.1582 56.711 67.2755L52.6382 72.4342C52.5774 72.5103 52.5004 72.5717 52.4127 72.6139C52.325 72.6561 52.2289 72.6781 52.1316 72.6781V72.6781Z" fill="#5AAE37"/>
<path d="M36.3214 53.6214C36.2022 53.6215 36.0853 53.5887 35.9835 53.5267L27.6328 48.4225C27.5437 48.368 27.469 48.2928 27.4151 48.2034C27.3613 48.1139 27.3298 48.0127 27.3235 47.9084C27.3171 47.8042 27.336 47.7 27.3786 47.6046C27.4211 47.5092 27.4861 47.4255 27.5679 47.3606L32.7266 43.2877C33.844 42.4099 35.1248 41.7628 36.4945 41.3842C37.8641 41.0056 39.2954 40.903 40.705 41.0823L43.9878 41.5092C44.0734 41.5188 44.1562 41.5454 44.2313 41.5874C44.3065 41.6294 44.3726 41.6859 44.4257 41.7537C44.4788 41.8215 44.5178 41.8992 44.5406 41.9822C44.5634 42.0653 44.5694 42.152 44.5583 42.2374C44.5472 42.3228 44.5192 42.4051 44.4759 42.4796C44.4327 42.554 44.375 42.6191 44.3063 42.671C44.2377 42.723 44.1593 42.7607 44.0759 42.7821C43.9925 42.8034 43.9057 42.808 43.8205 42.7954L40.5383 42.3686C39.3006 42.2113 38.044 42.3013 36.8414 42.6336C35.6388 42.9659 34.5142 43.5337 33.5329 44.3042L29.1039 47.8017L36.66 52.4194C36.7806 52.4932 36.8738 52.6044 36.9254 52.736C36.977 52.8676 36.9842 53.0125 36.9459 53.1486C36.9075 53.2847 36.8258 53.4045 36.7131 53.4899C36.6003 53.5752 36.4628 53.6214 36.3214 53.6214V53.6214Z" fill="#5AAE37"/>
<path d="M35.8751 72.7273C35.7468 72.7272 35.6214 72.6892 35.5148 72.6179C35.4081 72.5466 35.325 72.4453 35.2759 72.3268C35.2268 72.2083 35.214 72.0779 35.239 71.9521C35.264 71.8263 35.3258 71.7107 35.4165 71.62L41.2096 65.8269C41.2694 65.765 41.341 65.7156 41.4201 65.6816C41.4992 65.6476 41.5844 65.6297 41.6705 65.6289C41.7566 65.6282 41.842 65.6446 41.9217 65.6772C42.0015 65.7098 42.0739 65.758 42.1348 65.8189C42.1957 65.8798 42.2439 65.9522 42.2765 66.0319C42.3091 66.1117 42.3255 66.1971 42.3247 66.2832C42.324 66.3693 42.3061 66.4544 42.2721 66.5336C42.2381 66.6127 42.1887 66.6843 42.1267 66.7441L36.3337 72.5372C36.2121 72.6589 36.0471 72.7272 35.8751 72.7273V72.7273Z" fill="#5AAE37"/>
<path d="M27.9219 64.7736C27.7937 64.7736 27.6683 64.7356 27.5617 64.6643C27.455 64.593 27.3719 64.4917 27.3228 64.3732C27.2737 64.2547 27.2609 64.1243 27.2859 63.9985C27.3109 63.8727 27.3727 63.7571 27.4634 63.6664L33.2564 57.8733C33.3163 57.8114 33.3878 57.762 33.467 57.728C33.5461 57.694 33.6312 57.6761 33.7174 57.6753C33.8035 57.6746 33.8889 57.691 33.9686 57.7236C34.0483 57.7562 34.1208 57.8044 34.1817 57.8653C34.2426 57.9262 34.2907 57.9986 34.3233 58.0783C34.356 58.158 34.3724 58.2435 34.3716 58.3296C34.3709 58.4157 34.353 58.5008 34.319 58.58C34.285 58.6591 34.2356 58.7307 34.1736 58.7905L28.3805 64.5836C28.2589 64.7052 28.094 64.7736 27.9219 64.7736V64.7736Z" fill="#5AAE37"/>
<path d="M28.3145 72.3342C28.1863 72.3342 28.0609 72.2961 27.9542 72.2248C27.8476 72.1536 27.7645 72.0523 27.7154 71.9338C27.6663 71.8152 27.6535 71.6848 27.6785 71.559C27.7035 71.4332 27.7652 71.3177 27.8559 71.227L34.0907 64.9921C34.2131 64.874 34.3769 64.8086 34.547 64.8101C34.7171 64.8116 34.8798 64.8798 35 65C35.1203 65.1203 35.1885 65.283 35.19 65.4531C35.1915 65.6231 35.1261 65.787 35.0079 65.9093L28.7731 72.1441C28.6515 72.2658 28.4865 72.3342 28.3145 72.3342V72.3342Z" fill="#5AAE37"/>
</svg>
