<svg width="72" height="72" viewBox="0 0 72 72" fill="none" xmlns="http://www.w3.org/2000/svg">
<g opacity="0.2">
<g clip-path="url(#clip0_2286_10508)">
<path d="M64.357 7.70386L64.295 7.64184C62.2298 5.58084 59.07 5.26219 56.6556 6.68166C50.496 2.30527 43.3893 0 36 0C28.6109 0 21.5041 2.30527 15.3444 6.6818C12.9302 5.26233 9.77077 5.5807 7.70653 7.64044L7.64184 7.70512C5.58084 9.77077 5.26247 12.9305 6.6818 15.3446C2.30527 21.5041 0 28.6109 0 36C0 43.3891 2.30527 50.4959 6.6818 56.6556C5.26247 59.0697 5.58098 62.2295 7.64227 64.2954L7.70498 64.3582C9.7612 66.4099 12.9187 66.7447 15.3446 65.3183C21.5042 69.6947 28.6109 72 36 72C43.3893 72 50.4959 69.6947 56.6554 65.3183C59.0843 66.7464 62.2412 66.4075 64.2954 64.3577L64.358 64.2952C66.4192 62.2295 66.7377 59.0698 65.3182 56.6556C69.6946 50.4959 72 43.3891 72 36C72 28.6109 69.6946 21.5042 65.3182 15.3444C66.7377 12.9302 66.419 9.77034 64.357 7.70386V7.70386ZM58.3726 10.645C59.1879 9.82997 60.5078 9.82252 61.3143 10.6273L61.3717 10.6848C62.1775 11.4924 62.1702 12.8125 61.3551 13.6274L50.8257 24.1567C49.9447 23.056 48.9438 22.0553 47.8432 21.1742L58.3726 10.645ZM50.7656 36C50.7656 44.1418 44.1418 50.7656 36 50.7656C27.8582 50.7656 21.2344 44.1418 21.2344 36C21.2344 27.8582 27.8582 21.2344 36 21.2344C44.1418 21.2344 50.7656 27.8582 50.7656 36ZM36 4.21875C42.2035 4.21875 48.1904 6.07219 53.4532 9.59808L44.1806 18.8708C41.7021 17.6822 38.9275 17.0156 36 17.0156C33.0725 17.0156 30.2979 17.6822 27.8193 18.8706L18.5468 9.59794C23.8096 6.07219 29.7965 4.21875 36 4.21875V4.21875ZM10.6273 10.6858L10.6848 10.6283C11.4924 9.82252 12.8125 9.82997 13.6275 10.6449L24.1568 21.1743C23.0562 22.0553 22.0555 23.0562 21.1743 24.1568L10.6449 13.6274C9.82997 12.8123 9.82252 11.4923 10.6273 10.6858V10.6858ZM4.21875 36C4.21875 29.7966 6.07219 23.8096 9.59808 18.5468L18.8706 27.8194C17.6822 30.2979 17.0156 33.0725 17.0156 36C17.0156 38.9275 17.6822 41.7021 18.8706 44.1807L9.59808 53.4534C6.07219 48.1904 4.21875 42.2034 4.21875 36V36ZM13.6274 61.355C12.8123 62.17 11.4924 62.1775 10.6826 61.3695L10.6283 61.3153C9.82252 60.5077 9.82997 59.1877 10.6449 58.3726L21.1742 47.8433C22.0552 48.944 23.0559 49.9447 24.1567 50.8258L13.6274 61.355ZM36 67.7812C29.7965 67.7812 23.8096 65.9278 18.5468 62.4019L27.8193 53.1293C30.2979 54.3178 33.0725 54.9844 36 54.9844C38.9275 54.9844 41.7021 54.3178 44.1807 53.1294L53.4534 62.4021C48.1904 65.9278 42.2035 67.7812 36 67.7812V67.7812ZM61.372 61.3149L61.3152 61.3717C60.5077 62.1775 59.1878 62.17 58.3726 61.355L47.8433 50.8257C48.944 49.9447 49.9447 48.944 50.8258 47.8432L61.3552 58.3726C62.1702 59.1877 62.1775 60.5077 61.372 61.3149V61.3149ZM67.7812 36C67.7812 42.2034 65.9278 48.1904 62.4019 53.4532L53.1294 44.1807C54.3178 41.7021 54.9844 38.9275 54.9844 36C54.9844 33.0725 54.3178 30.2979 53.1294 27.8193L62.4019 18.5468C65.9278 23.8098 67.7812 29.7966 67.7812 36V36Z" fill="#2A6BBC"/>
</g>
</g>
<defs>
<clipPath id="clip0_2286_10508">
<rect width="72" height="72" fill="white"/>
</clipPath>
</defs>
</svg>
