<svg width="147" height="30" viewBox="0 0 147 30" fill="none" xmlns="http://www.w3.org/2000/svg">
<path d="M146.031 20.0032C146.307 19.9862 146.516 19.7489 146.499 19.4733L146.221 14.9819C146.204 14.7063 145.967 14.4967 145.691 14.5137C145.415 14.5308 145.206 14.7681 145.223 15.0437L145.47 19.036L141.478 19.2833C141.202 19.3004 140.992 19.5377 141.01 19.8133C141.027 20.0889 141.264 20.2985 141.54 20.2814L146.031 20.0032ZM1.26196 29.4259C16.5233 20.0388 42.0773 8.29711 69.1078 3.59149C96.1444 -1.1152 124.559 1.23149 145.669 19.8789L146.331 19.1294C124.894 0.193399 96.1116 -2.12453 68.9363 2.6063C41.7549 7.3382 16.0822 19.1361 0.738043 28.5741L1.26196 29.4259Z" fill="#717375"/>
</svg>
