<svg width="100" height="100" viewBox="0 0 100 100" fill="none" xmlns="http://www.w3.org/2000/svg">
<circle cx="50" cy="50" r="49.5" fill="white" stroke="#5AAE37"/>
<g clip-path="url(#clip0_2146_10301)">
<path d="M33.7442 55.913C33.7431 56.0926 33.7954 56.2685 33.8945 56.4184C33.9935 56.5683 34.1349 56.6854 34.3005 56.7549C34.4662 56.8244 34.6488 56.8431 34.8251 56.8087C35.0015 56.7743 35.1636 56.6883 35.291 56.5616C35.4185 56.435 35.5054 56.2733 35.5408 56.0972C35.5763 55.9211 35.5586 55.7384 35.4901 55.5723C35.4216 55.4062 35.3053 55.2642 35.156 55.1643C35.0067 55.0643 34.8311 55.011 34.6514 55.011C34.4117 55.011 34.1817 55.1058 34.0117 55.2748C33.8417 55.4439 33.7455 55.6733 33.7442 55.913Z" fill="#5AAE37"/>
<path d="M72.9452 41.497L71.1466 39.7141C70.8707 39.4349 70.5422 39.2133 70.18 39.0621C69.8178 38.9109 69.4292 38.8331 69.0367 38.8333C68.6442 38.8331 68.2556 38.9109 67.8934 39.0621C67.5312 39.2133 67.2026 39.4349 66.9268 39.7141L44.7729 61.868C44.678 61.9576 42.8107 68.6618 42.8107 68.6618C42.7642 68.8183 42.7611 68.9844 42.802 69.1425C42.8429 69.3005 42.9262 69.4443 43.0428 69.5585C43.1604 69.6703 43.3039 69.751 43.4605 69.7934C43.617 69.8358 43.7817 69.8384 43.9395 69.8012C43.9395 69.8012 50.6332 68.0763 50.7967 67.9023L72.9505 45.7484C73.5046 45.1859 73.8152 44.4281 73.8152 43.6385C73.8152 42.849 73.5046 42.0911 72.9505 41.5286L72.9452 41.497ZM44.9892 67.6069L45.9017 64.3524L48.2701 66.7207L44.9892 67.6069ZM50.1162 65.9559L46.6929 62.5273L66.4995 42.7207L69.9228 46.144L50.1162 65.9559ZM71.6371 44.4297L71.231 44.8359L67.8077 41.4126L68.2138 41.0064C68.3211 40.899 68.4485 40.8138 68.5889 40.7559C68.7292 40.6979 68.8796 40.6684 69.0314 40.6689C69.3377 40.6696 69.6314 40.7909 69.849 41.0064L71.6371 42.7998C71.7444 42.9067 71.8296 43.0337 71.8877 43.1735C71.9458 43.3134 71.9758 43.4633 71.9758 43.6148C71.9758 43.7662 71.9458 43.9162 71.8877 44.056C71.8296 44.1959 71.7444 44.3229 71.6371 44.4297V44.4297Z" fill="#5AAE37"/>
<path d="M54.1246 49.1665C54.1246 48.9217 54.0274 48.6869 53.8543 48.5138C53.6812 48.3407 53.4464 48.2434 53.2016 48.2434H39.7668C39.522 48.2434 39.2872 48.3407 39.1141 48.5138C38.941 48.6869 38.8438 48.9217 38.8438 49.1665C38.8438 49.4113 38.941 49.6461 39.1141 49.8192C39.2872 49.9923 39.522 50.0896 39.7668 50.0896H53.2016C53.4459 50.0882 53.6799 49.9905 53.8527 49.8177C54.0255 49.6449 54.1232 49.4109 54.1246 49.1665V49.1665Z" fill="#5AAE37"/>
<path d="M53.2016 40.4895H39.7668C39.522 40.4895 39.2872 40.5868 39.1141 40.7599C38.941 40.933 38.8438 41.1678 38.8438 41.4126C38.8438 41.6574 38.941 41.8922 39.1141 42.0653C39.2872 42.2384 39.522 42.3357 39.7668 42.3357H53.2016C53.4464 42.3357 53.6812 42.2384 53.8543 42.0653C54.0274 41.8922 54.1246 41.6574 54.1246 41.4126C54.1246 41.1678 54.0274 40.933 53.8543 40.7599C53.6812 40.5868 53.4464 40.4895 53.2016 40.4895V40.4895Z" fill="#5AAE37"/>
<path d="M39.7668 55.011C39.522 55.011 39.2872 55.1082 39.1141 55.2813C38.941 55.4545 38.8438 55.6892 38.8438 55.9341C38.8438 56.1789 38.941 56.4137 39.1141 56.5868C39.2872 56.7599 39.522 56.8571 39.7668 56.8571H43.591C43.8358 56.8571 44.0706 56.7599 44.2437 56.5868C44.4168 56.4137 44.5141 56.1789 44.5141 55.9341C44.5141 55.6892 44.4168 55.4545 44.2437 55.2813C44.0706 55.1082 43.8358 55.011 43.591 55.011H39.7668Z" fill="#5AAE37"/>
<path d="M58.2447 63.7406C57.9999 63.7406 57.7651 63.8378 57.592 64.0109C57.4189 64.184 57.3216 64.4188 57.3216 64.6636V68.683C57.3202 69.617 56.9485 70.5124 56.2881 71.1729C55.6276 71.8334 54.7322 72.2051 53.7981 72.2065L28.2895 72.0799V30.8315H32.4618V32.2874C32.4618 32.5322 32.5591 32.767 32.7322 32.9401C32.9053 33.1132 33.1401 33.2104 33.3849 33.2104C33.6297 33.2104 33.8645 33.1132 34.0376 32.9401C34.2107 32.767 34.308 32.5322 34.308 32.2874V30.8315H41.8772V32.2874C41.8772 32.5322 41.9745 32.767 42.1476 32.9401C42.3207 33.1132 42.5555 33.2104 42.8003 33.2104C43.0451 33.2104 43.2799 33.1132 43.453 32.9401C43.6261 32.767 43.7234 32.5322 43.7234 32.2874V30.8315H51.319V32.2874C51.319 32.5322 51.4162 32.767 51.5893 32.9401C51.7625 33.1132 51.9972 33.2104 52.2421 33.2104C52.4869 33.2104 52.7217 33.1132 52.8948 32.9401C53.0679 32.767 53.1651 32.5322 53.1651 32.2874V30.8315H57.2847V43.7757C57.2847 44.0205 57.3819 44.2553 57.5551 44.4284C57.7282 44.6015 57.963 44.6988 58.2078 44.6988C58.4526 44.6988 58.6874 44.6015 58.8605 44.4284C59.0336 44.2553 59.1308 44.0205 59.1308 43.7757V29.9085C59.1309 29.7845 59.106 29.6619 59.0577 29.5478C59.0093 29.4336 58.9385 29.3304 58.8494 29.2443C58.7603 29.1582 58.6548 29.0908 58.5391 29.0464C58.4234 29.0019 58.3 28.9811 58.1761 28.9854H53.144V26.9441C53.144 26.6993 53.0468 26.4645 52.8737 26.2914C52.7006 26.1182 52.4658 26.021 52.221 26.021C51.9761 26.021 51.7414 26.1182 51.5682 26.2914C51.3951 26.4645 51.2979 26.6993 51.2979 26.9441V28.9854H43.7234V26.9441C43.7234 26.6993 43.6261 26.4645 43.453 26.2914C43.2799 26.1182 43.0451 26.021 42.8003 26.021C42.5555 26.021 42.3207 26.1182 42.1476 26.2914C41.9745 26.4645 41.8772 26.6993 41.8772 26.9441V28.9854H34.308V26.9441C34.308 26.8229 34.2841 26.7028 34.2377 26.5908C34.1913 26.4788 34.1233 26.3771 34.0376 26.2914C33.9519 26.2056 33.8502 26.1377 33.7382 26.0913C33.6262 26.0449 33.5061 26.021 33.3849 26.021C33.2637 26.021 33.1437 26.0449 33.0317 26.0913C32.9197 26.1377 32.8179 26.2056 32.7322 26.2914C32.6465 26.3771 32.5785 26.4788 32.5321 26.5908C32.4857 26.7028 32.4618 26.8229 32.4618 26.9441V28.9854H27.3665C27.1216 28.9854 26.8868 29.0826 26.7137 29.2558C26.5406 29.4289 26.4434 29.6637 26.4434 29.9085V72.9977C26.4427 73.1187 26.4659 73.2386 26.5117 73.3505C26.5575 73.4625 26.625 73.5643 26.7103 73.6501C26.7956 73.7359 26.897 73.804 27.0087 73.8504C27.1204 73.8969 27.2402 73.9208 27.3612 73.9208L53.7928 74.0526C55.217 74.0512 56.5825 73.4852 57.5901 72.4787C58.5976 71.4721 59.165 70.1072 59.1678 68.683V64.6636C59.1664 64.4192 59.0687 64.1853 58.8959 64.0124C58.7231 63.8396 58.4891 63.7419 58.2447 63.7406V63.7406Z" fill="#5AAE37"/>
<path d="M37.0771 37.8943C36.9793 37.8228 36.8682 37.7714 36.7504 37.743C36.6326 37.7147 36.5104 37.7099 36.3907 37.729C36.2711 37.7482 36.1564 37.7908 36.0533 37.8545C35.9502 37.9181 35.8607 38.0016 35.7901 38.1L33.7065 40.9747L33.3848 40.6899C33.2908 40.6071 33.1809 40.5443 33.0618 40.5053C32.9428 40.4663 32.817 40.452 32.6922 40.4632C32.5674 40.4744 32.4462 40.5108 32.336 40.5704C32.2258 40.6299 32.1288 40.7113 32.051 40.8095C31.9732 40.9077 31.9163 41.0207 31.8836 41.1417C31.8509 41.2626 31.8431 41.3889 31.8608 41.513C31.8785 41.637 31.9213 41.7561 31.9865 41.8631C32.0517 41.9701 32.138 42.0626 32.2402 42.1352L33.3584 43.0213C33.5196 43.1516 33.7208 43.2224 33.9281 43.2218H34.0547C34.1779 43.205 34.2964 43.1637 34.4033 43.1003C34.5103 43.0369 34.6034 42.9526 34.6771 42.8525L37.3145 39.1919C37.3861 39.0918 37.4368 38.9783 37.4636 38.8582C37.4905 38.7381 37.4929 38.6138 37.4708 38.4928C37.4486 38.3717 37.4024 38.2564 37.3347 38.1536C37.2671 38.0507 37.1795 37.9626 37.0771 37.8943V37.8943Z" fill="#5AAE37"/>
<path d="M37.0771 45.316C36.879 45.173 36.6323 45.1144 36.3911 45.1529C36.1498 45.1915 35.9337 45.3241 35.7901 45.5217L33.7065 48.4017L33.3848 48.1169C33.2908 48.0341 33.1809 47.9713 33.0618 47.9323C32.9428 47.8933 32.817 47.879 32.6922 47.8902C32.5674 47.9014 32.4462 47.9379 32.336 47.9974C32.2258 48.0569 32.1288 48.1383 32.051 48.2365C31.9732 48.3347 31.9163 48.4477 31.8836 48.5687C31.8509 48.6896 31.8431 48.8159 31.8608 48.94C31.8785 49.064 31.9213 49.1831 31.9865 49.2901C32.0517 49.3971 32.138 49.4896 32.2402 49.5622L33.3531 50.4483C33.5168 50.5779 33.7194 50.6485 33.9281 50.6488H34.0547C34.1747 50.6277 34.2893 50.5827 34.3917 50.5166C34.494 50.4504 34.5821 50.3645 34.6507 50.2637L37.2881 46.6083C37.4308 46.4088 37.4888 46.1608 37.4492 45.9187C37.4097 45.6765 37.2759 45.4598 37.0771 45.316V45.316Z" fill="#5AAE37"/>
</g>
<defs>
<clipPath id="clip0_2146_10301">
<rect width="48" height="48" fill="white" transform="translate(26 26)"/>
</clipPath>
</defs>
</svg>
