<svg width="1419" height="141" viewBox="0 0 1419 141" fill="none" xmlns="http://www.w3.org/2000/svg">
<path opacity="0.4" d="M1 43.5C110.5 5.5 241.549 88.8536 349.618 127.747C501.347 182.354 679.76 29.0548 787.016 115.223C894.273 201.391 1394.46 38.0724 1418 1" stroke="#717375" stroke-dasharray="19 19"/>
</svg>
