<svg width="147" height="30" viewBox="0 0 147 30" fill="none" xmlns="http://www.w3.org/2000/svg">
<path d="M146.031 9.99678C146.307 10.0138 146.516 10.2511 146.499 10.5267L146.221 15.0181C146.204 15.2937 145.967 15.5033 145.691 15.4863C145.415 15.4692 145.206 15.2319 145.223 14.9563L145.47 10.964L141.478 10.7167C141.202 10.6996 140.992 10.4623 141.01 10.1867C141.027 9.9111 141.264 9.70151 141.54 9.71858L146.031 9.99678ZM1.26196 0.574114C16.5233 9.96116 42.0773 21.7029 69.1078 26.4085C96.1444 31.1152 124.559 28.7685 145.669 10.1211L146.331 10.8706C124.894 29.8066 96.1116 32.1245 68.9363 27.3937C41.7549 22.6618 16.0822 10.8639 0.738043 1.42589L1.26196 0.574114Z" fill="#717375"/>
</svg>
