<svg width="48" height="48" viewBox="0 0 48 48" fill="none" xmlns="http://www.w3.org/2000/svg">
<g clip-path="url(#clip0_355_5379)">
<path d="M0.388279 30.601C0.0326 31.16 -0.0841286 31.8242 0.0605233 32.4705L2.88764 45.1166C3.14582 46.2715 4.17761 47.0593 5.31834 47.0593C5.49641 47.0593 5.67723 47.0401 5.85896 46.9998L7.33889 46.6716C7.74355 47.5198 8.6046 48.0705 9.54758 48.07C9.7229 48.07 9.90143 48.0513 10.08 48.0114L12.6603 47.4397C13.3017 47.2978 13.8478 46.9151 14.1993 46.3621C14.5491 45.8119 14.664 45.1582 14.5216 44.522L10.8476 28.0907C10.5542 26.7751 9.2418 25.9401 7.92208 26.2358L7.13656 26.4103C7.00336 24.771 6.93195 23.0531 6.93195 22.1677C6.93195 12.9613 14.6022 5.47098 24.0306 5.47098C33.4595 5.47098 41.1298 12.9613 41.1298 22.1677C41.1298 23.0718 41.0588 24.7687 40.9238 26.4235L40.0783 26.2358C38.759 25.942 37.4462 26.7755 37.1523 28.0902L33.4788 44.5224C33.3364 45.1582 33.4513 45.8119 33.801 46.3621C34.1526 46.9151 34.6987 47.2978 35.3396 47.4397L37.9199 48.0114C38.0989 48.0513 38.277 48.07 38.4528 48.07C39.3953 48.07 40.2564 47.5194 40.661 46.6716L42.1409 46.9998C42.3227 47.0401 42.5039 47.0593 42.682 47.0593C43.8228 47.0593 44.8545 46.2715 45.1123 45.1166L47.9394 32.4705C48.084 31.8242 47.9678 31.16 47.6121 30.601C47.3191 30.1401 46.8884 29.8045 46.3853 29.6164C46.681 26.9513 46.8197 23.7392 46.8197 22.3559C46.8197 10.0678 36.5966 0.0708008 24.0306 0.0708008C11.4647 0.0708008 1.242 10.0678 1.242 22.3559C1.242 23.7424 1.38024 26.9381 1.67412 29.5972C1.14587 29.7798 0.692689 30.1222 0.388279 30.601V30.601ZM8.18209 27.4073C8.27364 27.3871 8.36519 27.3775 8.45537 27.3775C9.02894 27.3775 9.54758 27.7725 9.67713 28.3521L13.3506 44.7838C13.423 45.107 13.3644 45.4388 13.1868 45.7181C13.0073 46.0005 12.7281 46.196 12.4003 46.2683L9.81995 46.8405C9.14841 46.9897 8.47505 46.5663 8.32445 45.8957L8.313 45.843C8.313 45.8426 8.313 45.8421 8.313 45.8412C8.313 45.8408 8.31209 45.8403 8.31209 45.8394L4.66421 29.5216C4.66421 29.5212 4.66466 29.5207 4.66421 29.5203C4.66421 29.5198 4.66375 29.5194 4.66375 29.5189L4.65139 29.464C4.57952 29.1408 4.63811 28.8089 4.81572 28.5292C4.99471 28.2468 5.2744 28.0518 5.6017 27.979L8.18209 27.4073ZM38.1804 46.8405L35.5996 46.2683C35.2723 46.196 34.9926 46.0005 34.8136 45.7181C34.636 45.4388 34.5774 45.107 34.6493 44.7838L38.3232 28.3516C38.4528 27.7725 38.9714 27.3775 39.545 27.3775C39.6352 27.3775 39.7267 27.3871 39.8178 27.4073L42.3991 27.9795C42.726 28.0518 43.0052 28.2468 43.1846 28.5292C43.3622 28.8089 43.4208 29.1408 43.3485 29.4635L43.3362 29.5189C43.3362 29.5194 43.3362 29.5198 43.3357 29.5203V29.5212L39.6878 45.8398C39.6878 45.8403 39.6874 45.8408 39.6874 45.8412V45.843L39.6755 45.8952C39.5249 46.5663 38.8524 46.9879 38.1804 46.8405V46.8405ZM46.5995 31.2446C46.7831 31.5335 46.843 31.8754 46.7689 32.2082L43.9418 44.8547C43.787 45.5464 43.0958 45.9813 42.4014 45.8284L40.9897 45.5153L44.3762 30.3653L45.7897 30.6784C46.1271 30.7535 46.415 30.9544 46.5995 31.2446ZM24.0306 1.27104C35.9351 1.27104 45.6199 10.7297 45.6199 22.3559C45.6199 23.6838 45.4895 26.7357 45.2107 29.3207L44.5735 29.1797C44.5716 28.7247 44.4471 28.2784 44.1972 27.8847C43.8456 27.3322 43.2991 26.9495 42.6587 26.808L42.1062 26.6854C42.2522 24.9468 42.33 23.1268 42.33 22.1677C42.33 12.2994 34.121 4.27074 24.0306 4.27074C13.9407 4.27074 5.7317 12.2994 5.7317 22.1677C5.7317 23.1304 5.8086 24.9399 5.95417 26.6721L5.34215 26.8076C4.70129 26.9495 4.15472 27.3322 3.80316 27.8847C3.55323 28.2784 3.42871 28.7247 3.42688 29.1797L2.84919 29.3079C2.58278 26.8222 2.44179 23.7374 2.44179 22.3559C2.44179 10.7297 12.1266 1.27104 24.0306 1.27104V1.27104ZM1.40084 31.2446C1.58532 30.9544 1.87279 30.7535 2.21062 30.6784L3.62372 30.3653L7.01022 45.5153L5.59895 45.8284C4.90682 45.9813 4.21331 45.5464 4.05859 44.8547L1.23147 32.2082C1.15686 31.8754 1.21728 31.5335 1.40084 31.2446V31.2446Z" fill="white"/>
</g>
<defs>
<clipPath id="clip0_355_5379">
<rect width="48" height="48" fill="white"/>
</clipPath>
</defs>
</svg>
