<svg width="128" height="92" viewBox="0 0 128 92" fill="none" xmlns="http://www.w3.org/2000/svg">
<path d="M17.9776 85.7188L17.4269 86.5534L17.4299 86.5554L17.9776 85.7188ZM5.23615 70.0795L4.31999 70.4804L4.32061 70.4818L5.23615 70.0795ZM0.804332 45.4915L-0.195663 45.4885L0.804332 45.4915ZM5.27876 21.1165L4.36511 20.71L4.36431 20.7118L5.27876 21.1165ZM17.9776 5.81818L18.5151 6.66148L18.5162 6.66077L17.9776 5.81818ZM57.3526 5.81818L56.8141 6.66079L56.8191 6.66398L57.3526 5.81818ZM70.1367 21.1165L71.0504 20.71L70.1367 21.1165ZM74.5685 45.4915L73.5685 45.4885V45.4915H74.5685ZM70.0941 70.1222L69.1779 69.7213V69.7213L70.0941 70.1222ZM57.3526 85.7614L57.8993 86.5987L57.9003 86.598L57.3526 85.7614ZM48.7021 66.9261L49.5568 67.4453L49.5582 67.4429L48.7021 66.9261ZM52.8782 45.4915H51.8782L51.8782 45.4944L52.8782 45.4915ZM50.9606 29.8949L50.0055 30.1913L50.0061 30.1932L50.9606 29.8949ZM45.6339 20.6903L46.2977 19.9424L45.6339 20.6903ZM26.7134 24.5256L27.5662 25.0479L27.5676 25.0455L26.7134 24.5256ZM22.4947 45.4915L23.4947 45.4959L23.4947 45.4945L22.4947 45.4915ZM24.3271 61.3864L23.3685 61.6713L23.3703 61.6773L24.3271 61.3864ZM29.6964 70.804L29.0269 71.5468L29.032 71.5514L29.6964 70.804ZM37.6651 90.1307C30.215 90.1307 23.8497 88.3676 18.5253 84.8821L17.4299 86.5554C23.1283 90.2858 29.888 92.1307 37.6651 92.1307V90.1307ZM18.5284 84.8841C13.197 81.3664 9.06705 76.3132 6.15169 69.6773L4.32061 70.4818C7.37116 77.4254 11.7356 82.7983 17.4269 86.5534L18.5284 84.8841ZM6.15231 69.6787C3.23856 63.0187 1.77622 54.9676 1.80433 45.4944L-0.195663 45.4885C-0.224371 55.1631 1.26783 63.504 4.31999 70.4804L6.15231 69.6787ZM1.80433 45.4944C1.83245 36.0179 3.30921 28.0379 6.19322 21.5212L4.36431 20.7118C1.33923 27.5473 -0.166965 35.8173 -0.195663 45.4885L1.80433 45.4944ZM6.19242 21.523C9.10617 14.974 13.2184 10.0371 18.5151 6.66148L17.4402 4.97488C11.771 8.58791 7.41727 13.8499 4.36511 20.71L6.19242 21.523ZM18.5162 6.66077C23.8418 3.25677 30.2104 1.53409 37.6651 1.53409V-0.465912C29.8926 -0.465912 23.1362 1.33414 17.4391 4.9756L18.5162 6.66077ZM37.6651 1.53409C45.1198 1.53409 51.4885 3.25677 56.8141 6.66077L57.8912 4.9756C52.1941 1.33414 45.4377 -0.465912 37.6651 -0.465912V1.53409ZM56.8191 6.66398C62.1718 10.0403 66.3105 14.9767 69.2231 21.523L71.0504 20.71C67.997 13.8472 63.613 8.58473 57.8861 4.97238L56.8191 6.66398ZM69.2231 21.523C72.1342 28.0661 73.5966 36.0435 73.5685 45.4885L75.5685 45.4945C75.5972 35.8486 74.1051 27.576 71.0504 20.71L69.2231 21.523ZM73.5685 45.4915C73.5685 54.9942 72.092 63.0605 69.1779 69.7213L71.0103 70.523C74.0621 63.5474 75.5685 55.1933 75.5685 45.4915H73.5685ZM69.1779 69.7213C66.2624 76.3854 62.1333 81.4366 56.8049 84.9247L57.9003 86.598C63.5947 82.8703 67.9599 77.4953 71.0103 70.523L69.1779 69.7213ZM56.806 84.924C51.5113 88.3807 45.1462 90.1307 37.6651 90.1307V92.1307C45.4682 92.1307 52.2281 90.3012 57.8993 86.5987L56.806 84.924ZM37.6651 74.8722C42.6319 74.8722 46.6037 72.3074 49.5568 67.4453L47.8474 66.407C45.1754 70.8063 41.7893 72.8722 37.6651 72.8722V74.8722ZM49.5582 67.4429C52.5131 62.5478 53.9068 55.18 53.8782 45.4885L51.8782 45.4944C51.9064 55.0643 50.516 61.9863 47.846 66.4093L49.5582 67.4429ZM53.8782 45.4915C53.8782 39.1265 53.2342 33.818 51.9151 29.5966L50.0061 30.1932C51.2438 34.1536 51.8782 39.2428 51.8782 45.4915H53.8782ZM51.9156 29.5985C50.6047 25.3743 48.7525 22.1211 46.2977 19.9424L44.9701 21.4383C47.0607 23.2937 48.7597 26.1769 50.0055 30.1913L51.9156 29.5985ZM46.2977 19.9424C43.8419 17.7629 40.9495 16.6648 37.6651 16.6648V18.6648C40.4604 18.6648 42.8804 19.5837 44.9701 21.4383L46.2977 19.9424ZM37.6651 16.6648C32.7293 16.6648 28.7853 19.1985 25.8592 24.0056L27.5676 25.0455C30.2097 20.7049 33.5668 18.6648 37.6651 18.6648V16.6648ZM25.8607 24.0033C22.9325 28.784 21.5233 35.9957 21.4947 45.4885L23.4947 45.4945C23.5229 36.1236 24.9262 29.358 27.5662 25.0479L25.8607 24.0033ZM21.4947 45.487C21.466 51.9366 22.081 57.3407 23.3685 61.6713L25.2856 61.1014C24.0731 57.023 23.4665 51.8305 23.4947 45.4959L21.4947 45.487ZM23.3703 61.6773C24.6806 65.9867 26.5456 69.3106 29.0269 71.5468L30.3658 70.0611C28.2449 68.1497 26.5303 65.1952 25.2838 61.0955L23.3703 61.6773ZM29.032 71.5514C31.5117 73.7555 34.4029 74.8722 37.6651 74.8722V72.8722C34.9047 72.8722 32.4833 71.9433 30.3607 70.0566L29.032 71.5514ZM127.005 1.72727H128.005V0.72727H127.005V1.72727ZM127.005 89V90H128.005V89H127.005ZM105.953 89H104.953V90H105.953V89ZM105.953 21.4148H106.953V20.4148H105.953V21.4148ZM105.442 21.4148V20.4148H105.161L104.921 20.5616L105.442 21.4148ZM85.9251 33.3466H84.9251V35.13L86.4467 34.1998L85.9251 33.3466ZM85.9251 15.108L85.397 14.2587L84.9251 14.5522V15.108H85.9251ZM107.445 1.72727V0.72727H107.159L106.917 0.878046L107.445 1.72727ZM126.005 1.72727V89H128.005V1.72727H126.005ZM127.005 88H105.953V90H127.005V88ZM106.953 89V21.4148H104.953V89H106.953ZM105.953 20.4148H105.442V22.4148H105.953V20.4148ZM104.921 20.5616L85.4035 32.4934L86.4467 34.1998L105.964 22.268L104.921 20.5616ZM86.9251 33.3466V15.108H84.9251V33.3466H86.9251ZM86.4531 15.9572L107.973 2.57649L106.917 0.878046L85.397 14.2587L86.4531 15.9572ZM107.445 2.72727H127.005V0.72727H107.445V2.72727Z" fill="#E6E6E6"/>
</svg>
