<svg width="50" height="50" viewBox="0 0 50 50" fill="none" xmlns="http://www.w3.org/2000/svg">
<rect width="50" height="50" rx="8" fill="#333333"/>
<g clip-path="url(#clip0_859_5380)">
<path d="M16.0539 35.9598H19.322C19.3675 36.2446 19.6034 36.4672 19.9014 36.4672H27.3316C27.6308 36.4672 27.8656 36.2457 27.911 35.9598H31.1791C31.7319 35.9598 32.1795 35.5123 32.1795 34.9595H15.0547C15.0547 35.5123 15.5023 35.9598 16.0539 35.9598Z" fill="white"/>
<path d="M36.1148 25.6777C35.2818 25.003 34.1086 24.992 33.3364 25.0773C33.3586 24.5389 33.3708 23.9883 33.3708 23.4155H13C13 28.9214 13.8331 32.8941 19.1052 34.3764H27.2655C29.3538 33.7903 30.7386 32.8055 31.6569 31.496C33.6577 31.4573 36.8759 30.6696 36.9967 27.9067C37.0487 26.6969 36.5458 26.0256 36.1148 25.6777ZM32.4956 29.9163C32.8789 28.9314 33.106 27.8236 33.2312 26.6061C33.7718 26.5174 34.7035 26.4609 35.1743 26.8443C35.2607 26.9152 35.5299 27.1345 35.4989 27.8424C35.4357 29.2737 33.6588 29.7545 32.4956 29.9163Z" fill="white"/>
<path d="M21.2988 22.6424C21.2988 22.6424 25.1762 22.3577 23.3993 19.0885C21.9724 16.464 22.2981 14.9241 24.1238 13.5327C24.1238 13.5327 18.1437 15.056 21.6312 19.7698C22.9107 21.8237 21.2988 22.6424 21.2988 22.6424Z" fill="white"/>
<path d="M23.9141 22.3808C23.9141 22.3808 27.0204 21.7261 25.3299 19.2279C24.7161 18.1444 25.5625 17.7578 25.5625 17.7578C25.5625 17.7578 23.5629 17.821 24.407 19.5392C25.0828 20.9207 24.8823 21.705 23.9141 22.3808Z" fill="white"/>
</g>
<defs>
<clipPath id="clip0_859_5380">
<rect width="24" height="24.0011" fill="white" transform="translate(13 13)"/>
</clipPath>
</defs>
</svg>
