<svg width="155" height="92" viewBox="0 0 155 92" fill="none" xmlns="http://www.w3.org/2000/svg">
<path d="M17.2823 85.7188L16.7316 86.5534L16.7346 86.5554L17.2823 85.7188ZM4.54084 70.0795L3.62468 70.4804L3.6253 70.4818L4.54084 70.0795ZM0.10902 45.4915L-0.890976 45.4885L-0.890976 45.4885L0.10902 45.4915ZM4.58345 21.1165L3.6698 20.71L3.669 20.7118L4.58345 21.1165ZM17.2823 5.81818L17.8198 6.66148L17.8209 6.66077L17.2823 5.81818ZM56.6573 5.81818L56.1187 6.66078L56.1238 6.66398L56.6573 5.81818ZM69.4414 21.1165L70.3551 20.71L70.3551 20.71L69.4414 21.1165ZM73.8732 45.4915L72.8732 45.4885V45.4915H73.8732ZM69.3988 70.1222L68.4826 69.7213L68.4826 69.7213L69.3988 70.1222ZM56.6573 85.7614L57.204 86.5987L57.205 86.598L56.6573 85.7614ZM48.0067 66.9261L48.8615 67.4453L48.8629 67.4429L48.0067 66.9261ZM52.1829 45.4915L51.1829 45.4915L51.1829 45.4944L52.1829 45.4915ZM50.2653 29.8949L49.3102 30.1913L49.3108 30.1932L50.2653 29.8949ZM44.9386 20.6903L45.6024 19.9424L45.6024 19.9424L44.9386 20.6903ZM26.0181 24.5256L26.8709 25.0479L26.8723 25.0455L26.0181 24.5256ZM21.7994 45.4915L22.7994 45.4959L22.7994 45.4945L21.7994 45.4915ZM23.6317 61.3864L22.6732 61.6713L22.675 61.6773L23.6317 61.3864ZM29.0011 70.804L28.3316 71.5468L28.3367 71.5514L29.0011 70.804ZM36.9698 90.1307C29.5197 90.1307 23.1544 88.3676 17.83 84.8821L16.7346 86.5554C22.4329 90.2858 29.1927 92.1307 36.9698 92.1307V90.1307ZM17.833 84.8841C12.5016 81.3664 8.37174 76.3132 5.45638 69.6773L3.6253 70.4818C6.67585 77.4254 11.0403 82.7983 16.7316 86.5534L17.833 84.8841ZM5.457 69.6787C2.54325 63.0187 1.08091 54.9676 1.10902 45.4944L-0.890976 45.4885C-0.919684 55.1631 0.572518 63.504 3.62468 70.4804L5.457 69.6787ZM1.10902 45.4944C1.13714 36.0179 2.61389 28.0379 5.4979 21.5212L3.669 20.7118C0.64392 27.5473 -0.862278 35.8173 -0.890976 45.4885L1.10902 45.4944ZM5.4971 21.523C8.41086 14.974 12.5231 10.0371 17.8198 6.66148L16.7449 4.97488C11.0756 8.58791 6.72196 13.8499 3.6698 20.71L5.4971 21.523ZM17.8209 6.66077C23.1465 3.25677 29.5151 1.53409 36.9698 1.53409V-0.465912C29.1972 -0.465912 22.4409 1.33414 16.7438 4.9756L17.8209 6.66077ZM36.9698 1.53409C44.4245 1.53409 50.7931 3.25677 56.1188 6.66077L57.1959 4.9756C51.4988 1.33414 44.7424 -0.465912 36.9698 -0.465912V1.53409ZM56.1238 6.66398C61.4765 10.0403 65.6152 14.9767 68.5278 21.523L70.3551 20.71C67.3017 13.8472 62.9177 8.58473 57.1908 4.97238L56.1238 6.66398ZM68.5278 21.523C71.4389 28.0661 72.9013 36.0435 72.8732 45.4885L74.8732 45.4945C74.9019 35.8486 73.4098 27.576 70.3551 20.71L68.5278 21.523ZM72.8732 45.4915C72.8732 54.9942 71.3967 63.0605 68.4826 69.7213L70.3149 70.523C73.3668 63.5474 74.8732 55.1933 74.8732 45.4915H72.8732ZM68.4826 69.7213C65.5671 76.3854 61.438 81.4366 56.1096 84.9247L57.205 86.598C62.8994 82.8703 67.2646 77.4953 70.3149 70.523L68.4826 69.7213ZM56.1107 84.924C50.816 88.3807 44.4508 90.1307 36.9698 90.1307V92.1307C44.7729 92.1307 51.5328 90.3012 57.204 86.5987L56.1107 84.924ZM36.9698 74.8722C41.9366 74.8722 45.9084 72.3074 48.8615 67.4452L47.152 66.407C44.4801 70.8063 41.0939 72.8722 36.9698 72.8722V74.8722ZM48.8629 67.4429C51.8178 62.5478 53.2115 55.18 53.1829 45.4885L51.1829 45.4944C51.2111 55.0643 49.8207 61.9863 47.1506 66.4093L48.8629 67.4429ZM53.1829 45.4915C53.1829 39.1265 52.5389 33.818 51.2198 29.5966L49.3108 30.1932C50.5484 34.1536 51.1829 39.2428 51.1829 45.4915H53.1829ZM51.2203 29.5985C49.9094 25.3743 48.0572 22.1211 45.6024 19.9424L44.2748 21.4383C46.3654 23.2937 48.0643 26.1769 49.3102 30.1913L51.2203 29.5985ZM45.6024 19.9424C43.1466 17.7629 40.2541 16.6648 36.9698 16.6648V18.6648C39.765 18.6648 42.1851 19.5837 44.2748 21.4383L45.6024 19.9424ZM36.9698 16.6648C32.034 16.6648 28.09 19.1985 25.1639 24.0056L26.8723 25.0455C29.5144 20.7049 32.8715 18.6648 36.9698 18.6648V16.6648ZM25.1654 24.0033C22.2371 28.784 20.828 35.9957 20.7994 45.4885L22.7994 45.4945C22.8276 36.1236 24.2309 29.358 26.8709 25.0479L25.1654 24.0033ZM20.7994 45.487C20.7707 51.9366 21.3857 57.3407 22.6732 61.6713L24.5903 61.1014C23.3778 57.023 22.7712 51.8305 22.7994 45.4959L20.7994 45.487ZM22.675 61.6773C23.9853 65.9867 25.8503 69.3106 28.3316 71.5468L29.6705 70.0611C27.5496 68.1497 25.835 65.1952 24.5885 61.0955L22.675 61.6773ZM28.3367 71.5514C30.8164 73.7555 33.7076 74.8722 36.9698 74.8722V72.8722C34.2093 72.8722 31.788 71.9433 29.6654 70.0566L28.3367 71.5514ZM101.466 86.7841L101.055 87.696L101.061 87.6987L101.466 86.7841ZM89.3633 77.2812L88.5565 77.8721L88.5565 77.8721L89.3633 77.2812ZM84.8462 63.3466V62.3466H83.8354L83.8463 63.3574L84.8462 63.3466ZM106.068 63.3466L107.067 63.3019L107.024 62.3466H106.068V63.3466ZM107.9 68.4176L107.108 69.0274L107.113 69.0348L107.9 68.4176ZM112.545 71.8267L112.158 72.7486L112.158 72.7486L112.545 71.8267ZM125.841 71.7415L126.26 72.6491L126.266 72.6463L125.841 71.7415ZM130.358 68.0341L131.18 68.6025L131.185 68.5956L130.358 68.0341ZM131.934 62.5795L130.934 62.5657L130.934 62.5795L130.934 62.5934L131.934 62.5795ZM130.187 57.125L129.387 57.725L129.387 57.725L130.187 57.125ZM125.116 53.4176L124.738 54.3436L124.743 54.3453L125.116 53.4176ZM108.966 52.0966H107.966V53.0966H108.966V52.0966ZM108.966 37.0966V36.0966H107.966V37.0966H108.966ZM124.264 35.8182L123.87 34.899L123.865 34.9011L124.264 35.8182ZM128.909 32.2386L129.719 32.8241L129.724 32.8171L128.909 32.2386ZM130.528 26.8693L129.528 26.8548L129.528 26.8691L129.528 26.8834L130.528 26.8693ZM129.122 21.7131L128.273 22.2416L128.279 22.251L128.285 22.2603L129.122 21.7131ZM125.159 18.2188L124.718 19.1162L124.724 19.1191L125.159 18.2188ZM112.971 18.2188L112.574 17.301L112.569 17.3032L112.971 18.2188ZM108.497 21.7131L109.302 22.3057L109.302 22.3057L108.497 21.7131ZM106.75 26.9545V27.9545H107.721L107.749 26.9831L106.75 26.9545ZM86.5934 26.9545L85.5935 26.9436L85.5824 27.9545H86.5934V26.9545ZM90.94 13.233L91.7517 13.817L91.7537 13.8142L90.94 13.233ZM102.531 3.90057L102.116 2.99092L102.114 2.99184L102.531 3.90057ZM135.812 3.81534L135.393 4.72346L135.393 4.72346L135.812 3.81534ZM146.892 12.7642L146.072 13.3373L146.074 13.3402L146.892 12.7642ZM150.855 25.5057L149.855 25.5057L149.855 25.5115L150.855 25.5057ZM146.039 37.6506L145.339 36.9372L145.335 36.9403L146.039 37.6506ZM133.639 43.5312L133.494 42.5418L132.639 42.6667V43.5312H133.639ZM133.639 44.2131H132.639V45.1023L133.522 45.2062L133.639 44.2131ZM148.937 50.7756L148.216 51.4682L148.219 51.4712L148.937 50.7756ZM154.093 64.1989L153.093 64.1936V64.1989H154.093ZM149.619 77.6648L148.823 77.0593L148.822 77.0601L149.619 77.6648ZM137.261 86.8693L137.65 87.7908L137.652 87.7897L137.261 86.8693ZM119.15 89.1932C112.617 89.1932 106.863 88.0766 101.87 85.8694L101.061 87.6987C106.352 90.0371 112.388 91.1932 119.15 91.1932V89.1932ZM101.876 85.8722C96.9004 83.6332 93.0105 80.5687 90.17 76.6904L88.5565 77.8721C91.6252 82.062 95.8034 85.3327 101.055 87.696L101.876 85.8722ZM90.17 76.6904C87.3454 72.8337 85.9009 68.394 85.8462 63.3358L83.8463 63.3574C83.9052 68.8105 85.4721 73.6607 88.5565 77.8721L90.17 76.6904ZM84.8462 64.3466H106.068V62.3466H84.8462V64.3466ZM105.069 63.3913C105.163 65.4949 105.843 67.3835 107.108 69.0273L108.693 67.8079C107.685 66.4971 107.143 65.0051 107.067 63.3019L105.069 63.3913ZM107.113 69.0348C108.37 70.637 110.065 71.8691 112.158 72.7486L112.933 70.9048C111.105 70.1366 109.703 69.0959 108.687 67.8005L107.113 69.0348ZM112.158 72.7486C114.26 73.6322 116.625 74.0625 119.235 74.0625V72.0625C116.845 72.0625 114.751 71.6689 112.933 70.9048L112.158 72.7486ZM119.235 74.0625C121.853 74.0625 124.203 73.6012 126.26 72.649L125.421 70.8339C123.672 71.6431 121.618 72.0625 119.235 72.0625V74.0625ZM126.266 72.6463C128.338 71.6716 129.988 70.3276 131.18 68.6025L129.535 67.4657C128.568 68.8656 127.207 69.9932 125.415 70.8367L126.266 72.6463ZM131.185 68.5956C132.387 66.824 132.965 64.8022 132.934 62.5657L130.934 62.5934C130.96 64.4478 130.487 66.0624 129.53 67.4726L131.185 68.5956ZM132.934 62.5934C132.966 60.3337 132.317 58.2982 130.987 56.525L129.387 57.725C130.444 59.1336 130.96 60.7345 130.934 62.5657L132.934 62.5934ZM130.987 56.525C129.666 54.7628 127.815 53.4261 125.49 52.49L124.743 54.3453C126.792 55.1705 128.322 56.3054 129.387 57.725L130.987 56.525ZM125.494 52.4917C123.187 51.5509 120.496 51.0966 117.446 51.0966V53.0966C120.304 53.0966 122.727 53.5229 124.738 54.3435L125.494 52.4917ZM117.446 51.0966H108.966V53.0966H117.446V51.0966ZM109.966 52.0966V37.0966H107.966V52.0966H109.966ZM108.966 38.0966H117.446V36.0966H108.966V38.0966ZM117.446 38.0966C120.14 38.0966 122.553 37.6524 124.663 36.7352L123.865 34.9011C122.054 35.6885 119.922 36.0966 117.446 36.0966V38.0966ZM124.658 36.7373C126.789 35.8241 128.491 34.5252 129.719 32.8241L128.098 31.6531C127.111 33.0202 125.716 34.1077 123.87 34.899L124.658 36.7373ZM129.724 32.8171C130.962 31.072 131.559 29.0723 131.528 26.8552L129.528 26.8834C129.554 28.7004 129.072 30.2802 128.093 31.6602L129.724 32.8171ZM131.528 26.8838C131.559 24.7472 131.046 22.8281 129.959 21.1658L128.285 22.2603C129.13 23.5525 129.554 25.0709 129.528 26.8548L131.528 26.8838ZM129.971 21.1845C128.926 19.5073 127.457 18.2188 125.594 17.3184L124.724 19.1191C126.27 19.8664 127.442 20.9074 128.273 22.2416L129.971 21.1845ZM125.6 17.3213C123.763 16.4185 121.661 15.983 119.321 15.983V17.983C121.412 17.983 123.202 18.3713 124.718 19.1162L125.6 17.3213ZM119.321 15.983C116.871 15.983 114.617 16.4166 112.574 17.301L113.368 19.1365C115.132 18.3732 117.111 17.983 119.321 17.983V15.983ZM112.569 17.3032C110.549 18.1906 108.913 19.4604 107.691 21.1204L109.302 22.3057C110.297 20.9544 111.643 19.8946 113.374 19.1343L112.569 17.3032ZM107.691 21.1204C106.455 22.8007 105.812 24.7477 105.75 26.926L107.749 26.9831C107.801 25.1841 108.323 23.6368 109.302 22.3057L107.691 21.1204ZM106.75 25.9545H86.5934V27.9545H106.75V25.9545ZM87.5933 26.9655C87.6481 21.9575 89.0395 17.587 91.7517 13.8169L90.1282 12.649C87.1587 16.7767 85.6524 21.5539 85.5935 26.9436L87.5933 26.9655ZM91.7537 13.8142C94.4834 9.99266 98.204 6.98834 102.948 4.8093L102.114 2.99184C97.085 5.30143 93.0784 8.5187 90.1263 12.6517L91.7537 13.8142ZM102.946 4.81021C107.711 2.63433 113.163 1.53409 119.321 1.53409V-0.465912C112.922 -0.465912 107.18 0.67817 102.116 2.99092L102.946 4.81021ZM119.321 1.53409C125.454 1.53409 130.804 2.6072 135.393 4.72346L136.231 2.90722C131.332 0.648477 125.687 -0.465912 119.321 -0.465912V1.53409ZM135.393 4.72346C139.999 6.84683 143.545 9.72259 146.072 13.3373L147.711 12.1912C144.955 8.24899 141.114 5.15885 136.231 2.90722L135.393 4.72346ZM146.074 13.3402C148.593 16.9155 149.855 20.9601 149.855 25.5057H151.855C151.855 20.5627 150.474 16.1129 147.709 12.1882L146.074 13.3402ZM149.855 25.5115C149.882 30.1807 148.367 33.9615 145.339 36.9372L146.74 38.3639C150.189 34.976 151.885 30.6602 151.855 25.4999L149.855 25.5115ZM145.335 36.9403C142.297 39.9523 138.368 41.8298 133.494 42.5418L133.783 44.5207C139.023 43.7554 143.362 41.7124 146.743 38.3608L145.335 36.9403ZM132.639 43.5312V44.2131H134.639V43.5312H132.639ZM133.522 45.2062C140.138 45.9846 144.99 48.1087 148.216 51.4682L149.658 50.0829C146.01 46.2833 140.662 44.0324 133.756 43.2199L133.522 45.2062ZM148.219 51.4712C151.488 54.8474 153.121 59.0634 153.093 64.1936L155.093 64.2042C155.123 58.5957 153.318 53.8628 149.656 50.08L148.219 51.4712ZM153.093 64.1989C153.093 69.0432 151.67 73.3178 148.823 77.0593L150.415 78.2703C153.534 74.1709 155.093 69.4682 155.093 64.1989H153.093ZM148.822 77.0601C145.99 80.7908 142.022 83.7607 136.87 85.9489L137.652 87.7897C143.068 85.4893 147.338 82.3228 150.415 78.2694L148.822 77.0601ZM136.873 85.9479C131.761 88.1029 125.861 89.1932 119.15 89.1932V91.1932C126.076 91.1932 132.249 90.0676 137.65 87.7908L136.873 85.9479Z" fill="#E6E6E6"/>
</svg>
