<svg width="56" height="56" viewBox="0 0 56 56" fill="none" xmlns="http://www.w3.org/2000/svg">
<g clip-path="url(#clip0_346_3116)">
<path d="M28.0099 0.00585967C16.8064 0.00422668 6.68092 6.68235 2.27126 16.9815L1.92226 17.0972L2.05757 17.5031C-3.74842 31.8229 3.15319 48.138 17.4729 53.944C20.8174 55.3001 24.3926 55.9962 28.0016 55.9942C43.4623 55.9965 55.9977 43.4649 56 28.0042C56.0023 12.5435 43.4707 0.00807588 28.0099 0.00585967ZM49.9682 42.1142L48.5307 40.6777V37.3314C48.5323 37.187 48.5004 37.0442 48.4374 36.9143L44.7981 29.6461V26.1337C44.7981 25.8218 44.6424 25.5305 44.3829 25.3574L41.5835 23.4911C41.3641 23.3446 41.0929 23.2978 40.837 23.3623L37.4086 24.2189L31.6502 21.748L30.858 16.1977L33.0536 14.0029H37.7669L39.3533 16.3871C39.4965 16.6015 39.7222 16.7472 39.9766 16.7893L45.5754 17.7224C45.7254 17.7476 45.8792 17.7354 46.0233 17.687L51.1799 15.9681C55.5048 24.2678 55.0422 34.2502 49.9682 42.1142ZM46.1195 9.20101L44.6022 10.2125L40.3722 9.36618L37.6279 8.45263C37.4599 8.3956 37.2791 8.38836 37.1072 8.4321L33.6378 9.29899L32.1168 8.7923L33.244 6.53783H36.3999C36.5446 6.53795 36.6874 6.50447 36.817 6.43985L40.0457 4.82552C42.2691 5.98611 44.3145 7.45954 46.1195 9.20101ZM17.781 3.95584L20.0205 5.44886C20.1306 5.52211 20.2549 5.5711 20.3854 5.59256L24.9073 6.34654L24.466 7.66693L22.1098 8.45357C21.8988 8.52378 21.7197 8.66702 21.605 8.85762L18.925 13.3236L14.6204 15.9065L8.27507 16.8126C7.81515 16.8776 7.47316 17.271 7.47257 17.7355V20.5349C7.47257 20.7824 7.57102 21.0197 7.74598 21.1946L9.33885 22.7875V24.3906L5.45699 21.8021L4.04889 17.5778C6.72793 11.4564 11.6382 6.58542 17.781 3.95584ZM15.1243 34.5507L10.9065 33.7062L9.33885 30.5792V28.3863L12.8157 24.9095L14.1025 27.484C14.2606 27.8003 14.584 28.0001 14.9377 28H20.9415L23.4694 32.2132C23.638 32.4939 23.9415 32.6656 24.2691 32.6657H26.8632L26.21 35.9382L22.6771 39.4711C22.5018 39.646 22.4031 39.8832 22.4028 40.1308V42.4637L19.0435 44.9832C18.8086 45.1594 18.6702 45.436 18.6702 45.7297V49.1002L17.5094 48.7157L15.8708 44.6174V35.4651C15.8709 35.0217 15.5588 34.6393 15.1243 34.5507ZM12.3193 48.8955C3.52108 42.2948 -0.199693 30.89 3.0131 20.3707L3.78854 22.6961C3.85386 22.8928 3.98287 23.0623 4.15527 23.1776L8.80696 26.2784L7.74598 27.3403C7.57102 27.5153 7.47257 27.7525 7.47257 28V30.7994C7.47246 30.9442 7.50593 31.087 7.57055 31.2166L9.43683 34.9491C9.56607 35.2069 9.80717 35.3905 10.09 35.4465L14.0092 36.2294V44.7965C14.0091 44.915 14.0316 45.0326 14.0755 45.1427L15.9417 49.8084C16.0439 50.0633 16.2532 50.2603 16.5138 50.3468L19.3132 51.28C19.4067 51.3117 19.5047 51.328 19.6034 51.3285C20.1187 51.3285 20.5365 50.9107 20.5365 50.3954V46.1962L23.8958 43.6768C24.1307 43.5005 24.2691 43.224 24.2691 42.9302V40.5172L27.7282 37.058C27.8583 36.9277 27.9469 36.7617 27.983 36.5812L28.9161 31.9155C29.0171 31.4101 28.6894 30.9185 28.1839 30.8175C28.1239 30.8055 28.0629 30.7994 28.0016 30.7994H24.7972L22.2694 26.5863C22.1007 26.3056 21.7972 26.1339 21.4697 26.1337H15.5144L13.9112 22.9172C13.777 22.6487 13.5218 22.4611 13.2254 22.4133C12.9291 22.3621 12.6267 22.4599 12.4163 22.6746L11.2051 23.8812V22.4012C11.2051 22.1537 11.1067 21.9164 10.9317 21.7415L9.33885 20.1486V18.5445L15.0702 17.7262C15.1932 17.7083 15.3116 17.6661 15.4183 17.6021L20.0839 14.8026C20.2148 14.724 20.3245 14.6144 20.4031 14.4835L23.0252 10.1136L25.4971 9.28873C25.7762 9.19716 25.9953 8.97822 26.0868 8.69898L27.02 5.89956C27.1816 5.41025 26.916 4.88244 26.4267 4.72078C26.3816 4.70585 26.3353 4.69442 26.2884 4.68648L20.8874 3.78601L19.9384 3.15334C25.8105 1.24204 32.1705 1.47859 37.8845 3.82053L36.1797 4.67155H32.6673C32.3119 4.66957 31.9864 4.86973 31.8275 5.18758L29.9612 8.92014C29.7313 9.38134 29.9188 9.94169 30.38 10.1716C30.4193 10.1912 30.4599 10.208 30.5015 10.2219L33.3009 11.155C33.4689 11.212 33.6497 11.2193 33.8216 11.1755L37.291 10.3086L39.8329 11.155C39.8693 11.1681 39.9067 11.1781 39.9449 11.1849L44.6106 12.118C44.8532 12.1675 45.1056 12.1178 45.3114 11.9799L47.4352 10.5634C48.4804 11.7276 49.4197 12.9827 50.2421 14.3137L45.651 15.844L40.6802 15.0154L39.0379 12.5519C38.8657 12.2938 38.5764 12.1382 38.2662 12.1367H32.6673C32.4198 12.1367 32.1826 12.2351 32.0076 12.4101L29.2082 15.2095C29.0003 15.4172 28.9025 15.7108 28.9441 16.0017L29.8772 22.5337C29.9242 22.8567 30.1365 23.1316 30.4371 23.2587L36.9691 26.0582C37.1562 26.1392 37.365 26.1559 37.5626 26.1058L40.8948 25.2725L42.9319 26.633V29.8663C42.9302 30.0107 42.9622 30.1535 43.0252 30.2834L46.6644 37.5516V41.064C46.6644 41.3115 46.7629 41.5487 46.9378 41.7237L48.8899 43.6768C40.2324 55.2165 23.8591 57.5531 12.3193 48.8955Z" fill="white"/>
</g>
<defs>
<clipPath id="clip0_346_3116">
<rect width="56" height="56" fill="white"/>
</clipPath>
</defs>
</svg>
