<svg width="301" height="624" viewBox="0 0 301 624" fill="none" xmlns="http://www.w3.org/2000/svg">
<path d="M119.472 1C153.73 30.009 201.692 103.312 119.472 164.452C16.6957 240.876 35.7163 316.662 149.217 347.144C262.717 377.626 135.558 444.528 57.8061 457.339C-19.9461 470.151 -76.2495 558.945 300 623" stroke="#F71729"/>
</svg>
