<svg width="56" height="56" viewBox="0 0 56 56" fill="none" xmlns="http://www.w3.org/2000/svg">
<path d="M44.2171 34.4977C43.1181 32.2064 39.1864 29.026 35.3878 25.953C33.2691 24.2403 31.2671 22.621 29.9908 21.3447C29.6711 21.0227 29.1928 20.92 28.7705 21.0717C27.9842 21.3564 27.4988 21.5757 27.1162 21.746C26.5329 22.0073 26.3369 22.096 25.5505 22.1753C25.2028 22.2103 24.8902 22.397 24.6965 22.6863C23.0468 25.1526 21.3388 24.9426 20.1978 24.56C19.8338 24.4387 19.7685 24.2823 19.7335 24.133C19.4885 23.1087 20.7182 20.724 22.3118 19.1303C26.1035 15.3363 28.0588 14.3866 32.1888 16.2323C36.8741 18.3276 41.5688 19.968 41.6155 19.9843C42.2292 20.1966 42.8895 19.8746 43.1018 19.2656C43.3118 18.6566 42.9921 17.9916 42.3831 17.7793C42.3364 17.763 37.7351 16.1553 33.1431 14.0996C27.7928 11.7079 24.8574 13.2829 20.6644 17.4783C19.0684 19.0743 16.9007 22.3036 17.4607 24.672C17.701 25.68 18.4104 26.4267 19.465 26.7743C22.1087 27.647 24.5213 26.8116 26.318 24.427C27.06 24.3127 27.4637 24.1447 28.0703 23.8717C28.2896 23.7737 28.5463 23.6594 28.887 23.5217C30.2217 24.7747 32.023 26.233 33.92 27.766C37.35 30.5403 41.2397 33.6857 42.1147 35.5057C42.5464 36.404 42.082 36.9897 41.767 37.258C41.305 37.6547 40.6727 37.7807 40.3297 37.5403C39.9517 37.2813 39.4594 37.265 39.0697 37.4983C38.6777 37.7316 38.4584 38.1726 38.5074 38.6253C38.5867 39.3673 37.9077 39.792 37.6137 39.939C36.867 40.317 36.0877 40.2517 35.796 39.981C35.4693 39.6777 35.0003 39.589 34.585 39.743C34.1697 39.8993 33.8803 40.282 33.8383 40.7253C33.7683 41.4906 33.2013 42.2256 32.4616 42.5126C32.1046 42.6479 31.5866 42.7296 31.1223 42.3049C30.833 42.0436 30.4316 41.9432 30.056 42.0342C29.6757 42.1275 29.37 42.4029 29.237 42.7692C29.1927 42.8859 29.0923 43.1659 28.0003 43.1659C27.2233 43.1659 25.8256 42.6409 25.142 42.1882C24.323 41.6492 19.1873 37.8179 14.7517 34.1032C14.1287 33.5782 13.0507 32.4535 12.0987 31.4595C11.254 30.5775 10.4817 29.7772 10.085 29.4412C9.58802 29.0212 8.85302 29.0842 8.44002 29.5789C8.02472 30.0712 8.08532 30.8086 8.57772 31.2239C8.93943 31.5296 9.63943 32.2692 10.4117 33.0742C11.4524 34.1615 12.528 35.2862 13.2514 35.8929C17.5961 39.5306 22.8181 43.4576 23.8587 44.1412C24.7174 44.7059 26.5677 45.4992 28.0004 45.4992C29.1507 45.4992 30.0351 45.2355 30.6487 44.7199C31.47 45.0396 32.4034 45.0419 33.3017 44.6919C34.3634 44.2812 35.236 43.4529 35.7307 42.4496C36.65 42.6456 37.7024 42.5079 38.659 42.0273C39.5947 41.556 40.2713 40.835 40.6073 39.9926C41.536 40.0416 42.4926 39.7126 43.2836 39.0336C44.6231 37.888 44.9917 36.1054 44.2171 34.4977Z" fill="white"/>
<path d="M23.3333 15.1665H12.8333C12.1893 15.1665 11.6666 15.6892 11.6666 16.3332C11.6666 16.9772 12.1893 17.4999 12.8333 17.4999H23.3333C23.9773 17.4999 24.5 16.9772 24.5 16.3332C24.5 15.6892 23.9773 15.1665 23.3333 15.1665Z" fill="white"/>
<path d="M47.6349 32.0153C47.2732 31.481 46.5499 31.334 46.0156 31.698L42.6044 33.9893C42.0701 34.3486 41.9276 35.0743 42.2871 35.6086C42.5134 35.9423 42.8821 36.1243 43.2578 36.1243C43.4795 36.1243 43.7058 36.0613 43.9065 35.926L47.3178 33.6347C47.8519 33.2753 47.9942 32.5497 47.6349 32.0153Z" fill="white"/>
<path d="M40.3929 37.5826C39.5576 36.9246 35.8219 33.1003 33.5119 30.6923C33.0662 30.2256 32.3266 30.2093 31.8622 30.6573C31.3955 31.103 31.3815 31.8426 31.8272 32.307C32.4269 32.9323 37.7165 38.446 38.9462 39.4167C39.1585 39.5847 39.4152 39.6664 39.6672 39.6664C40.0102 39.6664 40.3532 39.5124 40.5865 39.2207C40.9856 38.7166 40.8993 37.9816 40.3929 37.5826Z" fill="white"/>
<path d="M35.7297 39.9232C34.332 38.8055 30.8204 35.0745 30.027 34.2112C29.5883 33.7352 28.8533 33.7072 28.3773 34.1412C27.9036 34.5775 27.871 35.3172 28.3073 35.7909C28.3493 35.8352 32.54 40.3596 34.2713 41.7456C34.486 41.9159 34.745 41.9999 34.9993 41.9999C35.34 41.9999 35.6806 41.8482 35.9116 41.5636C36.3131 41.0595 36.2314 40.3245 35.7297 39.9232Z" fill="white"/>
<path d="M31.086 42.2731C29.4223 40.8708 26.018 37.2471 25.353 36.5353C24.912 36.0641 24.1723 36.0383 23.7033 36.4793C23.232 36.9203 23.2086 37.6576 23.6473 38.1291C24.604 39.1533 27.8613 42.6068 29.581 44.0581C29.8003 44.2423 30.0663 44.3333 30.3323 44.3333C30.6636 44.3333 30.995 44.1911 31.226 43.9181C31.6413 43.4233 31.5783 42.6883 31.086 42.2731Z" fill="white"/>
<path d="M13.636 13.1528C11.6363 11.2581 3.64 10.6444 1.2367 10.5021C0.905406 10.4858 0.599703 10.5954 0.366406 10.8171C0.133 11.0364 0 11.3444 0 11.6664V32.6664C0 33.3104 0.522703 33.8331 1.1667 33.8331H8.1667C8.6707 33.8331 9.1187 33.5088 9.275 33.0281C9.4453 32.5054 13.4657 20.1668 13.9953 14.1001C14.0257 13.7454 13.895 13.3954 13.636 13.1528ZM7.315 31.4998H2.3333V12.9171C6.083 13.2134 10.129 13.8574 11.599 14.5714C10.9807 19.6814 8.183 28.7604 7.315 31.4998Z" fill="white"/>
<path d="M54.8327 12.833C45.672 12.833 40.59 15.178 40.3777 15.276C40.0744 15.4183 39.848 15.682 39.7547 16.0017C39.6614 16.3214 39.708 16.6644 39.883 16.949C41.325 19.2707 45.84 32.1647 46.708 35.31C46.848 35.8163 47.3077 36.1663 47.8327 36.1663H54.8327C55.4767 36.1663 55.9994 35.6436 55.9994 34.9996V13.9996C55.9994 13.3533 55.4767 12.833 54.8327 12.833ZM53.6661 33.833H48.7054C47.5994 30.2303 44.3327 20.8363 42.5104 16.9537C44.2907 16.3494 48.1151 15.311 53.6661 15.1804V33.833Z" fill="white"/>
</svg>
