<svg width="30" height="30" viewBox="0 0 30 30" fill="none" xmlns="http://www.w3.org/2000/svg">
<g clip-path="url(#clip0_873_14434)">
<path d="M13.1426 17.8574L17.9997 15.0002L13.1426 12.1431V17.8574Z" fill="white"/>
<path d="M15 0C6.71429 0 0 6.71429 0 15C0 23.2857 6.71429 30 15 30C23.2857 30 30 23.2857 30 15C30 6.71429 23.2857 0 15 0ZM24.4286 15C24.4286 15 24.4286 18 24 19.5714C23.7143 20.4286 23.1429 21 22.2857 21.2857C20.8571 21.7143 15 21.7143 15 21.7143C15 21.7143 9.14286 21.7143 7.71429 21.2857C6.85714 21 6.28571 20.4286 6 19.5714C5.57143 18.1429 5.57143 15 5.57143 15C5.57143 15 5.57143 12 6 10.4286C6.28571 9.57143 6.85714 9 7.71429 8.71429C9.14286 8.28571 15 8.28572 15 8.28572C15 8.28572 20.8571 8.28571 22.2857 8.71429C23.1429 9 23.7143 9.57143 24 10.4286C24.4286 12 24.4286 15 24.4286 15Z" fill="white"/>
</g>
<defs>
<clipPath id="clip0_873_14434">
<rect width="30" height="30" fill="white"/>
</clipPath>
</defs>
</svg>
