<svg width="30" height="30" viewBox="0 0 30 30" fill="none" xmlns="http://www.w3.org/2000/svg">
<circle cx="15" cy="15" r="14.5" fill="#2A6BBC" stroke="#2A6BBC"/>
<g clip-path="url(#clip0_3056_14832)">
<path d="M17.7 9.46429H19V7.10714C18.8 7.10714 18 7 17.1 7C15.3 7 14 8.28571 14 10.5357V12.6786H12V15.3571H14V22H16.5V15.25H18.5L18.8 12.5714H16.5V10.75C16.5 10 16.7 9.46429 17.7 9.46429Z" fill="white"/>
</g>
<defs>
<clipPath id="clip0_3056_14832">
<rect width="7" height="15" fill="white" transform="translate(12 7)"/>
</clipPath>
</defs>
</svg>
