<svg width="57" height="57" viewBox="0 0 57 57" fill="none" xmlns="http://www.w3.org/2000/svg">
<g clip-path="url(#clip0_165_2623)">
<path d="M26.0223 10.1367H9.83454C8.6079 10.1367 7.43149 10.624 6.56412 11.4914C5.69676 12.3587 5.20947 13.5351 5.20947 14.7618V47.1373C5.20947 48.3639 5.69676 49.5403 6.56412 50.4077C7.43149 51.275 8.6079 51.7623 9.83454 51.7623H42.21C43.4367 51.7623 44.6131 51.275 45.4804 50.4077C46.3478 49.5403 46.8351 48.3639 46.8351 47.1373V30.9495" stroke="#90C156" stroke-width="3.20197" stroke-linecap="round" stroke-linejoin="round"/>
<path d="M28.3348 36.1084H12.325" stroke="#90C156" stroke-width="3.20197" stroke-linecap="round" stroke-linejoin="round"/>
<path d="M16.5942 27.5698H14.4596H12.325" stroke="#90C156" stroke-width="3.20197" stroke-linecap="round" stroke-linejoin="round"/>
<path d="M50.7485 4.08887L55.0178 8.35816L50.7485 12.6275" stroke="#90C156" stroke-width="3.20197" stroke-linecap="round" stroke-linejoin="round"/>
<path d="M35.8062 14.7619V12.6272C35.8062 11.4949 36.256 10.409 37.0566 9.60836C37.8572 8.80771 38.9432 8.35791 40.0754 8.35791H55.018" stroke="#90C156" stroke-width="3.20197" stroke-linecap="round" stroke-linejoin="round"/>
<path d="M40.0754 27.5698L35.8062 23.3005L40.0754 19.0312" stroke="#90C156" stroke-width="3.20197" stroke-linecap="round" stroke-linejoin="round"/>
<path d="M55.018 16.8965V19.0311C55.018 20.1634 54.5682 21.2493 53.7675 22.05C52.9669 22.8506 51.881 23.3004 50.7487 23.3004H35.8062" stroke="#90C156" stroke-width="3.20197" stroke-linecap="round" stroke-linejoin="round"/>
</g>
<defs>
<clipPath id="clip0_165_2623">
<rect width="55.5008" height="55.5008" fill="white" transform="translate(0.584473 0.886719)"/>
</clipPath>
</defs>
</svg>
