<svg width="20" height="21" viewBox="0 0 20 21" fill="none" xmlns="http://www.w3.org/2000/svg">
<mask id="mask0_2130_10674" style="mask-type:alpha" maskUnits="userSpaceOnUse" x="0" y="0" width="20" height="21">
<rect y="0.5" width="20" height="20" fill="#D9D9D9"/>
</mask>
<g mask="url(#mask0_2130_10674)">
<path d="M15.6276 7.16667V5.5H13.9609V4.66667H15.6276V3H16.4609V4.66667H18.1276V5.5H16.4609V7.16667H15.6276ZM2.8151 18C2.42622 18 2.10344 17.8717 1.84677 17.615C1.58955 17.3578 1.46094 17.0347 1.46094 16.6458V7.6875C1.46094 7.29861 1.58955 6.97583 1.84677 6.71917C2.10344 6.46194 2.42622 6.33333 2.8151 6.33333H5.27344L6.8151 4.66667H11.8776V5.5H7.16927L5.6276 7.16667H2.8151C2.66233 7.16667 2.53733 7.21528 2.4401 7.3125C2.34288 7.40972 2.29427 7.53472 2.29427 7.6875V16.6458C2.29427 16.7986 2.34288 16.9236 2.4401 17.0208C2.53733 17.1181 2.66233 17.1667 2.8151 17.1667H15.1068C15.2595 17.1667 15.3845 17.1181 15.4818 17.0208C15.579 16.9236 15.6276 16.7986 15.6276 16.6458V9.25H16.4609V16.6458C16.4609 17.0347 16.3326 17.3578 16.0759 17.615C15.8187 17.8717 15.4957 18 15.1068 18H2.8151ZM8.96094 15.2708C9.83594 15.2708 10.572 14.9722 11.1693 14.375C11.7665 13.7778 12.0651 13.0417 12.0651 12.1667C12.0651 11.2917 11.7665 10.5556 11.1693 9.95833C10.572 9.36111 9.83594 9.0625 8.96094 9.0625C8.08594 9.0625 7.34983 9.36111 6.7526 9.95833C6.15538 10.5556 5.85677 11.2917 5.85677 12.1667C5.85677 13.0417 6.15538 13.7778 6.7526 14.375C7.34983 14.9722 8.08594 15.2708 8.96094 15.2708ZM8.96094 14.4375C8.30816 14.4375 7.76649 14.2222 7.33594 13.7917C6.90538 13.3611 6.6901 12.8194 6.6901 12.1667C6.6901 11.5139 6.90538 10.9722 7.33594 10.5417C7.76649 10.1111 8.30816 9.89583 8.96094 9.89583C9.61371 9.89583 10.1554 10.1111 10.5859 10.5417C11.0165 10.9722 11.2318 11.5139 11.2318 12.1667C11.2318 12.8194 11.0165 13.3611 10.5859 13.7917C10.1554 14.2222 9.61371 14.4375 8.96094 14.4375Z" fill="#474647"/>
</g>
</svg>
