<svg width="45" height="45" viewBox="0 0 45 45" fill="none" xmlns="http://www.w3.org/2000/svg">
<path d="M22.0016 6.33984C20.4316 6.33984 17.4616 11.3998 17.1016 20.7198H26.8916C26.5416 11.3998 23.5716 6.33984 22.0016 6.33984Z" fill="#474647"/>
<path d="M17.1016 24.4414C17.4516 33.7614 20.4216 38.8214 22.0016 38.8214C23.5816 38.8214 26.5416 33.7614 26.9016 24.4414H17.1016Z" fill="#474647"/>
<path d="M30.6081 20.72H39.9981C39.2181 13.05 33.6481 6.8 26.3281 5C28.9181 8.25 30.3681 14.38 30.6081 20.72Z" fill="#474647"/>
<path d="M13.3878 20.72C13.6278 14.38 15.0778 8.25 17.6778 5C10.3578 6.8 4.78781 13.05 4.00781 20.72H13.3878Z" fill="#474647"/>
<path d="M30.6103 24.4414C30.3703 30.7814 28.9203 36.9114 26.3203 40.1614C33.6403 38.3614 39.2103 32.1114 39.9903 24.4414H30.6103Z" fill="#474647"/>
<path d="M13.39 24.4414H4C4.78 32.1114 10.35 38.3614 17.68 40.1614C15.08 36.9114 13.63 30.7814 13.39 24.4414Z" fill="#474647"/>
</svg>
