<svg width="60" height="60" viewBox="0 0 60 60" fill="none" xmlns="http://www.w3.org/2000/svg">
<path d="M38.5547 30.9297L32.0703 37.8047C31.9531 37.9609 31.7578 38 31.6016 38C31.4453 38 31.2891 37.9609 31.1719 37.8438C30.8984 37.6094 30.8984 37.2188 31.1328 36.9844L36.6016 31.125H21.875C21.5234 31.125 21.25 30.8516 21.25 30.5391C21.25 30.2266 21.5234 29.875 21.875 29.875H36.6016L31.1328 24.0547C30.8984 23.8203 30.8984 23.4297 31.1719 23.1953C31.4453 22.9609 31.8359 22.9609 32.0703 23.2344L38.5547 30.1094C38.7891 30.3438 38.7891 30.6953 38.5547 30.9297Z" fill="#232A7B"/>
<circle cx="30" cy="30" r="29.5" stroke="#232A7B"/>
</svg>
