<svg width="40" height="40" viewBox="0 0 40 40" fill="none" xmlns="http://www.w3.org/2000/svg">
<path d="M26.4883 20.0508L21.9492 24.8633C21.8672 24.9727 21.7305 25 21.6211 25C21.5117 25 21.4023 24.9727 21.3203 24.8906C21.1289 24.7266 21.1289 24.4531 21.293 24.2891L25.1211 20.1875H14.8125C14.5664 20.1875 14.375 19.9961 14.375 19.7773C14.375 19.5586 14.5664 19.3125 14.8125 19.3125H25.1211L21.293 15.2383C21.1289 15.0742 21.1289 14.8008 21.3203 14.6367C21.5117 14.4727 21.7852 14.4727 21.9492 14.6641L26.4883 19.4766C26.6523 19.6406 26.6523 19.8867 26.4883 20.0508Z" fill="white"/>
<circle cx="20" cy="20" r="19.5" stroke="white"/>
</svg>
