<svg width="15" height="16" viewBox="0 0 15 16" fill="none" xmlns="http://www.w3.org/2000/svg">
<path d="M2.5 2.84277H12.5C13.1875 2.84277 13.75 3.40527 13.75 4.09277V11.5928C13.75 12.2803 13.1875 12.8428 12.5 12.8428H2.5C1.8125 12.8428 1.25 12.2803 1.25 11.5928V4.09277C1.25 3.40527 1.8125 2.84277 2.5 2.84277Z" stroke="#232A7B" stroke-linecap="round" stroke-linejoin="round"/>
<path d="M13.75 4.09277L7.5 8.46777L1.25 4.09277" stroke="#232A7B" stroke-linecap="round" stroke-linejoin="round"/>
</svg>
