<svg width="16" height="19" viewBox="0 0 16 19" fill="none" xmlns="http://www.w3.org/2000/svg">
<path d="M5.75 1.375V2.5H10.25V1.375C10.25 0.777344 10.7422 0.25 11.375 0.25C11.9727 0.25 12.5 0.777344 12.5 1.375V2.5H14.1875C15.1016 2.5 15.875 3.27344 15.875 4.1875V5.875H0.125V4.1875C0.125 3.27344 0.863281 2.5 1.8125 2.5H3.5V1.375C3.5 0.777344 3.99219 0.25 4.625 0.25C5.22266 0.25 5.75 0.777344 5.75 1.375ZM0.125 7H15.875V16.5625C15.875 17.5117 15.1016 18.25 14.1875 18.25H1.8125C0.863281 18.25 0.125 17.5117 0.125 16.5625V7ZM2.9375 9.25C2.62109 9.25 2.375 9.53125 2.375 9.8125V13.1875C2.375 13.5039 2.62109 13.75 2.9375 13.75H6.3125C6.59375 13.75 6.875 13.5039 6.875 13.1875V9.8125C6.875 9.53125 6.59375 9.25 6.3125 9.25H2.9375Z" fill="#FF0000"/>
</svg>
