<svg width="17" height="15" viewBox="0 0 17 15" fill="none" xmlns="http://www.w3.org/2000/svg">
<path d="M8.57422 0.886719C8.73828 0.722656 8.98438 0.722656 9.14844 0.886719L16.5859 7.42188C16.7773 7.58594 16.7773 7.85938 16.6133 8.05078C16.4766 8.24219 16.2031 8.24219 16.0117 8.07812L15 7.17578V12.5625C15 13.793 14.0156 14.75 12.8125 14.75H4.9375C3.70703 14.75 2.75 13.793 2.75 12.5625V7.17578L1.71094 8.07812C1.51953 8.24219 1.24609 8.24219 1.10938 8.05078C0.945312 7.85938 0.945312 7.58594 1.13672 7.42188L8.57422 0.886719ZM3.625 6.41016V12.5625C3.625 13.3008 4.19922 13.875 4.9375 13.875H12.8125C13.5234 13.875 14.125 13.3008 14.125 12.5625V6.41016L8.875 1.78906L3.625 6.41016Z" fill="#232A7B"/>
</svg>
