<svg width="38" height="49" viewBox="0 0 38 49" fill="none" xmlns="http://www.w3.org/2000/svg">
<path d="M28 33.6562C29.2188 32.9062 29.5938 30.8438 30.625 29.7188C31.75 28.6875 33.8125 28.4062 34.5625 27.0938C35.3125 25.7812 34.5625 23.8125 34.9375 22.3125C35.3125 20.9062 36.9062 19.5938 36.9062 18C36.9062 16.5 35.2188 15.1875 34.8438 13.7812C34.4688 12.2812 35.2188 10.3125 34.4688 9C33.7188 7.6875 31.6562 7.40625 30.625 6.375C29.5 5.25 29.2188 3.1875 27.9062 2.4375C26.5938 1.6875 24.625 2.4375 23.125 2.0625C21.8125 1.6875 20.5 0 19 0C17.4062 0 16.0938 1.6875 14.6875 2.0625C13.1875 2.4375 11.2188 1.6875 9.90625 2.4375C8.6875 3.1875 8.3125 5.25 7.28125 6.375C6.15625 7.40625 4.09375 7.6875 3.34375 9C2.59375 10.3125 3.34375 12.2812 2.96875 13.7812C2.59375 15.1875 1 16.5 1 18C1 19.5938 2.59375 20.9062 2.96875 22.3125C3.34375 23.8125 2.59375 25.7812 3.34375 27.0938C4.09375 28.3125 6.15625 28.6875 7.28125 29.7188C8.3125 30.8438 8.59375 32.9062 9.90625 33.6562C11.2188 34.4062 13.1875 33.6562 14.6875 34.0312C16.0938 34.4062 17.4062 36 19 36C20.5 36 21.8125 34.4062 23.2188 34.0312C24.7188 33.6562 26.6875 34.4062 28 33.6562ZM11.5 18C11.5 13.875 14.7812 10.5 19 10.5C23.125 10.5 26.5 13.875 26.5 18C26.5 22.2188 23.125 25.5 19 25.5C14.7812 25.5 11.5 22.2188 11.5 18ZM1.09375 40.6875C0.8125 41.4375 0.90625 42.2812 1.46875 42.9375C2.03125 43.5938 2.875 43.875 3.625 43.6875L7.84375 42.8438L9.90625 46.7812C10.2812 47.5312 11.0312 48 11.875 48C11.9688 48 11.9688 48 11.9688 48C12.9062 48 13.6562 47.4375 13.9375 46.6875L17.125 39C12.0625 38.5312 7.5625 36.2812 4.1875 33L1.09375 40.6875ZM33.7188 33C30.3438 36.2812 25.8438 38.5312 20.7812 39L23.875 46.6875C24.25 47.4375 25 48 25.9375 48.0938C25.9375 48 25.9375 48 26.0312 48C26.875 48 27.625 47.625 28 46.7812L30.0625 42.8438L34.2812 43.6875C35.0312 43.875 35.875 43.5938 36.4375 42.9375C37 42.2812 37.0938 41.4375 36.8125 40.6875L33.7188 33Z" fill="#232A7B"/>
</svg>
