<svg width="32" height="37" viewBox="0 0 32 37" fill="none" xmlns="http://www.w3.org/2000/svg">
<path d="M6.75 9.5C6.75 4.57812 10.7578 0.5 15.75 0.5C20.6719 0.5 24.75 4.57812 24.75 9.5V10.625C24.75 15.6172 20.6719 19.625 15.75 19.625C10.7578 19.625 6.75 15.6172 6.75 10.625V9.5ZM22.3594 8.375H20.25C19.1953 8.375 18.2109 8.02344 17.4375 7.25L17.0156 6.82812C15.6797 8.51562 13.5703 9.5 11.3906 9.5H9V10.625C9 14.3516 11.9531 17.375 15.75 17.375C19.4766 17.375 22.5 14.3516 22.5 10.625V9.5C22.5 9.14844 22.4297 8.79688 22.3594 8.375ZM17.6484 4.22656L19.0547 5.63281C19.4062 5.98438 19.8281 6.125 20.25 6.125H21.5859C20.3906 4.15625 18.2109 2.75 15.75 2.75C12.7969 2.75 10.2656 4.64844 9.35156 7.25H11.3906C13.2891 7.25 14.9766 6.19531 15.8203 4.57812C15.8906 4.4375 15.9609 4.36719 16.0312 4.22656C16.4531 3.80469 17.2266 3.80469 17.6484 4.22656ZM0 34.3906C0 27.5 5.55469 21.875 12.4453 21.875H18.9844C25.875 21.875 31.5 27.5 31.5 34.3906C31.5 35.5859 30.5156 36.5 29.3203 36.5H2.10938C0.914062 36.5 0 35.5859 0 34.3906ZM12.375 26.5859C13.6406 27.0781 14.625 28.3438 14.625 29.75C14.625 31.6484 13.0781 33.125 11.25 33.125C9.35156 33.125 7.875 31.6484 7.875 29.75C7.875 28.3438 8.78906 27.0781 10.125 26.5859V24.4062C5.625 25.4609 2.25 29.4688 2.25 34.25H29.1797C29.1797 29.8906 26.3672 26.1641 22.5 24.7578V26.5859C23.7656 27.0781 24.75 28.3438 24.75 29.75V32C24.75 32.6328 24.1875 33.125 23.625 33.125C22.9922 33.125 22.5 32.6328 22.5 32V29.75C22.5 29.1875 21.9375 28.625 21.375 28.625C20.7422 28.625 20.25 29.1875 20.25 29.75V32C20.25 32.6328 19.6875 33.125 19.125 33.125C18.4922 33.125 18 32.6328 18 32V29.75C18 28.3438 18.9141 27.0781 20.25 26.5859V24.1953C19.8281 24.1953 19.4062 24.125 18.9844 24.125H12.4453H12.3047L12.375 26.5859ZM11.25 30.875C11.8125 30.875 12.375 30.3828 12.375 29.75C12.375 29.1875 11.8125 28.625 11.25 28.625C10.6172 28.625 10.125 29.1875 10.125 29.75C10.125 30.3828 10.6172 30.875 11.25 30.875Z" fill="#666666"/>
</svg>
