<svg width="29" height="37" viewBox="0 0 29 37" fill="none" xmlns="http://www.w3.org/2000/svg">
<path d="M21.25 25.7422C22.1641 25.1797 22.4453 23.6328 23.2188 22.7891C24.0625 22.0156 25.6094 21.8047 26.1719 20.8203C26.7344 19.8359 26.1719 18.3594 26.4531 17.2344C26.7344 16.1797 27.9297 15.1953 27.9297 14C27.9297 12.875 26.6641 11.8906 26.3828 10.8359C26.1016 9.71094 26.6641 8.23438 26.1016 7.25C25.5391 6.26562 23.9922 6.05469 23.2188 5.28125C22.375 4.4375 22.1641 2.89062 21.1797 2.32812C20.1953 1.76562 18.7188 2.32812 17.5938 2.04688C16.6094 1.76562 15.625 0.5 14.5 0.5C13.3047 0.5 12.3203 1.76562 11.2656 2.04688C10.1406 2.32812 8.66406 1.76562 7.67969 2.32812C6.76562 2.89062 6.48438 4.4375 5.71094 5.28125C4.86719 6.05469 3.32031 6.26562 2.75781 7.25C2.19531 8.23438 2.75781 9.71094 2.47656 10.8359C2.19531 11.8906 1 12.875 1 14C1 15.1953 2.19531 16.1797 2.47656 17.2344C2.75781 18.3594 2.19531 19.8359 2.75781 20.8203C3.32031 21.7344 4.86719 22.0156 5.71094 22.7891C6.48438 23.6328 6.69531 25.1797 7.67969 25.7422C8.66406 26.3047 10.1406 25.7422 11.2656 26.0234C12.3203 26.3047 13.3047 27.5 14.5 27.5C15.625 27.5 16.6094 26.3047 17.6641 26.0234C18.7891 25.7422 20.2656 26.3047 21.25 25.7422ZM14.4297 25.25C13.8672 24.9688 12.9531 24.1953 11.7578 23.8438C10.5625 23.5625 9.4375 23.7734 8.80469 23.7031C8.45312 23.2109 8.03125 22.0859 7.1875 21.2422C6.34375 20.3984 5.21875 19.9766 4.72656 19.625C4.72656 18.9922 4.9375 17.8672 4.65625 16.6719C4.30469 15.4766 3.53125 14.6328 3.25 14.0703C3.53125 13.4375 4.30469 12.5938 4.65625 11.3984C4.9375 10.2031 4.72656 9.07812 4.72656 8.44531C5.28906 8.09375 6.41406 7.67188 7.25781 6.82812C8.10156 5.98438 8.52344 4.85938 8.875 4.29688C9.50781 4.29688 10.6328 4.50781 11.8281 4.22656C13.0234 3.875 13.8672 3.10156 14.4297 2.82031C15.0625 3.10156 15.9062 3.875 17.1016 4.22656C18.2969 4.50781 19.4219 4.29688 20.0547 4.29688C20.4062 4.85938 20.8281 5.98438 21.6719 6.82812C22.5156 7.67188 23.6406 8.09375 24.2031 8.44531C24.2031 9.07812 23.9922 10.2031 24.2734 11.3984C24.625 12.5938 25.3984 13.4375 25.6797 14.0703C25.3984 14.6328 24.625 15.4766 24.2734 16.6719C23.9922 17.7969 24.2031 18.9219 24.2031 19.625C23.6406 19.9766 22.5156 20.3984 21.6719 21.2422C20.8281 22.0859 20.4062 23.2109 20.0547 23.7734C19.4219 23.7734 18.2969 23.5625 17.1016 23.8438C15.9062 24.1953 15.0625 24.9688 14.4297 25.25ZM20.6172 14C20.6172 10.625 17.8047 7.8125 14.5 7.8125C11.125 7.8125 8.3125 10.625 8.3125 14C8.3125 17.4453 11.0547 20.1875 14.4297 20.1875C17.7344 20.1875 20.6172 17.4453 20.6172 14ZM14.5 17.9375C12.3203 17.9375 10.5625 16.1797 10.5625 14C10.5625 11.8906 12.3203 10.0625 14.4297 10.0625C16.5391 10.0625 18.3672 11.8906 18.3672 14C18.3672 16.1797 16.6094 17.9375 14.5 17.9375ZM26.1016 26.5859C25.8906 25.9531 25.1875 25.6719 24.625 25.9531C24.0625 26.1641 23.7812 26.7969 23.9922 27.3594L25.6797 31.7188L22.375 31.2266L20.6172 34.1797L18.8594 29.8906C18.6484 29.3281 18.0156 29.0469 17.3828 29.2578C16.8203 29.5391 16.5391 30.1719 16.8203 30.7344L18.5781 35.0234C18.9297 35.9375 19.7031 36.5 20.7578 36.5C21.6719 36.5 22.4453 36.0078 22.8672 35.2344L23.5703 33.7578L25.1172 34.1094C25.9609 34.25 26.875 33.9688 27.4375 33.2656C28 32.6328 28.1406 31.6484 27.7891 30.875L26.1016 26.5859ZM11.5469 29.2578C10.9141 29.0469 10.2812 29.3281 10.0703 29.8906L8.3125 34.1797L6.55469 31.2266L3.25 31.7188L4.9375 27.3594C5.14844 26.7969 4.86719 26.1641 4.30469 25.9531C3.74219 25.6719 3.03906 25.9531 2.82812 26.5859L1.14062 30.875C0.789062 31.6484 0.929688 32.6328 1.49219 33.2656C2.05469 33.9688 2.96875 34.25 3.8125 34.1094L5.35938 33.7578L6.0625 35.2344C6.48438 36.0078 7.25781 36.5 8.24219 36.5C9.22656 36.5 10 35.9375 10.3516 35.0234L12.1094 30.7344C12.3906 30.1719 12.1094 29.5391 11.5469 29.2578Z" fill="#666666"/>
</svg>
