<svg width="36" height="35" viewBox="0 0 36 35" fill="none" xmlns="http://www.w3.org/2000/svg">
<path d="M31.5 7.25H27V3.875C27 2.04688 25.4531 0.5 23.625 0.5H12.375C10.4766 0.5 9 2.04688 9 3.875V7.25H4.5C1.96875 7.25 0 9.28906 0 11.75V29.75C0 32.2812 1.96875 34.25 4.5 34.25H31.5C33.9609 34.25 36 32.2812 36 29.75V11.75C36 9.28906 33.9609 7.25 31.5 7.25ZM11.25 3.875C11.25 3.3125 11.7422 2.75 12.375 2.75H23.625C24.1875 2.75 24.75 3.3125 24.75 3.875V7.25H11.25V3.875ZM33.75 29.75C33.75 31.0156 32.6953 32 31.5 32H4.5C3.23438 32 2.25 31.0156 2.25 29.75V11.75C2.25 10.5547 3.23438 9.5 4.5 9.5H31.5C32.6953 9.5 33.75 10.5547 33.75 11.75V29.75ZM23.625 18.5H20.25V15.125C20.25 14.5625 19.6875 14 19.125 14H16.875C16.2422 14 15.75 14.5625 15.75 15.125V18.5H12.375C11.7422 18.5 11.25 19.0625 11.25 19.625V21.875C11.25 22.5078 11.7422 23 12.375 23H15.75V26.375C15.75 27.0078 16.2422 27.5 16.875 27.5H19.125C19.6875 27.5 20.25 27.0078 20.25 26.375V23H23.625C24.1875 23 24.75 22.5078 24.75 21.875V19.625C24.75 19.0625 24.1875 18.5 23.625 18.5Z" fill="#666666"/>
</svg>
