<svg width="90" height="70" viewBox="0 0 90 70" fill="none" xmlns="http://www.w3.org/2000/svg">
<mask id="path-1-inside-1_2082_100390" fill="white">
<path d="M38.9811 28.4375H21.7734V19.8923H38.9811V28.4375"/>
</mask>
<path d="M38.9811 28.4375H21.7734V19.8923H38.9811V28.4375" fill="#FC955C"/>
<path d="M21.7734 28.4375V28.491H21.7199V28.4375H21.7734ZM21.7734 19.8923H21.7199V19.8387H21.7734V19.8923ZM38.9811 19.8923V19.8387H39.0346V19.8923H38.9811ZM38.9811 28.491H21.7734V28.384H38.9811V28.491ZM21.7199 28.4375V19.8923H21.827V28.4375H21.7199ZM21.7734 19.8387H38.9811V19.9458H21.7734V19.8387ZM39.0346 19.8923V28.4375H38.9275V19.8923H39.0346Z" fill="#2580FF" mask="url(#path-1-inside-1_2082_100390)"/>
<path d="M22.4609 34.7188H38.31" stroke="#2580FF" stroke-width="1.60638" stroke-miterlimit="10" stroke-linecap="round" stroke-linejoin="round"/>
<path d="M22.4609 40.3359H38.31" stroke="#2580FF" stroke-width="1.60638" stroke-miterlimit="10" stroke-linecap="round" stroke-linejoin="round"/>
<path d="M74.9412 58.8984H14.0594C11.8172 58.8984 10 57.0775 10 54.8343V51.9789H79V54.8343C79 57.0775 77.1828 58.8984 74.9412 58.8984V58.8984Z" fill="#E7EEF6" stroke="#2580FF" stroke-width="1.60638" stroke-miterlimit="10" stroke-linecap="round" stroke-linejoin="round"/>
<path d="M72.2286 10.9974H16.7796C15.5208 10.9974 14.5 12.0161 14.5 13.2775V51.9766H74.5088V13.2775C74.5088 12.0161 73.488 10.9974 72.2286 10.9974V10.9974Z" stroke="#2580FF" stroke-width="1.60638" stroke-miterlimit="10" stroke-linecap="round" stroke-linejoin="round"/>
<path d="M56.6219 29.7623C57.8249 29.7623 58.8035 28.7049 58.8035 27.3981C58.8035 26.0913 57.8249 25.0339 56.6219 25.0339C55.4194 25.0339 54.4408 26.0913 54.4408 27.3981C54.4408 28.7049 55.4194 29.7623 56.6219 29.7623Z" fill="#FC955C" stroke="#2580FF" stroke-width="0.0535459"/>
<path d="M63.3275 34H49.8984V20.5725H63.3275V34Z" stroke="#2580FF" stroke-width="1.60638" stroke-miterlimit="10" stroke-linecap="round"/>
</svg>
