<svg width="1041" height="449" viewBox="0 0 1041 449" fill="none" xmlns="http://www.w3.org/2000/svg">
<path d="M154.531 93.6163C154.531 93.6163 161.032 86.2074 165.366 90.9238C165.366 90.9238 167.965 81.1584 173.164 83.5148C178.364 85.8713 179.233 88.5674 179.233 88.5674C179.233 88.5674 172.732 66.008 187.031 71.0569C201.331 76.1059 195.699 87.2193 195.699 87.2193C195.699 87.2193 200.465 75.7698 205.664 80.8223C210.864 85.8748 206.966 87.2193 206.966 87.2193C206.966 87.2193 220.4 83.1787 219.967 87.5554L215.634 90.9238L154.531 93.6163Z" fill="#E7EEF6"/>
<path d="M531.391 102.475C531.391 102.475 537.766 95.2093 542.018 99.8327C542.018 99.8327 544.567 90.2533 549.67 92.5668C554.772 94.8803 555.62 97.5228 555.62 97.5228C555.62 97.5228 549.244 75.3925 563.272 80.3485C577.3 85.3044 571.775 96.2033 571.775 96.2033C571.775 96.2033 576.452 84.9719 581.551 89.9279C586.654 94.8839 582.828 96.2033 582.828 96.2033C582.828 96.2033 596.004 92.2414 595.579 96.5323L591.327 99.8363L531.391 102.475Z" fill="#E7EEF6"/>
<path d="M402.844 21.0447C402.844 21.0447 406.849 16.482 409.516 19.3855C409.516 19.3855 411.118 13.3711 414.322 14.8229C417.526 16.2746 418.059 17.9338 418.059 17.9338C418.059 17.9338 414.054 4.03841 422.864 7.14932C431.671 10.2602 428.203 17.1042 428.203 17.1042C428.203 17.1042 431.139 10.0528 434.343 13.1637C437.546 16.2746 435.143 17.1042 435.143 17.1042C435.143 17.1042 443.418 14.6155 443.15 17.3116L440.482 19.3855L402.844 21.0447Z" fill="#E7EEF6"/>
<path d="M980.953 15.3888C980.953 15.3888 985.016 10.7565 987.722 13.7043C987.722 13.7043 989.347 7.59807 992.598 9.07199C995.848 10.5459 996.388 12.2304 996.388 12.2304C996.388 12.2304 992.325 -1.87716 1001.26 1.28125C1010.19 4.43966 1006.68 11.3882 1006.68 11.3882C1006.68 11.3882 1009.65 4.2291 1012.9 7.38751C1016.15 10.5459 1013.72 11.3882 1013.72 11.3882C1013.72 11.3882 1022.11 8.86143 1021.84 11.5987L1019.13 13.7043L980.953 15.3888Z" fill="#E7EEF6"/>
<path d="M743.062 53.6025C743.062 53.6025 748.306 47.5695 751.801 51.41C751.801 51.41 753.898 43.4582 758.091 45.377C762.284 47.2958 762.985 49.4912 762.985 49.4912C762.985 49.4912 757.742 31.1213 769.275 35.2326C780.808 39.344 776.266 48.3935 776.266 48.3935C776.266 48.3935 780.11 39.0703 784.304 43.1845C788.497 47.2987 785.353 48.3935 785.353 48.3935C785.353 48.3935 796.188 45.1033 795.839 48.6672L792.344 51.41L743.062 53.6025Z" fill="#E7EEF6"/>
<path d="M266.616 162.56H264.828C264.828 161.602 264.839 160.633 264.864 159.678L266.652 159.721C266.627 160.662 266.616 161.616 266.616 162.56ZM266.752 156.886L264.968 156.8C265.014 155.845 265.071 154.876 265.143 153.925L266.927 154.054C266.856 154.99 266.798 155.942 266.752 156.886ZM267.163 151.225L265.382 151.053C265.475 150.102 265.583 149.137 265.697 148.189L267.471 148.407C267.36 149.337 267.256 150.285 267.163 151.225ZM267.853 145.59L266.083 145.329C266.223 144.381 266.376 143.426 266.537 142.482L268.3 142.786C268.139 143.716 267.989 144.66 267.853 145.59ZM268.815 139.997L267.063 139.65C267.249 138.71 267.449 137.762 267.657 136.829L269.401 137.219C269.198 138.138 269.001 139.071 268.815 139.997ZM270.056 134.458L268.322 134.026C268.554 133.096 268.801 132.159 269.055 131.24L270.778 131.716C270.528 132.62 270.285 133.543 270.056 134.458ZM271.568 128.988L269.859 128.469C270.138 127.55 270.431 126.624 270.732 125.712L272.43 126.274C272.13 127.171 271.844 128.083 271.568 128.988ZM273.356 123.581L271.672 122.977C271.994 122.076 272.334 121.164 272.68 120.266L274.347 120.91C274.007 121.797 273.675 122.694 273.356 123.581ZM275.409 118.271L273.757 117.584C274.125 116.698 274.508 115.807 274.897 114.931L276.532 115.657C276.149 116.519 275.77 117.399 275.409 118.271ZM277.722 113.072L276.106 112.307C276.517 111.441 276.943 110.569 277.375 109.714L278.97 110.522C278.548 111.363 278.126 112.221 277.722 113.072ZM280.286 107.998L278.709 107.15C279.16 106.307 279.632 105.459 280.107 104.622L281.663 105.506C281.194 106.332 280.733 107.168 280.286 107.998ZM283.1 103.056L281.57 102.134C282.063 101.311 282.575 100.485 283.089 99.6807L284.598 100.639C284.091 101.433 283.586 102.245 283.1 103.056ZM286.15 98.2611L284.666 97.2635C285.199 96.4661 285.753 95.6687 286.304 94.8892L287.763 95.9226C287.219 96.6878 286.676 97.4745 286.15 98.2611ZM476.795 96.3588C476.255 95.5865 475.697 94.8141 475.139 94.0561L476.577 92.9941C477.145 93.7628 477.71 94.5531 478.257 95.3326L476.795 96.3588ZM289.433 93.6234L287.999 92.5542C288.571 91.789 289.158 91.0167 289.751 90.2622L291.16 91.3635C290.574 92.1073 289.994 92.8689 289.433 93.6234ZM473.427 91.7926C472.851 91.0488 472.254 90.3015 471.66 89.5721L473.044 88.4421C473.648 89.1823 474.252 89.9404 474.839 90.6948L473.427 91.7926ZM292.934 89.1501L291.553 88.013C292.161 87.2764 292.787 86.5363 293.413 85.8104L294.764 86.9796C294.149 87.6948 293.534 88.4242 292.934 89.1501ZM469.84 87.3944C469.225 86.6757 468.596 85.9606 467.966 85.2633L469.293 84.0654C469.929 84.7734 470.569 85.5029 471.195 86.2287L469.84 87.3944ZM296.652 84.8592L295.329 83.6578C295.973 82.9498 296.634 82.2418 297.296 81.5481L298.59 82.7817C297.936 83.4647 297.285 84.162 296.652 84.8592ZM466.043 83.1786C465.395 82.4957 464.73 81.8091 464.065 81.1405L465.335 79.8818C466.01 80.5612 466.686 81.2584 467.341 81.9521L466.043 83.1786ZM300.571 80.7543L299.309 79.4885C299.985 78.8126 300.682 78.1368 301.376 77.4789L302.606 78.7769C301.923 79.4241 301.24 80.0892 300.571 80.7543ZM462.041 79.1523C461.362 78.498 460.661 77.8472 459.967 77.2143L461.172 75.8948C461.877 76.5385 462.585 77.2 463.279 77.8651L462.041 79.1523ZM304.687 76.8496L303.489 75.5229C304.197 74.8829 304.923 74.2428 305.649 73.6171L306.815 74.9723C306.099 75.5873 305.384 76.2202 304.687 76.8496ZM457.847 75.3263C457.135 74.7077 456.406 74.0891 455.68 73.4919L456.821 72.1153C457.557 72.7231 458.298 73.3525 459.02 73.9782L457.847 75.3263ZM308.985 73.1487L307.852 71.7648C308.592 71.1605 309.35 70.5527 310.101 69.9662L311.198 71.3751C310.458 71.9543 309.714 72.5515 308.985 73.1487ZM453.47 71.7076C452.734 71.1284 451.976 70.5455 451.218 69.9805L452.287 68.5502C453.055 69.1259 453.824 69.7159 454.575 70.3059L453.47 71.7076ZM313.458 69.6623L312.393 68.2248C313.158 67.6563 313.945 67.0913 314.728 66.5407L315.757 68.0031C314.985 68.5467 314.213 69.1045 313.458 69.6623ZM448.922 68.3071C448.153 67.76 447.366 67.2165 446.587 66.6908L447.585 65.2069C448.378 65.7397 449.176 66.2939 449.955 66.8482L448.922 68.3071ZM318.096 66.4048L317.102 64.9173C317.896 64.3881 318.707 63.8589 319.516 63.3511L320.47 64.8636C319.677 65.3607 318.879 65.8827 318.096 66.4048ZM444.213 65.1354C443.419 64.6276 442.607 64.1235 441.799 63.6372L442.725 62.1067C443.544 62.6038 444.37 63.1151 445.175 63.63L444.213 65.1354ZM322.884 63.3761L321.965 61.8421C322.784 61.3523 323.621 60.866 324.45 60.394L325.33 61.9494C324.514 62.4143 323.689 62.8934 322.884 63.3761ZM439.35 62.1961C438.534 61.7313 437.698 61.2664 436.864 60.8159L437.712 59.2426C438.556 59.6967 439.403 60.1687 440.233 60.6443L439.35 62.1961ZM327.811 60.587L326.971 59.0101C327.811 58.5632 328.67 58.1162 329.524 57.6871L330.329 59.2855C329.485 59.7074 328.641 60.1472 327.811 60.587ZM434.347 59.5C433.507 59.0745 432.649 58.649 431.798 58.2449L432.566 56.6323C433.432 57.0435 434.301 57.4726 435.155 57.9052L434.347 59.5ZM332.871 58.0447L332.109 56.4285C332.971 56.0208 333.851 55.6203 334.723 55.2341L335.446 56.8683C334.584 57.2509 333.718 57.6442 332.871 58.0447ZM429.22 57.0506C428.358 56.6644 427.482 56.2854 426.609 55.9243L427.299 54.2759C428.183 54.6442 429.073 55.0303 429.949 55.4201L429.22 57.0506ZM338.042 55.7562L337.359 54.1042C338.242 53.7395 339.143 53.3783 340.037 53.0351L340.677 54.7049C339.801 55.0446 338.914 55.3986 338.042 55.7562ZM423.974 54.8623C423.098 54.5226 422.2 54.1865 421.31 53.8646L421.918 52.184C422.823 52.5094 423.731 52.8491 424.621 53.196L423.974 54.8623ZM343.341 53.7216L342.74 52.0374C343.638 51.7156 344.557 51.4045 345.468 51.1042L346.026 52.8026C345.129 53.0959 344.224 53.4034 343.341 53.7216ZM418.625 52.9314C417.731 52.6346 416.819 52.3449 415.914 52.066L416.436 50.3568C417.355 50.6357 418.281 50.9325 419.186 51.2365L418.625 52.9314ZM348.733 51.948L348.218 50.2353C349.137 49.9599 350.067 49.6917 350.989 49.4379L351.461 51.1614C350.553 51.4117 349.634 51.6763 348.733 51.948ZM413.186 51.2722C412.278 51.0183 411.355 50.7752 410.436 50.5428L410.872 48.8085C411.806 49.0445 412.743 49.2913 413.665 49.5487L413.186 51.2722ZM354.204 50.4462L353.775 48.712C354.705 48.4831 355.649 48.2579 356.582 48.054L356.968 49.799C356.049 49.9993 355.119 50.2174 354.204 50.4462ZM407.669 49.8813C406.742 49.6739 405.806 49.4736 404.887 49.2877L405.237 47.5356C406.174 47.7215 407.121 47.9253 408.062 48.1363L407.669 49.8813ZM359.743 49.2126L359.4 47.4569C360.336 47.271 361.291 47.0993 362.235 46.9348L362.535 48.6977C361.606 48.8622 360.669 49.0338 359.743 49.2126ZM402.09 48.7656C401.153 48.6011 400.209 48.451 399.28 48.3115L399.544 46.5415C400.488 46.681 401.447 46.8383 402.398 47.0028L402.09 48.7656ZM365.339 48.2579L365.081 46.4879C366.025 46.352 366.987 46.2233 367.938 46.1088L368.153 47.8824C367.216 47.9968 366.269 48.122 365.339 48.2579ZM396.466 47.9289C395.532 47.8145 394.581 47.7072 393.644 47.6142L393.82 45.8335C394.771 45.9265 395.736 46.0337 396.684 46.1517L396.466 47.9289ZM370.974 47.5785L370.803 45.7978C371.75 45.7084 372.719 45.6261 373.674 45.5582L373.803 47.3425C372.859 47.4104 371.907 47.4891 370.974 47.5785ZM390.816 47.3711C389.876 47.2996 388.924 47.2424 387.984 47.1959L388.073 45.4116C389.028 45.4581 389.997 45.5188 390.948 45.5904L390.816 47.3711ZM376.635 47.1744L376.552 45.3901C377.504 45.3472 378.473 45.3114 379.434 45.29L379.474 47.0779C378.526 47.0993 377.571 47.1315 376.635 47.1744ZM385.148 47.085C384.204 47.06 383.25 47.0493 382.309 47.0457L382.313 45.2578C383.268 45.2578 384.237 45.2721 385.195 45.2971L385.148 47.085Z" fill="#EE9967"/>
<path d="M486.238 93.3594L483.817 106.997L471.359 100.593L486.238 93.3594Z" stroke="#EE9967" stroke-width="5" stroke-miterlimit="10"/>
<path d="M634.545 427.178C634.151 427.138 633.756 427.094 633.362 427.05L633.561 425.273C634.499 425.38 635.446 425.473 636.386 425.554L636.229 427.335C635.666 427.289 635.104 427.235 634.545 427.178ZM630.501 426.693C629.547 426.563 628.588 426.419 627.651 426.269L627.935 424.504C628.858 424.653 629.803 424.796 630.743 424.924L630.501 426.693ZM639.096 427.56L639.214 425.775C640.153 425.835 641.104 425.889 642.049 425.927L641.974 427.713C641.015 427.673 640.046 427.621 639.096 427.56ZM624.811 425.774C623.863 425.598 622.912 425.408 621.987 425.209L622.359 423.461C623.274 423.655 624.211 423.84 625.142 424.014L624.811 425.774ZM644.851 427.802L644.886 426.016C645.83 426.033 646.785 426.041 647.727 426.036L647.735 427.824C646.779 427.827 645.809 427.821 644.851 427.802ZM619.172 424.58C618.238 424.359 617.299 424.123 616.375 423.878L616.832 422.149C617.738 422.389 618.667 422.62 619.583 422.839L619.172 424.58ZM650.612 427.779L650.561 425.991C651.505 425.966 652.458 425.926 653.397 425.878L653.488 427.663C652.538 427.714 651.571 427.752 650.612 427.779ZM656.368 427.483L656.233 425.701C657.175 425.632 658.125 425.549 659.055 425.457L659.229 427.236C658.288 427.33 657.324 427.412 656.368 427.483ZM613.6 423.109C612.668 422.838 611.737 422.556 610.832 422.269L611.372 420.567C612.263 420.852 613.176 421.129 614.095 421.395L613.6 423.109ZM662.086 426.92L661.869 425.144C662.793 425.03 663.737 424.903 664.675 424.765L664.936 426.535C663.984 426.675 663.026 426.804 662.086 426.92ZM608.089 421.357C607.186 421.045 606.271 420.715 605.37 420.382L605.994 418.706C606.881 419.037 607.782 419.359 608.674 419.67L608.089 421.357ZM667.772 426.084L667.47 424.321C668.403 424.161 669.341 423.987 670.254 423.811L670.596 425.564C669.671 425.75 668.719 425.922 667.772 426.084ZM602.673 419.337C601.786 418.981 600.889 418.609 600.005 418.227L600.711 416.585C601.579 416.958 602.465 417.329 603.339 417.68L602.673 419.337ZM673.412 424.982L673.026 423.235C673.949 423.031 674.877 422.813 675.784 422.589L676.211 424.326C675.293 424.552 674.35 424.772 673.412 424.982ZM597.368 417.053C596.492 416.65 595.615 416.23 594.759 415.812L595.548 414.207C596.39 414.62 597.254 415.032 598.116 415.429L597.368 417.053ZM678.998 423.604L678.528 421.877C679.437 421.629 680.352 421.366 681.253 421.099L681.764 422.812C680.852 423.089 679.919 423.353 678.998 423.604ZM592.186 414.507C591.343 414.065 590.488 413.608 589.644 413.14L590.512 411.576C591.342 412.034 592.187 412.491 593.016 412.924L592.186 414.507ZM684.511 421.96L683.958 420.261C684.858 419.968 685.763 419.661 686.643 419.352L687.236 421.038C686.342 421.349 685.422 421.661 684.511 421.96ZM587.134 411.709C586.307 411.222 585.474 410.72 584.662 410.216L585.605 408.699C586.402 409.194 587.221 409.691 588.039 410.169L587.134 411.709ZM689.936 420.044L689.302 418.373C690.181 418.039 691.065 417.69 691.938 417.334L692.614 418.988C691.729 419.35 690.826 419.708 689.936 420.044ZM582.229 408.667C581.424 408.139 580.617 407.596 579.834 407.057L580.851 405.586C581.62 406.117 582.413 406.651 583.209 407.171L582.229 408.667ZM695.266 417.868L694.549 416.231C695.407 415.855 696.277 415.462 697.13 415.064L697.889 416.683C697.021 417.087 696.139 417.486 695.266 417.868ZM577.482 405.386C576.702 404.817 575.924 404.238 575.171 403.658L576.258 402.238C577.001 402.81 577.766 403.38 578.532 403.937L577.482 405.386ZM700.482 415.431L699.686 413.83C700.534 413.409 701.38 412.971 702.209 412.534L703.046 414.115C702.203 414.557 701.342 415.001 700.482 415.431ZM572.905 401.874C572.155 401.269 571.409 400.65 570.681 400.037L571.837 398.674C572.552 399.279 573.288 399.89 574.025 400.482L572.905 401.874ZM705.57 412.734L704.695 411.174C705.514 410.715 706.34 410.235 707.151 409.754L708.065 411.292C707.242 411.783 706.402 412.269 705.57 412.734ZM568.505 398.147C567.794 397.514 567.077 396.858 566.375 396.2L567.597 394.895C568.286 395.54 568.993 396.184 569.695 396.809L568.505 398.147ZM710.522 409.789L709.57 408.275C710.368 407.775 711.169 407.253 711.952 406.736L712.943 408.224C712.145 408.75 711.333 409.279 710.522 409.789ZM564.293 394.205C563.613 393.536 562.929 392.847 562.262 392.158L563.547 390.912C564.204 391.59 564.879 392.267 565.548 392.928L564.293 394.205ZM715.319 406.598L714.293 405.135C715.064 404.595 715.836 404.034 716.594 403.475L717.659 404.914C716.886 405.478 716.101 406.049 715.319 406.598ZM560.284 390.065C559.63 389.358 558.981 388.638 558.356 387.924L559.699 386.745C560.317 387.448 560.956 388.16 561.597 388.855L560.284 390.065ZM719.95 403.167L718.851 401.758C719.597 401.176 720.341 400.576 721.066 399.982L722.201 401.363C721.464 401.967 720.708 402.573 719.95 403.167ZM556.477 385.737C555.865 385.006 555.252 384.253 554.656 383.502L556.056 382.391C556.642 383.13 557.246 383.871 557.852 384.59L556.477 385.737ZM724.401 399.503L723.23 398.15C723.94 397.533 724.655 396.901 725.349 396.264L726.555 397.584C725.85 398.231 725.126 398.876 724.401 399.503ZM552.89 381.226C552.311 380.459 551.736 379.678 551.179 378.906L552.63 377.864C553.177 378.625 553.742 379.394 554.312 380.149L552.89 381.226ZM728.662 395.614L727.424 394.326C728.105 393.67 728.785 392.999 729.446 392.333L730.716 393.591C730.046 394.267 729.355 394.951 728.662 395.614ZM549.526 376.545C548.985 375.752 548.449 374.943 547.93 374.146L549.431 373.174C549.941 373.959 550.467 374.757 551.002 375.538L549.526 376.545ZM732.721 391.514L731.419 390.288C732.064 389.603 732.708 388.899 733.337 388.194L734.671 389.384C734.03 390.102 733.375 390.818 732.721 391.514ZM546.397 371.707C545.898 370.89 545.4 370.06 544.92 369.234L546.467 368.339C546.938 369.153 547.429 369.972 547.919 370.777L546.397 371.707ZM736.561 387.204L735.195 386.048C735.804 385.33 736.411 384.59 737.004 383.856L738.399 384.977C737.798 385.724 737.179 386.473 736.561 387.204ZM543.509 366.725C543.049 365.88 542.593 365.025 542.158 364.183L543.748 363.364C544.177 364.195 544.623 365.038 545.077 365.868L543.509 366.725ZM540.868 361.607C540.453 360.748 540.039 359.869 539.643 358.998L541.271 358.258C541.661 359.118 542.07 359.979 542.479 360.826L540.868 361.607Z" fill="#EE9967"/>
<path d="M745.055 389.996L728.096 379.232L743.731 373.039L745.055 389.996ZM737.487 383.077L742.996 386.573L742.14 375.594L732.019 379.604L737.487 383.077Z" fill="#EE9967"/>
<path d="M101.374 438.166C100.98 438.125 100.585 438.082 100.19 438.038L100.389 436.261C101.327 436.367 102.273 436.46 103.214 436.541L103.058 438.323C102.495 438.276 101.933 438.222 101.374 438.166ZM97.3298 437.682C96.3761 437.552 95.4167 437.408 94.4795 437.258L94.7627 435.494C95.6858 435.642 96.6309 435.785 97.5704 435.913L97.3298 437.682ZM105.925 438.546L106.042 436.761C106.981 436.821 107.932 436.875 108.877 436.913L108.803 438.699C107.844 438.659 106.875 438.607 105.925 438.546ZM91.64 436.764C90.691 436.589 89.7399 436.398 88.8148 436.2L89.1862 434.451C90.101 434.645 91.0382 434.83 91.9694 435.004L91.64 436.764ZM111.68 438.788L111.714 437.001C112.658 437.018 113.613 437.026 114.555 437.021L114.564 438.808C113.608 438.811 112.638 438.806 111.68 438.788ZM85.9996 435.572C85.066 435.351 84.1267 435.115 83.2027 434.87L83.6585 433.141C84.565 433.38 85.494 433.611 86.4099 433.831L85.9996 435.572ZM117.44 438.763L117.388 436.975C118.333 436.949 119.285 436.91 120.225 436.861L120.317 438.646C119.366 438.697 118.399 438.735 117.44 438.763ZM123.196 438.465L123.061 436.683C124.002 436.614 124.952 436.531 125.882 436.439L126.057 438.218C125.117 438.312 124.152 438.394 123.196 438.465ZM80.4269 434.102C79.4948 433.831 78.5637 433.549 77.6583 433.263L78.1977 431.56C79.0889 431.845 80.0025 432.121 80.9207 432.387L80.4269 434.102ZM128.914 437.901L128.695 436.125C129.62 436.011 130.564 435.884 131.501 435.746L131.764 437.516C130.811 437.656 129.853 437.785 128.914 437.901ZM74.9151 432.351C74.0122 432.039 73.0969 431.709 72.1962 431.376L72.819 429.7C73.7055 430.031 74.6074 430.353 75.4996 430.663L74.9151 432.351ZM134.599 437.064L134.296 435.301C135.229 435.141 136.166 434.967 137.079 434.79L137.423 436.543C136.498 436.729 135.546 436.902 134.599 437.064ZM69.4987 430.333C68.6111 429.976 67.7144 429.604 66.8294 429.223L67.5351 427.581C68.4031 427.953 69.2892 428.324 70.1628 428.675L69.4987 430.333ZM140.238 435.96L139.851 434.213C140.774 434.009 141.702 433.791 142.609 433.567L143.036 435.303C142.119 435.53 141.176 435.75 140.238 435.96ZM64.1918 428.049C63.3161 427.647 62.4386 427.227 61.5825 426.809L62.3707 425.204C63.213 425.616 64.077 426.028 64.9388 426.425L64.1918 428.049ZM145.823 434.581L145.352 432.854C146.261 432.605 147.175 432.343 148.076 432.075L148.589 433.788C147.676 434.065 146.744 434.329 145.823 434.581ZM59.0085 425.504C58.1656 425.063 57.3098 424.605 56.4659 424.138L57.3327 422.573C58.1631 423.032 59.0082 423.488 59.8376 423.921L59.0085 425.504ZM151.335 432.935L150.781 431.236C151.681 430.943 152.585 430.636 153.465 430.327L154.059 432.012C153.165 432.324 152.246 432.636 151.335 432.935ZM53.955 422.707C53.1275 422.22 52.2942 421.719 51.4827 421.216L52.4238 419.698C53.2218 420.192 54.0412 420.689 54.8588 421.168L53.955 422.707ZM156.759 431.018L156.123 429.347C157.002 429.012 157.885 428.664 158.759 428.307L159.436 429.961C158.551 430.324 157.648 430.681 156.759 431.018ZM49.0485 419.666C48.243 419.139 47.4355 418.596 46.6528 418.057L47.6682 416.586C48.4374 417.117 49.2314 417.651 50.0269 418.17L49.0485 419.666ZM162.087 428.84L161.369 427.204C162.226 426.827 163.096 426.434 163.949 426.036L164.709 427.655C163.841 428.059 162.959 428.458 162.087 428.84ZM44.2992 416.386C43.5194 415.818 42.7407 415.239 41.9873 414.659L43.0731 413.239C43.8166 413.81 44.5817 414.381 45.3484 414.937L44.2992 416.386ZM167.301 426.403L166.504 424.801C167.352 424.381 168.198 423.942 169.026 423.505L169.864 425.086C169.022 425.528 168.161 425.973 167.301 426.403ZM39.7207 412.876C38.9698 412.271 38.2239 411.652 37.4954 411.039L38.6508 409.676C39.3658 410.28 40.1017 410.891 40.8395 411.484L39.7207 412.876ZM172.387 423.704L171.511 422.144C172.33 421.685 173.155 421.205 173.966 420.723L174.881 422.261C174.058 422.753 173.218 423.238 172.387 423.704ZM35.3186 409.149C34.6065 408.516 33.8894 407.861 33.187 407.203L34.4085 405.897C35.0978 406.543 35.8053 407.186 36.5074 407.811L35.3186 409.149ZM177.337 420.757L176.384 419.244C177.182 418.743 177.983 418.221 178.765 417.704L179.757 419.192C178.959 419.719 178.147 420.247 177.337 420.757ZM31.1035 405.208C30.4239 404.539 29.7389 403.851 29.0721 403.161L30.3558 401.915C31.013 402.593 31.6884 403.27 32.3581 403.931L31.1035 405.208ZM182.132 417.565L181.105 416.102C181.875 415.562 182.647 415.001 183.405 414.442L184.47 415.881C183.698 416.445 182.914 417.016 182.132 417.565ZM27.092 401.069C26.4376 400.363 25.7883 399.642 25.1635 398.928L26.5051 397.749C27.1239 398.452 27.7632 399.164 28.4044 399.858L27.092 401.069ZM186.761 414.133L185.66 412.724C186.406 412.142 187.149 411.542 187.875 410.947L189.011 412.328C188.274 412.932 187.518 413.538 186.761 414.133ZM23.2828 396.742C22.6705 396.011 22.0567 395.258 21.4608 394.507L22.8603 393.396C23.4466 394.135 24.0508 394.875 24.6571 395.595L23.2828 396.742ZM191.208 410.467L190.037 409.115C190.747 408.498 191.462 407.866 192.155 407.228L193.362 408.548C192.657 409.195 191.933 409.84 191.208 410.467ZM19.6933 392.232C19.1135 391.465 18.5385 390.684 17.9807 389.912L19.4306 388.87C19.9789 389.63 20.5442 390.399 21.1145 391.155L19.6933 392.232ZM195.467 406.577L194.228 405.29C194.909 404.634 195.588 403.962 196.249 403.296L197.519 404.554C196.851 405.23 196.159 405.915 195.467 406.577ZM16.3262 387.551C15.7847 386.759 15.2487 385.949 14.7293 385.152L16.2296 384.18C16.7394 384.965 17.2659 385.763 17.8013 386.544L16.3262 387.551ZM199.524 402.476L198.221 401.251C198.866 400.565 199.509 399.862 200.137 399.156L201.472 400.346C200.831 401.064 200.176 401.781 199.524 402.476ZM13.194 382.714C12.6946 381.897 12.1966 381.067 11.7161 380.241L13.2626 379.346C13.7335 380.159 14.2255 380.979 14.7153 381.783L13.194 382.714ZM203.361 398.166L201.994 397.009C202.602 396.291 203.209 395.552 203.801 394.818L205.197 395.937C204.597 396.685 203.978 397.434 203.361 398.166ZM10.303 377.732C9.84237 376.887 9.38642 376.032 8.95073 375.19L10.5398 374.371C10.9695 375.202 11.4158 376.045 11.8707 376.875L10.303 377.732ZM7.6594 372.614C7.2433 371.756 6.82936 370.877 6.43249 370.006L8.06019 369.266C8.45103 370.125 8.85969 370.986 9.26975 371.833L7.6594 372.614Z" fill="#EE9967"/>
<path d="M211.86 400.919L194.896 390.162L210.528 383.963L211.86 400.919ZM204.289 394.003L209.8 397.496L208.939 386.518L198.819 390.532L204.289 394.003Z" fill="#EE9967"/>
<path d="M817.374 175.631H815.586C815.586 174.676 815.597 173.703 815.622 172.749L817.41 172.791C817.385 173.732 817.374 174.687 817.374 175.631ZM817.51 169.956L815.725 169.87C815.772 168.915 815.829 167.95 815.901 166.995L817.685 167.124C817.613 168.061 817.556 169.015 817.51 169.956ZM817.921 164.295L816.14 164.124C816.233 163.173 816.34 162.207 816.455 161.26L818.228 161.478C818.118 162.407 818.014 163.355 817.921 164.295ZM818.611 158.66L816.841 158.399C816.98 157.455 817.134 156.497 817.295 155.553L819.058 155.857C818.897 156.786 818.747 157.73 818.611 158.66ZM819.573 153.068L817.821 152.721C818.007 151.784 818.207 150.836 818.414 149.899L820.159 150.289C819.955 151.212 819.755 152.145 819.573 153.068ZM820.814 147.529L819.079 147.096C819.312 146.166 819.559 145.23 819.812 144.311L821.536 144.786C821.286 145.691 821.043 146.613 820.814 147.529ZM822.326 142.058L820.617 141.539C820.896 140.624 821.189 139.694 821.489 138.782L823.188 139.344C822.888 140.245 822.598 141.157 822.326 142.058ZM824.114 136.651L822.43 136.047C822.752 135.146 823.091 134.234 823.438 133.337L825.105 133.98C824.765 134.863 824.432 135.765 824.114 136.651ZM826.167 131.341L824.515 130.655C824.883 129.768 825.265 128.878 825.655 128.002L827.289 128.727C826.907 129.589 826.528 130.469 826.167 131.341ZM828.48 126.142L826.864 125.377C827.275 124.512 827.704 123.639 828.133 122.785L829.728 123.593C829.306 124.429 828.884 125.291 828.48 126.142ZM831.044 121.068L829.467 120.221C829.921 119.377 830.39 118.526 830.865 117.693L832.421 118.576C831.956 119.398 831.491 120.235 831.044 121.068ZM833.858 116.127L832.328 115.204C832.821 114.382 833.332 113.556 833.847 112.751L835.356 113.709C834.848 114.503 834.344 115.315 833.858 116.127ZM836.908 111.331L835.424 110.334C835.957 109.54 836.508 108.739 837.062 107.96L838.521 108.993C837.977 109.762 837.434 110.548 836.908 111.331ZM1027.56 109.429C1027.02 108.66 1026.46 107.884 1025.9 107.126L1027.34 106.064C1027.91 106.833 1028.47 107.623 1029.02 108.403L1027.56 109.429ZM840.191 106.694L838.757 105.625C839.329 104.859 839.919 104.087 840.509 103.333L841.918 104.434C841.331 105.178 840.752 105.936 840.191 106.694ZM1024.18 104.863C1023.61 104.119 1023.01 103.372 1022.42 102.642L1023.8 101.512C1024.41 102.253 1025.01 103.011 1025.6 103.765L1024.18 104.863ZM843.691 102.22L842.311 101.083C842.919 100.347 843.545 99.6066 844.17 98.8807L845.522 100.05C844.907 100.769 844.292 101.498 843.691 102.22ZM1020.6 100.468C1019.98 99.7496 1019.35 99.0345 1018.72 98.3372L1020.05 97.1393C1020.69 97.8473 1021.33 98.5767 1021.95 99.3026L1020.6 100.468ZM847.41 97.9295L846.087 96.7281C846.734 96.0165 847.396 95.3085 848.054 94.6184L849.348 95.852C848.697 96.5314 848.047 97.2323 847.41 97.9295ZM1016.8 96.2489C1016.16 95.566 1015.49 94.8794 1014.82 94.2108L1016.09 92.9521C1016.77 93.6315 1017.44 94.3288 1018.1 95.0225L1016.8 96.2489ZM851.329 93.8246L850.067 92.5588C850.746 91.883 851.44 91.2071 852.134 90.5492L853.364 91.8472C852.681 92.4944 851.998 93.1595 851.329 93.8246ZM1012.8 92.2226C1012.12 91.5683 1011.42 90.9175 1010.73 90.2846L1011.93 88.9651C1012.63 89.6088 1013.34 90.2703 1014.04 90.9354L1012.8 92.2226ZM855.445 89.9199L854.247 88.5933C854.955 87.9532 855.681 87.3131 856.407 86.6874L857.572 88.0426C856.857 88.6576 856.142 89.287 855.445 89.9199ZM1008.6 88.3966C1007.89 87.778 1007.16 87.1594 1006.44 86.5622L1007.58 85.1856C1008.32 85.7934 1009.06 86.4228 1009.78 87.0485L1008.6 88.3966ZM859.743 86.219L858.609 84.8351C859.349 84.2308 860.108 83.623 860.858 83.0365L861.956 84.4454C861.22 85.0247 860.472 85.6218 859.743 86.219ZM1004.23 84.7779C1003.49 84.1987 1002.73 83.6158 1001.98 83.0508L1003.04 81.6206C1003.81 82.1962 1004.58 82.7862 1005.33 83.3762L1004.23 84.7779ZM864.216 82.7326L863.151 81.2952C863.916 80.7302 864.702 80.1616 865.485 79.611L866.515 81.0735C865.743 81.617 864.971 82.1748 864.216 82.7326ZM999.68 81.3774C998.911 80.8303 998.124 80.2868 997.345 79.7612L998.342 78.2772C999.133 78.81 999.934 79.3643 1000.71 79.9185L999.68 81.3774ZM868.854 79.4751L867.86 77.9876C868.654 77.4584 869.465 76.9292 870.273 76.4214L871.228 77.934C870.434 78.4346 869.637 78.953 868.854 79.4751ZM994.971 78.2057C994.177 77.698 993.365 77.1938 992.557 76.7075L993.483 75.1771C994.302 75.6705 995.128 76.1854 995.932 76.7003L994.971 78.2057ZM873.642 76.4464L872.723 74.9124C873.542 74.4226 874.378 73.9363 875.208 73.4643L876.088 75.0197C875.272 75.4846 874.446 75.9637 873.642 76.4464ZM990.107 75.2664C989.289 74.798 988.455 74.3368 987.622 73.8862L988.47 72.3129C989.314 72.767 990.161 73.239 990.991 73.7146L990.107 75.2664ZM878.569 73.6574L877.729 72.0805C878.569 71.6335 879.427 71.1865 880.282 70.7574L881.086 72.3558C880.243 72.7777 879.399 73.2175 878.569 73.6574ZM985.105 72.5703C984.265 72.1448 983.406 71.7229 982.555 71.3152L983.324 69.7026C984.19 70.1138 985.059 70.5429 985.913 70.9756L985.105 72.5703ZM883.629 71.115L882.867 69.4988C883.729 69.0911 884.609 68.6906 885.481 68.3045L886.203 69.9386C885.342 70.3212 884.476 70.7145 883.629 71.115ZM979.977 70.1209C979.116 69.7348 978.24 69.3557 977.367 68.9946L978.057 67.3462C978.94 67.7145 979.831 68.1007 980.707 68.4904L979.977 70.1209ZM888.799 68.8265L888.116 67.1745C889 66.8098 889.901 66.4486 890.795 66.1054L891.435 67.7753C890.559 68.115 889.672 68.4689 888.799 68.8265ZM974.732 67.9326C973.856 67.5929 972.958 67.2568 972.071 66.935L972.679 65.2544C973.584 65.5797 974.492 65.9194 975.383 66.2663L974.732 67.9326ZM894.099 66.7919L893.498 65.1077C894.395 64.7859 895.314 64.4748 896.226 64.1745L896.784 65.873C895.886 66.1662 894.982 66.4737 894.099 66.7919ZM969.382 66.0017C968.488 65.7049 967.577 65.4153 966.672 65.1364L967.194 63.4271C968.113 63.7096 969.039 64.0028 969.944 64.3068L969.382 66.0017ZM899.491 65.0184L898.976 63.3056C899.895 63.0267 900.828 62.7585 901.747 62.5082L902.219 64.2317C901.314 64.482 900.396 64.7466 899.491 65.0184ZM963.944 64.3425C963.035 64.0887 962.113 63.8455 961.194 63.6131L961.63 61.8788C962.564 62.1148 963.5 62.3616 964.423 62.619L963.944 64.3425ZM904.962 63.5165L904.533 61.7823C905.462 61.5535 906.403 61.3318 907.34 61.1244L907.726 62.8693C906.807 63.0696 905.877 63.2877 904.962 63.5165ZM958.426 62.9516C957.5 62.7442 956.563 62.5439 955.644 62.358L955.995 60.6059C956.932 60.7918 957.883 60.9956 958.82 61.2066L958.426 62.9516ZM910.504 62.2829L910.161 60.5272C911.098 60.3413 912.052 60.1696 912.996 60.0052L913.297 61.768C912.367 61.9325 911.427 62.1041 910.504 62.2829ZM952.848 61.8359C951.911 61.6715 950.967 61.5213 950.038 61.3818L950.302 59.6118C951.246 59.7513 952.204 59.9086 953.156 60.0731L952.848 61.8359ZM916.097 61.3282L915.839 59.5582C916.783 59.4223 917.745 59.2936 918.696 59.1792L918.911 60.9527C917.974 61.0672 917.026 61.1923 916.097 61.3282ZM947.224 60.9992C946.29 60.8848 945.339 60.7775 944.402 60.6845L944.577 58.9038C945.529 58.9968 946.494 59.1041 947.442 59.2221L947.224 60.9992ZM921.732 60.6488L921.56 58.8681C922.512 58.7787 923.477 58.6964 924.432 58.6285L924.56 60.4128C923.616 60.4807 922.665 60.5594 921.732 60.6488ZM941.577 60.4414C940.637 60.3699 939.686 60.3127 938.745 60.2662L938.835 58.4819C939.79 58.5284 940.759 58.5892 941.71 58.6607L941.577 60.4414ZM927.392 60.2447L927.31 58.4604C928.261 58.4175 929.23 58.3818 930.189 58.3603L930.228 60.1482C929.284 60.1696 928.329 60.2018 927.392 60.2447ZM935.906 60.1553C934.962 60.1303 934.008 60.1196 933.067 60.116L933.071 58.3281C934.025 58.3281 934.994 58.3424 935.953 58.3675L935.906 60.1553Z" fill="#EE9967"/>
<path d="M1036.96 107.344L1034.54 120.982L1022.08 114.577L1036.96 107.344Z" stroke="#EE9967" stroke-width="5" stroke-miterlimit="10"/>
</svg>
