<svg width="32" height="32" viewBox="0 0 32 32" fill="none" xmlns="http://www.w3.org/2000/svg">
<path d="M29.3385 14.7705V15.9972C29.3369 18.8724 28.4059 21.6701 26.6843 23.973C24.9628 26.2758 22.5429 27.9605 19.7857 28.7757C17.0284 29.591 14.0816 29.4931 11.3845 28.4967C8.68745 27.5002 6.38475 25.6587 4.81982 23.2466C3.2549 20.8346 2.5116 17.9813 2.70078 15.1123C2.88996 12.2433 4.00148 9.51232 5.86958 7.32665C7.73768 5.14097 10.2623 3.61772 13.0668 2.98408C15.8713 2.35043 18.8056 2.64033 21.4319 3.81055" stroke="white" stroke-width="2" stroke-linecap="round" stroke-linejoin="round"/>
<path d="M27.3333 8L14 21.3467L10 17.3467" stroke="white" stroke-width="4" stroke-linecap="round" stroke-linejoin="round"/>
</svg>
