<svg width="73" height="88" viewBox="0 0 73 88" fill="none" xmlns="http://www.w3.org/2000/svg">
<mask id="mask0_1159_91382" style="mask-type:alpha" maskUnits="userSpaceOnUse" x="0" y="0" width="73" height="88">
<rect width="73" height="88" fill="#D9D9D9"/>
</mask>
<g mask="url(#mask0_1159_91382)">
<path d="M65.8424 59.508V21.8534C65.8424 18.6195 63.4789 16 60.5607 16H12.4536C9.53542 16 7.17188 18.6195 7.17188 21.8534V59.508M46.2856 50.1562C43.2223 50.1562 40.1676 50.6511 36.5071 52.0163C29.3141 49.3456 24.442 50.0026 17.266 51.2228C17.3087 48.5094 17.5049 41.9478 17.6926 36.0688C17.8804 30.1813 18.0681 24.9849 18.0937 24.9849V24.9763C24.5017 23.6964 30.6367 24.106 36.5071 27.4935C40.4066 25.2409 44.5961 24.3108 48.8539 24.3108C51.0041 24.3108 52.7704 24.5497 54.9206 24.9763V24.9849C54.9633 24.9849 55.6629 45.8046 55.7483 51.2313C52.2157 50.6255 49.2464 50.1562 46.2856 50.1562Z" stroke="#3D82F7" stroke-width="2" stroke-miterlimit="10" stroke-linejoin="round"/>
<path d="M70.402 63.5207V70.5857C70.402 71.6438 69.5488 72.497 68.4992 72.497H4.50434C3.45483 72.497 2.60156 71.6438 2.60156 70.5857V63.5207C2.60156 62.4626 3.45483 61.6094 4.50434 61.6094H68.5078C69.5488 61.6094 70.402 62.4712 70.402 63.5207Z" fill="#E7EEF6" stroke="#3D82F7" stroke-width="2" stroke-miterlimit="10" stroke-linejoin="round"/>
<path d="M34.2578 67.0469H38.746" stroke="#3D82F7" stroke-width="2" stroke-miterlimit="10" stroke-linecap="round"/>
<path d="M55.7479 51.2202C52.2239 50.6144 49.246 50.1536 46.2852 50.1536C43.222 50.1536 40.1673 50.6485 36.5068 52.0137C29.3137 49.343 24.4416 50 17.2656 51.2202C17.3083 48.5068 17.5045 41.9452 17.6923 36.0662C17.88 30.1787 18.0677 24.9823 18.0933 24.9823V24.9737C24.5013 23.6939 30.6363 24.1034 36.5068 27.4909C40.4062 25.2383 44.5957 24.3082 48.8535 24.3082C51.0037 24.3082 52.77 24.5471 54.9202 24.9737V24.9823C54.9629 24.9737 55.6626 45.7934 55.7479 51.2202Z" stroke="#3D82F7" stroke-width="2" stroke-miterlimit="10" stroke-linejoin="round"/>
<path d="M36.5 27.7734V51.1614" stroke="#3D82F7" stroke-width="2" stroke-miterlimit="10" stroke-linecap="round" stroke-linejoin="round"/>
<path d="M42.2812 44.0476C44.6021 42.9213 47.0766 42.5715 49.4999 43.1261" stroke="#EE9967" stroke-width="2" stroke-miterlimit="10" stroke-linecap="round" stroke-linejoin="round"/>
<path d="M42.2656 32.8816C44.578 31.7041 47.0524 31.1153 49.5013 31.6358" stroke="#EE9967" stroke-width="2" stroke-miterlimit="10" stroke-linecap="round" stroke-linejoin="round"/>
<path d="M30.7108 44.0476C28.3899 42.9213 25.9155 42.5715 23.4922 43.1261" stroke="#EE9967" stroke-width="2" stroke-miterlimit="10" stroke-linecap="round" stroke-linejoin="round"/>
<path d="M30.7279 38.4728C28.4155 37.3209 25.9325 36.8516 23.4922 37.3806" stroke="#EE9967" stroke-width="2" stroke-miterlimit="10" stroke-linecap="round" stroke-linejoin="round"/>
<path d="M30.7279 32.8816C28.4155 31.7041 25.9411 31.1153 23.4922 31.6358" stroke="#EE9967" stroke-width="2" stroke-miterlimit="10" stroke-linecap="round" stroke-linejoin="round"/>
<path d="M42.2656 38.4728C44.578 37.3209 47.061 36.8516 49.5013 37.3806" stroke="#EE9967" stroke-width="2" stroke-miterlimit="10" stroke-linecap="round" stroke-linejoin="round"/>
</g>
</svg>
