<svg width="220" height="249" viewBox="0 0 220 249" fill="none" xmlns="http://www.w3.org/2000/svg">
<g clip-path="url(#clip0_1159_91143)">
<path opacity="0.09" d="M191.139 184.763C185.512 190.565 180.475 193.974 176.619 196.549C139.017 221.656 96.0346 214.42 82.7455 211.945C61.3045 207.954 43.2063 205.14 27.6568 191.091C-7.67676 159.169 -5.95904 92.5755 21.0401 51.3212C24.2426 46.4301 51.1993 6.4674 94.2746 0.837843C95.328 0.700214 96.1141 0.620812 96.8022 0.549351C103.467 -0.157321 144.761 -3.8786 178.429 24.3301C183.249 28.3689 191.007 35.6527 198.198 46.7609C224.503 87.38 224.588 150.287 191.139 184.763Z" fill="#E7EEF6"/>
<g opacity="0.3">
<path d="M84.2696 23.5324C84.0261 23.2254 84.0473 22.7781 84.3331 22.4949C84.9577 21.8809 85.6194 21.2827 86.2996 20.7216C86.6304 20.449 87.1201 20.494 87.3927 20.8248C87.3953 20.8301 87.398 20.8328 87.4033 20.8354C87.6653 21.1663 87.6177 21.6453 87.2921 21.9179C86.6463 22.4526 86.019 23.019 85.4235 23.6012C85.1192 23.903 84.6269 23.8977 84.3252 23.5906C84.304 23.5748 84.2855 23.5536 84.2696 23.5324ZM89.5921 19.3612C89.5736 19.3374 89.5551 19.3136 89.5392 19.2871C89.3142 18.9218 89.4254 18.4428 89.7906 18.2178C90.5396 17.7546 91.3151 17.3179 92.0959 16.9209C92.477 16.7277 92.9429 16.8786 93.1387 17.2624C93.3319 17.6435 93.1811 18.112 92.7973 18.3052C92.0536 18.681 91.3178 19.0965 90.6058 19.5385C90.2697 19.745 89.833 19.6629 89.5921 19.3612ZM95.7007 16.4631C95.6478 16.3942 95.6028 16.3175 95.5737 16.2301C95.4361 15.8252 95.6504 15.3832 96.0554 15.2429C96.8865 14.9571 97.7413 14.7056 98.5936 14.4939C99.0091 14.3907 99.4299 14.6448 99.5358 15.0603C99.639 15.4758 99.385 15.8967 98.9694 16.0025C98.1595 16.2037 97.347 16.4445 96.5583 16.7145C96.2407 16.823 95.8992 16.7118 95.7007 16.4631ZM102.304 15.0047C102.214 14.8935 102.156 14.7559 102.14 14.6024C102.095 14.1763 102.405 13.7952 102.831 13.7502C103.704 13.6575 104.594 13.6046 105.472 13.5861C105.901 13.5781 106.256 13.9196 106.264 14.3483C106.272 14.7771 105.93 15.1318 105.502 15.1397C104.668 15.1556 103.823 15.2085 102.992 15.2958C102.72 15.3223 102.463 15.2032 102.304 15.0047ZM109.069 15.055C108.945 14.8988 108.881 14.695 108.905 14.478C108.955 14.0519 109.342 13.7475 109.768 13.8005C110.639 13.9037 111.517 14.0466 112.38 14.2266C112.801 14.3139 113.071 14.7242 112.984 15.145C112.896 15.5658 112.486 15.8358 112.065 15.7484C111.245 15.579 110.411 15.4441 109.583 15.3435C109.371 15.317 109.191 15.2085 109.069 15.055ZM115.652 16.6007C115.49 16.3969 115.435 16.119 115.527 15.857C115.67 15.452 116.115 15.2429 116.52 15.3858C117.348 15.6796 118.174 16.0158 118.973 16.3784C119.362 16.5557 119.537 17.0162 119.357 17.4079C119.18 17.797 118.719 17.9717 118.33 17.7917C117.571 17.445 116.784 17.1274 115.998 16.8495C115.855 16.7965 115.739 16.7092 115.652 16.6007ZM134.816 37.7029C134.75 37.6182 134.7 37.5203 134.671 37.4091C134.467 36.5992 134.226 35.7893 133.954 34.998C133.813 34.593 134.03 34.151 134.435 34.0108C134.84 33.8705 135.282 34.0849 135.423 34.4925C135.708 35.3235 135.963 36.1784 136.177 37.0306C136.28 37.4462 136.029 37.867 135.613 37.9729C135.306 38.0496 134.999 37.9332 134.816 37.7029ZM121.726 19.5623C121.525 19.3109 121.496 18.9483 121.678 18.6625C121.908 18.2999 122.388 18.194 122.75 18.4243C123.491 18.8954 124.222 19.4062 124.92 19.9382C125.259 20.2002 125.325 20.6846 125.066 21.026C124.807 21.3674 124.32 21.4309 123.978 21.1716C123.314 20.666 122.623 20.1817 121.916 19.7344C121.842 19.6867 121.779 19.6285 121.726 19.5623ZM132.44 31.372C132.408 31.3323 132.379 31.2873 132.355 31.2396C131.977 30.4959 131.558 29.7601 131.119 29.0482C130.891 28.6829 131.005 28.2065 131.368 27.9789C131.733 27.7539 132.212 27.8624 132.437 28.2277C132.903 28.9741 133.34 29.7495 133.739 30.533C133.935 30.9141 133.782 31.3826 133.4 31.5784C133.067 31.7505 132.665 31.6552 132.44 31.372ZM126.985 23.8103C126.741 23.5033 126.763 23.056 127.048 22.7755C127.353 22.4737 127.845 22.4764 128.147 22.7834C128.763 23.408 129.362 24.0671 129.923 24.7446C129.925 24.7499 129.931 24.7526 129.933 24.7578C130.195 25.086 130.148 25.5677 129.822 25.8377C129.491 26.113 129.002 26.068 128.729 25.7371C128.194 25.094 127.628 24.4667 127.04 23.8738C127.019 23.8527 127.001 23.8315 126.985 23.8103Z" fill="#BDD0FB"/>
<path d="M135.657 43.0887C135.562 42.9695 135.501 42.8213 135.49 42.6572C135.464 42.2576 135.43 41.8526 135.387 41.453C135.342 41.0269 135.652 40.6431 136.078 40.5981C136.504 40.5531 136.888 40.8628 136.93 41.2889C136.975 41.7097 137.012 42.1358 137.039 42.5567C137.065 42.9854 136.742 43.3533 136.314 43.3824C136.051 43.3983 135.811 43.2819 135.657 43.0887Z" fill="#BDD0FB"/>
</g>
<g opacity="0.3">
<path d="M127.847 65.4275C127.615 65.1337 127.622 64.7076 127.882 64.4217C128.152 64.1253 128.419 63.8209 128.679 63.5112C128.954 63.1831 129.443 63.1407 129.772 63.416C130.102 63.6939 130.142 64.1809 129.867 64.5091C129.594 64.8346 129.311 65.1575 129.028 65.4672C128.739 65.7848 128.247 65.8059 127.932 65.5175C127.9 65.4883 127.874 65.4592 127.847 65.4275Z" fill="#BDD0FB"/>
<path d="M81.8594 63.9202C81.6371 63.6396 81.4174 63.3564 81.203 63.0679C80.9463 62.7239 81.0204 62.2369 81.3645 61.9828C81.7086 61.726 82.1982 61.8002 82.4496 62.1442C82.9446 62.8112 83.466 63.457 84.0059 64.0684C84.2891 64.3913 84.2573 64.8809 83.9371 65.1641C83.6142 65.4473 83.1246 65.4156 82.8414 65.0953C82.5052 64.7142 82.177 64.3198 81.8594 63.9202ZM78.9904 59.6193C78.9639 59.5849 78.9375 59.5478 78.9163 59.5081C78.4981 58.7485 78.109 57.9651 77.757 57.1737C77.5823 56.782 77.7597 56.3241 78.1487 56.1494C78.5405 55.9747 79.001 56.1521 79.173 56.5438C79.5065 57.2928 79.877 58.0392 80.274 58.7591C80.4805 59.1349 80.3429 59.606 79.9697 59.8125C79.6362 60.0004 79.2207 59.9078 78.9904 59.6193ZM85.7448 67.967C85.5172 67.6811 85.5172 67.263 85.766 66.9771C86.0465 66.6516 86.5362 66.6172 86.8617 66.8977C87.481 67.435 88.1348 67.9511 88.7991 68.4328C89.1458 68.6842 89.2226 69.1712 88.9711 69.518C88.7197 69.8647 88.2327 69.9414 87.886 69.69C87.1846 69.1818 86.4991 68.6366 85.8454 68.0729C85.8083 68.0385 85.7739 68.004 85.7448 67.967ZM76.4416 53.4683C76.3807 53.3915 76.3331 53.3016 76.304 53.201C76.0631 52.3699 75.8567 51.5177 75.6873 50.6707C75.6026 50.2499 75.8752 49.8423 76.296 49.7576C76.7169 49.6729 77.1245 49.9455 77.2092 50.3664C77.3706 51.171 77.5665 51.9809 77.7967 52.7696C77.9158 53.1825 77.6776 53.6112 77.2674 53.7303C76.9551 53.8203 76.6322 53.7065 76.4416 53.4683ZM91.2288 71.7306C91.0409 71.4951 91.0012 71.1616 91.152 70.881C91.3532 70.5025 91.8243 70.3596 92.2028 70.5608C92.9253 70.9472 93.6743 71.3071 94.4313 71.6327C94.8257 71.8021 95.0083 72.26 94.8363 72.6517C94.6669 73.046 94.209 73.226 93.8173 73.0566C93.0206 72.7152 92.2319 72.3341 91.4696 71.9291C91.3744 71.8788 91.2923 71.81 91.2288 71.7306ZM97.4062 74.1974C97.258 74.0094 97.1971 73.7554 97.2659 73.5066C97.3798 73.0937 97.8085 72.8502 98.2214 72.9666C99.0128 73.1863 99.8253 73.3742 100.633 73.5277C101.053 73.6071 101.331 74.0121 101.252 74.4356C101.172 74.8564 100.768 75.1343 100.344 75.0549C99.4945 74.8934 98.6422 74.6949 97.8085 74.4647C97.6418 74.417 97.5041 74.3217 97.4062 74.1974ZM103.975 75.2613C103.862 75.1184 103.798 74.9358 103.809 74.7399C103.83 74.3112 104.195 73.983 104.624 74.0041C105.447 74.0465 106.278 74.0544 107.098 74.0253C107.527 74.0121 107.885 74.3456 107.9 74.777C107.914 75.2057 107.578 75.5631 107.149 75.5789C106.286 75.608 105.41 75.6001 104.544 75.5551C104.311 75.5419 104.108 75.4281 103.975 75.2613ZM110.619 74.867C110.539 74.769 110.484 74.6473 110.462 74.515C110.391 74.0915 110.674 73.6918 111.095 73.6177C111.905 73.4801 112.72 73.3028 113.514 73.0963C113.93 72.9878 114.353 73.2366 114.462 73.6521C114.57 74.0677 114.321 74.4911 113.906 74.5997C113.069 74.8167 112.212 75.002 111.36 75.1475C111.069 75.1978 110.788 75.0814 110.619 74.867ZM117.016 73.0222C116.971 72.9666 116.934 72.9031 116.905 72.8343C116.74 72.4373 116.928 71.9847 117.325 71.8206C118.082 71.5083 118.839 71.1563 119.57 70.7804C119.951 70.5846 120.419 70.7355 120.615 71.1139C120.811 71.4951 120.663 71.9635 120.282 72.1594C119.512 72.5564 118.718 72.9243 117.921 73.2551C117.593 73.3901 117.225 73.2869 117.016 73.0222ZM122.846 69.8197C122.836 69.8065 122.828 69.7932 122.817 69.78C122.571 69.428 122.656 68.9436 123.008 68.7001C123.503 68.3534 123.995 67.9855 124.466 67.6097C124.638 67.4747 124.808 67.3344 124.974 67.1968C125.305 66.9215 125.795 66.9665 126.067 67.2974C126.351 67.6256 126.298 68.1152 125.967 68.3905C125.79 68.536 125.612 68.6816 125.432 68.8245C124.935 69.2215 124.419 69.6053 123.897 69.9706C123.561 70.2088 123.1 70.1373 122.846 69.8197Z" fill="#BDD0FB"/>
<path d="M75.3109 46.8919C75.2156 46.7702 75.1548 46.6219 75.1442 46.4552C75.1204 46.0344 75.1018 45.6082 75.0939 45.1821C75.0859 44.7534 75.4274 44.3987 75.8561 44.3908C76.2849 44.3828 76.6396 44.7242 76.6475 45.153C76.6554 45.5553 76.6713 45.9629 76.6952 46.3599C76.7216 46.7887 76.3961 47.1566 75.9673 47.1804C75.7026 47.1989 75.4618 47.0825 75.3109 46.8919Z" fill="#BDD0FB"/>
</g>
<path d="M83.0079 42.1049C82.9761 42.2558 83.0423 42.4119 83.1746 42.4913L86.9488 44.7834C86.9832 46.8452 87.3432 48.9175 88.0551 50.9158L85.3237 54.383C85.2285 54.5047 85.2205 54.6741 85.3026 54.8038L88.1663 59.2582C88.251 59.3879 88.4072 59.4515 88.558 59.4144L92.8457 58.3689C94.3702 59.8458 96.1038 61.0342 97.9671 61.9208L98.4885 66.3064C98.507 66.4599 98.6208 66.5843 98.7717 66.6187L103.949 67.7436C104.1 67.7754 104.256 67.7092 104.335 67.5769L106.627 63.8026C108.689 63.7682 110.761 63.4083 112.76 62.6963L116.227 65.4277C116.349 65.523 116.518 65.5309 116.648 65.4489L121.102 62.5852C121.232 62.5005 121.295 62.3443 121.258 62.1934L120.213 57.9058C121.69 56.3813 122.878 54.6477 123.765 52.7844L128.15 52.263C128.304 52.2445 128.428 52.1306 128.463 51.9798L129.587 46.8028C129.619 46.652 129.553 46.4958 129.421 46.4164L125.646 44.1243C125.612 42.0626 125.252 39.9902 124.54 37.9919L127.271 34.5247C127.367 34.403 127.375 34.2336 127.293 34.1039L124.429 29.6495C124.344 29.5198 124.188 29.4563 124.037 29.4933L119.75 30.5388C118.225 29.0619 116.491 27.8735 114.628 26.9869L114.107 22.6013C114.088 22.4478 113.974 22.3234 113.824 22.289L108.647 21.1641C108.496 21.1324 108.34 21.1985 108.26 21.3309L105.968 25.1051C103.906 25.1395 101.834 25.4994 99.8357 26.2114L96.3685 23.48C96.2467 23.3847 96.0773 23.3768 95.9476 23.4588L91.4932 26.3226C91.3635 26.4073 91.3 26.5634 91.3371 26.7143L92.3825 31.0019C90.9057 32.5265 89.7173 34.26 88.8306 36.1233L84.445 36.6447C84.2915 36.6633 84.1671 36.7771 84.1327 36.9279L83.0079 42.1049Z" fill="#5CAFFC"/>
<path d="M102.123 47.7681C100.506 45.738 100.577 42.7684 102.404 40.8178C104.41 38.674 107.784 38.5602 109.928 40.5664C110.968 41.5377 111.564 42.8558 111.612 44.2771C111.659 45.6983 111.151 47.0535 110.177 48.091C108.171 50.2348 104.796 50.3486 102.652 48.3424C102.462 48.1624 102.285 47.9692 102.123 47.7681ZM109.492 41.9188C109.367 41.7627 109.23 41.6145 109.081 41.4742C107.438 39.9365 104.849 40.0238 103.311 41.6674C101.774 43.311 101.858 45.8995 103.505 47.4372C105.148 48.975 107.737 48.8876 109.275 47.244C110.021 46.4474 110.41 45.4099 110.373 44.3194C110.344 43.4328 110.034 42.599 109.492 41.9188Z" fill="url(#paint0_linear_1159_91143)"/>
<path d="M96.1798 52.6472C95.9019 52.2978 95.6399 51.9326 95.3964 51.5541C95.3196 51.435 95.2455 51.3133 95.1714 51.1915C94.8115 50.5907 94.4992 49.9608 94.2398 49.3123C94.2371 49.3044 94.2318 49.2938 94.2292 49.2859C94.2186 49.2621 94.2107 49.2356 94.2001 49.2091C94.1815 49.1615 94.163 49.1112 94.1445 49.0609C94.0969 48.9312 94.1392 48.7909 94.2424 48.7089C94.2662 48.6904 94.2954 48.6718 94.3271 48.6613C94.4886 48.6004 94.6659 48.6824 94.7268 48.8439C95.0364 49.6696 95.4387 50.469 95.9204 51.2153C98.3104 54.934 102.357 56.9534 106.478 56.9375C108.77 56.9296 111.086 56.2891 113.153 54.9604C113.516 54.7275 113.865 54.4787 114.196 54.2141C116.435 52.4328 117.978 49.9555 118.595 47.1209C119.301 43.8654 118.701 40.5306 116.898 37.7277C113.177 31.942 105.449 30.264 99.6655 33.9826C99.3082 34.2128 98.9642 34.459 98.636 34.721C97.2094 35.8591 96.0448 37.2936 95.2349 38.9319C95.2138 38.9743 95.1846 39.0087 95.1502 39.0378C95.0603 39.1093 94.9306 39.1278 94.8194 39.0722C94.6659 38.9955 94.6024 38.8102 94.6791 38.6567C95.5287 36.9363 96.7515 35.4277 98.2495 34.234C98.5963 33.9588 98.9562 33.6994 99.3294 33.4585C105.401 29.5546 113.518 31.32 117.422 37.3889C119.315 40.3294 119.947 43.831 119.204 47.2506C118.558 50.2255 116.935 52.8272 114.585 54.6984C114.236 54.9763 113.87 55.2383 113.489 55.4845C110.549 57.3769 107.045 58.0094 103.628 57.2657C100.653 56.6199 98.051 54.9975 96.1798 52.6472Z" fill="url(#paint1_linear_1159_91143)"/>
<g opacity="0.3">
<path d="M51.7608 15.5492C51.6311 15.3878 51.6178 15.1522 51.7449 14.9749C51.9778 14.6414 52.2266 14.3106 52.4807 13.9929C52.6448 13.7865 52.9465 13.7521 53.1556 13.9162C53.3647 14.0803 53.3964 14.382 53.2323 14.5911C52.9915 14.8955 52.7533 15.2104 52.531 15.528C52.3801 15.7451 52.081 15.7954 51.864 15.6445C51.8216 15.6154 51.7872 15.5836 51.7608 15.5492Z" fill="#BDD0FB"/>
<path d="M54.1509 12.7449C54 12.5543 54.0133 12.2764 54.1906 12.1044C54.6908 11.6147 55.2228 11.1436 55.7707 10.7096C55.8871 10.6169 56.0036 10.5269 56.1201 10.437C56.3318 10.2755 56.6335 10.3337 56.7923 10.5269C56.9538 10.7387 56.9114 11.0378 56.7023 11.1992C56.5885 11.2865 56.4774 11.3712 56.3688 11.4586C55.8448 11.8741 55.3393 12.3241 54.8602 12.7899C54.6697 12.9751 54.3679 12.9725 54.1827 12.7819C54.1721 12.7687 54.1615 12.7555 54.1509 12.7449ZM58.113 9.72499C58.0998 9.70646 58.0866 9.68793 58.0733 9.6694C57.9383 9.44179 58.0177 9.148 58.2454 9.01302C58.9785 8.58425 59.746 8.19519 60.5215 7.8617C60.765 7.75583 61.0482 7.86964 61.1514 8.11314C61.2573 8.35664 61.1435 8.63719 60.9 8.74306C60.1589 9.06331 59.4258 9.4312 58.7271 9.84144C58.5206 9.96319 58.2586 9.91026 58.113 9.72499ZM62.6839 7.75848C62.6468 7.71084 62.6177 7.65526 62.5992 7.59438C62.5251 7.3403 62.6733 7.07298 62.9274 7.00152C63.7426 6.76596 64.5816 6.57804 65.4206 6.44571C65.6826 6.40336 65.9288 6.58069 65.9685 6.84272C66.0108 7.10474 65.8308 7.35088 65.5715 7.39059C64.7722 7.51763 63.9728 7.6976 63.1947 7.92257C63.0015 7.97551 62.803 7.90669 62.6839 7.75848ZM67.6015 6.97505C67.5406 6.8983 67.5009 6.80037 67.4983 6.6945C67.4903 6.42983 67.6968 6.20751 67.9614 6.19957C68.811 6.17045 69.6686 6.19427 70.5129 6.26838C70.7775 6.2922 70.9707 6.52511 70.9469 6.78978C70.9231 7.05445 70.6902 7.24766 70.4255 7.22384C69.6209 7.15238 68.8031 7.12856 67.9932 7.15767C67.837 7.16297 67.6941 7.09151 67.6015 6.97505ZM72.5614 7.41705C72.4741 7.30854 72.437 7.16297 72.4688 7.0174C72.5244 6.75802 72.7785 6.59392 73.0378 6.64951C73.8689 6.82684 74.6947 7.05975 75.494 7.33765C75.7454 7.42499 75.8778 7.6976 75.7904 7.94904C75.7031 8.20048 75.4305 8.33281 75.1817 8.24547C74.4168 7.9808 73.6281 7.76113 72.8367 7.58909C72.7229 7.56262 72.6276 7.50175 72.5614 7.41705ZM77.262 9.05007C77.1508 8.9098 77.1217 8.71129 77.2064 8.53926C77.3229 8.30105 77.6114 8.20313 77.8469 8.31958C78.6092 8.69541 79.3529 9.11889 80.0622 9.58471C80.2845 9.73028 80.3454 10.0267 80.1998 10.249C80.0543 10.4714 79.7578 10.5322 79.5355 10.3867C78.8606 9.94202 78.1513 9.53707 77.4234 9.17976C77.3599 9.148 77.3043 9.10301 77.262 9.05007ZM81.42 11.7788C81.2797 11.6042 81.2797 11.3474 81.4306 11.1701C81.6026 10.9689 81.9043 10.9451 82.1055 11.1145C82.7486 11.6624 83.368 12.2579 83.9423 12.8852C84.1196 13.0837 84.109 13.3854 83.9132 13.5627C83.7173 13.7427 83.4156 13.7295 83.2356 13.5336C82.6877 12.9354 82.0975 12.3664 81.4835 11.845C81.4597 11.8265 81.4385 11.8027 81.42 11.7788ZM86.1047 17.5672C86.0861 17.546 86.0729 17.5222 86.057 17.4957C85.7235 16.8817 85.3503 16.273 84.9507 15.6907C84.8898 15.6033 84.8289 15.516 84.7681 15.4313C84.6145 15.2143 84.6648 14.9152 84.8792 14.7617C85.0936 14.6082 85.4006 14.6532 85.5488 14.8728C85.615 14.9655 85.6785 15.0555 85.7421 15.1481C86.1629 15.7568 86.5519 16.3947 86.9013 17.0379C87.0284 17.2708 86.941 17.5619 86.7081 17.6889C86.499 17.8001 86.2449 17.7445 86.1047 17.5672Z" fill="#BDD0FB"/>
</g>
<g opacity="0.3">
<path d="M52.6722 40.0122C52.5081 39.8084 52.5399 39.5093 52.7437 39.3425C52.9475 39.1758 53.2518 39.2049 53.4186 39.4113C53.9241 40.028 54.4693 40.6209 55.0437 41.1688C55.2316 41.3514 55.2422 41.6558 55.0569 41.8463C54.8743 42.0369 54.5699 42.0448 54.3793 41.8596C53.7785 41.2826 53.2042 40.6632 52.6775 40.0148C52.6749 40.0148 52.6722 40.0148 52.6722 40.0122ZM51.235 38.0218C51.2245 38.0086 51.2139 37.9954 51.2059 37.9795C50.7586 37.2754 50.3484 36.5344 49.9911 35.7827C49.8773 35.5445 49.9779 35.2587 50.2161 35.1448C50.4543 35.031 50.7428 35.1343 50.8566 35.3698C51.2006 36.0871 51.5897 36.7938 52.0158 37.466C52.1588 37.6883 52.0926 37.9848 51.8676 38.1277C51.6585 38.26 51.3859 38.2124 51.235 38.0218ZM56.2056 43.3999C56.0732 43.2332 56.0627 42.9923 56.1976 42.815C56.3564 42.6033 56.6555 42.5583 56.8673 42.7171C57.5078 43.1935 58.18 43.6355 58.8708 44.0299C59.1011 44.1622 59.1805 44.4533 59.0481 44.6836C58.9158 44.9139 58.6247 44.9933 58.3944 44.8609C57.6719 44.448 56.9652 43.9822 56.2956 43.482C56.2612 43.4608 56.232 43.4317 56.2056 43.3999ZM49.1283 33.6018C49.0939 33.5595 49.0674 33.5092 49.0489 33.4562C48.7842 32.6649 48.5645 31.847 48.4004 31.0292C48.3475 30.7698 48.5142 30.5157 48.7763 30.4628C49.0356 30.4099 49.2871 30.5793 49.34 30.8386C49.4988 31.6194 49.7079 32.3976 49.9593 33.1519C50.044 33.4033 49.9064 33.6759 49.6576 33.758C49.4591 33.8215 49.25 33.7527 49.1283 33.6018ZM60.4535 45.8323C60.3477 45.6999 60.3159 45.5147 60.3874 45.3479C60.4906 45.1044 60.7712 44.988 61.0147 45.0912C61.7478 45.4009 62.5074 45.6682 63.2723 45.8852C63.5264 45.9567 63.6746 46.224 63.6031 46.4781C63.5317 46.7322 63.2644 46.8804 63.0103 46.8089C62.2083 46.5813 61.4117 46.3007 60.6415 45.9778C60.5674 45.9408 60.5038 45.8931 60.4535 45.8323ZM65.1621 47.1742C65.08 47.0736 65.0429 46.9386 65.0641 46.801C65.1065 46.5389 65.35 46.3616 65.612 46.4013C66.4007 46.5257 67.2027 46.6025 67.9967 46.6316C68.2613 46.6422 68.4678 46.8645 68.4572 47.1292C68.4466 47.3938 68.2243 47.6003 67.9623 47.5897C67.1286 47.5606 66.2895 47.4785 65.4638 47.3488C65.3394 47.3277 65.2335 47.2641 65.1621 47.1742ZM70.0558 47.3488C70.0002 47.2774 69.9605 47.19 69.9526 47.0921C69.9288 46.8274 70.1246 46.5972 70.3893 46.5733C71.1833 46.5072 71.98 46.3881 72.7581 46.2266C73.0175 46.1737 73.2716 46.3378 73.3245 46.5972C73.3801 46.8566 73.2134 47.1106 72.954 47.1662C72.1388 47.3382 71.3024 47.46 70.4687 47.5315C70.3073 47.542 70.1537 47.4706 70.0558 47.3488Z" fill="#BDD0FB"/>
<path d="M48.1459 28.7819C48.0877 28.7104 48.0506 28.6204 48.0427 28.5199C48.0109 28.1096 47.9924 27.6994 47.9845 27.2944C47.9792 27.0298 48.1909 26.8101 48.4556 26.8048C48.7203 26.7995 48.9373 27.0112 48.9452 27.2759C48.9532 27.6597 48.9717 28.054 49.0008 28.4431C49.022 28.7078 48.8235 28.938 48.5588 28.9592C48.3947 28.9724 48.2412 28.901 48.1459 28.7819Z" fill="#BDD0FB"/>
</g>
<path d="M53.2396 25.2383C53.2184 25.3388 53.2634 25.4447 53.3507 25.4977L55.8757 27.0327C55.8969 28.4117 56.1404 29.7986 56.6168 31.1378L54.7905 33.4563C54.727 33.5384 54.7217 33.6495 54.7773 33.7369L56.6935 36.7171C56.7491 36.8044 56.855 36.8468 56.9555 36.8229L59.8246 36.1216C60.8436 37.1088 62.0055 37.9054 63.2521 38.4983L63.6014 41.4335C63.6147 41.5367 63.6888 41.6214 63.792 41.6426L67.2565 42.3943C67.3571 42.4154 67.463 42.3704 67.5159 42.2831L69.051 39.7581C70.43 39.737 71.8168 39.4935 73.1561 39.0171L75.4746 40.8459C75.5566 40.9095 75.6678 40.9147 75.7551 40.8592L78.7353 38.9429C78.8227 38.8874 78.865 38.7815 78.8386 38.6809L78.1372 35.8119C79.1244 34.7929 79.9211 33.631 80.5139 32.3844L83.4491 32.035C83.5524 32.0218 83.637 31.9477 83.6582 31.8445L84.4099 28.3799C84.4311 28.2793 84.3861 28.1735 84.2987 28.1205L81.7738 26.5855C81.7526 25.2065 81.5091 23.8196 81.0327 22.4804L82.8616 20.1619C82.9251 20.0798 82.9304 19.9687 82.8748 19.8813L80.9586 16.9011C80.903 16.8138 80.7971 16.7714 80.6966 16.7953L77.8275 17.4966C76.8085 16.5094 75.6466 15.7128 74.4 15.1199L74.0507 12.1847C74.0374 12.0815 73.9633 11.9968 73.8601 11.9756L70.3955 11.2239C70.295 11.2028 70.1891 11.2478 70.1362 11.3351L68.6011 13.8601C67.2221 13.8812 65.8353 14.1247 64.496 14.6011L62.1775 12.7723C62.0955 12.7087 61.9843 12.7034 61.897 12.759L58.9168 14.6752C58.8294 14.7308 58.7871 14.8367 58.8109 14.9373L59.5123 17.8063C58.525 18.8253 57.7284 19.9872 57.1355 21.2338L54.2003 21.5832C54.0971 21.5964 54.0124 21.6705 53.9912 21.7737L53.2396 25.2383Z" fill="#5CAFFC"/>
<path d="M65.9807 29.0601C65.499 28.454 65.2238 27.7156 65.1973 26.9268C65.1656 25.9581 65.5123 25.0371 66.1739 24.3278C67.5397 22.8668 69.8396 22.79 71.3006 24.1557C72.7616 25.5267 72.8384 27.8214 71.4727 29.2824C70.811 29.9891 69.9138 30.3967 68.9451 30.4284C67.9764 30.4602 67.0527 30.1135 66.346 29.4518C66.2137 29.3327 66.0919 29.2004 65.9807 29.0601ZM70.9116 25.1482C70.8322 25.0477 70.7422 24.9524 70.6469 24.8598C69.5723 23.854 67.8811 23.9122 66.8753 24.9868C66.3883 25.5082 66.1342 26.1858 66.1581 26.8977C66.1819 27.6097 66.481 28.2687 67.0024 28.7584C67.5238 29.2454 68.2013 29.4994 68.9133 29.4756C69.6253 29.4518 70.2869 29.1527 70.7739 28.6313C71.6844 27.652 71.7215 26.1646 70.9116 25.1482Z" fill="url(#paint2_linear_1159_91143)"/>
<path d="M61.834 32.4473C61.6461 32.2091 61.4661 31.9603 61.2994 31.701C60.9659 31.1849 60.6853 30.6317 60.4657 30.06C60.4551 30.0335 60.4471 30.0097 60.4366 29.9833C60.3624 29.7847 60.4286 29.5651 60.5874 29.4407C60.6271 29.4089 60.6695 29.3851 60.7171 29.3666C60.9659 29.2739 61.2412 29.401 61.3338 29.6471C61.5349 30.1844 61.7943 30.7005 62.1066 31.1822C62.1225 31.2087 62.141 31.2351 62.1596 31.2616C62.9059 32.3997 63.9064 33.3049 65.0762 33.9321C65.7115 34.2709 66.3943 34.5277 67.1142 34.6918C67.1195 34.6944 67.1248 34.6944 67.1327 34.697C67.1513 34.6997 67.1698 34.705 67.1857 34.7076C69.2925 35.1655 71.4522 34.7764 73.2652 33.6092C73.5007 33.4584 73.7257 33.2969 73.9401 33.1249C75.3878 31.9709 76.3883 30.367 76.7879 28.5329C77.2458 26.4261 76.8541 24.2664 75.6896 22.4534C74.5224 20.6404 72.72 19.3885 70.6132 18.9306C68.5064 18.4727 66.3467 18.8618 64.5337 20.029C64.3034 20.1772 64.0811 20.336 63.8667 20.5054C62.943 21.2412 62.1887 22.1728 61.6646 23.2315C61.6329 23.2977 61.5879 23.3506 61.5323 23.3929C61.392 23.5041 61.1935 23.5332 61.0215 23.4485C60.7833 23.3294 60.688 23.0436 60.8044 22.8054C61.392 21.6196 62.2337 20.5795 63.2685 19.7537C63.5067 19.5631 63.7555 19.3858 64.0149 19.2191C66.0449 17.9142 68.4614 17.4775 70.817 17.991C73.1752 18.5045 75.192 19.9019 76.4968 21.932C77.8016 23.962 78.2383 26.3758 77.7249 28.734C77.2802 30.7852 76.1607 32.5797 74.5382 33.8713C74.2974 34.0618 74.0459 34.2445 73.7839 34.4138C69.8509 36.9415 64.6819 36.0257 61.834 32.4473Z" fill="url(#paint3_linear_1159_91143)"/>
<path d="M204.297 171.933C204.297 173.821 202.751 175.364 200.864 175.364H15.1816C13.2918 175.364 11.7488 173.821 11.7488 171.933L10.2031 65.2259C10.2031 63.3388 12.4264 59.6546 16.4997 59.9325L197.969 55.2372C200.338 55.1764 202.63 56.0868 204.308 57.7596C205.986 59.4323 206.904 61.719 206.849 64.0852L204.297 171.933Z" fill="white"/>
<path d="M200.906 168.643C200.906 170.429 199.445 171.89 197.658 171.89H19.659C17.8724 171.89 16.4115 170.429 16.4115 168.643L14.9531 71.7729C15.1252 65.9449 20.236 63.8487 23.3326 63.9731L197.261 59.3069C198.926 59.2619 200.535 59.9024 201.716 61.0802C202.894 62.258 203.539 63.8645 203.497 65.5293L200.906 168.643Z" fill="white"/>
<path d="M28.814 149.761C28.9861 142.972 28.9225 82.8652 28.4991 77.6724C28.0756 72.4822 36.8441 71.5082 50.3027 70.9233C63.7612 70.3383 177.316 68.0251 180.24 67.8081C186.812 67.3158 188.173 76.3755 187.516 96.0458C187.021 110.822 186.203 135.164 185.828 146.36C185.716 149.692 182.763 152.339 179.145 152.347C151.817 152.416 47.0843 152.693 40.1128 152.884C32.088 153.104 28.7452 152.45 28.814 149.761Z" fill="#3D82F7"/>
<path d="M214.67 184.218H5.13264C2.55474 184.218 0.445312 182.109 0.445312 179.531C0.445312 176.953 2.55474 174.844 5.13264 174.844H214.67C217.248 174.844 219.358 176.953 219.358 179.531C219.358 182.109 217.248 184.218 214.67 184.218Z" fill="white"/>
<path d="M119.945 157.566C119.945 158.501 119.188 159.258 118.254 159.258C117.319 159.258 116.562 158.501 116.562 157.566C116.562 156.632 117.319 155.875 118.254 155.875C119.188 155.872 119.945 156.632 119.945 157.566Z" fill="url(#paint4_linear_1159_91143)"/>
<path d="M216.843 206.057H113.391V185.352H216.843C214.627 185.352 214.627 206.057 216.843 206.057Z" fill="#F3F8FB"/>
<path d="M113.394 200.877V191.402C113.394 188.061 115.437 185.354 117.959 185.354H219.733C219.879 185.354 219.998 185.235 219.998 185.089V180.937C219.998 180.791 219.879 180.672 219.733 180.672H111.314C108.847 180.672 104.93 184.552 104.93 189.337V202.571C104.93 207.083 108.733 210.741 111.059 210.741H219.739C219.884 210.741 220.003 210.622 220.003 210.476V206.324C220.003 206.178 219.884 206.059 219.739 206.059H117.306C115.146 206.056 113.394 203.738 113.394 200.877Z" fill="#5CAFFC"/>
<path d="M214.667 204.361H122.172C118.133 204.361 114.859 201.563 114.859 198.115V193.84C114.859 190.019 118.485 186.922 122.958 186.922H214.664C212.483 186.922 212.483 204.361 214.667 204.361Z" fill="#F3F8FB"/>
<path d="M213.264 192.936H116.265C116.119 192.936 116 192.816 116 192.671C116 192.525 116.119 192.406 116.265 192.406H213.264C213.41 192.406 213.529 192.525 213.529 192.671C213.529 192.816 213.41 192.936 213.264 192.936Z" fill="white"/>
<path d="M213.264 199.084H116.265C116.119 199.084 116 198.965 116 198.819C116 198.674 116.119 198.555 116.265 198.555H213.264C213.41 198.555 213.529 198.674 213.529 198.819C213.529 198.965 213.41 199.084 213.264 199.084Z" fill="white"/>
<path d="M138.908 180.809H216.777C218.349 180.809 219.622 179.536 219.622 177.963V163.486C219.622 161.914 218.349 160.641 216.777 160.641H138.908C137.336 160.641 136.063 161.914 136.063 163.486V177.963C136.06 179.536 137.336 180.809 138.908 180.809Z" fill="#3D5278"/>
<path d="M200.363 178.492H210.18V162.959H200.363V178.492Z" fill="#5CAFFC" fill-opacity="0.3"/>
<path d="M195.238 178.492H198.922V162.959H195.238V178.492Z" fill="#5CAFFC" fill-opacity="0.3"/>
<path d="M144.963 181.177C144.998 181.163 163.604 148.577 166.118 145.51C166.542 144.993 167.196 144.731 167.857 144.811L173.05 145.43L179.151 158.629L168.985 152.709C169.99 159.664 156.932 170.002 152.453 173.774C151.998 174.158 151.961 174.843 152.371 175.272L154.16 177.143C151.225 180.118 147.837 182.029 144.016 182.913L144.963 181.177Z" fill="#FDF2F2"/>
<path d="M153.134 176.141C153.134 176.141 154.274 176.509 154.661 177.525C154.846 178.012 154.648 178.562 154.224 178.864C152.345 180.211 146.146 184.557 143.288 185.407C143.052 185.476 142.83 185.264 142.883 185.026C143.028 184.361 143.505 183.035 145.035 181.093L144.897 181.371C144.722 181.723 145.106 182.088 145.448 181.895C147.358 180.815 151.254 178.451 153.134 176.141Z" fill="white"/>
<path d="M152.215 189.175C152.247 189.154 155.039 182.428 155.068 182.41C157.627 166.826 163.874 153.479 165.716 149.967C166.026 149.376 166.613 148.987 167.277 148.929L172.489 148.484L181.136 160.175L169.982 156.435C172.375 163.044 161.68 175.812 158.056 180.412C157.688 180.877 157.792 181.558 158.279 181.896L160.409 183.368C158.136 186.875 155.206 189.432 151.641 191.07L152.215 189.175Z" fill="#FDF2F2"/>
<path d="M159.192 182.586C159.192 182.586 160.383 182.716 160.968 183.634C161.249 184.073 161.164 184.653 160.812 185.034C159.245 186.733 154.055 192.244 151.427 193.654C151.213 193.771 150.95 193.607 150.953 193.363C150.964 192.683 151.16 191.288 152.263 189.076L152.184 189.375C152.086 189.753 152.533 190.034 152.83 189.777C154.484 188.335 157.821 185.23 159.192 182.586Z" fill="white"/>
<path d="M196.88 146.019C196.88 146.019 201.593 153.03 201.98 156.23C202.366 159.43 200.675 160.534 195.741 160.944C181.057 162.159 173.819 157.757 173.819 157.757C172.813 151.352 172.098 149.725 163.711 146.241C163.711 146.241 174.322 147.083 176.457 146.255C178.593 145.424 196.88 146.019 196.88 146.019Z" fill="#1A202C"/>
<path d="M178.086 106.735C178.086 106.735 181.371 102.849 184.862 107.616C185.494 108.479 187.921 107.767 188.813 109.575C189.274 110.509 190.266 111.038 191.288 110.848C193.834 110.377 198 110.34 200.054 114.331C201.623 117.377 200.411 119.161 198.844 120.177C197.693 120.924 197.28 122.44 197.979 123.623C198.646 124.759 198.773 126.294 197.047 128.144C193.18 132.289 185.526 125.513 185.526 125.513L179.446 111.155L178.086 106.735Z" fill="#1A202C"/>
<path d="M184.131 145.088C184.131 145.088 178.642 139.861 175.94 136.399C174.479 134.528 174.021 132.064 174.696 129.788C175.929 125.63 178.123 121.326 178.322 120.657C178.629 119.63 184.785 119.672 184.785 119.672C184.785 119.672 196.899 127.533 201.658 140.851L196.314 142.516C196.314 142.516 193.151 137.209 190.025 133.837C190.025 133.837 195.433 140.981 195.623 143.905L184.131 145.088Z" fill="#5CAFFC"/>
<path d="M173.672 147.153L177.798 142.665L182.562 143.948C182.562 143.948 188.118 144.808 191.296 143.948C194.475 143.088 194.475 143.088 194.475 143.088L201.658 140.852L202.786 144.041C203.072 144.851 202.783 145.748 202.084 146.246C201.462 146.688 200.735 147.172 200.271 147.376C199.326 147.789 178.478 147.505 178.478 147.505L173.672 147.153Z" fill="#FDF2F2"/>
<path d="M180.551 112.274L184.688 119.968C184.415 121.646 180.186 121.693 179.532 120.693C179.466 120.59 179.426 120.473 179.402 120.354L176.928 115.214C176.822 114.714 178.195 113.023 178.648 112.784L180.292 111.908C180.924 111.57 178.283 111.543 180.551 112.274Z" fill="#FDF2F2"/>
<path d="M172.186 110.467C172.186 110.467 171.721 113.066 173.761 116.371C175.804 119.677 177.84 119.526 178.872 118.349C179.904 117.171 181.143 115.207 180.579 111.912C180.018 108.614 172.893 107.153 172.186 110.467Z" fill="#FDF2F2"/>
<path d="M178.105 112.272C178.105 112.272 174.797 107.926 172.259 111.713L172.301 113.021C172.301 113.021 168.998 112.867 169.355 109.824C169.712 106.78 172.409 104.7 176.147 105.74C179.884 106.78 182.07 107.963 182.491 110.559C182.912 113.156 180.794 112.73 180.794 112.73C180.794 112.73 179.984 110.938 179.008 110.816C178.031 110.694 178.383 112.11 178.383 112.11L178.105 112.272Z" fill="#1A202C"/>
<path d="M178.863 112.154C178.863 112.154 177.151 109.931 178.71 109.468C180.269 109.007 180.211 111.646 180.11 112.628L178.863 112.154Z" fill="#FDF2F2"/>
<path d="M187.319 148.931C187.306 148.931 187.29 148.931 187.277 148.931L168.303 148.91C167.834 148.91 167.453 148.529 167.453 148.061C167.453 147.592 167.837 147.203 168.303 147.211L187.277 147.232C187.745 147.232 188.127 147.613 188.127 148.082C188.124 148.54 187.767 148.91 187.319 148.931Z" fill="url(#paint5_linear_1159_91143)"/>
<path d="M151.247 131.703H167.048C168.212 131.703 169.274 132.375 169.771 133.431L177.076 148.923H157.44C156.689 148.923 156.014 148.465 155.738 147.766L150.074 133.431C149.746 132.6 150.355 131.703 151.247 131.703Z" fill="white"/>
<path d="M162.381 139.645C162.722 140.709 162.471 141.742 161.817 141.953C161.163 142.165 160.353 141.472 160.012 140.408C159.67 139.344 159.922 138.312 160.575 138.1C161.229 137.891 162.039 138.582 162.381 139.645Z" fill="#5CAFFC"/>
<path d="M162.452 42.0938L159.178 53.8901C158.734 55.4914 159.004 57.2065 159.922 58.5907C162.23 62.0658 167.873 68.3438 179.839 71.5464C191.99 74.7992 198.871 71.4537 201.83 69.249C202.902 68.4497 203.68 67.3222 204.051 66.0386L207.634 53.5461L162.452 42.0938Z" fill="#3D82F7"/>
<path d="M188.357 26.9054L154.32 36.4389C152.568 36.9285 152.07 39.1756 153.454 40.3587C160.201 46.1285 175.533 59.5685 181.343 67.3737C181.965 68.21 183.074 68.5117 184.035 68.1147L218.474 53.8596C220.032 53.2138 220.374 51.1599 219.106 50.0483C212.426 44.1832 195.421 29.4966 189.894 27.0166C189.41 26.7996 188.867 26.7625 188.357 26.9054Z" fill="#5CAFFC"/>
<path d="M187.615 44.4844C187.615 44.4844 205.761 55.9288 207.143 58.5437C208.524 61.1587 205.743 73.045 205.743 73.045C208.599 83.1052 209.022 94.0308 204.197 99.7477C204.197 99.7477 198.247 86.5168 200.905 80.9402C203.562 75.3636 204.586 73.0768 204.586 73.0768C204.586 73.0768 206.91 60.4043 206.177 58.594C206.177 58.5966 186.075 45.2096 187.615 44.4844Z" fill="#EE9967"/>
<path d="M158.896 39.5961L176.314 56.7785L180.668 61.0741L181.756 62.1487L182.298 62.6833C182.468 62.8501 182.661 62.993 182.862 63.1174C183.674 63.6176 184.707 63.7341 185.615 63.4165L197.215 59.5311C197.308 59.4994 197.406 59.5496 197.437 59.6423C197.469 59.7323 197.419 59.8328 197.329 59.862L185.757 63.8347C184.738 64.2026 183.553 64.0808 182.621 63.5144C182.388 63.3741 182.169 63.21 181.973 63.0221L181.422 62.4875L180.326 61.4209L175.938 57.1597L158.39 40.1095C158.248 39.9719 158.245 39.7416 158.383 39.5987C158.523 39.4585 158.75 39.4558 158.896 39.5961Z" fill="white"/>
<path d="M204.416 79.161L204.382 79.198L204.342 79.2457L204.26 79.3409L204.104 79.5527C204 79.6956 203.91 79.8518 203.813 80L203.553 80.4764C203.474 80.6378 203.402 80.8072 203.326 80.9713C203.246 81.1354 203.185 81.3074 203.124 81.4795C203.063 81.6515 202.995 81.8209 202.939 81.9956L202.791 82.5249C202.743 82.7023 202.685 82.8769 202.656 83.0596L202.547 83.6022C202.513 83.7821 202.468 83.9621 202.452 84.1474C202.41 84.5153 202.359 84.8805 202.32 85.2484L202.267 86.36C202.264 86.4527 202.256 86.5453 202.256 86.6379L202.262 86.9158L202.275 87.4743C202.269 88.2207 202.37 88.9591 202.431 89.7028C202.444 89.8881 202.473 90.0734 202.502 90.2586L202.59 90.8118C202.651 91.1797 202.701 91.5502 202.767 91.9181C202.931 92.6486 203.082 93.3818 203.259 94.1096L203.871 96.2746L203.873 96.2799C203.892 96.3461 203.852 96.4149 203.786 96.4334C203.72 96.4519 203.654 96.4149 203.633 96.3487L202.963 94.1864C202.764 93.4585 202.595 92.7201 202.41 91.9896C202.333 91.619 202.269 91.2459 202.201 90.8753L202.097 90.3169C202.063 90.1316 202.026 89.9437 202.01 89.7558C201.928 89.0014 201.806 88.2524 201.793 87.4902L201.764 86.9211L201.751 86.6353C201.748 86.54 201.753 86.4447 201.756 86.3494L201.782 85.2061C201.812 84.8249 201.854 84.4465 201.888 84.0653C201.902 83.8748 201.941 83.6868 201.973 83.4963L202.071 82.9299C202.097 82.7393 202.153 82.5541 202.198 82.3688L202.338 81.8077C202.391 81.6224 202.46 81.4398 202.518 81.2572C202.579 81.0745 202.637 80.8893 202.719 80.7119C202.796 80.5346 202.868 80.352 202.95 80.1747L203.217 79.6506C203.32 79.4812 203.415 79.3092 203.529 79.1451L203.704 78.8989L203.802 78.7772L203.852 78.7163L203.913 78.6501C204.045 78.5019 204.273 78.4913 204.421 78.6237C204.569 78.756 204.58 78.9836 204.448 79.1319C204.445 79.1345 204.445 79.1345 204.442 79.1371L204.416 79.161Z" fill="white"/>
<path d="M204.978 83.8502V84.5596L204.983 85.3589L205.004 86.9575L205.06 90.16L205.189 96.5624C205.192 96.6709 205.107 96.7609 204.999 96.7635C204.893 96.7662 204.803 96.6815 204.798 96.5756L204.504 90.1759L204.366 86.976L204.305 85.3747L204.279 84.5728L204.268 84.1678L204.266 83.9641C204.266 83.8767 204.271 83.7735 204.282 83.6782C204.3 83.485 204.469 83.3447 204.663 83.3606C204.845 83.3765 204.98 83.53 204.98 83.7073L204.978 83.8502Z" fill="white"/>
<path d="M83.5298 89.978H10.3614C7.39445 89.978 4.91713 87.7203 4.63657 84.7692L0.0260016 35.8421C-0.288957 32.5125 2.29688 29.617 5.63968 29.5535L83.4212 28.0714C86.6396 28.0105 89.2811 30.6016 89.2811 33.82V84.2267C89.2811 87.4027 86.7058 89.978 83.5298 89.978Z" fill="#91B3FA"/>
<path d="M4.6983 40.2029L7.96964 82.5079C8.11256 84.3448 9.63442 85.7713 11.4765 85.7899L81.7044 86.5257C83.6815 86.5468 85.2986 84.9482 85.2986 82.9711V37.4238C85.2986 35.4123 83.6312 33.8005 81.6223 33.8693L8.1205 36.3757C6.09841 36.4446 4.54215 38.1835 4.6983 40.2029Z" fill="white"/>
<path opacity="0.5" d="M12.6562 78.8253H75.8544C77.7151 78.8253 79.2184 77.3061 79.1972 75.4454L78.877 45.9531L73.5015 52.7525L69.1503 53.3083C69.1503 53.3083 65.2517 53.446 64.2063 53.5862C63.1608 53.7265 58.3411 54.8355 58.3411 54.8355L53.6935 57.1964L52.6004 60.1977L49.4058 62.0293L45.9413 64.0672H38.8984L30.2357 60.1977H27.2952L21.9594 63.3103L16.9598 69.1145L12.6562 78.8253Z" fill="white"/>
<path d="M13.355 42.6314L52.9577 41.4457C53.3627 41.4325 53.6988 41.758 53.6988 42.1656V42.8035C53.6988 43.1978 53.3812 43.5181 52.9895 43.5234L13.3867 44.0712C12.9844 44.0765 12.6562 43.7536 12.6562 43.3513C12.6562 42.9596 12.9659 42.642 13.355 42.6314Z" fill="url(#paint6_linear_1159_91143)"/>
<path d="M12.6562 46.673V46.9456C12.6562 47.3426 12.9791 47.6655 13.3762 47.6655H52.9789C53.3759 47.6655 53.6988 47.3426 53.6988 46.9456V46.673C53.6988 46.276 53.3759 45.9531 52.9789 45.9531H13.3762C12.9765 45.9531 12.6562 46.276 12.6562 46.673Z" fill="url(#paint7_linear_1159_91143)"/>
<path d="M12.8752 78.8248C12.7006 78.8248 12.5206 78.7904 12.3512 78.7163C11.6657 78.4252 11.3481 77.6364 11.6392 76.9509C16.2048 66.1947 21.3341 60.3375 27.321 59.0486C31.4446 58.1593 34.6365 59.7976 37.45 61.2454C40.446 62.7831 43.0319 64.1117 46.5785 62.7725C49.2543 61.7615 50.7206 59.9035 52.2716 57.937C54.2063 55.4835 56.2072 52.9479 60.442 52.228C62.562 51.8681 64.2162 52.1486 65.6798 52.3948C67.4478 52.6938 68.8453 52.9294 70.78 51.9951C73.0535 50.8967 75.0439 48.6894 76.6954 45.4392C77.0316 44.7775 77.8414 44.5128 78.5058 44.849C79.1674 45.1851 79.4321 45.995 79.096 46.6593C77.1718 50.4494 74.7686 53.0591 71.9525 54.4221C69.2449 55.7296 67.2043 55.3855 65.2325 55.0547C63.8589 54.8244 62.5646 54.6048 60.8946 54.888C57.6814 55.4332 56.1543 57.3679 54.3863 59.6097C52.7533 61.6794 50.9059 64.0218 47.5313 65.2975C42.8678 67.0575 39.3371 65.2445 36.2219 63.6459C33.5752 62.2855 31.074 61.0019 27.89 61.6874C22.8931 62.7646 18.2587 68.2565 14.1192 78.0096C13.8969 78.5178 13.3993 78.8248 12.8752 78.8248Z" fill="#EE9967"/>
<path d="M51.3605 77.674C51.2096 78.153 52.9564 78.8835 53.986 76.9223C54.023 75.9827 54.5947 71.9544 54.031 71.1869C51.0376 67.1056 45.236 61.9922 45.236 61.9922C44.254 62.9609 45.0639 63.9111 45.0639 63.9111L47.8774 66.8436C47.2898 67.9076 46.5699 68.8048 46.2338 70.0938C45.9797 71.0678 46.1358 72.1106 46.6281 72.9972C47.1231 73.8865 47.7953 75.0431 48.4332 75.9509C49.6401 77.6607 51.3605 77.674 51.3605 77.674Z" fill="#FDF2F2"/>
<path d="M49.114 68.7422L51.6786 70.9178L52.4832 73.0828L50.1965 75.621C50.1965 75.621 49.4289 71.3254 48.8573 70.3964C48.2856 69.4647 48.582 69.0148 49.114 68.7422Z" fill="#FDF2F2"/>
<path d="M99.821 237.812C99.821 237.812 100.469 241.481 100.787 245.112C100.911 246.531 99.8183 247.764 98.3944 247.822C93.5589 248.024 83.2129 248.415 79.5022 248.248C78.9437 248.225 78.5785 247.653 78.7849 247.134C78.957 246.7 79.2931 246.348 79.7166 246.152L96.8037 238.3L99.821 237.812Z" fill="white"/>
<path d="M100.355 235.654L99.8336 240.042C99.8336 240.042 96.8401 241.435 94.7969 239.868L96.0355 234.977L100.355 235.654Z" fill="url(#paint8_linear_1159_91143)"/>
<path d="M99.9628 153.156C100.188 154.302 101.17 210.338 95.1802 235.45C95.0823 235.861 95.2914 236.282 95.6804 236.443C96.5989 236.819 98.4013 237.361 100.558 237.436C101.228 237.457 101.826 237.023 102.014 236.382C103.726 230.557 111.931 201.363 113.001 173.478C114.197 142.318 113.001 172.416 113.001 172.416L112.299 153.156H99.9628Z" fill="#3D82F7"/>
<path d="M119.481 239.727C119.481 239.727 120.513 241.579 121.511 246.5C121.691 247.389 121.069 248.238 120.166 248.328C118.57 248.485 116.112 248.688 114.142 248.672C113.235 248.667 112.525 247.876 112.636 246.976C112.854 245.179 113.534 242.233 115.633 239.936L119.481 239.727Z" fill="white"/>
<path d="M120.384 234.08L119.167 240.715C119.167 240.715 117.965 241.61 115.586 240.961L116.166 233.82L120.384 234.08Z" fill="url(#paint9_linear_1159_91143)"/>
<path d="M123.673 154.875C128.572 184.442 122.612 227.948 120.6 236.466C120.478 236.987 120.058 237.387 119.528 237.474C118.631 237.622 117.154 237.744 115.696 237.32C115.193 237.175 114.841 236.722 114.82 236.201C114.55 229.317 115.037 187.051 110.471 170.348C110.241 169.501 109.722 168.763 109.007 168.255L100.149 161.955L99.4688 151.773L123.673 154.875Z" fill="#3D82F7"/>
<path d="M92.4527 98.8537C107.134 98.6102 123.332 102.707 123.332 102.707C127.707 128.243 124.097 157.695 124.097 157.695C112.732 160.676 99.9085 155.872 99.9085 155.872C98.0187 145.198 89.2052 115.163 89.2052 115.163C82.0326 114.273 76.1225 112.204 71.2578 109.467C74.9685 105.163 76.7206 99.6901 77.4802 96.4531C82.6731 98.065 87.9242 98.9278 92.4527 98.8537Z" fill="#EE9967"/>
<path d="M49.0859 77.23C50.5284 75.4884 52.3546 76.3116 52.3546 76.3116C54.5143 85.4374 65.8423 92.8376 77.4825 96.453C76.7229 99.69 74.9734 105.163 71.2601 109.467C51.9444 98.6101 49.0859 77.23 49.0859 77.23Z" fill="#FDF2F2"/>
<path d="M117.703 116.926L123.335 102.711C123.335 102.711 137.048 112.027 139.303 123.842C136.712 124.033 131.998 124.708 127.382 127.037C126.366 121.458 117.703 116.926 117.703 116.926Z" fill="#EE9967"/>
<path d="M107.322 86.9401L111.994 100.449C112.07 100.674 111.978 100.92 111.771 101.034C110.498 101.738 105.911 103.773 100.382 100.269C99.8055 99.9037 99.4138 99.3082 99.3264 98.6307L97.8125 86.9375H107.322V86.9401Z" fill="#FDF2F2"/>
<path d="M97.156 74.4297C97.156 74.4297 92.0266 84.0849 92.683 87.9861C93.3394 91.8874 99.6968 91.6068 105.25 88.4387L109.13 78.0133L97.156 74.4297Z" fill="#FDF2F2"/>
<path d="M105.008 83.3169C104.783 83.2163 104.698 82.941 104.833 82.7346C105.244 82.1073 106.014 80.8263 106.26 79.7041C106.26 79.7041 107.181 79.1139 103.912 78.3305C100.644 77.547 95.7683 76.3322 94.744 73.5505C93.7436 70.8376 96.3691 64.0144 100.559 69.4507C100.718 69.6572 101.03 69.6625 101.189 69.456C101.874 68.5614 103.679 66.7087 106.186 67.8309C108.531 68.8843 108.795 70.6021 108.764 71.4675C108.753 71.7216 108.981 71.9201 109.232 71.8725C110.418 71.6475 113.263 71.4517 114.592 74.371C115.685 76.7742 114.976 78.1372 114.327 78.8016C114.118 79.016 114.208 79.3733 114.496 79.4606C115.275 79.6988 116.283 80.3605 116.182 82.1867C116.042 84.7117 113.221 84.4894 112.419 84.3729C112.286 84.3544 112.154 84.3994 112.064 84.4973C111.376 85.2595 108.271 88.4965 104.913 88.8855C104.622 88.92 104.397 88.6315 104.492 88.3562L105.945 84.1294C106.014 83.9335 105.918 83.7192 105.728 83.6345L105.008 83.3169Z" fill="#1A202C"/>
<path d="M104.427 83.9204C104.427 83.9204 108.079 81.414 108.347 83.526C108.614 85.6355 105.057 86.583 103.297 85.7969L104.427 83.9204Z" fill="url(#paint10_linear_1159_91143)"/>
<path d="M127.383 127.04C127.383 127.04 132.176 148.664 127.835 160.82C133.158 163.287 132.176 162.824 132.176 162.824C132.176 162.824 142.705 132.058 139.306 123.846C132.599 123.134 129.275 124.936 127.383 127.04Z" fill="url(#paint11_linear_1159_91143)"/>
<path d="M127.832 160.821C127.832 160.821 125.09 164.37 125.309 165.783C125.529 167.197 125.582 167.774 125.582 167.774C125.582 167.774 126.961 166.832 126.874 165.627C126.683 169.449 125.402 173.798 126.567 173.589C127.731 173.379 133.752 167.827 132.392 161.911C129.298 159.762 128.433 159.995 127.832 160.821Z" fill="url(#paint12_linear_1159_91143)"/>
</g>
<defs>
<linearGradient id="paint0_linear_1159_91143" x1="100.97" y1="44.4553" x2="111.617" y2="44.4553" gradientUnits="userSpaceOnUse">
<stop stop-color="#DAE3FE"/>
<stop offset="1" stop-color="#E9EFFD"/>
</linearGradient>
<linearGradient id="paint1_linear_1159_91143" x1="94.1242" y1="44.4782" x2="119.504" y2="44.4782" gradientUnits="userSpaceOnUse">
<stop stop-color="#DAE3FE"/>
<stop offset="1" stop-color="#E9EFFD"/>
</linearGradient>
<linearGradient id="paint2_linear_1159_91143" x1="65.1957" y1="26.8088" x2="72.4473" y2="26.8088" gradientUnits="userSpaceOnUse">
<stop stop-color="#DAE3FE"/>
<stop offset="1" stop-color="#E9EFFD"/>
</linearGradient>
<linearGradient id="paint3_linear_1159_91143" x1="60.4042" y1="26.8143" x2="77.9305" y2="26.8143" gradientUnits="userSpaceOnUse">
<stop stop-color="#DAE3FE"/>
<stop offset="1" stop-color="#E9EFFD"/>
</linearGradient>
<linearGradient id="paint4_linear_1159_91143" x1="119.058" y1="154.51" x2="109.69" y2="190.044" gradientUnits="userSpaceOnUse">
<stop stop-color="#FEBBBA"/>
<stop offset="1" stop-color="#FF928E"/>
</linearGradient>
<linearGradient id="paint5_linear_1159_91143" x1="190.538" y1="143.89" x2="175.476" y2="148.83" gradientUnits="userSpaceOnUse">
<stop stop-color="#4F52FF"/>
<stop offset="1" stop-color="#4042E2"/>
</linearGradient>
<linearGradient id="paint6_linear_1159_91143" x1="33.1763" y1="-44.4697" x2="33.1763" y2="-0.00484746" gradientUnits="userSpaceOnUse">
<stop stop-color="#DAE3FE"/>
<stop offset="1" stop-color="#E9EFFD"/>
</linearGradient>
<linearGradient id="paint7_linear_1159_91143" x1="33.1763" y1="-44.4671" x2="33.1763" y2="-0.00216833" gradientUnits="userSpaceOnUse">
<stop stop-color="#DAE3FE"/>
<stop offset="1" stop-color="#E9EFFD"/>
</linearGradient>
<linearGradient id="paint8_linear_1159_91143" x1="100.354" y1="237.795" x2="94.7958" y2="237.795" gradientUnits="userSpaceOnUse">
<stop stop-color="#FEBBBA"/>
<stop offset="1" stop-color="#FF928E"/>
</linearGradient>
<linearGradient id="paint9_linear_1159_91143" x1="120.384" y1="237.51" x2="115.585" y2="237.51" gradientUnits="userSpaceOnUse">
<stop stop-color="#FEBBBA"/>
<stop offset="1" stop-color="#FF928E"/>
</linearGradient>
<linearGradient id="paint10_linear_1159_91143" x1="98.5424" y1="89.1179" x2="112.596" y2="80.5461" gradientUnits="userSpaceOnUse">
<stop stop-color="#FEBBBA"/>
<stop offset="1" stop-color="#FF928E"/>
</linearGradient>
<linearGradient id="paint11_linear_1159_91143" x1="123.919" y1="199.062" x2="135.469" y2="116.112" gradientUnits="userSpaceOnUse">
<stop stop-color="#FEBBBA"/>
<stop offset="1" stop-color="#FF928E"/>
</linearGradient>
<linearGradient id="paint12_linear_1159_91143" x1="125.294" y1="191.083" x2="134.511" y2="124.889" gradientUnits="userSpaceOnUse">
<stop stop-color="#FEBBBA"/>
<stop offset="1" stop-color="#FF928E"/>
</linearGradient>
<clipPath id="clip0_1159_91143">
<rect width="220" height="248.667" fill="white"/>
</clipPath>
</defs>
</svg>
