<svg width="66" height="57" viewBox="0 0 66 57" fill="none" xmlns="http://www.w3.org/2000/svg">
<path d="M48.3974 42.6094H3C1.89543 42.6094 1 41.7139 1 40.6094V3.00037C1 1.8958 1.89543 1.00037 3 1.00037H49.4371C50.5417 1.00037 51.4371 1.89581 51.4371 3.00037V39.5696" stroke="#2580FF" stroke-width="1.4804" stroke-miterlimit="10" stroke-linecap="round"/>
<path d="M1 7.28906H51.4371" stroke="#2580FF" stroke-width="1.4804" stroke-miterlimit="10" stroke-linecap="round"/>
<path d="M44.2401 19.8438C45.0685 19.8438 45.7401 19.1722 45.7401 18.3437V14.394C45.7401 13.5656 45.0685 12.894 44.2401 12.894H7.72656C6.89814 12.894 6.22656 13.5656 6.22656 14.394V18.3437C6.22656 19.1722 6.89813 19.8438 7.72656 19.8438H44.2401Z" fill="white" stroke="#2580FF"/>
<path d="M17.9766 27.1328H33.9846" stroke="#FC955C" stroke-width="1.4804" stroke-miterlimit="10" stroke-linecap="round" stroke-linejoin="round"/>
<path d="M17.9766 32.3828H33.9846" stroke="#FC955C" stroke-width="1.4804" stroke-miterlimit="10" stroke-linecap="round" stroke-linejoin="round"/>
<path d="M50.822 51.6484H12.0469C10.9423 51.6484 10.0469 50.753 10.0469 49.6484V42.6032" stroke="#2580FF" stroke-width="1.4804" stroke-miterlimit="10" stroke-linecap="round"/>
<path d="M51.4375 10.0374H58.4828C59.5873 10.0374 60.4828 10.9328 60.4828 12.0374V41.9844" stroke="#2580FF" stroke-width="1.4804" stroke-miterlimit="10" stroke-linecap="round"/>
<path d="M60.7853 47.2965L62.4613 45.6205C63.55 44.5319 63.0519 42.673 61.5648 42.2745L50.6354 39.3455C49.1482 38.9469 47.7873 40.3078 48.1858 41.795L51.1148 52.7244C51.5133 54.2115 53.3722 54.7096 54.4609 53.6209L56.1368 51.9449" stroke="#2580FF" stroke-width="1.4804" stroke-miterlimit="10" stroke-linecap="round" stroke-linejoin="round"/>
<path d="M59.5469 50.7076L64.6986 55.8594" stroke="#2580FF" stroke-width="1.4804" stroke-miterlimit="10" stroke-linecap="round" stroke-linejoin="round"/>
</svg>
