<svg width="72" height="61" viewBox="0 0 72 61" fill="none" xmlns="http://www.w3.org/2000/svg">
<path d="M66.3321 45.8562V7.3458C66.3321 4.03843 63.9148 1.35938 60.9303 1.35938H11.7299C8.74539 1.35938 6.32812 4.03843 6.32812 7.3458V45.8562M46.3308 36.2919C43.1979 36.2919 40.0738 36.798 36.3301 38.1943C28.9736 35.4628 23.9907 36.1348 16.6517 37.3827C16.6953 34.6076 16.896 27.8969 17.088 21.8843C17.28 15.8629 17.472 10.5485 17.4981 10.5485V10.5397C24.0518 9.23074 30.3262 9.64962 36.3301 13.1141C40.3181 10.8103 44.6029 9.85906 48.9575 9.85906C51.1566 9.85906 52.963 10.1034 55.1621 10.5397V10.5485C55.2057 10.5485 55.9213 31.8413 56.0085 37.3914C52.3957 36.7718 49.3589 36.2919 46.3308 36.2919Z" stroke="#2580FF" stroke-width="2" stroke-miterlimit="10" stroke-linejoin="round"/>
<path d="M70.9976 49.9548V57.1804C70.9976 58.2625 70.125 59.1351 69.0516 59.1351H3.60228C2.52891 59.1351 1.65625 58.2625 1.65625 57.1804V49.9548C1.65625 48.8727 2.52891 48 3.60228 48H69.0603C70.125 48 70.9976 48.8814 70.9976 49.9548Z" fill="#E7EEF6" stroke="#2580FF" stroke-width="2" stroke-miterlimit="10" stroke-linejoin="round"/>
<path d="M34.0312 53.5625H38.6214" stroke="#2580FF" stroke-width="2" stroke-miterlimit="10" stroke-linecap="round"/>
<path opacity="0.8" d="M56.0131 37.3866C52.409 36.767 49.3635 36.2958 46.3353 36.2958C43.2025 36.2958 40.0784 36.8019 36.3347 38.1982C28.9782 35.4667 23.9953 36.1387 16.6562 37.3866C16.6999 34.6115 16.9006 27.9008 17.0926 21.8882C17.2846 15.8669 17.4765 10.5524 17.5027 10.5524V10.5436C24.0564 9.23466 30.3308 9.65353 36.3347 13.118C40.3227 10.8142 44.6075 9.86297 48.962 9.86297C51.1611 9.86297 52.9675 10.1073 55.1666 10.5436V10.5524C55.2103 10.5436 55.9258 31.8365 56.0131 37.3866Z" fill="white" stroke="#2580FF" stroke-width="2" stroke-miterlimit="10" stroke-linejoin="round"/>
<path d="M36.3203 13.3984V37.318" stroke="#2580FF" stroke-width="2" stroke-miterlimit="10" stroke-linecap="round" stroke-linejoin="round"/>
<path d="M42.2422 30.0354C44.6158 28.8835 47.1465 28.5257 49.6249 29.0929" stroke="#FC955C" stroke-width="2" stroke-miterlimit="10" stroke-linecap="round" stroke-linejoin="round"/>
<path d="M42.2266 18.6174C44.5915 17.4131 47.1222 16.811 49.6267 17.3433" stroke="#FC955C" stroke-width="2" stroke-miterlimit="10" stroke-linecap="round" stroke-linejoin="round"/>
<path d="M30.4139 30.0354C28.0403 28.8835 25.5096 28.5257 23.0312 29.0929" stroke="#FC955C" stroke-width="2" stroke-miterlimit="10" stroke-linecap="round" stroke-linejoin="round"/>
<path d="M30.4314 24.3385C28.0665 23.1604 25.5271 22.6804 23.0312 23.2214" stroke="#FC955C" stroke-width="2" stroke-miterlimit="10" stroke-linecap="round" stroke-linejoin="round"/>
<path d="M30.4314 18.6174C28.0665 17.4131 25.5358 16.811 23.0312 17.3433" stroke="#FC955C" stroke-width="2" stroke-miterlimit="10" stroke-linecap="round" stroke-linejoin="round"/>
<path d="M42.2266 24.3385C44.5915 23.1604 47.1309 22.6804 49.6267 23.2214" stroke="#FC955C" stroke-width="2" stroke-miterlimit="10" stroke-linecap="round" stroke-linejoin="round"/>
</svg>
