<svg width="423" height="427" viewBox="0 0 423 427" fill="none" xmlns="http://www.w3.org/2000/svg">
<path d="M218.363 351.559C195.357 357.861 171.602 344.309 165.302 321.287C159.002 298.265 172.544 274.491 195.552 268.186C218.558 261.884 242.313 275.436 248.614 298.46C254.914 321.482 241.369 345.254 218.363 351.559ZM292.883 295.032L288.451 278.84L270.147 279.673C268.449 276.106 266.484 272.725 264.264 269.562L273.957 254.027L262.027 242.222L246.588 252.102C243.371 249.896 239.981 247.961 236.445 246.318L237.076 227.985L220.848 223.73L212.426 239.99C208.574 239.687 204.668 239.718 200.736 240.074L192.127 223.887L175.946 228.32L176.776 246.639C173.215 248.336 169.836 250.304 166.676 252.526L151.152 242.827L139.353 254.763L149.228 270.214C147.024 273.433 145.089 276.826 143.446 280.364L125.129 279.731L120.875 295.972L137.124 304.401C136.822 308.254 136.852 312.164 137.208 316.099L121.032 324.713L125.463 340.907L143.768 340.075C145.465 343.641 147.429 347.022 149.651 350.183L139.959 365.718L151.888 377.526L167.327 367.643C170.542 369.849 173.935 371.786 177.47 373.43L176.837 391.76L193.067 396.016L201.489 379.756C205.339 380.058 209.247 380.028 213.177 379.674L221.786 395.859L237.969 391.425L237.137 373.109C240.7 371.409 244.079 369.444 247.237 367.221L262.763 376.919L274.562 364.982L264.686 349.531C266.892 346.314 268.824 342.919 270.468 339.383L288.786 340.014L293.04 323.773L276.791 315.346C277.091 311.492 277.061 307.581 276.707 303.649L292.883 295.032Z" fill="#90A3BF"/>
<path d="M346.664 69.1628C334.216 72.5742 321.36 65.2426 317.954 52.7855C314.545 40.3285 321.874 27.4635 334.322 24.0544C346.769 20.6429 359.622 27.9746 363.032 40.4316C366.441 52.8887 359.111 65.7537 346.664 69.1628ZM386.984 38.5794L384.588 29.8175L374.682 30.2676C373.765 28.338 372.701 26.5092 371.5 24.7976L376.743 16.3921L370.291 10.003L361.934 15.3511C360.195 14.1577 358.361 13.1096 356.448 12.2187L356.79 2.30087L348.009 -0.00159454L343.452 8.7955C341.367 8.63373 339.252 8.65014 337.126 8.8424L332.467 0.0828476L323.712 2.48138L324.162 12.3945C322.235 13.3136 320.406 14.3757 318.697 15.5785L310.296 10.3312L303.914 16.7907L309.257 25.1517C308.064 26.8914 307.016 28.7272 306.127 30.6428L296.216 30.3005L293.914 39.0882L302.706 43.6485C302.545 45.7329 302.561 47.8478 302.751 49.9767L294.001 54.6378L296.397 63.3997L306.301 62.9495C307.22 64.8792 308.282 66.708 309.485 68.4196L304.24 76.8251L310.695 83.2142L319.049 77.8661C320.788 79.0619 322.624 80.1076 324.537 80.9985L324.195 90.9163L332.976 93.2188L337.534 84.4217C339.618 84.5858 341.731 84.5671 343.857 84.3748L348.516 93.1344L357.273 90.7358L356.823 80.8227C358.75 79.9059 360.579 78.8414 362.288 77.6387L370.687 82.886L377.071 76.4265L371.728 68.0679C372.921 66.3258 373.967 64.4899 374.858 62.5744L384.769 62.9167L387.069 54.129L378.279 49.5687C378.44 47.4843 378.424 45.3695 378.232 43.2405L386.984 38.5794Z" fill="#90A3BF"/>
<mask id="path-3-inside-1_1946_106187" fill="white">
<path d="M271.64 171.224L46.1135 141.285C45.1332 141.157 44.4219 140.338 44.4219 139.342V16.3493C44.4219 15.0551 45.5965 14.0164 46.8687 14.1852L272.394 44.1238C273.375 44.2528 274.085 45.0711 274.085 46.0676V169.06C274.085 170.354 272.91 171.393 271.64 171.224Z"/>
</mask>
<path d="M271.64 171.224L46.1135 141.285C45.1332 141.157 44.4219 140.338 44.4219 139.342V16.3493C44.4219 15.0551 45.5965 14.0164 46.8687 14.1852L272.394 44.1238C273.375 44.2528 274.085 45.0711 274.085 46.0676V169.06C274.085 170.354 272.91 171.393 271.64 171.224Z" fill="white"/>
<path d="M46.1135 141.285L46.244 140.294L46.2451 140.294L46.1135 141.285ZM46.8687 14.1852L47.0003 13.1939L47.0003 13.1939L46.8687 14.1852ZM272.394 44.1238L272.264 45.1153L272.263 45.1151L272.394 44.1238ZM271.508 172.215L45.9819 142.277L46.2451 140.294L271.771 170.233L271.508 172.215ZM45.9831 142.277C44.4982 142.082 43.4219 140.833 43.4219 139.342H45.4219C45.4219 139.843 45.7682 140.231 46.244 140.294L45.9831 142.277ZM43.4219 139.342V16.3493H45.4219V139.342H43.4219ZM43.4219 16.3493C43.4219 14.46 45.1194 12.9443 47.0003 13.1939L46.7372 15.1765C46.0737 15.0885 45.4219 15.6501 45.4219 16.3493H43.4219ZM47.0003 13.1939L272.526 43.1325L272.263 45.1151L46.7371 15.1765L47.0003 13.1939ZM272.525 43.1324C274.01 43.3278 275.085 44.5771 275.085 46.0676H273.085C273.085 45.5651 272.739 45.1778 272.264 45.1153L272.525 43.1324ZM275.085 46.0676V169.06H273.085V46.0676H275.085ZM275.085 169.06C275.085 170.949 273.388 172.465 271.508 172.215L271.771 170.233C272.433 170.321 273.085 169.76 273.085 169.06H275.085Z" fill="#1A202C" mask="url(#path-3-inside-1_1946_106187)"/>
<path d="M257.175 155.878L245.614 154.377C244.439 154.225 243.586 153.247 243.586 152.054V86.2281C243.586 84.6853 244.983 83.445 246.5 83.642L258.062 85.1425C259.236 85.2949 260.09 86.2726 260.09 87.4661V153.292C260.09 154.834 258.692 156.075 257.175 155.878Z" fill="#CADDFF"/>
<path d="M234.73 152.628L223.169 151.127C221.994 150.977 221.141 149.997 221.141 148.804V101.262C221.141 99.7188 222.538 98.4808 224.057 98.6778L235.619 100.176C236.793 100.328 237.645 101.306 237.645 102.5V150.042C237.645 151.584 236.247 152.825 234.73 152.628Z" fill="#CADDFF"/>
<path d="M212.293 149.37L200.731 147.872C199.557 147.719 198.703 146.742 198.703 145.548V123.865C198.703 122.322 200.101 121.082 201.618 121.279L213.179 122.777C214.354 122.93 215.207 123.907 215.207 125.101V146.784C215.207 148.327 213.81 149.567 212.293 149.37Z" fill="#CADDFF"/>
<path d="M189.847 146.112L178.286 144.614C177.111 144.462 176.258 143.484 176.258 142.29V128.408C176.258 126.865 177.655 125.627 179.172 125.824L190.736 127.322C191.908 127.475 192.762 128.452 192.762 129.646V143.528C192.762 145.071 191.364 146.309 189.847 146.112Z" fill="#CADDFF"/>
<path d="M167.41 142.854L155.846 141.356C154.674 141.204 153.82 140.226 153.82 139.033V110.393C153.82 108.85 155.218 107.61 156.735 107.807L168.296 109.307C169.471 109.46 170.324 110.437 170.324 111.631V140.271C170.324 141.813 168.927 143.051 167.41 142.854Z" fill="#CADDFF"/>
<path d="M144.956 139.597L133.395 138.096C132.221 137.944 131.367 136.966 131.367 135.772V128.551C131.367 127.008 132.765 125.77 134.282 125.967L145.844 127.465C147.018 127.618 147.871 128.596 147.871 129.789V137.01C147.871 138.553 146.474 139.794 144.956 139.597Z" fill="#CADDFF"/>
<path d="M122.519 136.339L110.957 134.841C109.783 134.688 108.93 133.71 108.93 132.515V124.977C108.93 123.434 110.327 122.196 111.844 122.393L123.406 123.891C124.58 124.043 125.433 125.021 125.433 126.215V133.753C125.433 135.295 124.036 136.536 122.519 136.339Z" fill="#CADDFF"/>
<path d="M100.073 133.089L88.512 131.59C87.3376 131.438 86.4844 130.46 86.4844 129.267V119.26C86.4844 117.717 87.8818 116.477 89.3992 116.674L100.961 118.172C102.135 118.325 102.988 119.302 102.988 120.498V130.505C102.988 132.048 101.591 133.286 100.073 133.089Z" fill="#CADDFF"/>
<path d="M126.868 55.8446L64.0489 47.4625C61.0246 47.0686 58.8281 44.5481 58.8281 41.4743C58.8281 37.4978 62.4323 34.3044 66.3436 34.8132L129.163 43.1953C132.188 43.5892 134.384 46.1097 134.384 49.1835C134.384 53.16 130.78 56.3557 126.868 55.8446Z" fill="#CADDFF"/>
<path d="M62.2222 118.812C61.9729 118.812 61.7289 118.695 61.5788 118.473C61.3385 118.118 61.4316 117.635 61.7863 117.394L109.775 84.9161C110.076 84.7121 110.477 84.745 110.742 84.9935L131.151 104.177L168.779 78.6841C169.084 78.4801 169.49 78.5153 169.755 78.7708L191.93 100.278L254.415 58.0747C254.771 57.8332 255.252 57.9294 255.491 58.2834C255.733 58.6374 255.639 59.1205 255.282 59.3596L192.277 101.917C191.975 102.123 191.567 102.088 191.302 101.833L169.126 80.323L131.507 105.811C131.207 106.015 130.806 105.983 130.541 105.734L110.131 86.5503L62.6562 118.681C62.523 118.77 62.3715 118.812 62.2222 118.812Z" fill="#1A202C"/>
<path d="M116.562 85.4058C116.562 88.8759 113.748 91.8395 110.277 92.0224C106.806 92.2053 103.992 89.5394 103.992 86.0693C103.992 82.5993 106.806 79.6357 110.277 79.4528C113.748 79.2699 116.562 81.9358 116.562 85.4058Z" fill="#99B9FF"/>
<path d="M175.429 78.929C175.429 82.4015 172.615 85.3627 169.143 85.5456C165.673 85.7308 162.859 83.065 162.859 79.5949C162.859 76.1225 165.673 73.1612 169.143 72.9783C172.615 72.7931 175.429 75.459 175.429 78.929Z" fill="#99B9FF"/>
<path d="M169.475 73.7422C169.377 73.7422 169.279 73.7445 169.18 73.7492C166.12 73.9109 163.63 76.5323 163.63 79.592C163.63 81.0527 164.195 82.3962 165.225 83.3715C166.256 84.3493 167.63 84.8487 169.098 84.7689C172.158 84.6072 174.648 81.9859 174.648 78.9261C174.648 77.4654 174.08 76.122 173.051 75.1466C172.09 74.2345 170.831 73.7422 169.475 73.7422ZM168.798 86.3281C167.046 86.3281 165.41 85.6857 164.158 84.497C162.817 83.2262 162.078 81.4841 162.078 79.592C162.078 75.721 165.227 72.4033 169.098 72.1994C170.995 72.1009 172.777 72.7457 174.12 74.0212C175.461 75.292 176.2 77.034 176.2 78.9261C176.2 82.7971 173.051 86.1148 169.18 86.3188C169.051 86.3258 168.924 86.3281 168.798 86.3281Z" fill="#1A202C"/>
<path d="M137.921 104.531C137.921 108.001 135.107 110.964 131.636 111.147C128.165 111.33 125.352 108.664 125.352 105.194C125.352 101.724 128.165 98.7606 131.636 98.5778C135.107 98.3949 137.921 101.058 137.921 104.531Z" fill="#CADDFF"/>
<path d="M68.6865 117.825C68.6865 121.298 65.8727 124.259 62.402 124.444C58.931 124.627 56.1172 121.961 56.1172 118.491C56.1172 115.019 58.931 112.058 62.402 111.875C65.8727 111.689 68.6865 114.355 68.6865 117.825Z" fill="#CADDFF"/>
<path d="M62.7429 112.641C62.6445 112.641 62.5451 112.643 62.4456 112.648C59.3852 112.809 56.8954 115.431 56.8954 118.49C56.8954 119.951 57.4624 121.295 58.4912 122.27C59.5226 123.248 60.8963 123.749 62.3636 123.667C65.4236 123.506 67.9131 120.884 67.9131 117.825C67.9131 116.364 67.3462 115.02 66.3169 114.045C65.3558 113.133 64.0963 112.641 62.7429 112.641ZM62.0635 125.227C60.3118 125.227 58.6759 124.584 57.4232 123.395C56.0823 122.125 55.3438 120.383 55.3438 118.49C55.3438 114.619 58.4926 111.304 62.3636 111.098C64.2616 111.002 66.0416 111.644 67.3849 112.92C68.7262 114.19 69.4648 115.932 69.4648 117.825C69.4648 121.698 66.3159 125.013 62.4452 125.217C62.3176 125.224 62.1906 125.227 62.0635 125.227Z" fill="#1A202C"/>
<path d="M198.226 100.46C198.226 103.931 195.412 106.892 191.942 107.077C188.47 107.26 185.656 104.594 185.656 101.124C185.656 97.6516 188.47 94.6904 191.942 94.5075C195.412 94.3246 198.226 96.9881 198.226 100.46Z" fill="#CADDFF"/>
<path d="M261.138 58.3822C261.138 61.8546 258.324 64.8158 254.854 64.9987C251.384 65.1839 248.57 62.5181 248.57 59.0481C248.57 55.5757 251.384 52.6144 254.854 52.4315C258.324 52.2462 261.138 54.9121 261.138 58.3822Z" fill="#CADDFF"/>
<path d="M418.903 191.092L289.127 174.267C288.145 174.138 287.43 173.32 287.43 172.321V48.7916C287.43 47.4997 288.6 46.4634 289.87 46.6276L419.646 63.4527C420.628 63.5816 421.343 64.3999 421.343 65.3987V188.928C421.343 190.22 420.174 191.256 418.903 191.092Z" fill="white"/>
<path d="M419.157 191.883C419.035 191.883 418.913 191.876 418.793 191.859L394.013 188.647C393.588 188.591 393.288 188.202 393.342 187.777C393.398 187.353 393.788 187.048 394.212 187.109L418.993 190.321C419.37 190.371 419.764 190.246 420.069 189.979C420.378 189.705 420.556 189.322 420.556 188.926V173.384C420.556 172.957 420.903 172.61 421.332 172.61C421.761 172.61 422.109 172.957 422.109 173.384V188.926C422.109 189.768 421.738 190.577 421.093 191.144C420.549 191.623 419.858 191.883 419.157 191.883Z" fill="#1A202C"/>
<path d="M421.339 166.906C420.909 166.906 420.562 166.559 420.562 166.13V102.734C420.562 102.305 420.909 101.958 421.339 101.958C421.768 101.958 422.115 102.305 422.115 102.734V166.13C422.115 166.559 421.768 166.906 421.339 166.906Z" fill="#1A202C"/>
<path d="M421.34 86.5078C420.911 86.5078 420.564 86.1608 420.564 85.7341V65.392C420.564 64.7871 420.135 64.2924 419.544 64.2174L334.466 53.1859C334.04 53.1296 333.74 52.7404 333.796 52.316C333.85 51.8917 334.241 51.5892 334.666 51.6478L419.743 62.6769C421.117 62.8551 422.116 63.997 422.116 65.392V85.7341C422.116 86.1608 421.769 86.5078 421.34 86.5078Z" fill="#1A202C"/>
<path d="M358.886 97.1747L347.325 95.6765C346.15 95.5241 345.297 94.5463 345.297 93.3529V82.6333C345.297 81.0928 346.694 79.8525 348.211 80.0495L359.773 81.5477C360.947 81.7001 361.801 82.6778 361.801 83.8712V94.5909C361.801 96.1337 360.403 97.3716 358.886 97.1747Z" fill="#CADDFF"/>
<path d="M380.199 99.9403L368.637 98.4421C367.463 98.2897 366.609 97.3119 366.609 96.1185V85.4012C366.609 83.8584 368.007 82.6181 369.524 82.8151L381.085 84.3133C382.26 84.4657 383.113 85.4434 383.113 86.6392V97.3565C383.113 98.8992 381.716 100.137 380.199 99.9403Z" fill="#CADDFF"/>
<path d="M401.511 102.714L389.95 101.213C388.775 101.063 387.922 100.083 387.922 98.8897V88.1723C387.922 86.6296 389.319 85.3892 390.839 85.5862L402.4 87.0868C403.572 87.2368 404.426 88.2169 404.426 89.4103V100.128C404.426 101.67 403.028 102.911 401.511 102.714Z" fill="#99B9FF"/>
<path d="M316.269 112.768L304.705 111.268C303.533 111.115 302.68 110.138 302.68 108.944V98.227C302.68 96.6843 304.077 95.4439 305.594 95.6409L317.155 97.1414C318.33 97.2939 319.184 98.2716 319.184 99.465V110.182C319.184 111.725 317.786 112.965 316.269 112.768Z" fill="#99B9FF"/>
<path d="M337.582 115.534L326.02 114.036C324.846 113.883 323.992 112.906 323.992 111.71V100.993C323.992 99.4498 325.39 98.2119 326.907 98.4065L338.468 99.9071C339.643 100.059 340.496 101.037 340.496 102.231V112.948C340.496 114.491 339.099 115.731 337.582 115.534Z" fill="#CADDFF"/>
<path d="M358.886 118.3L347.325 116.801C346.15 116.649 345.297 115.671 345.297 114.478V103.758C345.297 102.215 346.694 100.978 348.211 101.174L359.773 102.673C360.947 102.825 361.801 103.803 361.801 104.996V115.716C361.801 117.256 360.403 118.497 358.886 118.3Z" fill="#99B9FF"/>
<path d="M347.9 101.934C347.473 101.934 347.049 102.096 346.709 102.394C346.308 102.748 346.076 103.247 346.076 103.763V114.483C346.076 115.282 346.643 115.934 347.426 116.037L358.99 117.535C359.485 117.596 359.998 117.437 360.394 117.09C360.798 116.736 361.027 116.236 361.027 115.721V105.001C361.027 104.201 360.46 103.55 359.677 103.446L348.115 101.948C348.043 101.939 347.97 101.934 347.9 101.934ZM359.203 119.102C359.065 119.102 358.927 119.092 358.788 119.073L347.227 117.575C345.661 117.371 344.523 116.07 344.523 114.483V103.763C344.523 102.799 344.948 101.876 345.684 101.228C346.416 100.586 347.374 100.286 348.315 100.408L359.876 101.908C361.442 102.112 362.579 103.411 362.579 105.001V115.721C362.579 116.682 362.157 117.606 361.419 118.255C360.795 118.804 360.005 119.102 359.203 119.102Z" fill="#1A202C"/>
<path d="M380.199 121.073L368.637 119.575C367.463 119.422 366.609 118.445 366.609 117.251V106.532C366.609 104.991 368.007 103.751 369.524 103.948L381.085 105.446C382.26 105.599 383.113 106.576 383.113 107.77V118.489C383.113 120.032 381.716 121.27 380.199 121.073Z" fill="#CADDFF"/>
<path d="M401.511 123.839L389.95 122.339C388.775 122.186 387.922 121.208 387.922 120.015V109.298C387.922 107.755 389.319 106.515 390.839 106.712L402.4 108.21C403.572 108.362 404.426 109.34 404.426 110.533V121.253C404.426 122.796 403.028 124.034 401.511 123.839Z" fill="#99B9FF"/>
<path d="M316.269 133.894L304.705 132.393C303.533 132.241 302.68 131.263 302.68 130.07V119.352C302.68 117.81 304.077 116.569 305.594 116.766L317.155 118.265C318.33 118.417 319.184 119.397 319.184 120.588V131.308C319.184 132.85 317.786 134.088 316.269 133.894Z" fill="#CADDFF"/>
<path d="M337.582 136.667L326.02 135.166C324.846 135.016 323.992 134.036 323.992 132.843V122.125C323.992 120.583 325.39 119.342 326.907 119.539L338.468 121.04C339.643 121.19 340.496 122.17 340.496 123.363V134.081C340.496 135.624 339.099 136.864 337.582 136.667Z" fill="#CADDFF"/>
<path d="M358.886 139.433L347.325 137.934C346.15 137.782 345.297 136.804 345.297 135.608V124.891C345.297 123.348 346.694 122.11 348.211 122.305L359.773 123.806C360.947 123.958 361.801 124.936 361.801 126.129V136.846C361.801 138.389 360.403 139.629 358.886 139.433Z" fill="#CADDFF"/>
<path d="M380.199 142.198L368.637 140.7C367.463 140.547 366.609 139.57 366.609 138.376V127.657C366.609 126.114 368.007 124.876 369.524 125.073L381.085 126.571C382.26 126.724 383.113 127.701 383.113 128.895V139.614C383.113 141.155 381.716 142.395 380.199 142.198Z" fill="#CADDFF"/>
<path d="M401.511 144.972L389.95 143.473C388.775 143.321 387.922 142.343 387.922 141.15V130.43C387.922 128.89 389.319 127.649 390.839 127.846L402.4 129.345C403.572 129.497 404.426 130.475 404.426 131.668V142.388C404.426 143.931 403.028 145.168 401.511 144.972Z" fill="#022897"/>
<path d="M316.269 155.018L304.705 153.52C303.533 153.368 302.68 152.39 302.68 151.197V140.477C302.68 138.937 304.077 137.696 305.594 137.893L317.155 139.391C318.33 139.544 319.184 140.522 319.184 141.715V152.435C319.184 153.977 317.786 155.215 316.269 155.018Z" fill="#CADDFF"/>
<path d="M337.582 157.792L326.02 156.292C324.846 156.139 323.992 155.162 323.992 153.968V143.251C323.992 141.708 325.39 140.468 326.907 140.665L338.468 142.163C339.643 142.315 340.496 143.293 340.496 144.489V155.206C340.496 156.749 339.099 157.987 337.582 157.792Z" fill="#CADDFF"/>
<path d="M358.886 160.558L347.325 159.057C346.15 158.905 345.297 157.927 345.297 156.733V146.016C345.297 144.473 346.694 143.233 348.211 143.43L359.773 144.931C360.947 145.081 361.801 146.061 361.801 147.254V157.971C361.801 159.514 360.403 160.754 358.886 160.558Z" fill="#99B9FF"/>
<path d="M380.199 163.331L368.637 161.833C367.463 161.68 366.609 160.703 366.609 159.507V148.79C366.609 147.247 368.007 146.009 369.524 146.203L381.085 147.704C382.26 147.856 383.113 148.834 383.113 150.027V160.745C383.113 162.288 381.716 163.528 380.199 163.331Z" fill="#CADDFF"/>
<path d="M418.38 332.441L351.827 323.211C350.849 323.075 350.144 322.256 350.148 321.26L350.566 199.369C350.57 198.085 351.731 197.053 352.995 197.21L419.128 205.369C420.117 205.491 420.839 206.314 420.839 207.318V330.28C420.839 331.579 419.655 332.617 418.38 332.441Z" fill="white"/>
<path d="M418.48 331.671C418.862 331.724 419.258 331.6 419.563 331.333C419.877 331.061 420.058 330.676 420.058 330.278V207.316C420.058 206.706 419.624 206.211 419.029 206.139L352.896 197.977C352.516 197.933 352.127 198.057 351.824 198.322C351.517 198.594 351.339 198.976 351.337 199.37L350.919 321.26C350.917 321.872 351.332 322.358 351.928 322.44L418.48 331.671ZM418.656 333.234C418.527 333.234 418.398 333.225 418.269 333.209L351.717 323.978C350.35 323.788 349.363 322.644 349.367 321.256L349.785 199.365C349.789 198.526 350.157 197.722 350.797 197.159C351.433 196.598 352.268 196.334 353.086 196.437L419.219 204.598C420.604 204.77 421.608 205.911 421.608 207.316V330.278C421.608 331.124 421.235 331.935 420.583 332.505C420.039 332.979 419.355 333.234 418.656 333.234Z" fill="#1A202C"/>
<path d="M405.59 294.548L362.313 288.907C359.288 288.513 357.094 285.993 357.094 282.919C357.094 278.942 360.697 275.747 364.608 276.258L407.886 281.899C410.91 282.293 413.107 284.811 413.107 287.887C413.107 291.864 409.503 295.057 405.59 294.548Z" fill="#CADDFF"/>
<path d="M404.746 315.533L361.469 309.891C358.447 309.497 356.25 306.979 356.25 303.903C356.25 299.927 359.854 296.733 363.765 297.242L407.042 302.883C410.066 303.277 412.263 305.798 412.263 308.871C412.263 312.848 408.66 316.041 404.746 315.533Z" fill="#CADDFF"/>
<path d="M362.352 246.066C362.352 232.903 373.013 221.673 386.164 220.976C399.315 220.282 409.973 230.388 409.973 243.55C409.973 256.711 399.315 267.944 386.164 268.638C373.013 269.334 362.352 259.227 362.352 246.066Z" fill="white"/>
<path d="M384.871 269.453C378.792 269.453 373.122 267.228 368.782 263.111C364.133 258.701 361.57 252.647 361.57 246.07C361.57 243.17 362.07 240.307 363.054 237.554C363.2 237.153 363.643 236.942 364.046 237.088C364.45 237.231 364.661 237.676 364.515 238.08C363.591 240.661 363.122 243.35 363.122 246.07C363.122 252.218 365.512 257.871 369.852 261.985C374.191 266.103 379.969 268.194 386.116 267.868C398.841 267.195 409.192 256.288 409.192 243.554C409.192 237.404 406.803 231.754 402.465 227.639C398.123 223.519 392.351 221.43 386.198 221.756C379.275 222.122 372.778 225.54 368.37 231.135C368.105 231.47 367.617 231.526 367.279 231.264C366.944 230.999 366.886 230.509 367.151 230.173C371.835 224.227 378.747 220.596 386.116 220.206C392.693 219.859 398.88 222.099 403.535 226.513C408.184 230.924 410.744 236.975 410.744 243.554C410.744 257.099 399.734 268.703 386.198 269.418C385.755 269.441 385.312 269.453 384.871 269.453Z" fill="#99B9FF"/>
<path d="M369.828 263.001C374.093 266.804 379.837 268.973 386.163 268.638C392.489 268.305 398.233 265.527 402.496 261.276C397.565 260.007 392.022 259.44 386.163 259.749C380.304 260.059 374.761 261.212 369.828 263.001Z" fill="#99B9FF"/>
<path d="M386.297 263.776C384.222 263.884 382.539 262.29 382.539 260.212V241.033L390.056 240.635V259.816C390.056 261.893 388.375 263.666 386.297 263.776Z" fill="white"/>
<path d="M400.849 247.057C400.375 241.123 403.001 237.266 397.116 230.846C391.02 224.199 385.791 229.149 385.791 229.149C385.791 229.149 381.433 225.756 375.714 233.632C370.664 240.581 377.13 246.229 374.957 250.506C372.783 254.78 365.414 257.439 365.414 257.439C365.414 257.439 367.775 262.044 370.706 263.969L401.793 262.325C401.793 262.325 408.218 254.989 408.218 253.003C408.218 253.003 401.32 252.989 400.849 247.057Z" fill="#1A202C"/>
<path d="M369.828 263.001C374.093 266.804 379.837 268.973 386.163 268.638C392.489 268.305 398.233 265.527 402.496 261.276C397.565 260.007 392.022 259.44 386.163 259.749C380.304 260.059 374.761 261.212 369.828 263.001Z" fill="#99B9FF"/>
<path d="M371.37 263.289C375.503 266.534 380.685 268.152 386.115 267.868C391.562 267.58 396.767 265.402 400.917 261.697C396.275 260.651 391.332 260.257 386.197 260.529C381.025 260.801 376.045 261.73 371.37 263.289ZM384.887 269.453C379.07 269.453 373.579 267.395 369.307 263.585L368.336 262.719L369.557 262.276C374.744 260.393 380.315 259.284 386.115 258.98C391.918 258.675 397.494 259.193 402.685 260.527L404.003 260.867L403.039 261.828C398.464 266.391 392.483 269.085 386.197 269.418C385.759 269.441 385.323 269.453 384.887 269.453Z" fill="#99B9FF"/>
<path d="M386.658 234.574L386.398 234.588L378.75 242.686V246.906C378.75 249.725 380.272 252.102 382.534 253.312V260.212C382.534 262.29 384.218 263.884 386.293 263.776C388.37 263.666 390.051 261.893 390.051 259.816V253.045C392.438 251.621 394.056 249.007 394.056 246.098V241.586C394.056 237.497 390.745 234.358 386.658 234.574Z" fill="white"/>
<path d="M386.096 264.555C384.971 264.555 383.916 264.14 383.109 263.373C382.244 262.552 381.766 261.429 381.766 260.21V253.521C381.766 253.092 382.115 252.745 382.542 252.745C382.971 252.745 383.318 253.092 383.318 253.521V260.21C383.318 261 383.623 261.722 384.176 262.248C384.732 262.773 385.47 263.045 386.26 262.998C387.927 262.911 389.283 261.481 389.283 259.814V253.237C389.283 252.81 389.63 252.463 390.059 252.463C390.488 252.463 390.835 252.81 390.835 253.237V259.814C390.835 262.292 388.818 264.416 386.342 264.548C386.26 264.552 386.178 264.555 386.096 264.555Z" fill="#1A202C"/>
<path d="M386.406 254.938C385.995 254.938 385.653 254.616 385.632 254.201C385.608 253.775 385.937 253.409 386.366 253.385C390.18 253.184 393.282 249.915 393.282 246.096V241.585C393.282 239.873 392.635 238.288 391.456 237.121C390.281 235.955 388.715 235.341 387.001 235.339L379.529 243.128V246.905C379.529 249.582 381.097 251.946 383.526 252.923C383.925 253.083 384.117 253.535 383.958 253.934C383.796 254.33 383.343 254.522 382.947 254.363C379.927 253.146 377.977 250.22 377.977 246.905V242.816C377.977 242.614 378.054 242.422 378.192 242.276L386.101 234.035C386.239 233.892 386.422 233.808 386.619 233.796C386.741 233.791 386.863 233.787 386.982 233.787C389.1 233.772 391.074 234.56 392.548 236.019C394.023 237.479 394.834 239.456 394.834 241.585V246.096C394.834 250.727 391.071 254.691 386.445 254.935C386.434 254.935 386.42 254.938 386.406 254.938Z" fill="#1A202C"/>
<path d="M170.914 268.973V175.089C170.914 173.795 172.086 172.756 173.36 172.925L332.87 193.903C333.852 194.032 334.565 194.85 334.565 195.849V318.841C334.565 320.136 333.393 321.174 332.119 321.005L172.609 300.028C171.627 299.897 170.914 299.078 170.914 298.082V268.973Z" fill="white"/>
<path d="M275.97 267.297L183.406 255.299V239.576L275.97 251.576V267.297Z" fill="#90A3BF"/>
<path d="M318.118 273.852C317.994 273.852 317.867 273.845 317.743 273.826L249.164 264.63C248.74 264.574 248.442 264.185 248.499 263.758C248.555 263.334 248.949 263.033 249.371 263.092L317.949 272.288C318.331 272.342 318.723 272.215 319.03 271.948C319.342 271.676 319.52 271.291 319.52 270.895V259.385C319.52 258.783 319.091 258.288 318.502 258.21L248.149 248.912C247.725 248.858 247.427 248.466 247.483 248.042C247.54 247.617 247.931 247.32 248.353 247.374L318.704 256.672C320.076 256.853 321.072 257.995 321.072 259.385V270.895C321.072 271.739 320.699 272.55 320.05 273.118C319.506 273.594 318.819 273.852 318.118 273.852Z" fill="#99B9FF"/>
<path d="M236.231 263.07C236.196 263.07 236.163 263.068 236.128 263.063L184.999 256.294C183.629 256.114 182.633 254.972 182.633 253.582V242.067C182.633 241.223 183.003 240.414 183.65 239.847C184.293 239.284 185.132 239.026 185.957 239.134L239.945 246.269C240.369 246.325 240.67 246.716 240.613 247.141C240.557 247.565 240.168 247.863 239.741 247.809L185.754 240.672C185.374 240.62 184.98 240.747 184.675 241.014C184.363 241.286 184.185 241.671 184.185 242.067V253.582C184.185 254.194 184.605 254.677 185.203 254.756L236.332 261.525C236.756 261.581 237.056 261.971 237 262.395C236.949 262.787 236.613 263.07 236.231 263.07Z" fill="#1A202C"/>
<path d="M312.33 232.321L249.511 223.939C246.486 223.545 244.289 221.025 244.289 217.951C244.289 213.974 247.893 210.779 251.804 211.29L314.623 219.672C317.648 220.066 319.845 222.586 319.845 225.66C319.845 229.637 316.241 232.832 312.33 232.321Z" fill="#CADDFF"/>
<path d="M183.656 225.735V218.801L195.792 206.035C196.943 204.825 198.807 204.727 199.956 205.815L208.273 213.688C209.377 214.734 211.152 214.689 212.317 213.589L213.074 212.872C214.244 211.768 216.024 211.728 217.128 212.78L234.127 229.019L234.19 231.263C234.272 234.124 231.667 236.459 228.856 236.046L187.241 229.917C185.157 229.61 183.656 227.861 183.656 225.735Z" fill="#90A3BF"/>
<path d="M229.263 235.106C230.314 235.263 231.392 234.934 232.229 234.212C233.08 233.478 233.568 232.433 233.568 231.342V198.836C233.568 197.127 232.349 195.735 230.668 195.524L188.828 190.257C187.796 190.129 186.734 190.459 185.918 191.174C185.088 191.896 184.607 192.923 184.596 193.992L184.256 225.558C184.237 227.253 185.426 228.658 187.083 228.902L229.263 235.106ZM229.777 236.695C229.53 236.695 229.284 236.679 229.038 236.641L186.856 230.437C184.424 230.081 182.678 228.02 182.703 225.542L183.043 193.974C183.06 192.466 183.735 191.019 184.898 190.004C186.047 189.001 187.552 188.534 189.02 188.717L230.862 193.983C233.329 194.293 235.118 196.335 235.118 198.836V231.342C235.118 232.883 234.435 234.358 233.242 235.387C232.26 236.238 231.029 236.695 229.777 236.695Z" fill="#1A202C"/>
<path d="M228.144 205.196C228.144 207.775 226.055 209.975 223.478 210.111C220.902 210.247 218.812 208.268 218.812 205.691C218.812 203.114 220.902 200.913 223.478 200.777C226.055 200.641 228.144 202.619 228.144 205.196Z" fill="#99B9FF"/>
<path d="M334.56 310.648C334.131 310.648 333.784 310.299 333.784 309.872V196.704C333.784 195.604 333.003 194.706 331.927 194.563L174.461 173.853C173.786 173.764 173.085 173.984 172.545 174.458C171.999 174.936 171.685 175.616 171.685 176.32V268.973C171.685 269.402 171.338 269.749 170.909 269.749C170.48 269.749 170.133 269.402 170.133 268.973V176.32C170.133 175.168 170.639 174.066 171.523 173.29C172.398 172.524 173.542 172.167 174.665 172.315L332.128 193.025C333.988 193.271 335.336 194.816 335.336 196.704V309.872C335.336 310.299 334.989 310.648 334.56 310.648Z" fill="#1A202C"/>
<path d="M156.171 299.008L44.4219 282.546V155.345L156.171 171.807V299.008Z" fill="white"/>
<path d="M156.173 267.273C155.744 267.273 155.397 266.926 155.397 266.497V173.5C155.397 172.895 154.987 172.414 154.398 172.327L46.7863 156.475C46.4048 156.419 46.0069 156.541 45.6979 156.808C45.3816 157.08 45.2001 157.467 45.2001 157.868V171.807C45.2001 172.236 44.8529 172.583 44.4243 172.583C43.9957 172.583 43.6484 172.236 43.6484 171.807V157.868C43.6484 157.015 44.0257 156.201 44.6834 155.634C45.3347 155.071 46.1844 154.818 47.0123 154.94L154.623 170.792C155.971 170.989 156.949 172.128 156.949 173.5V266.497C156.949 266.926 156.602 267.273 156.173 267.273Z" fill="#1A202C"/>
<path d="M44.4243 270.094C43.9957 270.094 43.6484 269.744 43.6484 269.318V232.359C43.6484 231.932 43.9957 231.585 44.4243 231.585C44.8529 231.585 45.2001 231.932 45.2001 232.359V269.318C45.2001 269.744 44.8529 270.094 44.4243 270.094Z" fill="#1A202C"/>
<path d="M142.578 241.303C142.578 245.753 138.97 249.551 134.519 249.785C130.069 250.02 126.461 246.604 126.461 242.154C126.461 237.704 130.069 233.903 134.519 233.668C138.97 233.434 142.578 236.85 142.578 241.303Z" fill="#CADDFF"/>
<path d="M113.762 382.915L114.631 400.148L106.325 400.062L103.852 383.415L113.762 382.915Z" fill="white"/>
<path d="M106.997 399.29L113.817 399.36L113.029 383.726L104.747 384.146L106.997 399.29ZM114.634 400.922C114.631 400.922 114.628 400.922 114.625 400.922L106.319 400.835C105.938 400.83 105.616 400.549 105.56 400.172L103.087 383.527C103.054 383.311 103.115 383.091 103.254 382.922C103.393 382.753 103.596 382.65 103.815 382.638L113.726 382.139C113.935 382.132 114.133 382.2 114.285 382.338C114.438 382.477 114.529 382.669 114.54 382.875L115.409 400.106C115.419 400.322 115.341 400.53 115.193 400.683C115.047 400.835 114.845 400.922 114.634 400.922Z" fill="#1A202C"/>
<path d="M106.192 422.123C109.583 422.316 118.897 422.128 121.487 420.838C123.769 419.704 125.581 414.82 124.311 413.092C121.136 408.773 118.745 401.122 116.706 395.151C116.59 394.813 116.13 394.766 115.948 395.076L114.313 397.835L112.866 394.766C112.639 394.426 112.264 394.215 111.857 394.199L108.95 394.29C108.283 394.262 107.599 394.942 107.233 395.57L105.273 398.29L104.003 396.215C103.789 395.866 103.254 395.995 103.226 396.403L101.805 416.618C101.897 419.849 104.222 422.013 106.192 422.123Z" fill="white"/>
<path d="M106.231 421.35C110.079 421.568 118.879 421.268 121.137 420.145C122.198 419.615 123.331 417.843 123.773 416.018C124.036 414.933 124.001 413.988 123.681 413.552C120.758 409.575 118.55 403.041 116.601 397.275C116.471 396.891 116.343 396.511 116.216 396.138L114.976 398.232C114.829 398.478 114.547 398.619 114.272 398.61C113.985 398.598 113.729 398.427 113.606 398.166L112.189 395.161C112.103 395.055 111.977 394.987 111.84 394.975L108.969 395.067C108.95 395.067 108.93 395.067 108.911 395.067C108.908 395.064 108.905 395.064 108.903 395.064C108.673 395.064 108.209 395.428 107.898 395.962C107.885 395.984 107.872 396.005 107.857 396.023L105.897 398.746C105.746 398.954 105.503 399.088 105.238 399.067C104.979 399.057 104.741 398.919 104.606 398.696L103.916 397.569L102.576 416.635C102.678 419.542 104.796 421.268 106.231 421.35ZM108.938 422.961C107.798 422.961 106.825 422.937 106.143 422.9C103.754 422.764 101.127 420.218 101.024 416.642C101.023 416.616 101.023 416.591 101.026 416.565L102.447 396.349C102.483 395.829 102.849 395.395 103.356 395.271C103.862 395.149 104.386 395.365 104.659 395.81L105.32 396.891L106.578 395.147C107.036 394.378 107.906 393.515 108.904 393.515C108.917 393.515 108.931 393.515 108.944 393.515L111.827 393.423C111.846 393.421 111.865 393.421 111.885 393.423C112.537 393.451 113.142 393.791 113.505 394.333C113.527 394.366 113.546 394.401 113.562 394.436L114.386 396.181L115.275 394.68C115.516 394.274 115.955 394.049 116.427 394.101C116.896 394.148 117.282 394.455 117.435 394.903C117.643 395.512 117.855 396.138 118.071 396.778C119.984 402.438 122.151 408.851 124.931 412.633C125.542 413.463 125.666 414.795 125.281 416.384C124.826 418.262 123.551 420.677 121.828 421.533C119.612 422.637 113.149 422.961 108.938 422.961Z" fill="#1A202C"/>
<path d="M52.3889 376.871L50.989 397.771L43.2137 397.891L42.1797 377.384L52.3889 376.871Z" fill="white"/>
<path d="M42.9884 378.126L43.9457 397.108L50.257 397.01L51.5513 377.694L42.9884 378.126ZM43.2081 398.672C42.7957 398.672 42.4541 398.348 42.4334 397.936L41.3995 377.429C41.3889 377.223 41.4609 377.022 41.5987 376.869C41.7368 376.717 41.9298 376.625 42.1352 376.616L52.3447 376.1C52.5702 376.093 52.7815 376.173 52.9369 376.332C53.0921 376.489 53.1728 376.705 53.1578 376.928L51.7576 397.828C51.7306 398.229 51.3991 398.545 50.9956 398.55L43.2205 398.672C43.2165 398.672 43.2121 398.672 43.2081 398.672Z" fill="#1A202C"/>
<path d="M53.2713 392.701C53.2713 392.701 54.0424 401.897 53.921 405.625C53.8345 408.291 50.5991 416.497 48.7658 420.95C48.0116 422.781 46.3279 424.248 44.6057 424.736C41.3643 425.651 39.7746 425.69 36.7294 425.35C32.6289 424.893 31.1769 421.233 32.197 417.606C33.1381 414.26 34.7963 410.549 37.6138 405.944C39.6558 402.608 41.1877 392.95 41.1877 392.95L47.5124 392.631L49.5668 397.841L53.2713 392.701Z" fill="white"/>
<path d="M41.8534 393.692C41.4721 395.917 40.0928 403.383 38.2783 406.349C35.6185 410.696 33.924 414.339 32.9463 417.816C32.4279 419.659 32.6197 421.441 33.472 422.707C34.1855 423.767 35.3425 424.414 36.8178 424.578C39.7704 424.909 41.2789 424.869 44.3978 423.987C45.9408 423.551 47.409 422.21 48.0509 420.651C51.2303 412.932 53.0879 407.446 53.1482 405.598C53.2309 403.045 52.883 397.805 52.6647 394.872L50.1989 398.295C50.0331 398.525 49.7522 398.647 49.4732 398.611C49.1914 398.574 48.9515 398.389 48.8474 398.126L46.9975 393.434L41.8534 393.692ZM39.6131 426.32C38.7127 426.32 37.7714 426.245 36.6457 426.121C34.7032 425.903 33.1606 425.024 32.1846 423.572C31.0774 421.929 30.8106 419.678 31.4526 417.394C32.4699 413.779 34.2181 410.011 36.9545 405.537C38.8937 402.37 40.4088 392.923 40.4241 392.827C40.4815 392.466 40.7849 392.192 41.1511 392.175L47.4758 391.857C47.8045 391.849 48.1147 392.037 48.2371 392.347L49.7703 396.234L52.6443 392.246C52.8342 391.983 53.1683 391.866 53.4811 391.953C53.7941 392.039 54.0199 392.311 54.0469 392.635C54.0788 393.012 54.8206 401.92 54.6992 405.65C54.6136 408.283 51.8169 415.582 49.4861 421.242C48.6596 423.251 46.8277 424.914 44.8196 425.481C42.6803 426.086 41.2119 426.32 39.6131 426.32Z" fill="#1A202C"/>
<path d="M118.379 209.961C118.379 209.961 120.751 273.409 120.172 314.825C119.674 350.438 116.899 378.96 116.132 386.252C116.015 387.358 115.191 388.261 114.098 388.463C111.95 388.861 108.224 389.349 104.589 388.852C103.582 388.714 102.748 388.001 102.478 387.019C100.553 380.001 92.6519 350.639 92.08 339.298C91.4604 327.008 93.5072 323.814 93.2514 313.784C93.0599 306.276 89.2055 279.728 87.2799 266.858C87.0269 265.166 84.6546 265.001 84.1746 266.643C80.6863 278.577 73.2681 304.363 66.4417 330.792C66.0916 332.147 64.5986 343.619 64.2574 344.953C60.035 361.46 55.9462 374.733 54.5912 382.458C54.372 383.71 53.4118 384.707 52.1715 384.972C49.7791 385.483 45.7435 386.041 42.0903 385.087C40.7764 384.744 39.8547 383.56 39.7977 382.203C39.4446 373.792 38.1783 342.524 38.6259 337.242C39.5858 325.908 47.8068 314.384 48.781 302.349C49.7554 290.314 49.157 260.261 52.5931 242.045C56.0289 223.83 63.5294 203.18 63.5294 203.18L118.379 209.961Z" fill="#1A202C"/>
<path d="M84.9835 88.9349C89.3414 86.058 96.6136 87.6079 99.4123 94.8364C101.699 100.743 96.5836 105.3 95.2879 109.654C91.0969 123.743 104.657 153.809 95.4445 169.161C88.0948 181.41 67.6538 190.441 50.0233 182.802C33.2594 175.541 21.8629 158.062 28.6635 143.752C34.7769 130.89 46.3265 136.974 53.34 124.294C60.2546 111.793 53.9072 105.91 58.9648 99.6523C65.881 91.0943 72.6319 97.0919 84.9835 88.9349Z" fill="#1A202C"/>
<path d="M61.5267 236.586C61.2355 236.586 60.9565 236.422 60.824 236.14C60.6416 235.754 60.8081 235.292 61.1959 235.109C71.9434 230.054 74.6435 219.149 74.6695 219.039C74.7685 218.621 75.1868 218.363 75.6036 218.462C76.0207 218.563 76.2784 218.98 76.1792 219.397C76.066 219.873 73.2733 231.142 61.8566 236.513C61.7499 236.562 61.6373 236.586 61.5267 236.586Z" fill="white"/>
<path d="M160.968 76.6968L158.196 85.5806C157.282 88.3355 157.742 91.3601 159.427 93.7188L162.539 98.1807C163.052 98.9216 163.195 99.8149 163.212 100.715C163.251 102.732 162.947 105.81 162.947 105.81L170.356 105.93C170.356 105.93 169.542 102.024 169.169 100.682C168.689 98.9661 168.677 97.0904 169.425 95.4726C171.805 90.3261 171.108 85.1609 171.108 85.1609L166.032 86.5161C166.032 86.5161 164.461 83.8432 164.759 79.1797C164.832 78.0379 164.712 77.168 164.482 76.5069C163.889 74.8 161.416 74.9477 160.968 76.6968Z" fill="white"/>
<path d="M160.968 76.702H160.975H160.968ZM163.793 105.053L169.395 105.145C169.132 103.907 168.67 101.794 168.422 100.896C167.85 98.847 167.955 96.8072 168.722 95.1519C170.408 91.5083 170.478 87.8062 170.405 86.1579L166.234 87.2716C165.897 87.3607 165.54 87.2153 165.364 86.9152C165.296 86.7956 163.676 83.9821 163.986 79.1357C164.044 78.1885 163.967 77.3913 163.749 76.7653C163.519 76.1041 162.919 76.0807 162.731 76.0853C162.34 76.1018 161.866 76.3221 161.721 76.8942C161.718 76.9083 161.714 76.92 161.709 76.9341L158.935 85.8179C158.101 88.3407 158.523 91.1238 160.061 93.2738L163.174 97.7427C163.873 98.7439 163.974 99.9139 163.988 100.706C164.014 102.113 163.882 103.984 163.793 105.053ZM170.356 106.711C170.351 106.711 170.347 106.711 170.344 106.711L162.935 106.591C162.717 106.587 162.513 106.493 162.368 106.331C162.225 106.169 162.154 105.954 162.176 105.738C162.178 105.707 162.473 102.683 162.436 100.737C162.419 99.7966 162.248 99.1284 161.901 98.629L158.792 94.1671C156.973 91.6232 156.471 88.322 157.458 85.3419L160.222 76.4886C160.52 75.3679 161.498 74.5847 162.666 74.5355C163.838 74.491 164.834 75.1615 165.214 76.2565C165.5 77.0771 165.608 78.0783 165.533 79.2342C165.329 82.458 166.051 84.6597 166.452 85.6069L170.909 84.4158C171.125 84.3595 171.352 84.397 171.538 84.5213C171.725 84.6456 171.847 84.8425 171.878 85.0629C171.908 85.2833 172.576 90.5142 170.129 95.8037C169.519 97.1237 169.444 98.7837 169.915 100.479C170.293 101.829 171.083 105.616 171.116 105.778C171.165 106.008 171.104 106.249 170.954 106.43C170.806 106.608 170.588 106.711 170.356 106.711Z" fill="#1A202C"/>
<path d="M111.617 132.839C118.088 133.556 137.591 142.175 148.96 130.501C160.329 118.827 160.89 103.313 160.89 103.313L172.013 102.351C172.013 102.351 179.668 120.55 171.722 141.76C163.614 163.41 124.549 171.023 124.549 171.023L111.617 132.839Z" fill="#022897"/>
<path d="M125.364 137.522C112.18 129.586 88.5763 130.252 76.8411 135.621C56.0259 145.14 44.0889 220.811 50.746 237.122C56.8252 252.02 108.576 255.188 122.941 242.44C129.061 237.01 127.029 204.619 125.95 191.674C125.622 187.74 125.456 183.796 125.448 179.845L125.364 137.522Z" fill="#022897"/>
<path d="M80.311 113.845C80.7649 113.864 81.126 113.482 81.077 113.027C80.8449 110.87 80.1544 106.821 82.2191 105.006C84.8655 102.678 89.2727 99.1376 90.9805 101.304C92.4775 103.201 93.9905 107.055 97.6062 108.488C97.9527 108.626 97.987 109.126 97.8325 109.466L97.0751 111.386C96.9019 111.766 97.054 112.647 97.2163 113.037C97.7178 114.235 98.8777 116.732 98.6528 117.255C98.2144 118.277 94.2653 120.103 94.2653 120.103L96.878 132.309C96.9771 132.774 97.2866 133.543 97.742 133.428L102.565 133.787C102.565 133.787 102.265 140.403 92.0091 142.23C78.6055 144.616 76.8438 135.627 76.8438 135.627C76.8438 135.627 89.947 135.418 84.2406 121.13C84.1152 120.816 83.8303 120.593 83.4981 120.544C82.2233 120.349 78.6991 119.655 78.0297 117.386C77.319 114.978 78.757 113.777 80.311 113.845Z" fill="white"/>
<path d="M80.3392 113.064L80.3059 113.84L80.3395 113.064C80.3395 113.064 80.3395 113.064 80.3392 113.064ZM77.8661 136.313C78.6785 138.362 81.7176 143.267 91.8676 141.459C99.4145 140.116 101.222 136.161 101.652 134.491L97.7695 134.203C97.5127 134.233 97.2548 134.17 97.0274 134.027C96.407 133.642 96.1714 132.735 96.1139 132.468L93.5013 120.259C93.4256 119.905 93.6054 119.544 93.9344 119.392C95.7615 118.548 97.5488 117.464 97.8968 117.003C97.8396 116.452 97.0968 114.731 96.7709 113.973C96.6682 113.736 96.5737 113.518 96.4952 113.328C96.32 112.911 96.0438 111.76 96.3639 111.059L97.1052 109.174C97.1132 109.157 97.1193 109.141 97.124 109.127C94.2997 107.924 92.7395 105.441 91.4805 103.439C91.087 102.813 90.7154 102.222 90.3661 101.779C90.1846 101.547 89.9665 101.434 89.6587 101.404C88.3436 101.289 86.0135 102.691 82.7263 105.582C81.1463 106.972 81.539 110.325 81.7734 112.33C81.7988 112.545 81.8227 112.749 81.8431 112.939C81.8907 113.38 81.7451 113.816 81.4438 114.137C81.1423 114.461 80.7134 114.623 80.2722 114.613C79.7057 114.585 79.2161 114.789 78.9252 115.162C78.5707 115.617 78.5165 116.306 78.7686 117.162C79.3055 118.981 82.6093 119.619 83.6091 119.769C84.2135 119.863 84.7296 120.271 84.9558 120.836C86.8979 125.701 86.9492 129.567 85.1077 132.332C83.1441 135.281 79.6061 136.09 77.8661 136.313ZM87.7823 143.398C77.702 143.401 76.094 135.856 76.0769 135.769C76.0328 135.544 76.091 135.309 76.2356 135.131C76.3801 134.953 76.5965 134.848 76.8263 134.845C76.8732 134.843 81.6635 134.716 83.8213 131.464C85.3575 129.15 85.2541 125.769 83.5146 121.413C83.4921 121.357 83.4374 121.314 83.376 121.305C81.4199 121.007 78.0267 120.133 77.2804 117.6C76.7749 115.889 77.2307 114.81 77.7025 114.205C78.3006 113.441 79.2525 113.028 80.3092 113.061C80.2787 112.909 80.2562 112.714 80.2323 112.51C79.9449 110.055 79.5102 106.346 81.7012 104.417C85.474 101.099 87.9731 99.6874 89.7994 99.8586C90.5255 99.9266 91.1428 100.257 91.5846 100.818C91.9855 101.326 92.3782 101.95 92.7942 102.611C93.9613 104.47 95.4138 106.78 97.8869 107.762C98.2023 107.887 98.4494 108.135 98.5817 108.463C98.7416 108.86 98.7228 109.364 98.5334 109.781L97.7917 111.664C97.7352 111.847 97.8037 112.438 97.9266 112.731C98.0032 112.913 98.0959 113.127 98.196 113.361C99.2928 115.903 99.6335 116.918 99.3605 117.556C98.923 118.576 96.5805 119.84 95.1472 120.536L97.6316 132.142C97.6755 132.348 97.7545 132.54 97.8175 132.651L102.617 133.007C103.036 133.037 103.354 133.396 103.335 133.816C103.322 134.111 102.883 141.073 92.1398 142.988C90.5358 143.274 89.0871 143.398 87.7823 143.398Z" fill="#1A202C"/>
<path d="M132.777 213.712C132.777 213.712 140.626 210.924 146.069 212.458C146.069 212.458 146.882 215.857 149.233 217.372C151.585 218.887 157.334 219.588 158.431 222.856C159.531 226.127 148.025 229.271 143.917 227.613C139.81 225.953 136.102 221.825 132.205 222.021C128.307 222.218 132.777 213.712 132.777 213.712Z" fill="white"/>
<path d="M132.47 221.234C135.025 221.234 137.448 222.826 139.795 224.369C141.23 225.311 142.715 226.287 144.206 226.889C147.125 228.068 154.755 226.502 157.168 224.233C157.625 223.801 157.803 223.421 157.696 223.1C157.072 221.248 154.408 220.282 152.057 219.431C150.816 218.983 149.649 218.559 148.811 218.019C146.745 216.69 145.769 214.139 145.443 213.093C140.895 212.026 134.713 213.888 133.321 214.343C132.191 216.575 130.914 220.064 131.537 221.037C131.58 221.107 131.679 221.264 132.164 221.241C132.266 221.236 132.368 221.234 132.47 221.234ZM146.91 228.828C145.622 228.828 144.475 228.671 143.625 228.329C141.991 227.668 140.441 226.65 138.943 225.665C136.608 224.132 134.396 222.68 132.242 222.791C131.101 222.854 130.517 222.324 130.229 221.874C128.86 219.731 131.538 214.395 132.089 213.347C132.179 213.173 132.332 213.042 132.516 212.976C132.846 212.859 140.662 210.125 146.278 211.708C146.548 211.783 146.757 212.001 146.822 212.273C146.829 212.303 147.598 215.393 149.651 216.716C150.34 217.159 151.431 217.555 152.584 217.972C155.266 218.943 158.305 220.043 159.166 222.605C159.384 223.255 159.4 224.263 158.232 225.363C156.099 227.372 150.844 228.828 146.91 228.828Z" fill="#1A202C"/>
<path d="M78.977 170.49L88.1251 191.615C90.0165 195.983 93.7009 199.324 98.2333 200.778L133.328 212.037L132.505 224.227C132.505 224.227 86.4023 219.901 78.4289 214.02C70.9661 208.52 61.5859 183.125 61.5859 183.125L78.977 170.49Z" fill="#022897"/>
<path d="M133.33 212.812C133.251 212.812 133.172 212.801 133.093 212.775L97.9987 201.516C93.2532 199.994 89.3958 196.499 87.415 191.924L78.2672 170.799C78.097 170.405 78.2775 169.948 78.671 169.779C79.0646 169.608 79.5211 169.788 79.6913 170.182L88.8392 191.308C90.6422 195.469 94.1533 198.653 98.4726 200.039L133.567 211.298C133.975 211.429 134.199 211.865 134.069 212.273C133.963 212.601 133.658 212.812 133.33 212.812Z" fill="#1A202C"/>
<path d="M121.725 223.836C121.695 223.836 121.664 223.834 121.633 223.831C104.686 221.831 83.3523 218.617 77.9634 214.643C75.5702 212.877 72.7796 209.032 69.6699 203.213C69.4678 202.833 69.6106 202.364 69.9883 202.162C70.3661 201.958 70.8366 202.101 71.0385 202.481C74.0389 208.094 76.6785 211.766 78.8843 213.393C82.8759 216.335 98.1218 219.496 121.815 222.288C122.241 222.34 122.545 222.725 122.495 223.151C122.448 223.545 122.113 223.836 121.725 223.836Z" fill="#1A202C"/>
<path d="M221.991 167.026C220.638 161.371 204.728 159.505 202.96 162.161C198.861 168.335 191.825 183.809 188.062 192.325C186.381 196.133 183.492 199.281 179.844 201.286L158.613 212.962C157.483 212.672 147.089 210.02 146.053 210.238C144.956 210.468 143.66 212.515 140.938 214.053C138.216 215.588 136.163 216.51 136.806 217.701C137.378 218.761 142.484 218.348 146.076 216.768C146.8 216.449 147.653 216.641 148.185 217.225C149.469 218.636 155.103 221.14 160.163 221.117L194.203 215.532C197.748 214.951 200.868 212.866 202.756 209.809C209.255 199.291 223.799 174.602 221.991 167.026Z" fill="white"/>
<path d="M146.806 215.834C147.53 215.834 148.242 216.137 148.755 216.702C149.772 217.818 155.095 220.338 160.086 220.338C160.089 220.338 160.091 220.338 160.093 220.338L194.072 214.763C197.399 214.217 200.323 212.264 202.093 209.401C215.286 188.048 222.442 172.273 221.232 167.204C220.714 165.038 217.122 163.059 212.083 162.163C207.364 161.324 204.072 161.882 203.603 162.588C199.544 168.698 192.567 184.036 188.768 192.637C187.029 196.576 183.99 199.886 180.213 201.964L158.982 213.638C158.809 213.734 158.607 213.759 158.415 213.71C152.949 212.308 146.987 210.915 146.179 210.997C145.897 211.058 145.34 211.57 144.75 212.109C143.892 212.894 142.825 213.872 141.315 214.725C140.98 214.915 140.654 215.096 140.342 215.269C139.163 215.921 137.4 216.897 137.472 217.293C138.196 217.773 142.448 217.513 145.759 216.055C146.097 215.907 146.452 215.834 146.806 215.834ZM160.089 221.891C155.031 221.891 149.134 219.424 147.608 217.745C147.298 217.405 146.797 217.295 146.385 217.476C143.02 218.955 137.096 219.877 136.119 218.067C135.191 216.346 137.132 215.272 139.591 213.909C139.899 213.741 140.221 213.56 140.553 213.373C141.908 212.608 142.903 211.698 143.702 210.965C144.518 210.219 145.162 209.628 145.889 209.476C146.894 209.262 153.235 210.784 158.504 212.13L179.467 200.604C182.947 198.69 185.746 195.638 187.35 192.008C191.167 183.364 198.189 167.934 202.311 161.73C203.661 159.697 209.26 160.084 212.355 160.635C214.536 161.022 221.732 162.616 222.74 166.843C224.554 174.435 211.408 197.277 203.413 210.217C201.406 213.459 198.095 215.675 194.323 216.296L160.283 221.881C160.22 221.891 160.157 221.891 160.089 221.891Z" fill="#1A202C"/>
<path d="M289.552 384.713L288.828 398.094L279.881 399.602L279.086 383.822L289.552 384.713Z" fill="white"/>
<path d="M279.9 384.666L280.608 398.689L288.083 397.428L288.732 385.421L279.9 384.666ZM279.877 400.375C279.701 400.375 279.53 400.316 279.391 400.204C279.218 400.066 279.112 399.859 279.103 399.639L278.306 383.857C278.294 383.634 278.381 383.416 278.543 383.259C278.704 383.104 278.925 383.025 279.147 383.046L289.614 383.939C290.031 383.974 290.345 384.335 290.324 384.753L289.597 398.131C289.579 398.495 289.309 398.795 288.953 398.856L280.006 400.366C279.963 400.373 279.921 400.375 279.877 400.375Z" fill="#1A202C"/>
<path d="M279.634 422.845C283.411 423.185 289.585 423.337 296.752 421.975C299.104 421.527 300.555 419.154 299.869 416.863C297.953 410.481 294.595 398.364 289.608 392.922L288.595 396.062L286.837 393.241C286.596 392.854 286.185 392.606 285.733 392.573L282.176 392.303C281.433 392.247 280.771 392.77 280.657 393.506L280.227 396.207L278.818 392.761L275.998 418.514C275.82 420.709 277.44 422.648 279.634 422.845Z" fill="#022897"/>
<path d="M279.254 395.872L276.764 418.585C276.623 420.334 277.939 421.902 279.699 422.062C283.538 422.404 289.587 422.535 296.604 421.201C297.512 421.028 298.306 420.477 298.785 419.689C299.268 418.894 299.387 417.966 299.12 417.075L298.707 415.691C296.909 409.642 293.978 399.785 289.91 394.487L289.329 396.287C289.237 396.576 288.984 396.782 288.686 396.819C288.389 396.859 288.093 396.716 287.931 396.461L286.173 393.64C286.063 393.464 285.875 393.352 285.666 393.335L282.112 393.066C281.774 393.038 281.47 393.281 281.416 393.614L280.989 396.315C280.935 396.66 280.658 396.925 280.311 396.967C279.967 397.007 279.636 396.81 279.505 396.489L279.254 395.872ZM284.972 423.844C282.888 423.844 281.059 423.741 279.559 423.607C276.956 423.372 275.008 421.056 275.219 418.439L278.042 392.665C278.082 392.311 278.354 392.029 278.705 391.98C279.057 391.931 279.399 392.126 279.533 392.454L279.892 393.331C280.089 392.226 281.106 391.439 282.229 391.518L285.784 391.788C286.482 391.839 287.12 392.226 287.491 392.82L288.365 394.222L288.865 392.672C288.949 392.409 289.167 392.21 289.437 392.151C289.706 392.095 289.988 392.182 290.175 392.386C294.944 397.589 298.231 408.643 300.194 415.248L300.606 416.629C300.996 417.926 300.815 419.335 300.112 420.493C299.406 421.656 298.234 422.47 296.893 422.725C292.44 423.572 288.365 423.844 284.972 423.844Z" fill="#1A202C"/>
<path d="M247.047 379.744L246.677 399.235L235.849 399.781L234.367 380.384L247.047 379.744Z" fill="white"/>
<path d="M235.194 381.125L236.559 398.973L245.909 398.502L246.249 380.567L235.194 381.125ZM235.844 400.562C235.441 400.562 235.101 400.251 235.07 399.845L233.588 380.448C233.572 380.239 233.64 380.033 233.778 379.878C233.917 379.721 234.114 379.625 234.322 379.616L247.002 378.975C247.22 378.964 247.426 379.043 247.581 379.193C247.736 379.344 247.82 379.55 247.818 379.766L247.447 399.254C247.44 399.662 247.119 399.995 246.711 400.014L235.884 400.56C235.87 400.562 235.856 400.562 235.844 400.562Z" fill="#1A202C"/>
<path d="M250.06 410.068C250.179 411.906 249.004 413.58 247.237 414.089C241.084 415.85 227.223 419.784 223.253 420.581C218.1 421.615 211.64 420.347 208.745 417.449C205.849 414.551 214.367 406.851 218.452 404.002C224.519 399.766 230.147 391.716 232.653 391.24C235.159 390.767 240.238 397.85 240.238 397.85L247.776 394.228C247.776 394.228 249.45 400.757 250.06 410.068Z" fill="#022897"/>
<path d="M232.925 391.98C232.878 391.98 232.833 391.985 232.791 391.994C231.78 392.184 229.567 394.508 227.426 396.756C224.873 399.434 221.98 402.47 218.89 404.627C214.883 407.424 209.192 412.854 208.934 415.774C208.892 416.252 209.005 416.606 209.288 416.89C211.9 419.504 218.095 420.815 223.096 419.809C227.054 419.014 241.142 415.014 247.018 413.33C248.423 412.927 249.375 411.572 249.278 410.109C248.814 402.972 247.705 397.441 247.236 395.335L240.57 398.538C240.228 398.702 239.822 398.597 239.602 398.292C237.375 395.188 234.259 391.98 232.925 391.98ZM219.523 421.703C215.026 421.703 210.5 420.299 208.191 417.987C207.584 417.38 207.307 416.566 207.389 415.635C207.736 411.713 214.69 405.666 218.003 403.354C220.965 401.286 223.799 398.311 226.301 395.685C229.03 392.822 231.002 390.754 232.503 390.468C235.056 389.987 239.042 394.937 240.479 396.859L247.435 393.518C247.644 393.417 247.888 393.415 248.099 393.514C248.31 393.612 248.465 393.8 248.523 394.022C248.54 394.09 250.223 400.733 250.828 410.008C250.971 412.196 249.548 414.221 247.445 414.824C241.553 416.512 227.415 420.524 223.401 421.33C222.149 421.584 220.836 421.703 219.523 421.703Z" fill="#1A202C"/>
<path d="M231.885 405.742C231.712 405.742 231.54 405.686 231.395 405.569L225.637 400.879C225.306 400.607 225.255 400.12 225.526 399.787C225.796 399.454 226.286 399.405 226.617 399.674L232.375 404.366C232.708 404.636 232.757 405.126 232.488 405.456C232.333 405.646 232.11 405.742 231.885 405.742Z" fill="#1A202C"/>
<path d="M285.877 250.854C285.877 250.854 292.295 311.402 295.108 332.272C297.922 353.144 293.758 387.129 293.758 387.129L276.998 387.094C276.998 387.094 273.788 346.187 271.974 334.874C271.974 334.874 264.135 319.81 261.348 306.162C258.562 292.514 250.34 271.147 250.34 271.147C250.34 271.147 250.018 379.87 249.889 388.419C249.889 388.419 236.813 389.664 231.965 386.944C231.965 386.944 221.646 347.826 221.756 326.253C221.866 304.682 217.859 251.302 217.859 251.302L285.877 250.854Z" fill="#1A202C"/>
<path d="M301.878 180.812C301.878 180.812 294.443 144.892 274.178 136.984C253.914 129.075 222.273 133.575 215.105 138.395C207.935 143.216 197.258 165.762 197.258 165.762L212.803 185.304C212.803 185.304 212.137 249.486 216.066 266.225C216.066 266.225 235.119 267.477 242.992 263.908C250.868 260.34 277.057 254.574 289.976 259.739L283.599 178.842L301.878 180.812Z" fill="#022897"/>
<path d="M216.689 265.489C219.922 265.658 235.817 266.312 242.668 263.208C250.339 259.731 275.535 254.064 289.103 258.601L282.819 178.909C282.801 178.679 282.885 178.454 283.052 178.292C283.216 178.13 283.443 178.051 283.675 178.077L300.873 179.929C299.455 173.995 291.609 144.626 273.891 137.711C253.655 129.815 222.11 134.621 215.531 139.045C209.16 143.331 199.686 162.522 198.164 165.666L213.404 184.827C213.514 184.965 213.575 185.139 213.573 185.317C213.566 185.95 212.968 248.193 216.689 265.489ZM223.723 267.227C219.51 267.227 216.326 267.025 216.009 267.004C215.669 266.98 215.383 266.739 215.306 266.406C211.491 250.155 211.969 190.761 212.018 185.577L196.645 166.253C196.462 166.02 196.424 165.704 196.551 165.437C196.992 164.508 207.404 142.642 214.666 137.756C221.631 133.071 253.406 128.051 274.456 136.267C294.878 144.236 302.324 179.176 302.632 180.66C302.683 180.902 302.613 181.155 302.446 181.338C302.28 181.523 302.038 181.617 301.79 181.589L284.44 179.72L290.744 259.684C290.765 259.951 290.648 260.211 290.432 260.371C290.214 260.528 289.933 260.565 289.684 260.465C277.382 255.55 251.434 260.938 243.308 264.622C238.546 266.779 229.995 267.227 223.723 267.227Z" fill="#1A202C"/>
<path d="M271.726 244.703C271.693 244.703 271.663 244.703 271.63 244.698C255.389 242.666 245.03 235.96 239.202 230.692C232.857 224.961 230.402 219.766 230.299 219.545C230.118 219.158 230.287 218.696 230.676 218.516C231.063 218.338 231.525 218.504 231.706 218.891C231.802 219.097 241.6 239.376 271.822 243.158C272.247 243.212 272.549 243.599 272.495 244.026C272.446 244.417 272.113 244.703 271.726 244.703Z" fill="#1A202C"/>
<path d="M215.509 210.539L254.068 208.595L239.818 166.132L201.258 168.075L215.509 210.539Z" fill="#FC955C"/>
<path d="M298.479 181.126L278.524 173.386C278.524 173.386 282.941 206.314 242.686 193.037C242.686 193.037 243.928 188.713 243.471 183.761C243.016 178.807 240.29 183.761 240.076 187.815C239.865 191.869 230.513 190.701 224.862 189.391C219.211 188.083 211.95 189.492 225.193 195.949C238.433 202.406 241.096 199.093 241.096 199.093C241.096 199.093 258.709 221.285 278.932 215.362C303.806 208.078 298.479 181.126 298.479 181.126Z" fill="white"/>
<path d="M241.101 198.312C241.101 198.312 241.101 198.312 241.103 198.312C241.338 198.314 241.56 198.422 241.708 198.605C241.881 198.823 259.236 220.318 278.718 214.612C288.727 211.681 294.971 205.21 297.271 195.381C298.758 189.036 298.038 183.25 297.792 181.686L279.412 174.556C279.611 177.953 279.475 187.245 272.791 192.792C266.507 198.009 256.299 198.337 242.449 193.768C242.053 193.639 241.83 193.219 241.945 192.818C241.956 192.776 243.141 188.565 242.704 183.826C242.646 183.2 242.557 182.832 242.484 182.624C241.933 183.29 240.979 185.505 240.857 187.85C240.808 188.776 240.379 189.571 239.612 190.148C236.36 192.595 227.368 190.762 224.691 190.143C221.361 189.372 218.686 189.789 218.503 190.307C218.498 190.319 218.367 191.751 225.537 195.245C237.675 201.167 240.472 198.631 240.496 198.602C240.643 198.42 240.866 198.312 241.101 198.312ZM272.003 217.125C256.425 217.125 243.549 203.137 240.962 200.133C239.431 200.921 235.209 201.688 224.857 196.642C217.026 192.823 216.646 190.903 217.04 189.789C217.765 187.747 222.222 187.976 225.04 188.631C229.982 189.775 236.519 190.534 238.679 188.907C239.082 188.603 239.281 188.241 239.307 187.77C239.448 185.06 240.819 180.94 242.564 180.905C244.015 180.877 244.186 182.989 244.25 183.686C244.608 187.58 243.959 191.055 243.621 192.518C256.571 196.673 266.048 196.366 271.794 191.604C279.25 185.423 277.775 173.604 277.759 173.484C277.724 173.212 277.834 172.943 278.05 172.772C278.266 172.603 278.554 172.558 278.809 172.659L298.765 180.399C299.013 180.495 299.194 180.71 299.245 180.971C299.302 181.252 300.589 187.96 298.795 195.683C297.126 202.863 292.364 212.234 279.154 216.103C276.727 216.813 274.336 217.125 272.003 217.125Z" fill="#1A202C"/>
<path d="M243.279 122.005C245.042 123.464 248.433 125.182 250.949 123.752C252.82 122.688 253.764 120.13 253.553 117.262C254.447 117.29 255.61 117.168 256.405 116.392C257.628 115.194 257.284 113.124 257.164 111.759C256.613 105.452 260.236 104.299 259.122 100.057C258.245 96.723 255.497 94.8496 254.984 94.5003C252.391 92.7301 250.728 93.4265 246.473 92.5402C239.312 91.0443 238.932 88.008 234.276 88.2284C234.006 88.2425 227.671 88.6317 225.741 93.1193C224.171 96.7676 226.433 100.993 228.66 103.161C231.544 105.968 233.436 104.413 236.306 106.744C241.345 110.835 238.041 117.672 243.279 122.005Z" fill="#1A202C"/>
<path d="M228.601 111.444L228.869 111.188C230.205 109.913 231.591 108.44 231.872 106.614C233.063 98.8439 239.966 95.6974 240.646 102.741C240.819 104.52 247.321 104.098 246.643 106.009C244.875 110.984 244.765 109.676 247.696 111.329C248.02 111.327 248.341 111.381 248.65 111.505C250.141 112.112 250.758 114.063 250.024 115.866C249.581 116.959 248.739 117.739 247.818 118.053L248.205 125.758C248.35 128.644 250.228 131.158 252.957 132.117L255.612 133.047C255.612 133.047 243.881 141.575 231.134 133.505L232.74 132.684C235.567 131.242 237.323 128.311 237.262 125.137L237.199 123.629C236.376 123.744 235.572 123.73 234.819 123.552C231.326 122.722 229.982 118.813 230.32 113.852L228.88 113.17C228.207 112.851 228.064 111.957 228.601 111.444Z" fill="white"/>
<path d="M232.74 133.555C242.13 138.77 250.646 135.058 253.84 133.246L252.702 132.847C249.664 131.778 247.596 129.012 247.434 125.795L247.045 118.093C247.028 117.746 247.242 117.431 247.57 117.319C248.318 117.063 248.967 116.411 249.31 115.572C249.596 114.869 249.64 114.121 249.434 113.469C249.246 112.871 248.864 112.428 248.362 112.224C248.161 112.142 247.94 112.1 247.706 112.104C247.582 112.1 247.436 112.072 247.317 112.004C246.82 111.725 246.412 111.532 246.083 111.378C244.156 110.468 244.412 109.788 245.258 107.53C245.439 107.054 245.654 106.477 245.905 105.774C245.617 105.495 244.36 105.209 243.593 105.035C241.833 104.637 240.013 104.224 239.877 102.815C239.683 100.801 238.93 99.6262 237.812 99.5957C237.795 99.5957 237.781 99.5957 237.765 99.5957C236.102 99.5957 233.35 102.105 232.642 106.73C232.32 108.82 230.804 110.416 229.406 111.75L229.141 112.004C229.047 112.093 229.047 112.201 229.057 112.254C229.066 112.311 229.097 112.412 229.214 112.468L230.656 113.15C230.944 113.286 231.118 113.584 231.097 113.903C230.937 116.261 230.996 121.846 235.003 122.796C235.631 122.944 236.337 122.965 237.097 122.859C237.315 122.829 237.533 122.892 237.701 123.033C237.868 123.173 237.969 123.377 237.978 123.595L238.041 125.103C238.107 128.568 236.166 131.809 233.094 133.375L232.74 133.555ZM242.695 137.727C239.043 137.727 234.928 136.822 230.721 134.16C230.485 134.01 230.346 133.745 230.36 133.469C230.372 133.19 230.534 132.939 230.782 132.812L232.388 131.994C234.935 130.693 236.543 128.008 236.489 125.15L236.461 124.472C235.826 124.496 235.214 124.44 234.644 124.306C231.122 123.471 229.27 119.846 229.519 114.327L228.55 113.87C228.004 113.61 227.62 113.098 227.523 112.503C227.427 111.905 227.631 111.298 228.07 110.88L228.337 110.627C229.547 109.471 230.862 108.102 231.108 106.494C231.913 101.239 235.169 98.0436 237.767 98.0436C237.795 98.0436 237.826 98.0436 237.854 98.0436C239.814 98.0975 241.148 99.8255 241.422 102.665C241.589 102.991 243.174 103.35 243.936 103.523C245.476 103.872 246.806 104.172 247.296 105.061C247.497 105.429 247.525 105.847 247.375 106.266C247.117 106.993 246.895 107.586 246.712 108.076C246.452 108.766 246.208 109.422 246.173 109.682C246.287 109.757 246.529 109.87 246.747 109.973C247.059 110.121 247.441 110.301 247.91 110.557C248.271 110.576 248.62 110.653 248.946 110.787C249.884 111.169 250.583 111.954 250.913 113.002C251.228 113.999 251.169 115.117 250.747 116.156C250.313 117.223 249.556 118.069 248.623 118.552L248.984 125.717C249.113 128.301 250.775 130.524 253.216 131.382L255.872 132.315C256.144 132.411 256.341 132.648 256.381 132.934C256.423 133.22 256.304 133.504 256.069 133.675C255.987 133.734 250.367 137.727 242.695 137.727Z" fill="#1A202C"/>
<path d="M237.197 124.406C236.836 124.406 236.512 124.153 236.437 123.787C236.353 123.368 236.623 122.957 237.042 122.871C241.368 121.982 243.188 118.502 243.206 118.467C243.401 118.085 243.867 117.935 244.25 118.127C244.632 118.322 244.782 118.791 244.587 119.173C244.501 119.342 242.404 123.354 237.354 124.39C237.303 124.402 237.249 124.406 237.197 124.406Z" fill="#1A202C"/>
<path d="M31.8923 321.805C31.6452 321.805 31.4027 321.687 31.2522 321.467C20.1691 305.355 12.7362 287.857 9.16013 269.456C6.29991 254.739 5.88796 239.419 7.93553 223.923C11.4218 197.539 20.9813 179.523 21.0777 179.342C21.28 178.965 21.7503 178.824 22.1283 179.026C22.5058 179.23 22.6474 179.701 22.4446 180.079C22.3496 180.254 12.9066 198.067 9.46634 224.186C6.29522 248.258 7.72287 284.523 32.5308 320.588C32.7737 320.942 32.6843 321.425 32.3312 321.669C32.1969 321.76 32.0438 321.805 31.8923 321.805Z" fill="#1A202C"/>
<path d="M22.7954 316.359C22.56 316.359 22.3277 316.252 22.175 316.05C5.48944 293.891 0.995953 269.743 0.164546 253.39C-0.736263 235.671 2.35373 222.998 2.38491 222.872C2.48831 222.457 2.90965 222.206 3.32511 222.307C3.74082 222.41 3.99427 222.83 3.89087 223.247C3.86016 223.371 0.81987 235.863 1.71716 253.364C2.54365 269.488 6.979 293.291 23.4149 315.117C23.6728 315.459 23.6041 315.944 23.2618 316.202C23.1218 316.308 22.9582 316.359 22.7954 316.359Z" fill="#1A202C"/>
<path d="M301.872 392.484C301.591 392.484 301.319 392.332 301.18 392.065C300.984 391.685 301.134 391.216 301.513 391.019C354.467 363.54 368.971 332.452 369.112 332.141C369.287 331.751 369.747 331.578 370.136 331.754C370.528 331.929 370.701 332.389 370.525 332.778C370.38 333.102 366.837 340.844 356.617 352.124C347.217 362.499 330.153 377.905 302.229 392.398C302.114 392.456 301.992 392.484 301.872 392.484Z" fill="white"/>
<path d="M301.87 383.695C301.577 383.695 301.293 383.527 301.164 383.24C300.986 382.851 301.159 382.392 301.548 382.213C336.343 366.385 355.386 334.641 355.576 334.322C355.794 333.954 356.27 333.832 356.638 334.05C357.006 334.268 357.13 334.742 356.912 335.112C356.72 335.436 337.442 367.588 302.191 383.625C302.088 383.674 301.977 383.695 301.87 383.695Z" fill="white"/>
<path d="M275.979 26.1875C275.55 26.1875 275.203 25.8405 275.203 25.4114V21.3998C275.203 20.9707 275.55 20.6237 275.979 20.6237C276.406 20.6237 276.753 20.9707 276.753 21.3998V25.4114C276.753 25.8405 276.406 26.1875 275.979 26.1875Z" fill="#1A202C"/>
<path d="M275.979 35.5391C275.55 35.5391 275.203 35.192 275.203 34.763V30.7513C275.203 30.3222 275.55 29.9752 275.979 29.9752C276.406 29.9752 276.753 30.3222 276.753 30.7513V34.763C276.753 35.192 276.406 35.5391 275.979 35.5391Z" fill="#1A202C"/>
<path d="M273.314 28.8594H269.3C268.87 28.8594 268.523 28.5124 268.523 28.0833C268.523 27.6542 268.87 27.3072 269.3 27.3072H273.314C273.743 27.3072 274.09 27.6542 274.09 28.0833C274.09 28.5124 273.743 28.8594 273.314 28.8594Z" fill="#1A202C"/>
<path d="M282.665 28.8594H278.651C278.222 28.8594 277.875 28.5124 277.875 28.0833C277.875 27.6542 278.222 27.3072 278.651 27.3072H282.665C283.094 27.3072 283.441 27.6542 283.441 28.0833C283.441 28.5124 283.094 28.8594 282.665 28.8594Z" fill="#1A202C"/>
<path d="M309.183 368.078C308.66 368.078 308.137 367.982 307.633 367.785C306.54 367.361 305.678 366.526 305.209 365.436C304.25 363.215 305.246 360.608 307.429 359.628C307.818 359.452 308.28 359.628 308.456 360.02C308.63 360.409 308.456 360.868 308.064 361.044C306.651 361.68 306.008 363.372 306.634 364.821C306.937 365.527 307.492 366.066 308.196 366.338C308.88 366.606 309.628 366.585 310.301 366.284C311.715 365.649 312.355 363.954 311.732 362.507C311.563 362.113 311.743 361.656 312.137 361.487C312.529 361.316 312.988 361.499 313.157 361.893C314.116 364.113 313.12 366.721 310.937 367.701C310.374 367.952 309.781 368.078 309.183 368.078Z" fill="#1A202C"/>
</svg>
