<svg width="60" height="60" viewBox="0 0 60 60" fill="none" xmlns="http://www.w3.org/2000/svg">
<g clip-path="url(#clip0_2140_101449)">
<mask id="mask0_2140_101449" style="mask-type:alpha" maskUnits="userSpaceOnUse" x="5" y="1" width="49" height="60">
<rect x="5" y="1" width="49" height="59.0685" fill="#D9D9D9"/>
</mask>
<g mask="url(#mask0_2140_101449)">
<path d="M49.1863 40.9462V15.6712C49.1863 13.5005 47.5998 11.7422 45.641 11.7422H13.3499C11.3912 11.7422 9.80469 13.5005 9.80469 15.6712V40.9462M36.0591 34.669C34.0029 34.669 31.9525 35.0011 29.4955 35.9175C24.6673 34.1249 21.3969 34.5659 16.5802 35.3849C16.6088 33.5636 16.7406 29.1592 16.8666 25.213C16.9926 21.2611 17.1186 17.7731 17.1358 17.7731V17.7674C21.437 16.9083 25.555 17.1832 29.4955 19.457C32.1129 17.945 34.9251 17.3207 37.783 17.3207C39.2263 17.3207 40.4119 17.481 41.8552 17.7674V17.7731C41.8838 17.7731 42.3535 31.748 42.4108 35.3906C40.0396 34.984 38.0465 34.669 36.0591 34.669Z" stroke="#2580FF" stroke-width="1.31263" stroke-miterlimit="10" stroke-linejoin="round"/>
<path d="M52.2521 43.6345V48.3768C52.2521 49.087 51.6793 49.6597 50.9749 49.6597H8.0194C7.31493 49.6597 6.74219 49.087 6.74219 48.3768V43.6345C6.74219 42.9243 7.31493 42.3516 8.0194 42.3516H50.9806C51.6793 42.3516 52.2521 42.93 52.2521 43.6345Z" fill="#E7EEF6" stroke="#2580FF" stroke-width="1.31263" stroke-miterlimit="10" stroke-linejoin="round"/>
<path d="M27.9922 46.0078H31.0048" stroke="#2580FF" stroke-width="1.31263" stroke-miterlimit="10" stroke-linecap="round"/>
<path opacity="0.8" d="M42.4165 35.3869C40.0511 34.9802 38.0522 34.671 36.0648 34.671C34.0087 34.671 31.9583 35.0031 29.5012 35.9195C24.673 34.1269 21.4027 34.5679 16.5859 35.3869C16.6146 33.5656 16.7463 29.1612 16.8723 25.215C16.9983 21.2631 17.1243 17.7751 17.1415 17.7751V17.7694C21.4428 16.9103 25.5608 17.1852 29.5012 19.459C32.1186 17.947 34.9308 17.3227 37.7888 17.3227C39.2321 17.3227 40.4176 17.483 41.8609 17.7694V17.7751C41.8896 17.7694 42.3592 31.7443 42.4165 35.3869Z" fill="white" stroke="#2580FF" stroke-width="1.31263" stroke-miterlimit="10" stroke-linejoin="round"/>
<path d="M29.4922 19.6406V35.3394" stroke="#2580FF" stroke-width="1.31263" stroke-miterlimit="10" stroke-linecap="round" stroke-linejoin="round"/>
<path d="M33.3828 30.558C34.9407 29.8019 36.6016 29.5671 38.2282 29.9394" stroke="#FC955C" stroke-width="1.31263" stroke-miterlimit="10" stroke-linecap="round" stroke-linejoin="round"/>
<path d="M33.375 23.0656C34.9271 22.2753 36.5881 21.8801 38.2318 22.2294" stroke="#FC955C" stroke-width="1.31263" stroke-miterlimit="10" stroke-linecap="round" stroke-linejoin="round"/>
<path d="M25.6188 30.558C24.061 29.8019 22.4 29.5671 20.7734 29.9394" stroke="#FC955C" stroke-width="1.31263" stroke-miterlimit="10" stroke-linecap="round" stroke-linejoin="round"/>
<path d="M25.6303 26.8238C24.0781 26.0506 22.4115 25.7356 20.7734 26.0907" stroke="#FC955C" stroke-width="1.31263" stroke-miterlimit="10" stroke-linecap="round" stroke-linejoin="round"/>
<path d="M25.6303 23.0656C24.0781 22.2753 22.4172 21.8801 20.7734 22.2294" stroke="#FC955C" stroke-width="1.31263" stroke-miterlimit="10" stroke-linecap="round" stroke-linejoin="round"/>
<path d="M33.375 26.8238C34.9271 26.0506 36.5938 25.7356 38.2318 26.0907" stroke="#FC955C" stroke-width="1.31263" stroke-miterlimit="10" stroke-linecap="round" stroke-linejoin="round"/>
</g>
</g>
<defs>
<clipPath id="clip0_2140_101449">
<rect width="60" height="60" fill="white"/>
</clipPath>
</defs>
</svg>
