<svg width="60" height="60" viewBox="0 0 60 60" fill="none" xmlns="http://www.w3.org/2000/svg">
<path d="M52.1949 14.0938V53.9475C52.1949 55.8668 50.6404 57.4214 48.7211 57.4214H14.2864C12.3671 57.4214 10.8125 55.8668 10.8125 53.9475V14.0938H52.1949Z" fill="#FEFDFE"/>
<path d="M52.1934 14.0964V7.05201C52.1934 5.13349 50.638 3.57812 48.7195 3.57812H14.2864C12.3678 3.57812 10.8125 5.13349 10.8125 7.05201V14.0964H52.1934Z" fill="#E7EEF6"/>
<path opacity="0.18" d="M52.1922 7.05201V53.9491C52.1922 55.8684 50.6376 57.423 48.7183 57.423H42.3438C44.263 57.423 45.8176 55.8684 45.8176 53.9491V7.05201C45.8176 5.13271 44.263 3.57812 42.3438 3.57812H48.7183C50.6377 3.57824 52.1922 5.13271 52.1922 7.05201V7.05201Z" fill="#2580FF"/>
<path d="M17.1223 8.83017C17.1223 9.53488 16.5514 10.1057 15.8468 10.1057C15.1422 10.1057 14.5625 9.53477 14.5625 8.83017C14.5625 8.12558 15.1422 7.55469 15.8468 7.55469C16.5514 7.55469 17.1223 8.12558 17.1223 8.83017V8.83017Z" fill="#FEFDFE"/>
<path d="M22.3801 8.83017C22.3801 9.53488 21.8092 10.1057 21.1046 10.1057C20.4 10.1057 19.8203 9.53477 19.8203 8.83017C19.8203 8.12558 20.4 7.55469 21.1046 7.55469C21.8093 7.55469 22.3801 8.12558 22.3801 8.83017Z" fill="#FEFDFE"/>
<path d="M27.6223 8.83017C27.6223 9.53488 27.0514 10.1057 26.3468 10.1057C25.6422 10.1057 25.0625 9.53477 25.0625 8.83017C25.0625 8.12558 25.6422 7.55469 26.3468 7.55469C27.0514 7.55469 27.6223 8.12558 27.6223 8.83017Z" fill="#FEFDFE"/>
<path d="M38.609 21.5156C35.2048 21.5156 32.4453 24.2751 32.4453 27.6793C32.4453 31.0834 35.2048 33.8431 38.609 33.8431C42.0132 33.8431 44.7727 31.0834 44.7727 27.6793H38.609V21.5156Z" fill="#E7EEF6"/>
<path d="M41.6875 18.4375V24.6012H47.8512C47.8511 21.197 45.0917 18.4375 41.6875 18.4375Z" fill="#E7EEF6"/>
<path d="M14.2814 58.0703H48.7155C50.9902 58.0703 52.8408 56.2197 52.8408 53.945C52.8407 50.1006 52.8401 15.2254 52.8399 7.04703C52.8399 4.77237 50.9893 2.92188 48.7146 2.92188H14.2814C12.0067 2.92188 10.1563 4.77248 10.1563 7.04703V53.945C10.1561 56.2197 12.0067 58.0703 14.2814 58.0703V58.0703ZM51.538 53.945C51.538 55.5013 50.2718 56.7675 48.7155 56.7675H14.2814C12.7251 56.7675 11.4589 55.5013 11.4589 53.945V14.7428H51.538V53.945ZM11.4588 7.04714C11.4588 5.49088 12.725 4.22464 14.2813 4.22464H48.7145C50.2708 4.22464 51.537 5.49088 51.537 7.04714V13.4402H11.4588V7.04714Z" fill="#2580FF"/>
<path d="M15.8503 6.90625C14.7825 6.90625 13.9141 7.77049 13.9141 8.83312C13.9141 9.89574 14.7825 10.76 15.8503 10.76C16.9129 10.76 17.7771 9.89574 17.7771 8.83312C17.7771 7.77049 16.913 6.90625 15.8503 6.90625ZM15.8503 9.45745C15.5008 9.45745 15.2167 9.17757 15.2167 8.83323C15.2167 8.48889 15.5008 8.20901 15.8503 8.20901C16.1946 8.20901 16.4745 8.48889 16.4745 8.83323C16.4745 9.17757 16.1946 9.45745 15.8503 9.45745Z" fill="#2580FF"/>
<path d="M21.0925 6.90625C20.0247 6.90625 19.1562 7.77049 19.1562 8.83312C19.1562 9.89574 20.0247 10.76 21.0925 10.76C22.1551 10.76 23.0193 9.89574 23.0193 8.83312C23.0193 7.77049 22.1551 6.90625 21.0925 6.90625ZM21.0925 9.45745C20.743 9.45745 20.4589 9.17757 20.4589 8.83323C20.4589 8.48889 20.743 8.20901 21.0925 8.20901C21.4368 8.20901 21.7167 8.48889 21.7167 8.83323C21.7167 9.17757 21.4368 9.45745 21.0925 9.45745Z" fill="#2580FF"/>
<path d="M26.3495 6.90625C25.2825 6.90625 24.4141 7.77049 24.4141 8.83312C24.4141 9.89574 25.2825 10.76 26.3495 10.76C27.4121 10.76 28.2764 9.89574 28.2764 8.83312C28.2764 7.77049 27.4121 6.90625 26.3495 6.90625ZM26.3495 9.45745C26.0009 9.45745 25.7168 9.17757 25.7168 8.83323C25.7168 8.48889 26.0009 8.20901 26.3495 8.20901C26.6938 8.20901 26.9737 8.48889 26.9737 8.83323C26.9737 9.17757 26.6937 9.45745 26.3495 9.45745Z" fill="#2580FF"/>
<path d="M48.4339 8.17969H37.9326C37.573 8.17969 37.2812 8.47148 37.2812 8.83107C37.2812 9.19066 37.573 9.48245 37.9326 9.48245H48.4339C48.7935 9.48245 49.0853 9.19066 49.0853 8.83107C49.0851 8.47148 48.7935 8.17969 48.4339 8.17969Z" fill="#2580FF"/>
<path d="M15.1436 25.2481H26.716C27.0756 25.2481 27.3674 24.9563 27.3674 24.5967C27.3674 24.2371 27.0756 23.9453 26.716 23.9453H15.1436C14.784 23.9453 14.4922 24.2371 14.4922 24.5967C14.4922 24.9563 14.784 25.2481 15.1436 25.2481V25.2481Z" fill="#2580FF"/>
<path d="M15.1436 19.084H26.716C27.0756 19.084 27.3674 18.7922 27.3674 18.4326C27.3674 18.073 27.0756 17.7812 26.716 17.7812H15.1436C14.784 17.7812 14.4922 18.073 14.4922 18.4326C14.4922 18.7923 14.784 19.084 15.1436 19.084V19.084Z" fill="#2580FF"/>
<path d="M15.1436 31.4121H26.716C27.0756 31.4121 27.3674 31.1203 27.3674 30.7608C27.3674 30.4012 27.0756 30.1094 26.716 30.1094H15.1436C14.784 30.1094 14.4922 30.4012 14.4922 30.7608C14.4922 31.1205 14.784 31.4121 15.1436 31.4121V31.4121Z" fill="#2580FF"/>
<path d="M38.5968 34.4973C42.3547 34.4973 45.4122 31.4407 45.4122 27.6827C45.4122 27.3231 45.1204 27.0313 44.7608 27.0313H39.248V21.5186C39.248 21.159 38.9562 20.8672 38.5966 20.8672C34.8387 20.8672 31.7812 23.9246 31.7812 27.6826C31.7812 31.4406 34.8389 34.4973 38.5968 34.4973V34.4973ZM37.9455 22.2081V27.6827C37.9455 28.0423 38.2373 28.3341 38.5969 28.3341H44.0714C43.7484 31.0675 41.416 33.1946 38.5969 33.1946C35.5573 33.1946 33.0841 30.7223 33.0841 27.6827C33.0841 24.8635 35.212 22.5313 37.9455 22.2081V22.2081Z" fill="#2580FF"/>
<path d="M41.6826 25.248H47.8459C48.2055 25.248 48.4972 24.9562 48.4972 24.5966C48.4972 20.8387 45.4406 17.7812 41.6826 17.7812C41.323 17.7812 41.0312 18.073 41.0312 18.4326V24.5966C41.0312 24.9562 41.323 25.248 41.6826 25.248ZM42.3339 19.1221C44.8536 19.4207 46.8586 21.4256 47.1563 23.9453H42.3339V19.1221Z" fill="#2580FF"/>
<path d="M15.1438 53.7335H38.2887C38.6483 53.7335 38.9401 53.4417 38.9401 53.0821C38.9401 52.7225 38.6483 52.4307 38.2887 52.4307H36.8732V42.2457C36.8732 41.8862 36.5814 41.5944 36.2218 41.5944C35.8622 41.5944 35.5704 41.8862 35.5704 42.2457V52.4307H30.536V46.0581C30.536 45.6985 30.2442 45.4067 29.8846 45.4067C29.525 45.4067 29.2333 45.6985 29.2333 46.0581V52.4307H24.199V37.9951C24.199 37.6355 23.9072 37.3438 23.5476 37.3438C23.188 37.3438 22.8962 37.6355 22.8962 37.9951V52.4308H17.8619V46.0582C17.8619 45.6986 17.5701 45.4068 17.2105 45.4068C16.8509 45.4068 16.5591 45.6986 16.5591 46.0582V52.4308H15.1436C14.784 52.4308 14.4922 52.7226 14.4922 53.0822C14.4924 53.4417 14.7842 53.7335 15.1438 53.7335V53.7335Z" fill="#FC955C"/>
</svg>
