<svg width="60" height="60" viewBox="0 0 60 60" fill="none" xmlns="http://www.w3.org/2000/svg">
<path d="M38.7075 42.4531C38.7075 43.5577 37.8121 44.4531 36.7075 44.4531H12C10.8954 44.4531 10 43.5577 10 42.4531V6.99947C10 5.8949 10.8954 4.99947 12 4.99947H36.7075C37.8121 4.99947 38.7075 5.8949 38.7075 6.99947V42.4531Z" stroke="#2580FF" stroke-width="1.60555" stroke-miterlimit="10"/>
<path d="M38.7016 16.3004H47.9966C49.1011 16.3004 49.9966 17.1958 49.9966 18.3004V53.75C49.9966 54.8546 49.1011 55.75 47.9966 55.75H23.2891C22.1845 55.75 21.2891 54.8546 21.2891 53.75V44.455" stroke="#2580FF" stroke-width="1.60555" stroke-miterlimit="10"/>
<path d="M27.1841 22.1797H13.8594V8.85898H27.1841V22.1797Z" stroke="#2580FF" stroke-width="1.60555" stroke-miterlimit="10"/>
<path d="M13.8594 28.0234H27.1922" stroke="#FC955C" stroke-width="1.60555" stroke-miterlimit="10"/>
<path d="M13.8594 32.1406H27.1922" stroke="#FC955C" stroke-width="1.60555" stroke-miterlimit="10"/>
<path d="M47.6616 52.4141H38.7031" stroke="#FC955C" stroke-width="1.60555" stroke-miterlimit="10"/>
<path d="M47.6616 49.8281H38.7031V47.1446H47.6616V49.8281Z" fill="#90A3BF"/>
<path d="M16.6172 19.4297H24.4256V11.6213C24.4256 11.6213 22.0367 17.1739 16.6172 19.4297Z" fill="#90A3BF"/>
<path d="M47.2243 12.7109V7.77975H42.2891" stroke="#2580FF" stroke-width="1.60555" stroke-miterlimit="10"/>
<path d="M12.7734 48.0375V52.9688H17.7087" stroke="#2580FF" stroke-width="1.60555" stroke-miterlimit="10"/>
</svg>
