<svg width="64" height="64" viewBox="0 0 64 64" fill="none" xmlns="http://www.w3.org/2000/svg">
<path d="M15.2588 34.8104H9.02706V28.5787C8.38981 29.2159 7.49956 29.6094 6.52506 29.6094C4.54781 29.6094 2.94531 28.0071 2.94531 26.0391C2.94531 24.0618 4.54769 22.4781 6.52506 22.4781C7.49969 22.4781 8.38994 22.8717 9.02706 23.5088V17.2771H15.2588C14.6216 16.6304 14.2281 15.7402 14.2281 14.7657C14.2281 12.7978 15.8212 11.1953 17.7984 11.1953C19.7757 11.1953 21.3688 12.7977 21.3688 14.7657C21.3688 15.7403 20.9658 16.6306 20.3381 17.2771H26.5604V23.5088C27.2071 22.8716 28.0879 22.4781 29.0718 22.4781C31.0397 22.4781 32.6422 24.0618 32.6422 26.0391C32.6422 28.0069 31.0398 29.6094 29.0718 29.6094C28.0878 29.6094 27.2069 29.2158 26.5604 28.5787V34.8104H20.3381" fill="#FEFDFE"/>
<path d="M26.5547 46.1063V52.3381H32.7864C32.1492 52.9753 31.7557 53.8562 31.7557 54.8401C31.7557 56.8173 33.3581 58.4104 35.3261 58.4104C37.3033 58.4104 38.8871 56.8173 38.8871 54.8401C38.8871 53.8561 38.4934 52.9752 37.8563 52.3381H44.0881V46.1063C44.7347 46.7436 45.6156 47.1371 46.5994 47.1371C48.5673 47.1371 50.1698 45.5439 50.1698 43.5761C50.1698 41.5894 48.5674 39.9963 46.5994 39.9963C45.6154 39.9963 44.7346 40.3993 44.0881 41.0271V34.8047H37.8563C38.4936 35.4513 38.8871 36.3416 38.8871 37.3161C38.8871 39.2839 37.3033 40.8864 35.3167 40.8864C33.3488 40.8864 31.7557 39.2841 31.7557 37.3161C31.7557 36.3414 32.1493 35.4512 32.7864 34.8047H26.5547V41.0271" fill="#E7EEF6"/>
<path d="M61.0501 14.3484C61.0501 16.3201 59.4495 17.9125 57.4778 17.9125C56.496 17.9125 55.6133 17.5165 54.9696 16.8813V23.1103H48.7406C49.3759 23.7538 49.7719 24.6448 49.7719 25.6184C49.7719 27.5903 48.1795 29.1908 46.1995 29.1908C44.2276 29.1908 42.6354 27.5901 42.6354 25.6184C42.6354 24.6449 43.0314 23.7538 43.6666 23.1103H37.4375V16.8813C38.081 17.5165 38.9638 17.9125 39.9456 17.9125C41.9175 17.9125 43.518 16.3119 43.518 14.3401C43.518 12.3684 41.9174 10.776 39.9456 10.776C38.9639 10.776 38.0811 11.172 37.4375 11.8073V5.57812H54.9695V11.8071C55.613 11.1719 56.4958 10.7759 57.4776 10.7759C59.4495 10.7759 61.0501 12.3765 61.0501 14.3484V14.3484Z" fill="#E7EEF6"/>
<path d="M29.0725 40.0013C28.094 40.0013 27.2089 40.3963 26.5639 41.0338V34.8056H20.3356C20.9731 34.1607 21.3681 33.2754 21.3681 32.2969C21.3681 30.3251 19.7696 28.7266 17.7979 28.7266C15.8261 28.7266 14.2276 30.3251 14.2276 32.2969C14.2276 33.2754 14.6226 34.1607 15.2601 34.8056H9.03188V41.0339C8.387 40.3964 7.50175 40.0014 6.52338 40.0014C4.5515 40.0014 2.95312 41.5999 2.95312 43.5718C2.95312 45.5437 4.5515 47.1421 6.52338 47.1421C7.50188 47.1421 8.387 46.7471 9.03188 46.1096V52.3376H15.2601C14.6226 52.9824 14.2276 53.8677 14.2276 54.8462C14.2276 56.8181 15.8261 58.4164 17.7979 58.4164C19.7696 58.4164 21.3681 56.8181 21.3681 54.8462C21.3681 53.8677 20.9731 52.9824 20.3356 52.3376H26.5639V46.1093C27.2088 46.7468 28.094 47.1418 29.0725 47.1418C31.0444 47.1418 32.6428 45.5433 32.6428 43.5716C32.6428 41.5998 31.0444 40.0013 29.0725 40.0013V40.0013Z" fill="#FEFDFE"/>
<path opacity="0.15" d="M22.1797 17.2656H26.5559V23.0006C26.0124 22.6539 25.3752 22.4665 24.6911 22.4665C23.7071 22.4665 22.8263 22.8601 22.1797 23.4973V17.2656Z" fill="#2580FF"/>
<path opacity="0.15" d="M24.6911 29.6011C25.3752 29.6011 26.0124 29.4043 26.5559 29.0669V34.8019H22.1797V28.5703C22.8263 29.2074 23.7072 29.6011 24.6911 29.6011V29.6011Z" fill="#2580FF"/>
<path opacity="0.15" d="M32.6304 26.0217C32.6304 27.9896 31.0279 29.5921 29.0601 29.5921C28.2261 29.5921 27.4669 29.3109 26.8672 28.8424C27.7106 28.1864 28.2541 27.1651 28.2541 26.0218C28.2541 24.8786 27.7199 23.8571 26.8766 23.2106C27.4763 22.7421 28.2353 22.4609 29.0601 22.4609C31.0281 22.4607 32.6304 24.0444 32.6304 26.0217V26.0217Z" fill="#2580FF"/>
<path opacity="0.15" d="M22.1797 34.7969H26.5559V40.5226C26.0124 40.1852 25.3752 39.9885 24.6911 39.9885C23.7071 39.9885 22.8263 40.3821 22.1797 41.0192V34.7969Z" fill="#2580FF"/>
<path opacity="0.15" d="M24.6911 47.1324C25.3752 47.1324 26.0124 46.9357 26.5559 46.5983V52.3333H22.1797V46.1016C22.8263 46.7389 23.7072 47.1324 24.6911 47.1324V47.1324Z" fill="#2580FF"/>
<path opacity="0.15" d="M32.6304 43.5545C32.6304 45.5224 31.0279 47.1249 29.0601 47.1249C28.2354 47.1249 27.4763 46.8438 26.8672 46.3753C27.7106 45.7193 28.2541 44.6979 28.2541 43.5546C28.2541 42.4114 27.7106 41.3899 26.8672 40.734C27.4763 40.2655 28.2353 39.9844 29.0601 39.9844C31.0281 39.9841 32.6304 41.5865 32.6304 43.5545V43.5545Z" fill="#2580FF"/>
<path opacity="0.15" d="M26.5547 46.1016C26.6578 46.2047 26.7609 46.2889 26.8733 46.3827C26.7702 46.4576 26.6672 46.5326 26.5547 46.5982V46.1016Z" fill="#2580FF"/>
<path opacity="0.15" d="M26.5547 28.5703C26.6578 28.6734 26.7609 28.7577 26.8733 28.8514C26.7702 28.9264 26.6672 29.0013 26.5547 29.0669V28.5703Z" fill="#2580FF"/>
<path opacity="0.15" d="M26.8827 23.2155C26.7702 23.2999 26.6578 23.3935 26.5547 23.4966V23C26.6672 23.0561 26.7796 23.1311 26.8827 23.2155V23.2155Z" fill="#2580FF"/>
<path d="M8.082 17.2602V21.8019C7.58875 21.6198 7.06075 21.5247 6.51713 21.5247C4.02613 21.5247 2 23.5426 2 26.0226C2 28.5081 4.02613 30.5296 6.51713 30.5296C7.06075 30.5296 7.58875 30.4344 8.082 30.2523V34.7932C8.082 34.7997 8.0855 34.8049 8.08562 34.8113V39.3304C7.58875 39.1456 7.05888 39.0486 6.51438 39.0486C4.02888 39.0486 2.00638 41.0711 2.00638 43.5566C2.00638 46.0421 4.02888 48.0636 6.51438 48.0636C7.05888 48.0636 7.58875 47.9666 8.08562 47.7817V52.3217C8.08562 52.8397 8.50475 53.2588 9.02275 53.2588H13.5627C13.3779 53.7557 13.2809 54.2866 13.2809 54.8311C13.2809 57.3166 15.3034 59.3381 17.7889 59.3381C20.2744 59.3381 22.2959 57.3166 22.2959 54.8311C22.2959 54.2866 22.1989 53.7558 22.014 53.2588H26.5249C26.5345 53.2591 26.5424 53.2643 26.5521 53.2643H31.0939C30.9109 53.7576 30.8156 54.2856 30.8156 54.8292C30.8156 57.3147 32.8381 59.3362 35.3236 59.3362C37.8036 59.3362 39.8215 57.3147 39.8215 54.8292C39.8215 54.2856 39.7264 53.7576 39.5443 53.2643H44.0851C44.6031 53.2643 45.0223 52.8452 45.0223 52.3272V47.7808C45.5201 47.9657 46.0518 48.0627 46.5973 48.0627C49.0828 48.0627 51.1043 46.0448 51.1043 43.5648C51.1043 41.0738 49.0828 39.0477 46.5973 39.0477C46.0536 39.0477 45.522 39.1456 45.0223 39.3323V34.7933C45.0223 34.2753 44.6031 33.8562 44.0851 33.8562H37.854C37.476 33.8562 37.1356 34.0832 36.9893 34.4309C36.8438 34.7796 36.9215 35.1813 37.186 35.4504C37.6774 35.9492 37.9474 36.6081 37.9474 37.3054C37.9474 38.7568 36.766 39.9383 35.3145 39.9383C33.8676 39.9383 32.6899 38.7568 32.6899 37.3054C32.6899 36.6091 32.9608 35.9502 33.4521 35.4504C33.7166 35.1814 33.7944 34.7797 33.6489 34.4309C33.5025 34.0832 33.162 33.8562 32.7841 33.8562H27.4891V30.2478C27.987 30.4327 28.5186 30.5297 29.0641 30.5297C31.5496 30.5297 33.5711 28.5082 33.5711 26.0227C33.5711 23.5427 31.5496 21.5248 29.0641 21.5248C28.5188 21.5248 27.987 21.6218 27.4891 21.8067V17.2603C27.4891 16.7423 27.07 16.3232 26.552 16.3232H22.013C22.2006 15.8244 22.2976 15.2927 22.2976 14.7492C22.2976 12.2637 20.2761 10.2422 17.7906 10.2422C15.3051 10.2422 13.2826 12.2637 13.2826 14.7492C13.2826 15.2946 13.3796 15.8254 13.5645 16.3232H9.01912C8.50112 16.3231 8.082 16.7422 8.082 17.2602V17.2602ZM20.3265 51.3846C19.9485 51.3846 19.6073 51.6116 19.4618 51.9602C19.3163 52.3088 19.394 52.7116 19.6594 52.9797C20.1507 53.4776 20.4216 54.1354 20.4216 54.8311C20.4216 56.2824 19.2403 57.4639 17.7888 57.4639C16.3364 57.4639 15.155 56.2826 15.155 54.8311C15.155 54.1356 15.4259 53.4776 15.9172 52.9807C16.1835 52.7117 16.2614 52.3099 16.1159 51.9603C15.9704 51.6117 15.629 51.3847 15.2511 51.3847H9.95988V46.0943C9.95988 45.7163 9.73287 45.3751 9.38425 45.2296C9.03562 45.0859 8.63387 45.1618 8.36475 45.4272C7.86687 45.9186 7.20988 46.1894 6.51438 46.1894C5.062 46.1894 3.88063 45.0079 3.88063 43.5566C3.88063 42.1042 5.062 40.9228 6.51438 40.9228C7.20988 40.9228 7.867 41.1937 8.36475 41.6851C8.63375 41.9513 9.0355 42.0273 9.38425 41.8827C9.73287 41.7372 9.95988 41.3958 9.95988 41.0179V35.7303H15.2511C16.0625 35.7303 16.5121 34.7328 15.9174 34.1316C15.426 33.6347 15.1551 32.9767 15.1551 32.2812C15.1551 30.8298 16.3365 29.6483 17.7889 29.6483C19.2402 29.6483 20.4217 30.8298 20.4217 32.2812C20.4217 32.9767 20.1509 33.6347 19.6595 34.1326C19.0884 34.7097 19.5071 35.7304 20.3302 35.7304H25.6151C25.6184 37.7227 25.6075 40.7354 25.6246 41.0633C25.6655 41.8814 26.6582 42.2341 27.2139 41.6843C27.7107 41.1938 28.3679 40.9229 29.0634 40.9229C30.5147 40.9229 31.6963 42.1044 31.6963 43.5567C31.6963 45.0081 30.5149 46.1896 29.0634 46.1896C28.3679 46.1896 27.7107 45.9187 27.2139 45.4282C26.6196 44.8419 25.6151 45.2993 25.6151 46.0953V51.3848H20.3265V51.3846ZM35.3145 41.8123C37.8 41.8123 39.8215 39.7908 39.8215 37.3053C39.8215 36.7599 39.7245 36.2282 39.5396 35.7303H43.148V41.0161C43.148 41.3922 43.3731 41.7326 43.72 41.8791C44.065 42.0264 44.4668 41.9504 44.7376 41.6887C45.2474 41.1946 45.9081 40.9218 46.5971 40.9218C48.0485 40.9218 49.23 42.1078 49.23 43.5647C49.23 45.0116 48.0485 46.1884 46.5971 46.1884C45.8998 46.1884 45.2409 45.9184 44.7421 45.4271C44.474 45.1636 44.0723 45.0857 43.7226 45.2303C43.3749 45.3767 43.1479 45.7172 43.1479 46.0951V51.3901H37.8539C37.475 51.3901 37.1327 51.6179 36.9881 51.9684C36.8426 52.3189 36.9231 52.7216 37.1912 52.9897C37.679 53.4774 37.9471 54.1308 37.9471 54.8291C37.9471 56.2804 36.7703 57.4619 35.3234 57.4619C33.871 57.4619 32.6896 56.2806 32.6896 54.8291C32.6896 54.1308 32.9586 53.4774 33.4465 52.9897C33.7146 52.7216 33.7951 52.3189 33.6496 51.9684C33.505 51.6179 33.1627 51.3901 32.7839 51.3901H27.4916V47.7826C27.9885 47.9674 28.5184 48.0636 29.0629 48.0636C31.5484 48.0636 33.5699 46.0421 33.5699 43.5566C33.5699 42.6262 33.2863 41.7609 32.8015 41.0422C33.5198 41.5282 34.3845 41.8123 35.3145 41.8123V41.8123ZM31.5839 39.8214C30.864 39.3338 29.9964 39.0486 29.0633 39.0486C28.5188 39.0486 27.9889 39.1447 27.492 39.3296V35.7303H31.0976C30.9128 36.2282 30.8158 36.7598 30.8158 37.3053C30.8158 38.2364 31.0991 39.1024 31.5839 39.8214V39.8214ZM9.37775 24.3579C9.72825 24.2133 9.95613 23.8711 9.95613 23.4922V18.1972H15.2511C15.6291 18.1972 15.9695 17.9702 16.1159 17.6216C16.2614 17.2729 16.1836 16.8712 15.9183 16.6021C15.4278 16.1042 15.1569 15.4463 15.1569 14.7489C15.1569 13.2976 16.3383 12.1161 17.7906 12.1161C19.242 12.1161 20.4235 13.2974 20.4235 14.7489C20.4235 15.4389 20.1518 16.0988 19.6585 16.6067C19.3959 16.8776 19.3209 17.2784 19.4673 17.6252C19.6136 17.9721 19.9541 18.1972 20.3302 18.1972H25.6151V23.4922C25.6151 23.8702 25.8421 24.2106 26.1899 24.3569C26.5395 24.5024 26.9412 24.4247 27.2094 24.1602C27.7081 23.6688 28.367 23.3988 29.0644 23.3988C30.5158 23.3988 31.6973 24.5757 31.6973 26.0224C31.6973 27.4738 30.5159 28.6553 29.0644 28.6553C28.367 28.6553 27.7081 28.3853 27.2094 27.8939C26.9412 27.6304 26.5395 27.5526 26.1899 27.6972C25.8421 27.8436 25.6151 28.1841 25.6151 28.5619V33.8532H22.0141C22.199 33.3563 22.296 32.8254 22.296 32.2809C22.296 29.7954 20.2745 27.7739 17.789 27.7739C15.3035 27.7739 13.281 29.7954 13.281 32.2809C13.281 32.8254 13.378 33.3562 13.5629 33.8532H9.95613V28.5619C9.95613 28.1831 9.72825 27.8408 9.37775 27.6962C9.02725 27.5507 8.62462 27.6312 8.3565 27.8993C7.86875 28.3871 7.21538 28.6552 6.51713 28.6552C5.06025 28.6552 3.87425 27.4738 3.87425 26.0223C3.87425 24.5754 5.06025 23.3987 6.51713 23.3987C7.21538 23.3987 7.86875 23.6668 8.3565 24.1546C8.62462 24.4238 9.02738 24.5053 9.37775 24.3579V24.3579Z" fill="#2580FF"/>
<path d="M57.4698 9.83081C56.9253 9.83081 56.3954 9.92694 55.8986 10.1118V5.56994C55.8986 5.05194 55.4794 4.63281 54.9614 4.63281H37.4293C36.9113 4.63281 36.4922 5.05194 36.4922 5.56994V11.7992C36.4922 12.1772 36.7192 12.5184 37.0678 12.6639C37.4183 12.8086 37.8192 12.7326 38.0873 12.4663C38.5852 11.9749 39.2422 11.7049 39.9377 11.7049C41.3901 11.7049 42.5723 12.8837 42.5723 14.3323C42.5723 15.7847 41.3899 16.9669 39.9377 16.9669C39.2413 16.9669 38.5842 16.6969 38.0873 16.2064C37.8192 15.9419 37.4183 15.8642 37.0678 16.0088C36.7192 16.1543 36.4922 16.4957 36.4922 16.8736V23.1019C36.4922 23.6199 36.9113 24.0391 37.4293 24.0391H41.9711C41.7862 24.5359 41.6901 25.0658 41.6901 25.6103C41.6901 28.0967 43.7088 30.1201 46.1907 30.1201C48.6771 30.1201 50.7004 28.0967 50.7004 25.6103C50.7004 25.0658 50.6043 24.5359 50.4194 24.0391H54.9612C55.4792 24.0391 55.8983 23.6199 55.8983 23.1019V18.5602C56.3952 18.7451 56.9251 18.8412 57.4696 18.8412C59.9559 18.8412 61.9784 16.8224 61.9784 14.3406C61.9787 11.8542 59.9562 9.83081 57.4698 9.83081V9.83081ZM57.4698 16.9671C56.7734 16.9671 56.1163 16.6971 55.6194 16.2066C55.3513 15.9421 54.9496 15.8643 54.5999 16.0089C54.2513 16.1544 54.0243 16.4958 54.0243 16.8737V22.1649H48.7321C48.3541 22.1649 48.0128 22.3919 47.8673 22.7406C47.7218 23.0892 47.7996 23.4919 48.0649 23.7601C48.5563 24.2579 48.8263 24.9149 48.8263 25.6104C48.8263 27.0637 47.6439 28.2461 46.1907 28.2461C44.7421 28.2461 43.5643 27.0637 43.5643 25.6104C43.5643 24.9149 43.8343 24.2578 44.3257 23.7601C44.5911 23.4919 44.6688 23.0893 44.5233 22.7406C44.3778 22.3919 44.0364 22.1649 43.6586 22.1649H38.3663V18.5602C38.8632 18.7451 39.3931 18.8412 39.9376 18.8412C42.4239 18.8412 44.4464 16.8187 44.4464 14.3323C44.4464 11.8504 42.4239 9.83081 39.9376 9.83081C39.3931 9.83081 38.8632 9.92694 38.3663 10.1118V6.50706H54.0243V11.7993C54.0243 12.1773 54.2513 12.5186 54.5999 12.6641C54.9496 12.8087 55.3513 12.7327 55.6194 12.4664C56.1173 11.9751 56.7743 11.7051 57.4698 11.7051C58.9222 11.7051 60.1044 12.8874 60.1044 14.3407C60.1044 15.7892 58.9222 16.9671 57.4698 16.9671V16.9671Z" fill="#FC955C"/>
</svg>
