<svg width="506" height="337" viewBox="0 0 506 337" fill="none" xmlns="http://www.w3.org/2000/svg">
<path d="M171.57 180.883H315.781V0.411811H171.57V180.883Z" fill="white"/>
<path d="M171.982 180.471H315.383V0.810232H171.982V180.471ZM315.788 181.281H171.577C171.354 181.281 171.172 181.1 171.172 180.876V0.405271C171.172 0.182542 171.354 0.000309426 171.577 0.000309426H315.788C316.01 0.000309426 316.193 0.182542 316.193 0.405271V180.876C316.193 181.1 316.01 181.281 315.788 181.281Z" fill="#E2EAFF"/>
<path d="M191 84.5547H299.627V72.7804H191V84.5547Z" fill="#90A3BF"/>
<path d="M210 43H300V31H210V43Z" fill="#90A3BF"/>
<path d="M189.359 120.742H297.986V108.968H189.359V120.742Z" fill="#90A3BF"/>
<path d="M429.322 261.664H273.68V66.8829H429.322V261.664Z" fill="white"/>
<path d="M274.083 261.253H428.916V67.2814H274.083V261.253ZM429.321 262.062H273.678C273.456 262.062 273.273 261.881 273.273 261.658V66.8764C273.273 66.6529 273.456 66.4715 273.678 66.4715H429.321C429.544 66.4715 429.726 66.6529 429.726 66.8764V261.658C429.726 261.881 429.544 262.062 429.321 262.062Z" fill="black"/>
<path d="M410.111 169.562H292.875V156.854H410.111V169.562Z" fill="white"/>
<path d="M293.286 169.167H409.713V157.268H293.286V169.167ZM410.118 169.977H292.882C292.655 169.977 292.477 169.795 292.477 169.572V156.864C292.477 156.64 292.655 156.459 292.882 156.459H410.118C410.345 156.459 410.523 156.64 410.523 156.864V169.572C410.523 169.795 410.345 169.977 410.118 169.977Z" fill="black"/>
<path d="M410.111 196.75H292.875V184.042H410.111V196.75Z" fill="white"/>
<path d="M293.286 196.346H409.713V184.448H293.286V196.346ZM410.118 197.156H292.882C292.655 197.156 292.477 196.974 292.477 196.751V184.043C292.477 183.82 292.655 183.638 292.882 183.638H410.118C410.345 183.638 410.523 183.82 410.523 184.043V196.751C410.523 196.974 410.345 197.156 410.118 197.156Z" fill="black"/>
<path d="M380.552 110.731C380.552 126.701 367.549 139.648 351.513 139.648C335.472 139.648 322.469 126.701 322.469 110.731C322.469 94.7593 335.472 81.8123 351.513 81.8123C367.549 81.8123 380.552 94.7593 380.552 110.731Z" fill="white"/>
<path d="M351.511 82.2263C335.722 82.2263 322.872 95.0174 322.872 110.74C322.872 126.461 335.722 139.253 351.511 139.253C367.301 139.253 380.146 126.461 380.146 110.74C380.146 95.0174 367.301 82.2263 351.511 82.2263ZM351.511 140.062C335.272 140.062 322.062 126.908 322.062 110.74C322.062 94.5708 335.272 81.4164 351.511 81.4164C367.746 81.4164 380.956 94.5708 380.956 110.74C380.956 126.908 367.746 140.062 351.511 140.062Z" fill="black"/>
<path d="M429.32 121.293V66.8814H386.921C386.921 66.8814 382.442 60.545 388.407 57.3012C388.407 57.3012 380.854 48.9145 388.735 44.962C394.416 42.1111 416.216 41.8236 431.24 42.1476C439.003 42.3176 445.79 47.3877 448.131 54.758L456.554 81.2708C457.939 85.6392 462.013 88.6084 466.613 88.6084H504.594V169.637C504.594 169.637 462.037 172.351 433.702 168.989C422.399 167.648 413.097 159.499 410.234 148.53C407.942 139.748 405.12 130.059 403.208 127.321C399.491 121.988 396.093 118.614 388.306 116.042C380.522 113.47 381.887 103.302 390.65 101.767C399.41 100.233 420.605 113.091 429.32 121.293" fill="white"/>
<path d="M469.244 171.062C457.387 171.062 444.452 170.668 433.656 169.386C422.305 168.039 412.736 159.697 409.844 148.628C406.815 137.025 404.406 129.735 402.879 127.548C399.113 122.144 395.804 118.94 388.183 116.422C384.623 115.246 382.562 112.407 382.809 109.013C383.044 105.843 385.534 102.248 390.58 101.364C399.688 99.7703 420.317 112.614 428.918 120.365V67.2818H386.923C386.794 67.2818 386.668 67.2179 386.595 67.1105C386.502 66.9793 384.332 63.8611 385.053 60.7591C385.393 59.3013 386.312 58.1026 387.79 57.1914C386.842 56.0251 384.198 52.3967 384.842 48.9748C385.19 47.1281 386.442 45.6581 388.555 44.5971C395.253 41.2359 422.929 41.5599 431.251 41.7381C439.184 41.9122 446.125 47.0917 448.518 54.628L456.941 81.1436C458.282 85.3637 462.169 88.1989 466.616 88.1989H504.597C504.82 88.1989 505.002 88.3803 505.002 88.6039C505.002 88.8278 504.82 89.0088 504.597 89.0088H466.616C461.817 89.0088 457.618 85.9465 456.168 81.3887L447.749 54.875C445.457 47.6667 438.823 42.7141 431.234 42.548C422.957 42.3698 395.448 42.0458 388.916 45.3179C387.041 46.2615 385.939 47.5412 385.64 49.1246C384.947 52.7854 388.677 56.9849 388.713 57.0254C388.794 57.1185 388.831 57.244 388.811 57.3655C388.79 57.487 388.713 57.5923 388.604 57.6531C387.085 58.4792 386.158 59.5847 385.842 60.9454C385.291 63.3104 386.721 65.8049 387.142 66.4719H429.323C429.546 66.4719 429.728 66.6533 429.728 66.8769V121.288C429.728 121.45 429.631 121.596 429.485 121.66C429.335 121.724 429.161 121.694 429.043 121.583C419.802 112.882 398.955 100.719 390.722 102.162C386.105 102.97 383.825 106.215 383.619 109.072C383.4 112.077 385.247 114.599 388.434 115.653C396.229 118.228 399.761 121.657 403.543 127.084C405.147 129.382 407.532 136.561 410.63 148.424C413.436 159.173 422.726 167.274 433.749 168.582C461.724 171.901 504.148 169.256 504.573 169.229C504.791 169.215 504.986 169.384 505.002 169.607C505.014 169.83 504.848 170.023 504.621 170.037C504.362 170.054 488.184 171.062 469.244 171.062" fill="black"/>
<path d="M437.891 77.3828C437.725 77.3828 437.567 77.2771 437.507 77.1091L432.368 62.123C431.46 59.4786 428.966 57.7009 426.159 57.7009H388.405C388.182 57.7009 388 57.5187 388 57.2959C388 57.0732 388.182 56.891 388.405 56.891H426.159C429.31 56.891 432.112 58.8874 433.133 61.8598L438.276 76.8462C438.349 77.058 438.235 77.288 438.025 77.3609C437.98 77.3755 437.936 77.3828 437.891 77.3828Z" fill="black"/>
<path d="M337.056 278.57H215.742V126.75H337.056V278.57Z" fill="white"/>
<path d="M216.138 278.167H336.642V127.157H216.138V278.167ZM337.047 278.977H215.733C215.51 278.977 215.328 278.796 215.328 278.572V126.752C215.328 126.528 215.51 126.347 215.733 126.347H337.047C337.27 126.347 337.452 126.528 337.452 126.752V278.572C337.452 278.796 337.27 278.977 337.047 278.977Z" fill="black"/>
<path d="M322.09 209.461H230.711V199.556H322.09V209.461Z" fill="#90A3BF"/>
<path d="M322.09 230.641H230.711V220.736H322.09V230.641Z" fill="#90A3BF"/>
<path d="M298.635 163.421C298.635 175.757 288.592 185.758 276.204 185.758C263.816 185.758 253.773 175.757 253.773 163.421C253.773 151.085 263.816 141.085 276.204 141.085C288.592 141.085 298.635 151.085 298.635 163.421Z" fill="#022897"/>
<path d="M294.612 278.099H337.201V245.192C337.201 245.192 342.162 241.716 344.697 246.345C344.697 246.345 351.266 240.482 354.36 246.597C356.591 251.01 356.814 267.928 356.559 279.59C356.429 285.613 352.46 290.882 346.694 292.699L325.939 299.236C322.517 300.313 320.193 303.473 320.193 307.043V336.523H256.772C256.772 336.523 254.646 303.492 257.278 281.499C258.327 272.727 264.705 265.508 273.29 263.285C280.167 261.506 287.752 259.316 289.894 257.834C294.069 254.946 296.709 252.308 298.722 246.266C300.735 240.223 308.692 241.283 309.895 248.084C311.098 254.885 301.03 271.336 294.612 278.099" fill="white"/>
<path d="M256.76 336.93C256.549 336.93 256.371 336.764 256.359 336.549C256.335 336.221 254.261 303.23 256.869 281.452C257.926 272.604 264.483 265.146 273.181 262.894C282.252 260.545 287.95 258.681 289.655 257.502C293.867 254.587 296.365 252.03 298.329 246.139C299.265 243.332 301.524 241.712 304.225 241.91C306.736 242.095 309.587 244.054 310.284 248.015C311.527 255.053 301.618 270.919 295.527 277.696H336.788V245.193C336.788 245.061 336.853 244.937 336.962 244.861C337.064 244.788 339.542 243.078 342.008 243.653C343.142 243.917 344.078 244.615 344.799 245.733C345.795 244.944 348.589 242.99 351.229 243.489C352.699 243.767 353.87 244.752 354.712 246.416C357.352 251.635 357.097 273.134 356.955 279.6C356.822 285.796 352.744 291.216 346.807 293.087L326.053 299.623C322.785 300.652 320.59 303.634 320.59 307.045V336.525C320.59 336.747 320.412 336.93 320.185 336.93C319.962 336.93 319.78 336.747 319.78 336.525V307.045C319.78 303.279 322.206 299.986 325.81 298.851L346.56 292.314C352.169 290.548 356.02 285.432 356.146 279.582C356.433 266.357 356.02 250.795 353.987 246.782C353.266 245.353 352.286 244.513 351.079 244.285C348.249 243.748 344.993 246.62 344.96 246.649C344.867 246.731 344.742 246.766 344.624 246.746C344.499 246.725 344.394 246.65 344.337 246.541C343.705 245.389 342.859 244.683 341.826 244.441C340.044 244.026 338.165 245.063 337.598 245.413V278.101C337.598 278.324 337.416 278.506 337.193 278.506H294.604C294.442 278.506 294.296 278.409 294.231 278.26C294.166 278.111 294.199 277.939 294.308 277.822C301.107 270.661 310.612 254.522 309.486 248.156C308.862 244.624 306.364 242.88 304.165 242.718C302.346 242.586 300.066 243.48 299.099 246.395C297.074 252.469 294.381 255.218 290.117 258.168C288.306 259.418 282.677 261.272 273.384 263.678C265.005 265.848 258.692 273.029 257.671 281.548C255.075 303.252 257.145 336.168 257.165 336.5C257.181 336.723 257.011 336.913 256.788 336.93C256.78 336.93 256.772 336.93 256.76 336.93Z" fill="black"/>
<path d="M329.278 285.156C329.112 285.156 328.954 285.05 328.897 284.882C328.824 284.67 328.938 284.44 329.148 284.368L340.88 280.378C342.913 279.686 344.278 277.785 344.278 275.646V246.344C344.278 246.12 344.46 245.939 344.683 245.939C344.909 245.939 345.087 246.12 345.087 246.344V275.646C345.087 278.131 343.504 280.342 341.143 281.145L329.411 285.135C329.367 285.15 329.322 285.156 329.278 285.156" fill="black"/>
<path d="M54.2691 181.436C54.2691 181.436 43.4729 222.912 36.5278 238.768C31.2268 250.884 11.2946 280.848 2.18705 294.312C-0.493796 298.272 -0.0847382 303.555 3.1671 307.06L21.2527 326.547C26.8492 332.574 34.7014 336 42.9262 336H47.9963C50.4423 336 51.9609 333.339 50.7136 331.234L45.5301 322.478C45.5301 322.478 81.5352 259.693 86.4474 245.373C91.3555 231.053 88.0591 177.142 88.0591 177.142L54.2691 181.436Z" fill="white"/>
<path d="M54.5881 181.805C53.6485 185.386 43.48 223.889 36.8954 238.932C31.5296 251.188 11.0669 281.903 2.51817 294.54C-0.0695306 298.365 0.315151 303.4 3.45765 306.785L21.5473 326.272C27.0467 332.199 34.8381 335.596 42.9211 335.596H47.9913C48.9915 335.596 49.8865 335.078 50.3846 334.207C50.8787 333.337 50.8706 332.304 50.3603 331.441L45.1768 322.685C45.0999 322.56 45.0998 322.404 45.1727 322.277C45.5331 321.65 81.2184 259.363 86.0577 245.243C90.654 231.836 87.9731 182.738 87.6775 177.6L54.5881 181.805ZM47.9913 336.406H42.9211C34.6113 336.406 26.6052 332.911 20.952 326.824L2.86642 307.337C-0.535252 303.674 -0.95233 298.225 1.84595 294.086C10.3825 281.468 30.8169 250.802 36.1542 238.607C43.0021 222.961 53.766 181.75 53.8713 181.336C53.9158 181.175 54.0495 181.057 54.2155 181.036L88.0055 176.741C88.1149 176.728 88.2282 176.76 88.3133 176.831C88.3983 176.903 88.4509 177.007 88.459 177.119C88.5927 179.323 91.7028 231.273 86.823 245.505C82.0971 259.29 48.2626 318.507 45.9908 322.476L51.0568 331.028C51.7169 332.142 51.729 333.482 51.0851 334.608C50.4453 335.734 49.2872 336.406 47.9913 336.406" fill="black"/>
<path d="M42.3875 321.133C42.3186 321.133 42.2498 321.115 42.185 321.078C28.5742 313.201 16.3768 303.242 5.93689 291.478C5.79111 291.31 5.80319 291.054 5.97328 290.906C6.13931 290.757 6.3945 290.773 6.54434 290.94C16.9235 302.639 29.0521 312.543 42.594 320.378C42.7843 320.489 42.8531 320.737 42.7397 320.931C42.6668 321.061 42.5292 321.133 42.3875 321.133Z" fill="black"/>
<path d="M58.9059 296.477C58.8573 296.477 58.8086 296.468 58.76 296.45C43.5335 290.626 29.5583 281.29 18.3449 269.451C18.191 269.288 18.1991 269.032 18.3611 268.878C18.5231 268.725 18.7783 268.731 18.9362 268.894C30.0605 280.645 43.9344 289.913 59.0517 295.693C59.2582 295.773 59.3634 296.007 59.2865 296.216C59.2217 296.377 59.0679 296.477 58.9059 296.477Z" fill="black"/>
<path d="M74.2812 183.523L85.1747 329.357C85.4541 333.105 88.5723 336 92.3303 336H146.717C148.697 336 149.576 333.509 148.029 332.266L136.204 322.762L119.479 172.512L74.2812 183.523" fill="white"/>
<path d="M74.7143 183.836L85.5795 329.328C85.8427 332.843 88.811 335.596 92.3342 335.596H146.721C147.603 335.596 148.126 335.013 148.316 334.466C148.51 333.92 148.47 333.138 147.782 332.583L135.953 323.08C135.872 323.013 135.815 322.915 135.807 322.808L119.131 173.015L74.7143 183.836ZM146.721 336.406H92.3342C88.3899 336.406 85.0692 333.324 84.7736 329.389L73.8842 183.554C73.868 183.357 73.9976 183.178 74.1919 183.131L119.386 172.12C119.499 172.092 119.621 172.115 119.714 172.181C119.811 172.248 119.872 172.352 119.884 172.468L136.592 322.553L148.288 331.952C149.126 332.628 149.438 333.721 149.081 334.734C148.725 335.75 147.798 336.406 146.721 336.406" fill="black"/>
<path d="M87.3271 325.57C87.1044 325.57 86.9262 325.395 86.9221 325.175C86.914 324.951 87.0923 324.766 87.315 324.76C103.404 324.388 119.7 323.555 135.744 322.286C135.975 322.268 136.165 322.434 136.182 322.657C136.198 322.88 136.032 323.075 135.809 323.093C119.748 324.364 103.441 325.197 87.3352 325.57C87.3312 325.57 87.3271 325.57 87.3271 325.57" fill="black"/>
<path d="M95.5675 303.07C91.935 303.07 88.3066 302.977 84.6822 302.79C84.4595 302.779 84.2853 302.588 84.2975 302.365C84.3096 302.141 84.5 301.972 84.7227 301.981C100.727 302.807 116.844 301.8 132.621 298.99C132.848 298.951 133.055 299.098 133.091 299.318C133.132 299.538 132.986 299.748 132.763 299.787C120.501 301.972 108.032 303.07 95.5675 303.07Z" fill="black"/>
<path d="M76 97.8507C76 97.8507 58.7527 99.2077 50.9208 110.044C43.0888 120.882 33.4386 130.674 40.4282 141.776C45.8628 150.409 62.932 160.273 62.932 160.273L70.1767 141.776L61.1987 132.709L76 97.8507" fill="white"/>
<path d="M75.3576 98.3278C72.1138 98.719 58.0091 100.929 51.2503 110.283C50.2379 111.682 49.1849 113.079 48.1685 114.431C41.3084 123.531 34.8331 132.126 40.7739 141.561C45.6294 149.274 60.1149 158.125 62.7309 159.684L69.7043 141.875L60.9126 132.995C60.7993 132.878 60.7669 132.703 60.8276 132.551L75.3576 98.3278ZM62.9334 160.68C62.8646 160.68 62.7957 160.661 62.7309 160.625C62.0304 160.22 45.5119 150.611 40.0855 141.993C33.849 132.085 40.4904 123.273 47.5205 113.943C48.537 112.595 49.5858 111.202 50.5942 109.809C58.4424 98.9458 75.7949 97.4616 75.9691 97.4482C76.1108 97.4369 76.2445 97.5005 76.3295 97.6151C76.4105 97.7301 76.4267 97.8799 76.374 98.0099L61.6821 132.618L70.4657 141.493C70.5791 141.606 70.6115 141.776 70.5548 141.925L63.314 160.423C63.2695 160.532 63.1804 160.618 63.067 160.657C63.0265 160.672 62.982 160.68 62.9334 160.68" fill="black"/>
<path d="M76.004 97.8596C76.004 97.8596 95.9201 95.0872 111.936 99.9974L125.656 212.998C125.656 212.998 111.871 217.106 111.126 200.22C111.126 200.22 106.647 217.61 77.3201 215.558C47.9969 213.507 44.7734 207.889 44.7734 207.889L76.004 97.8596Z" fill="#022897"/>
<path d="M111.933 99.9901C100.801 121.278 102.336 137.307 106.709 138.569C111.079 139.831 115.25 132.71 115.25 132.71C116.627 133.782 118.7 135.041 121.199 136.212C128.16 128.339 130.31 116.19 130.95 110.552C122.494 104.112 111.933 99.9901 111.933 99.9901" fill="white"/>
<path d="M121.195 136.617C121.138 136.617 121.078 136.604 121.025 136.579C119.207 135.727 117.514 134.782 116.129 133.847C115.943 133.722 115.894 133.47 116.02 133.285C116.145 133.099 116.396 133.05 116.583 133.175C117.862 134.041 119.417 134.916 121.09 135.715C127.832 127.906 129.918 115.838 130.517 110.735C122.236 104.482 111.885 100.409 111.78 100.368C111.573 100.287 111.468 100.052 111.553 99.8435C111.634 99.6353 111.869 99.5324 112.075 99.6138C112.181 99.6551 122.791 103.83 131.194 110.23C131.307 110.317 131.364 110.456 131.348 110.598C130.631 116.916 128.395 128.68 121.499 136.48C121.422 136.569 121.309 136.617 121.195 136.617" fill="black"/>
<path d="M146.971 99.5147C146.971 99.5147 150.749 90.6347 151.693 86.8666C152.636 83.098 145.456 78.4106 141.998 78.2299C138.535 78.0493 138.434 82.1792 138.434 82.1792C134.862 81.8568 136.183 86.2506 136.183 86.2506C134.231 85.7497 134.502 88.9481 134.502 88.9481C132.736 88.9829 133.53 91.9938 133.53 91.9938C129.898 99.9201 134.138 113.19 134.138 113.19C133.129 112.272 132.06 111.391 130.955 110.548C130.315 116.186 128.164 128.335 121.203 136.208C129.432 140.061 142.269 142.956 150 135.053C160.083 124.749 146.971 99.5147 146.971 99.5147Z" fill="white"/>
<path d="M121.862 136.068C126.786 138.293 141.085 143.586 149.711 134.772C159.474 124.793 146.742 99.9539 146.613 99.7041C146.556 99.5967 146.552 99.4704 146.597 99.3591C146.637 99.2704 150.375 90.4653 151.298 86.7708C151.586 85.6228 150.95 84.4415 150.367 83.6526C148.387 80.9714 144.228 78.755 141.972 78.6372C141.174 78.5959 140.506 78.8109 140 79.2782C138.902 80.2927 138.838 82.1737 138.838 82.1923C138.834 82.3041 138.785 82.4098 138.704 82.4843C138.619 82.5584 138.506 82.5953 138.396 82.5851C137.631 82.5163 137.084 82.6827 136.756 83.08C136.096 83.8891 136.396 85.5612 136.566 86.1375C136.61 86.2772 136.574 86.429 136.473 86.5339C136.371 86.6388 136.222 86.6821 136.08 86.6453C135.687 86.544 135.497 86.6522 135.391 86.7421C134.881 87.1714 134.869 88.4895 134.901 88.9175C134.914 89.0289 134.873 89.1394 134.8 89.222C134.723 89.3051 134.618 89.3537 134.509 89.3557C134.197 89.3617 134.063 89.4914 133.99 89.589C133.581 90.1304 133.808 91.4676 133.917 91.8932C133.942 91.9839 133.934 92.0799 133.893 92.1649C130.37 99.8596 134.48 112.939 134.521 113.069C134.577 113.244 134.509 113.435 134.355 113.534C134.197 113.633 133.998 113.616 133.861 113.492C133.071 112.769 132.2 112.036 131.269 111.308C130.483 117.65 128.236 128.56 121.862 136.068V136.068ZM136.979 140.492C130.192 140.493 123.7 137.827 121.031 136.577C120.914 136.523 120.833 136.417 120.805 136.292C120.78 136.168 120.813 136.038 120.898 135.942C127.9 128.024 129.981 115.515 130.552 110.505C130.568 110.36 130.661 110.235 130.795 110.178C130.929 110.121 131.083 110.14 131.2 110.229C131.957 110.806 132.678 111.388 133.359 111.968C132.387 108.382 130.176 98.5301 133.099 91.9568C132.986 91.4595 132.711 89.9385 133.342 89.101C133.533 88.854 133.78 88.6855 134.079 88.6037C134.075 87.963 134.16 86.7202 134.869 86.1237C135.039 85.9783 135.298 85.8309 135.659 85.8013C135.505 84.991 135.367 83.5036 136.128 82.5689C136.566 82.0332 137.218 81.7615 138.064 81.7598C138.145 81.058 138.437 79.622 139.449 78.6866C140.121 78.0633 140.984 77.7738 142.017 77.8285C144.495 77.9577 148.873 80.2704 151.019 83.1711C152.003 84.5034 152.371 85.8163 152.084 86.9676C151.205 90.4766 147.965 98.2029 147.419 99.5012C148.65 101.926 160.135 125.277 150.29 135.339C146.487 139.221 141.664 140.492 136.979 140.492" fill="black"/>
<path d="M137.157 94.3906C136.982 94.3906 136.824 94.2792 136.768 94.1059C136.703 93.8925 136.82 93.6653 137.035 93.5989C138.647 93.0972 139.931 91.5972 140.955 89.0131C141.101 88.645 141.243 88.2709 141.38 87.8959C142.024 86.1683 142.692 84.3812 144.029 83.0456C144.79 82.2855 146.066 81.6129 147.163 82.2179C148.309 82.8541 148.35 84.3747 148.277 85.4632L147.823 92.3079C147.811 92.5311 147.605 92.6995 147.394 92.6849C147.171 92.6703 147.001 92.4776 147.017 92.2545L147.467 85.4102C147.56 84.0301 147.337 83.2412 146.77 82.9266C146.114 82.5637 145.207 83.0132 144.604 83.6187C143.389 84.8299 142.753 86.5328 142.138 88.1789C141.996 88.5592 141.854 88.9386 141.708 89.3116C140.587 92.1378 139.137 93.7933 137.278 94.372C137.238 94.385 137.197 94.3906 137.157 94.3906" fill="black"/>
<path d="M136.687 94.4688C136.274 94.4688 135.861 94.3723 135.456 94.1796C133.982 93.4786 133.03 91.7134 132.933 90.963C132.905 90.7415 133.059 90.5386 133.281 90.5098C133.504 90.4807 133.707 90.6382 133.735 90.8597C133.8 91.3562 134.602 92.8781 135.8 93.4482C136.476 93.7686 137.153 93.7216 137.821 93.3085C138.011 93.1903 138.262 93.2494 138.38 93.4393C138.497 93.6293 138.437 93.8791 138.246 93.997C137.74 94.3108 137.214 94.4688 136.687 94.4688" fill="black"/>
<path d="M138.156 92.5312C137.556 92.5312 136.953 92.3899 136.406 92.0967C135.163 91.4294 134.272 90.0412 134.074 88.4744C134.045 88.2524 134.203 88.05 134.426 88.022C134.649 87.9937 134.851 88.152 134.875 88.3735C135.041 89.6844 135.774 90.8377 136.791 91.3832C137.872 91.9647 139.31 91.7707 140.055 90.9402C140.205 90.7741 140.46 90.7612 140.63 90.911C140.796 91.0604 140.808 91.3164 140.658 91.4828C140.039 92.168 139.111 92.5312 138.156 92.5312Z" fill="black"/>
<path d="M139.791 89.9219C138.936 89.9219 138.082 89.5728 137.487 89.0613C136.6 88.3049 135.988 87.1208 135.664 85.5418C135.62 85.3227 135.762 85.1089 135.98 85.064C136.199 85.019 136.414 85.1603 136.458 85.3794C136.746 86.7774 137.268 87.8092 138.013 88.4458C138.791 89.1095 140.107 89.3966 140.969 88.7272C141.148 88.5904 141.403 88.6224 141.536 88.7989C141.674 88.9755 141.642 89.2302 141.467 89.3671C140.965 89.7566 140.378 89.9219 139.791 89.9219" fill="black"/>
<path d="M141.514 86.6875C140.525 86.6875 139.553 86.1153 138.991 85.3985C138.29 84.5096 138.185 83.5863 138.071 82.6091L138.027 82.2305C137.998 82.0086 138.156 81.8065 138.379 81.779C138.602 81.7514 138.804 81.9089 138.829 82.1309L138.877 82.5164C138.982 83.4515 139.067 84.1893 139.626 84.898C140.189 85.616 141.279 86.1526 142.178 85.7338C142.38 85.6395 142.623 85.7281 142.716 85.9306C142.809 86.1335 142.724 86.3741 142.522 86.4684C142.194 86.6203 141.854 86.6875 141.514 86.6875" fill="black"/>
<path d="M143.796 84.1094C143.638 84.1094 143.484 84.0122 143.419 83.8526L141.973 80.1715C141.892 79.9634 141.993 79.7285 142.2 79.6467C142.407 79.5649 142.645 79.667 142.726 79.8755L144.172 83.5562C144.257 83.7643 144.152 83.9992 143.945 84.0815C143.897 84.1005 143.848 84.1094 143.796 84.1094Z" fill="black"/>
<path d="M140.195 119.195C140.094 119.195 139.997 119.16 139.92 119.088L133.857 113.49C133.691 113.338 133.683 113.082 133.833 112.918C133.987 112.754 134.242 112.743 134.408 112.895L140.471 118.493C140.632 118.645 140.645 118.901 140.491 119.065C140.41 119.151 140.304 119.195 140.195 119.195" fill="black"/>
<path d="M165.387 8.50553C153.858 8.50553 142.77 14.9485 137.409 25.9958C133.788 33.4552 133.29 41.8784 136.007 49.7144C138.721 57.5504 144.325 63.8556 151.785 67.4768C156.138 69.5883 160.746 70.5881 165.29 70.5885C176.815 70.5889 187.907 64.1472 193.265 53.0999C196.885 45.6405 197.383 37.2173 194.67 29.3813C191.953 21.5453 186.348 15.2401 178.889 11.6197C174.535 9.5058 169.927 8.50553 165.387 8.50553V8.50553ZM165.286 71.3984C160.629 71.3984 155.899 70.3727 151.432 68.2053C143.779 64.4914 138.028 58.0201 135.242 49.9776C132.456 41.9391 132.966 33.2973 136.68 25.6435C144.35 9.84191 163.444 3.22485 179.241 10.8908C186.899 14.6043 192.649 21.0755 195.435 29.1181C198.222 37.1565 197.711 45.7984 193.994 53.4522L193.629 53.278L193.994 53.4522C188.494 64.7871 177.115 71.3984 165.286 71.3984" fill="black"/>
<path d="M146.957 82.567C145.673 82.1823 145.155 82.3851 143.754 83.6875L142.547 80.7969L149.342 66.7913L153.825 68.9663L146.957 82.567" fill="#FC955C"/>
<path d="M109.566 87.9213L105.132 97.857L107.801 98.9091C107.801 98.9091 102.536 108.715 90.2415 107.487C77.9469 106.26 95.2874 85.4616 95.2874 85.4616C95.2874 85.4616 106.509 82.9824 109.566 87.9213Z" fill="white"/>
<path d="M90.2431 107.891C90.231 107.891 90.2148 107.89 90.2026 107.889C87.9106 107.659 86.4203 106.751 85.7845 105.187C83.3507 99.2443 94.4993 85.7712 94.9772 85.2002C95.0339 85.1314 95.1148 85.0836 95.1999 85.0642C95.6696 84.9605 106.737 82.5822 109.912 87.7061C109.985 87.8203 109.993 87.9621 109.936 88.0844L105.676 97.6338L107.511 98.3578C107.721 98.44 107.823 98.6753 107.742 98.8831C107.657 99.0916 107.422 99.1933 107.215 99.1115L104.984 98.2323C104.878 98.1914 104.797 98.1108 104.757 98.0083C104.716 97.9059 104.716 97.7909 104.761 97.6901L109.11 87.956C106.255 83.8226 96.759 85.576 95.5118 85.8271C94.4508 87.125 84.3915 99.6476 86.5337 104.881C87.0561 106.163 88.2831 106.883 90.2836 107.083C90.5064 107.105 90.6684 107.303 90.6481 107.526C90.6238 107.735 90.4497 107.891 90.2431 107.891" fill="black"/>
<path d="M112.303 67.5229C113.287 66.0647 114.481 64.5096 114.291 62.7561C113.975 59.9214 110.415 58.824 107.565 58.8523C97.3595 58.9495 88.0899 64.8538 80.5252 71.705C72.9605 78.5573 66.4124 86.5841 58.1025 92.5103C52.1294 96.7713 45.322 99.885 39.859 104.782C34.3921 109.679 30.3384 117.172 32.2701 124.251C33.9425 130.372 39.8388 134.695 46.059 135.929C52.2832 137.164 58.7505 135.767 64.6994 133.559C85.4658 125.848 102.033 107.575 107.812 86.201C108.605 83.2532 107.852 80.6874 108.318 77.7121C108.885 74.0809 110.245 70.5715 112.303 67.5229" fill="#FC955C"/>
<path d="M110.889 69.8952C110.889 69.8952 104.714 72.146 105.289 75.2257C105.864 78.3054 105.88 79.8625 104.438 81.1746C104.438 81.1746 99.0522 79.4936 98.465 83.2285C97.8737 86.9635 101.871 88.3877 104.839 87.2956C104.839 87.2956 108.022 90.6422 112.991 88.1845C117.96 85.7267 115.19 77.6239 110.889 69.8952Z" fill="white"/>
<path d="M104.845 86.8836C104.955 86.8836 105.06 86.9277 105.141 87.0095C105.262 87.1363 108.19 90.1039 112.815 87.8142C113.904 87.2764 114.609 86.4503 114.969 85.2881C115.901 82.2954 114.431 77.1491 110.713 70.3924C108.923 71.1108 105.299 73.0339 105.692 75.1442C106.291 78.3579 106.295 80.0337 104.72 81.4672C104.61 81.564 104.461 81.5964 104.327 81.5543C104.299 81.5454 101.456 80.6804 99.8724 81.6657C99.3136 82.0119 98.9855 82.5416 98.8681 83.2847C98.6697 84.5413 99.0301 85.5869 99.9088 86.3077C101.079 87.2695 103.051 87.5174 104.708 86.9087C104.752 86.8917 104.801 86.8836 104.845 86.8836V86.8836ZM109.43 89.4766C106.975 89.477 105.299 88.2277 104.748 87.7502C102.865 88.3573 100.743 88.0406 99.3946 86.9338C98.2971 86.0332 97.8274 84.6924 98.0704 83.1584C98.2243 82.182 98.6859 81.4482 99.4472 80.9768C101.067 79.9689 103.558 80.5099 104.331 80.7148C105.469 79.5615 105.424 78.1304 104.898 75.2928C104.266 71.9146 110.49 69.6047 110.758 69.5079C110.944 69.4395 111.155 69.5172 111.252 69.6914C115.261 76.8993 116.771 82.2277 115.743 85.5286C115.318 86.8945 114.455 87.9077 113.175 88.5403C111.79 89.2255 110.531 89.4766 109.43 89.4766" fill="black"/>
<path d="M104.399 85.0859C104.31 85.0859 104.221 85.0564 104.144 84.9952C103.326 84.3303 102.119 84.1537 101.147 84.5551C100.941 84.6401 100.702 84.5417 100.617 84.3347C100.532 84.1282 100.629 83.8913 100.835 83.8063C102.099 83.2867 103.597 83.507 104.654 84.3667C104.828 84.5077 104.853 84.7628 104.715 84.9361C104.634 85.0349 104.516 85.0859 104.399 85.0859" fill="black"/>
<path d="M249.239 309.656H155.936C155.713 309.656 155.531 309.475 155.531 309.251V208.938C155.531 208.714 155.713 208.533 155.936 208.533H207.528C207.751 208.533 207.933 208.714 207.933 208.938C207.933 209.161 207.751 209.343 207.528 209.343H156.341V308.846H249.239C249.462 308.846 249.644 309.028 249.644 309.251C249.644 309.475 249.462 309.656 249.239 309.656Z" fill="black"/>
<path d="M478.349 309.656H325.671C325.448 309.656 325.266 309.475 325.266 309.251C325.266 309.028 325.448 308.846 325.671 308.846H478.349C478.572 308.846 478.754 309.028 478.754 309.251C478.754 309.475 478.572 309.656 478.349 309.656Z" fill="black"/>
<path d="M440.95 291.21C440.95 294.748 438.079 297.617 434.543 297.617C431.004 297.617 428.133 294.748 428.133 291.21C428.133 287.671 431.004 284.802 434.543 284.802C438.079 284.802 440.95 287.671 440.95 291.21Z" fill="#CADDFF"/>
<path d="M459.649 291.21C459.649 294.748 456.782 297.617 453.242 297.617C449.703 297.617 446.836 294.748 446.836 291.21C446.836 287.671 449.703 284.802 453.242 284.802C456.782 284.802 459.649 287.671 459.649 291.21Z" fill="#CADDFF"/>
<path d="M478.356 291.21C478.356 294.748 475.485 297.617 471.95 297.617C468.41 297.617 465.539 294.748 465.539 291.21C465.539 287.671 468.41 284.802 471.95 284.802C475.485 284.802 478.356 287.671 478.356 291.21Z" fill="#CADDFF"/>
<path d="M207.331 336.406H42.9206C42.6979 336.406 42.5156 336.224 42.5156 336.001C42.5156 335.779 42.6979 335.596 42.9206 335.596H207.331C207.558 335.596 207.736 335.779 207.736 336.001C207.736 336.224 207.558 336.406 207.331 336.406Z" fill="black"/>
</svg>
