<svg width="187" height="42" viewBox="0 0 187 42" fill="none" xmlns="http://www.w3.org/2000/svg">
<path d="M49.394 28.5789H47.0488H37.5707C35.8184 28.5789 34.1545 29.3576 32.8869 30.7714C31.6929 32.1025 31.0083 33.8605 31.0083 35.5938H33.2709C33.2709 33.1066 35.3205 30.8415 37.5707 30.8415H46.1727C44.6442 33.9051 41.9315 36.2272 38.0513 37.7805C36.9191 38.2338 35.7185 38.6054 34.3816 38.9159C31.967 39.4774 29.4517 39.7507 26.9084 39.7301H26.8762C24.3328 39.7507 21.8175 39.4774 19.403 38.9159C18.0661 38.6046 16.8663 38.233 15.7333 37.7805C11.853 36.2272 9.1404 33.906 7.61191 30.8415H16.6342C18.8844 30.8415 20.934 33.1066 20.934 35.5938H23.1966C23.1966 33.8605 22.512 32.1025 21.318 30.7714C20.0504 29.3576 18.3873 28.5789 16.6342 28.5789H6.73659H4.39142H0V30.8415H5.11975C5.44923 31.6491 5.84394 32.4179 6.30307 33.1463C8.1503 36.0736 11.0405 38.3395 14.8927 39.8812C16.133 40.3775 17.4402 40.7829 18.8902 41.1198C21.4773 41.7218 24.1693 42.015 26.8927 41.9927C26.9901 41.9935 27.0884 41.9935 27.1858 41.9935C29.8085 41.9935 32.4006 41.6995 34.8952 41.119C36.3452 40.7821 37.6524 40.3767 38.8927 39.8804C42.7449 38.3387 45.6351 36.0728 47.4823 33.1454C47.9415 32.4171 48.3362 31.6483 48.6657 30.8407H53.8482V28.5781L49.394 28.5789Z" fill="#022897"/>
<path d="M49.9187 24.056C49.9196 23.5119 49.9014 22.9578 49.8626 22.393C49.4241 16.0147 47.6958 9.75296 44.7247 3.7802C43.8782 2.07829 42.7775 0.302072 41.0327 0.0345244C39.2903 -0.232198 37.7114 1.12949 36.3968 2.49778C35.59 3.33676 34.8658 4.2451 34.1656 5.12289C33.5933 5.84048 33.0525 6.51844 32.4678 7.16584C32.3109 7.33925 31.9203 7.51513 31.6767 7.52174L27.0599 7.57294C25.424 7.57211 23.7643 7.55477 22.1276 7.52174C21.884 7.51679 21.4909 7.3409 21.3332 7.16584C20.7486 6.51844 20.2077 5.84048 19.6354 5.12289C18.9352 4.24428 18.211 3.33676 17.4042 2.49696C16.0896 1.12949 14.5107 -0.233023 12.7684 0.0336991C11.0235 0.301247 9.92278 2.07747 9.07554 3.77937C6.10526 9.75213 4.37611 16.0147 3.93763 22.3921C3.89882 22.9569 3.88065 23.511 3.88148 24.0552H0.0078125V26.3178H4.00452H6.28446H16.5041C18.8212 26.3178 20.9418 27.1717 22.5694 28.5804C24.5355 30.2831 25.7816 32.7959 25.7816 35.5953H28.0442C28.0442 32.7968 29.2903 30.2831 31.2564 28.5804C32.884 27.1708 35.0054 26.3178 37.3217 26.3178H47.5157H49.7957H53.8551V24.0552H49.9187V24.056ZM37.3208 24.056C34.8113 24.056 32.4257 24.8504 30.4497 26.3186C29.9963 26.6556 29.5653 27.028 29.159 27.4342C28.7956 27.7976 28.4604 28.1807 28.1524 28.5812C27.6676 29.2121 27.2523 29.8868 26.9121 30.5953C26.571 29.8868 26.1565 29.2121 25.6718 28.5812C25.3638 28.1807 25.0285 27.7968 24.6652 27.4342C24.2589 27.028 23.827 26.6556 23.3745 26.3186C21.3993 24.8496 19.0128 24.056 16.5033 24.056H6.14407C6.14325 23.5639 6.15977 23.0618 6.19527 22.5482C6.61311 16.4681 8.26381 10.4928 11.1011 4.78763C12.0838 2.81157 12.7362 2.3285 13.1102 2.2707C13.4818 2.21372 14.2473 2.47879 15.7725 4.06509C16.5066 4.82892 17.1672 5.65716 17.8666 6.53413C18.4348 7.24676 19.0227 7.98334 19.6536 8.68194C20.2234 9.31365 21.2226 9.76617 22.0822 9.78351C23.7362 9.81654 25.4125 9.83388 27.0648 9.83554L31.7081 9.78351H31.718C32.5776 9.76617 33.5768 9.31283 34.1466 8.68194C34.7775 7.98252 35.3654 7.24593 35.9336 6.5333C36.633 5.65634 37.2928 4.82892 38.0269 4.06509C39.5512 2.47879 40.3151 2.21372 40.6891 2.2707C41.0632 2.32768 41.7156 2.81075 42.6982 4.78763C45.5356 10.4928 47.1863 16.4689 47.6049 22.5482C47.6404 23.0618 47.657 23.5639 47.6561 24.056H37.3208V24.056Z" fill="#022897"/>
<path d="M90.6935 4H87.1733C84.6283 4 81.5938 5.11858 81.5938 10.4477V36.2747H86.8425V10.3597C86.8425 9.03844 87.3989 8.85678 87.9993 8.85678H89.6935C90.3608 8.85678 90.9803 9.03844 90.9803 10.3597V36.2727H96.2291V10.4916C96.2291 5.12624 93.2175 4 90.6935 4Z" fill="#022897"/>
<path d="M70.803 4H67.1528C63.5312 4 61.6172 6.01919 61.6172 9.83961V30.435C61.6172 34.2555 63.5312 36.2747 67.1528 36.2747H70.803C74.4246 36.2747 76.3386 34.2555 76.3386 30.435V27.8977H71.0898V30.131C71.0898 31.3184 70.5162 31.4179 69.977 31.4179H67.9788C67.4396 31.4179 66.866 31.3184 66.866 30.131V10.1436C66.866 8.95621 67.4396 8.85678 67.9788 8.85678H69.7609C70.717 8.85678 71.0898 9.21817 71.0898 10.1436V13.8971H76.3386V9.83961C76.3386 6.01919 74.4246 4 70.803 4Z" fill="#022897"/>
<path d="M101.469 8.85678H106.299V36.2747H111.548V8.85678H116.288V4H101.469V8.85678Z" fill="#022897"/>
<path d="M130.717 4H127.067C123.445 4 121.531 6.01919 121.531 9.83961V30.435C121.531 34.2555 123.445 36.2747 127.067 36.2747H130.717C134.339 36.2747 136.253 34.2555 136.253 30.435V27.8977H131.004V30.131C131.004 31.3184 130.43 31.4179 129.891 31.4179H127.893C127.354 31.4179 126.78 31.3184 126.78 30.131V10.1436C126.78 8.95621 127.354 8.85678 127.893 8.85678H129.675C130.631 8.85678 131.006 9.21817 131.006 10.1436V13.8971H136.255V9.83961C136.253 6.01919 134.339 4 130.717 4Z" fill="#022897"/>
<path d="M150.9 29.913C150.9 31.2343 150.344 31.416 149.743 31.416H148.049C147.382 31.416 146.762 31.2343 146.762 29.913V4H141.516V29.783C141.516 35.1484 144.525 36.2747 147.051 36.2747H150.571C153.116 36.2747 156.151 35.1561 156.151 29.827V4H150.902V29.913H150.9Z" fill="#022897"/>
<path d="M175.408 17.5741V9.88359C175.408 5.02108 172.517 4 170.091 4H161.383V36.2747H166.632V23.6738H168.178L170.907 36.2364L170.915 36.2747H175.976L173.01 23.0371C174.601 22.1326 175.408 20.2951 175.408 17.5741ZM170.159 10.5777V17.3122C170.159 18.8285 169.486 19.0331 168.831 19.0331H166.632V8.85678H168.831C169.486 8.85678 170.159 9.06137 170.159 10.5777Z" fill="#022897"/>
<path d="M186.475 4H181.227V36.2747H186.475V4Z" fill="#022897"/>
</svg>
