<svg width="125" height="33" viewBox="0 0 125 33" fill="none" xmlns="http://www.w3.org/2000/svg">
<path d="M29.0764 0H25.5562C23.0112 0 19.9766 1.11858 19.9766 6.4477V32.2747H25.2254V6.3597C25.2254 5.03844 25.7818 4.85678 26.3822 4.85678H28.0764C28.7437 4.85678 29.3632 5.03844 29.3632 6.3597V32.2727H34.612V6.4916C34.612 1.12624 31.6004 0 29.0764 0Z" fill="white"/>
<path d="M9.1858 0H5.5355C1.914 0 0 2.01919 0 5.83961V26.435C0 30.2555 1.914 32.2747 5.5355 32.2747H9.1858C12.8073 32.2747 14.7214 30.2555 14.7214 26.435V23.8977H9.4726V26.131C9.4726 27.3184 8.899 27.4179 8.3597 27.4179H6.3616C5.8224 27.4179 5.2487 27.3184 5.2487 26.131V6.1436C5.2487 4.95621 5.8224 4.85678 6.3616 4.85678H8.1437C9.0997 4.85678 9.4726 5.21817 9.4726 6.1436V9.8971H14.7214V5.83961C14.7214 2.01919 12.8073 0 9.1858 0Z" fill="white"/>
<path d="M39.8516 4.85678H44.6816V32.2747H49.9296V4.85678H54.6706V0H39.8516V4.85678Z" fill="white"/>
<path d="M69.1001 0H65.4501C61.8281 0 59.9141 2.01919 59.9141 5.83961V26.435C59.9141 30.2555 61.8281 32.2747 65.4501 32.2747H69.1001C72.7221 32.2747 74.6361 30.2555 74.6361 26.435V23.8977H69.3871V26.131C69.3871 27.3184 68.8131 27.4179 68.2741 27.4179H66.2761C65.7371 27.4179 65.1631 27.3184 65.1631 26.131V6.1436C65.1631 4.95621 65.7371 4.85678 66.2761 4.85678H68.0581C69.0141 4.85678 69.3891 5.21817 69.3891 6.1436V9.8971H74.6371V5.83961C74.6361 2.01919 72.7221 0 69.1001 0Z" fill="white"/>
<path d="M89.2834 25.913C89.2834 27.2343 88.7274 27.416 88.1264 27.416H86.4324C85.7654 27.416 85.1454 27.2343 85.1454 25.913V0H79.8984V25.783C79.8984 31.1484 82.9084 32.2747 85.4344 32.2747H88.9544C91.4994 32.2747 94.5344 31.1561 94.5344 25.827V0H89.2854V25.913H89.2834Z" fill="white"/>
<path d="M113.791 13.5741V5.88359C113.791 1.02108 110.9 0 108.473 0H99.7656V32.2747H105.014V19.6738H106.561L109.29 32.2364L109.298 32.2747H114.359L111.393 19.0371C112.984 18.1326 113.791 16.2951 113.791 13.5741ZM108.542 6.5777V13.3122C108.542 14.8285 107.869 15.0331 107.213 15.0331H105.014V4.85678H107.213C107.869 4.85678 108.542 5.06137 108.542 6.5777Z" fill="white"/>
<path d="M124.858 0H119.609V32.2747H124.858V0Z" fill="white"/>
</svg>
