<svg width="188" height="42" viewBox="0 0 188 42" fill="none" xmlns="http://www.w3.org/2000/svg">
<path d="M49.9409 28.5789H47.5957H38.1175C36.3653 28.5789 34.7014 29.3576 33.4338 30.7714C32.2398 32.1025 31.5552 33.8605 31.5552 35.5938H33.8178C33.8178 33.1066 35.8673 30.8415 38.1175 30.8415H46.7195C45.1911 33.9051 42.4784 36.2272 38.5981 37.7805C37.466 38.2338 36.2654 38.6054 34.9284 38.9159C32.5139 39.4774 29.9986 39.7507 27.4553 39.7301H27.4231C24.8797 39.7507 22.3644 39.4774 19.9499 38.9159C18.613 38.6046 17.4131 38.233 16.2802 37.7805C12.3999 36.2272 9.68727 33.906 8.15878 30.8415H17.1811C19.4313 30.8415 21.4809 33.1066 21.4809 35.5938H23.7434C23.7434 33.8605 23.0589 32.1025 21.8648 30.7714C20.5973 29.3576 18.9342 28.5789 17.1811 28.5789H7.28347H4.9383H0.546875V30.8415H5.66662C5.9961 31.6491 6.39082 32.4179 6.84994 33.1463C8.69718 36.0736 11.5874 38.3395 15.4396 39.8812C16.6799 40.3775 17.987 40.7829 19.4371 41.1198C22.0242 41.7218 24.7162 42.015 27.4396 41.9927C27.537 41.9935 27.6353 41.9935 27.7327 41.9935C30.3554 41.9935 32.9474 41.6995 35.4421 41.119C36.8921 40.7821 38.1993 40.3767 39.4396 39.8804C43.2918 38.3387 46.182 36.0728 48.0292 33.1454C48.4883 32.4171 48.883 31.6483 49.2125 30.8407H54.395V28.5781L49.9409 28.5789Z" fill="#022897"/>
<path d="M50.4656 24.056C50.4664 23.5119 50.4483 22.9578 50.4094 22.393C49.971 16.0147 48.2426 9.75296 45.2715 3.7802C44.4251 2.07829 43.3244 0.302072 41.5795 0.0345244C39.8372 -0.232198 38.2583 1.12949 36.9437 2.49778C36.1369 3.33676 35.4127 4.2451 34.7125 5.12289C34.1402 5.84048 33.5993 6.51844 33.0147 7.16584C32.8578 7.33925 32.4672 7.51513 32.2236 7.52174L27.6068 7.57294C25.9709 7.57211 24.3111 7.55477 22.6745 7.52174C22.4309 7.51679 22.0378 7.3409 21.8801 7.16584C21.2954 6.51844 20.7546 5.84048 20.1823 5.12289C19.4821 4.24428 18.7579 3.33676 17.9511 2.49696C16.6365 1.12949 15.0576 -0.233023 13.3152 0.0336991C11.5704 0.301247 10.4697 2.07747 9.62242 3.77937C6.65214 9.75213 4.92299 16.0147 4.4845 22.3921C4.44569 22.9569 4.42753 23.511 4.42835 24.0552H0.554688V26.3178H4.55139H6.83133H17.051C19.3681 26.3178 21.4887 27.1717 23.1162 28.5804C25.0824 30.2831 26.3285 32.7959 26.3285 35.5953H28.5911C28.5911 32.7968 29.8372 30.2831 31.8033 28.5804C33.4309 27.1708 35.5523 26.3178 37.8685 26.3178H48.0626H50.3426H54.402V24.0552H50.4656V24.056ZM37.8677 24.056C35.3582 24.056 32.9726 24.8504 30.9965 26.3186C30.5432 26.6556 30.1121 27.028 29.7059 27.4342C29.3425 27.7976 29.0073 28.1807 28.6992 28.5812C28.2145 29.2121 27.7992 29.8868 27.459 30.5953C27.1179 29.8868 26.7034 29.2121 26.2186 28.5812C25.9106 28.1807 25.5754 27.7968 25.212 27.4342C24.8058 27.028 24.3739 26.6556 23.9214 26.3186C21.9461 24.8496 19.5597 24.056 17.0502 24.056H6.69095C6.69012 23.5639 6.70664 23.0618 6.74215 22.5482C7.15999 16.4681 8.81069 10.4928 11.648 4.78763C12.6307 2.81157 13.283 2.3285 13.6571 2.2707C14.0287 2.21372 14.7942 2.47879 16.3194 4.06509C17.0535 4.82892 17.7141 5.65716 18.4135 6.53413C18.9816 7.24676 19.5696 7.98334 20.2005 8.68194C20.7703 9.31365 21.7694 9.76617 22.629 9.78351C24.2831 9.81654 25.9594 9.83388 27.6117 9.83554L32.255 9.78351H32.2649C33.1245 9.76617 34.1237 9.31283 34.6935 8.68194C35.3244 7.98252 35.9123 7.24593 36.4804 6.5333C37.1799 5.65634 37.8396 4.82892 38.5738 4.06509C40.0981 2.47879 40.8619 2.21372 41.236 2.2707C41.6101 2.32768 42.2624 2.81075 43.2451 4.78763C46.0824 10.4928 47.7331 16.4689 48.1518 22.5482C48.1873 23.0618 48.2038 23.5639 48.203 24.056H37.8677V24.056Z" fill="#022897"/>
<path d="M91.2404 4H87.7202C85.1752 4 82.1406 5.11858 82.1406 10.4477V36.2747H87.3894V10.3597C87.3894 9.03844 87.9458 8.85678 88.5462 8.85678H90.2404C90.9077 8.85678 91.5272 9.03844 91.5272 10.3597V36.2727H96.776V10.4916C96.776 5.12624 93.7644 4 91.2404 4Z" fill="#022897"/>
<path d="M71.3499 4H67.6996C64.0781 4 62.1641 6.01919 62.1641 9.83961V30.435C62.1641 34.2555 64.0781 36.2747 67.6996 36.2747H71.3499C74.9714 36.2747 76.8855 34.2555 76.8855 30.435V27.8977H71.6367V30.131C71.6367 31.3184 71.0631 31.4179 70.5238 31.4179H68.5257C67.9865 31.4179 67.4128 31.3184 67.4128 30.131V10.1436C67.4128 8.95621 67.9865 8.85678 68.5257 8.85678H70.3078C71.2638 8.85678 71.6367 9.21817 71.6367 10.1436V13.8971H76.8855V9.83961C76.8855 6.01919 74.9714 4 71.3499 4Z" fill="#022897"/>
<path d="M102.016 8.85678H106.846V36.2747H112.094V8.85678H116.835V4H102.016V8.85678Z" fill="#022897"/>
<path d="M131.264 4H127.614C123.992 4 122.078 6.01919 122.078 9.83961V30.435C122.078 34.2555 123.992 36.2747 127.614 36.2747H131.264C134.886 36.2747 136.8 34.2555 136.8 30.435V27.8977H131.551V30.131C131.551 31.3184 130.977 31.4179 130.438 31.4179H128.44C127.901 31.4179 127.327 31.3184 127.327 30.131V10.1436C127.327 8.95621 127.901 8.85678 128.44 8.85678H130.222C131.178 8.85678 131.553 9.21817 131.553 10.1436V13.8971H136.801V9.83961C136.8 6.01919 134.886 4 131.264 4Z" fill="#022897"/>
<path d="M151.447 29.913C151.447 31.2343 150.891 31.416 150.29 31.416H148.596C147.929 31.416 147.309 31.2343 147.309 29.913V4H142.062V29.783C142.062 35.1484 145.072 36.2747 147.598 36.2747H151.118C153.663 36.2747 156.698 35.1561 156.698 29.827V4H151.449V29.913H151.447Z" fill="#022897"/>
<path d="M175.955 17.5741V9.88359C175.955 5.02108 173.064 4 170.637 4H161.93V36.2747H167.178V23.6738H168.725L171.454 36.2364L171.462 36.2747H176.523L173.557 23.0371C175.148 22.1326 175.955 20.2951 175.955 17.5741ZM170.706 10.5777V17.3122C170.706 18.8285 170.033 19.0331 169.377 19.0331H167.178V8.85678H169.377C170.033 8.85678 170.706 9.06137 170.706 10.5777Z" fill="#022897"/>
<path d="M187.022 4H181.773V36.2747H187.022V4Z" fill="#022897"/>
</svg>
