<svg width="158" height="140" viewBox="0 0 158 140" fill="none" xmlns="http://www.w3.org/2000/svg">
<g clip-path="url(#clip0_1762_98056)">
<path d="M140.526 92.3265H83.4221C82.9312 92.3257 82.4607 92.1303 82.1136 91.7832C81.7665 91.4361 81.5711 90.9656 81.5703 90.4748V7.27829C81.572 6.78797 81.7677 6.31827 82.1147 5.97186C82.4617 5.62545 82.9318 5.43052 83.4221 5.42969H140.526C141.017 5.43052 141.487 5.62545 141.834 5.97186C142.181 6.31827 142.377 6.78797 142.378 7.27829V90.4748C142.377 90.9656 142.182 91.4361 141.835 91.7832C141.488 92.1303 141.017 92.3257 140.526 92.3265ZM83.4221 5.50869C83.1885 5.50702 82.9568 5.55154 82.7405 5.63969C82.5242 5.72783 82.3274 5.85787 82.1615 6.02231C81.9956 6.18676 81.8638 6.38238 81.7737 6.59792C81.6837 6.81346 81.6371 7.04468 81.6367 7.27829V90.4748C81.6367 90.9449 81.8234 91.3958 82.1559 91.7283C82.4884 92.0608 82.9393 92.2475 83.4094 92.2475H140.526C140.997 92.2475 141.448 92.0608 141.78 91.7283C142.112 91.3958 142.299 90.9449 142.299 90.4748V7.27829C142.299 6.80812 142.112 6.35721 141.78 6.02476C141.448 5.6923 140.997 5.50553 140.526 5.50553L83.4221 5.50869Z" fill="#F0F0F0"/>
<path d="M74.6641 92.3297H17.5471C17.0562 92.3289 16.5857 92.1335 16.2386 91.7864C15.8915 91.4393 15.6961 90.9688 15.6953 90.4779V7.28145C15.6961 6.79059 15.8915 6.32007 16.2386 5.97298C16.5857 5.62589 17.0562 5.43052 17.5471 5.42969H74.6641C75.1549 5.43052 75.6255 5.62589 75.9725 5.97298C76.3196 6.32007 76.515 6.79059 76.5158 7.28145V90.4779C76.515 90.9688 76.3196 91.4393 75.9725 91.7864C75.6255 92.1335 75.1549 92.3289 74.6641 92.3297ZM17.5471 5.51185C17.0775 5.51185 16.627 5.69819 16.2947 6.02996C15.9623 6.36173 15.7751 6.81183 15.7743 7.28145V90.4779C15.7743 90.9481 15.9611 91.399 16.2935 91.7315C16.626 92.0639 17.0769 92.2507 17.5471 92.2507H74.6641C75.1342 92.2507 75.5852 92.0639 75.9176 91.7315C76.2501 91.399 76.4368 90.9481 76.4368 90.4779V7.28145C76.4368 6.81128 76.2501 6.36038 75.9176 6.02792C75.5852 5.69546 75.1342 5.50869 74.6641 5.50869L17.5471 5.51185Z" fill="#F0F0F0"/>
<path d="M158.25 111.625H0.25V111.704H158.25V111.625Z" fill="#E0E0E0"/>
<path d="M148.649 74.0938H88.6094C88.6094 74.5815 88.8031 75.0493 89.148 75.3942C89.4929 75.7391 89.9607 75.9329 90.4485 75.9329H146.807C147.295 75.9329 147.763 75.7392 148.109 75.3944C148.454 75.0496 148.649 74.5818 148.649 74.0938Z" fill="#E0E0E0"/>
<path d="M136.851 91.5H100.938V93.2032H136.851V91.5Z" fill="#E0E0E0"/>
<path d="M135.586 111.647L140.481 75.9297H138.762L133.867 111.647H135.586Z" fill="#E6E6E6"/>
<path d="M139.607 111.647L134.633 75.9297H136.352L141.326 111.647H139.607Z" fill="#E6E6E6"/>
<path d="M98.1956 111.647L103.299 75.9297H101.58L96.4766 111.647H98.1956Z" fill="#E6E6E6"/>
<path d="M102.215 111.647L97.3203 75.9297H99.0394L103.934 111.647H102.215Z" fill="#E6E6E6"/>
<path d="M150.663 71.1406H86.5938V74.1047H150.663V71.1406Z" fill="#E6E6E6"/>
<path d="M109.68 71.1444H137.488L137.775 70.4777C137.965 70.0511 137.459 69.6213 136.783 69.6213H111.14C110.946 69.6042 110.751 69.6405 110.576 69.7263C110.401 69.8121 110.253 69.944 110.147 70.1079L109.68 71.1444Z" fill="#E0E0E0"/>
<path d="M145.104 51.7965L141.546 66.8476C141.5 67.0426 141.389 67.2163 141.232 67.3407C141.075 67.4652 140.881 67.533 140.68 67.5333H118.756C118.622 67.533 118.49 67.5024 118.369 67.4439C118.249 67.3854 118.143 67.3005 118.06 67.1954C117.976 67.0903 117.918 66.9678 117.889 66.837C117.859 66.7062 117.86 66.5705 117.89 66.4399L121.449 51.3857C121.495 51.1913 121.606 51.0182 121.763 50.8944C121.92 50.7706 122.114 50.7032 122.314 50.7031H144.239C144.373 50.7028 144.505 50.733 144.626 50.7913C144.747 50.8496 144.853 50.9346 144.937 51.0398C145.02 51.1451 145.078 51.2678 145.107 51.3989C145.136 51.5299 145.135 51.6659 145.104 51.7965Z" fill="#F0F0F0"/>
<path d="M134.452 59.7084C134.393 60.1736 134.169 60.6022 133.822 60.9169C133.474 61.2315 133.025 61.4115 132.556 61.4243C132.338 61.4292 132.121 61.3865 131.921 61.2993C131.721 61.2121 131.542 61.0824 131.397 60.9192C131.252 60.756 131.144 60.5632 131.08 60.3541C131.017 60.1451 131 59.9248 131.03 59.7084C131.09 59.2433 131.313 58.8147 131.661 58.5C132.009 58.1854 132.457 58.0054 132.926 57.9926C133.145 57.9877 133.361 58.0304 133.562 58.1176C133.762 58.2048 133.941 58.3345 134.086 58.4977C134.231 58.6609 134.339 58.8537 134.402 59.0628C134.466 59.2718 134.483 59.4921 134.452 59.7084Z" fill="#E0E0E0"/>
<path d="M123.188 50.7031L119.396 67.5333H118.764C118.63 67.533 118.498 67.5024 118.377 67.4439C118.257 67.3854 118.151 67.3005 118.068 67.1954C117.984 67.0903 117.926 66.9678 117.897 66.837C117.867 66.7062 117.868 66.5705 117.898 66.4399L121.456 51.3857C121.503 51.1913 121.614 51.0182 121.771 50.8944C121.928 50.7706 122.122 50.7032 122.322 50.7031H123.188Z" fill="#E0E0E0"/>
<path d="M129.538 67.5312L128.789 71.1052H130.985L131.734 67.5312H129.538Z" fill="#E0E0E0"/>
<path d="M125.585 70.5001L126.033 69.8681C126.112 69.7564 126.217 69.6654 126.338 69.6028C126.46 69.5401 126.595 69.5075 126.732 69.5078H132.755C132.911 69.5078 133.064 69.5504 133.198 69.6312C133.331 69.712 133.44 69.8277 133.513 69.966L133.829 70.5475C133.861 70.6094 133.876 70.6785 133.874 70.7482C133.871 70.8178 133.851 70.8857 133.815 70.9453C133.779 71.0049 133.728 71.0542 133.667 71.0885C133.607 71.1229 133.538 71.1412 133.469 71.1415H125.916C125.841 71.1423 125.768 71.1222 125.704 71.0836C125.64 71.045 125.587 70.9894 125.553 70.9229C125.519 70.8564 125.503 70.7817 125.509 70.707C125.514 70.6324 125.541 70.5607 125.585 70.5001Z" fill="#E0E0E0"/>
<path d="M116.633 22.7052L116.453 22.4176L127.033 15.75L137.357 22.5661L137.167 22.8505L127.03 16.1545L116.633 22.7052Z" fill="#F0F0F0"/>
<path d="M137.577 22.4297H116.266V35.7586H137.577V22.4297Z" fill="#E0E0E0"/>
<path d="M136.992 35.1705V23.0234H116.863V35.1705H136.992Z" fill="white"/>
<path d="M119.724 26.8281H118.438V28.1142H119.724V26.8281Z" fill="#F0F0F0"/>
<path d="M121.708 26.8281H120.422V28.1142H121.708V26.8281Z" fill="#F0F0F0"/>
<path d="M123.685 26.8281H122.398V28.1142H123.685V26.8281Z" fill="#F0F0F0"/>
<path d="M125.669 26.8281H124.383V28.1142H125.669V26.8281Z" fill="#F0F0F0"/>
<path d="M127.653 26.8281H126.367V28.1142H127.653V26.8281Z" fill="#F0F0F0"/>
<path d="M129.638 26.8281H128.352V28.1142H129.638V26.8281Z" fill="#F0F0F0"/>
<path d="M131.614 26.8281H130.328V28.1142H131.614V26.8281Z" fill="#F0F0F0"/>
<path d="M133.599 26.8281H132.312V28.1142H133.599V26.8281Z" fill="#F0F0F0"/>
<path d="M135.583 26.8281H134.297V28.1142H135.583V26.8281Z" fill="#F0F0F0"/>
<path d="M119.724 28.6016H118.438V29.8877H119.724V28.6016Z" fill="#F0F0F0"/>
<path d="M121.708 28.6016H120.422V29.8877H121.708V28.6016Z" fill="#F0F0F0"/>
<path d="M123.685 28.6016H122.398V29.8877H123.685V28.6016Z" fill="#F0F0F0"/>
<path d="M125.669 28.6016H124.383V29.8877H125.669V28.6016Z" fill="#F0F0F0"/>
<path d="M127.653 28.6016H126.367V29.8877H127.653V28.6016Z" fill="#F0F0F0"/>
<path d="M129.638 28.6016H128.352V29.8877H129.638V28.6016Z" fill="#F0F0F0"/>
<path d="M131.614 28.6016H130.328V29.8877H131.614V28.6016Z" fill="#F0F0F0"/>
<path d="M133.599 28.6016H132.312V29.8877H133.599V28.6016Z" fill="#F0F0F0"/>
<path d="M135.583 28.6016H134.297V29.8877H135.583V28.6016Z" fill="#F0F0F0"/>
<path d="M119.724 30.3672H118.438V31.6533H119.724V30.3672Z" fill="#F0F0F0"/>
<path d="M121.708 30.3672H120.422V31.6533H121.708V30.3672Z" fill="#F0F0F0"/>
<path d="M123.685 30.3672H122.398V31.6533H123.685V30.3672Z" fill="#F0F0F0"/>
<path d="M125.669 30.3672H124.383V31.6533H125.669V30.3672Z" fill="#F0F0F0"/>
<path d="M127.653 30.3672H126.367V31.6533H127.653V30.3672Z" fill="#F0F0F0"/>
<path d="M129.638 30.3672H128.352V31.6533H129.638V30.3672Z" fill="#F0F0F0"/>
<path d="M131.614 30.3672H130.328V31.6533H131.614V30.3672Z" fill="#F0F0F0"/>
<path d="M133.599 30.3672H132.312V31.6533H133.599V30.3672Z" fill="#F0F0F0"/>
<path d="M135.583 30.3672H134.297V31.6533H135.583V30.3672Z" fill="#F0F0F0"/>
<path d="M119.724 32.2734H118.438V33.5596H119.724V32.2734Z" fill="#F0F0F0"/>
<path d="M121.708 32.2734H120.422V33.5596H121.708V32.2734Z" fill="#F0F0F0"/>
<path d="M123.685 32.2734H122.398V33.5596H123.685V32.2734Z" fill="#F0F0F0"/>
<path d="M125.669 32.2734H124.383V33.5596H125.669V32.2734Z" fill="#F0F0F0"/>
<path d="M132.731 24.2109H121.289V25.3233H132.731V24.2109Z" fill="#E0E0E0"/>
<path d="M127.709 15.8664C127.709 15.9914 127.672 16.1136 127.603 16.2175C127.533 16.3214 127.435 16.4024 127.319 16.4503C127.204 16.4981 127.077 16.5106 126.954 16.4862C126.831 16.4618 126.719 16.4017 126.63 16.3133C126.542 16.2249 126.482 16.1123 126.457 15.9897C126.433 15.8671 126.446 15.74 126.493 15.6245C126.541 15.509 126.622 15.4103 126.726 15.3409C126.83 15.2714 126.952 15.2344 127.077 15.2344C127.245 15.2344 127.406 15.301 127.524 15.4195C127.643 15.538 127.709 15.6988 127.709 15.8664Z" fill="#E0E0E0"/>
<path d="M108.432 9.30469H86.2109V63.2933H108.432V9.30469Z" fill="#F0F0F0"/>
<path d="M107.08 10.6641H87.5703V61.9414H107.08V10.6641Z" fill="#FAFAFA"/>
<path d="M107.08 12.8594V16.7304L87.5703 36.2434V32.3692L107.08 12.8594Z" fill="white"/>
<path d="M107.08 26.25V31.7105L87.5703 51.2172V45.7535L107.08 26.25Z" fill="white"/>
<path d="M97.9914 9.30469H96.6484V63.2933H97.9914V9.30469Z" fill="#F0F0F0"/>
<path d="M69.3774 9.30469H47.1562V63.2933H69.3774V9.30469Z" fill="#F0F0F0"/>
<path d="M68.0177 10.6641H48.5078V61.9414H68.0177V10.6641Z" fill="#FAFAFA"/>
<path d="M68.0177 12.8594V16.7304L48.5078 36.2434V32.3692L68.0177 12.8594Z" fill="white"/>
<path d="M68.0177 26.25V31.7105L48.5078 51.2172V45.7535L68.0177 26.25Z" fill="white"/>
<path d="M58.9367 9.30469H57.5938V63.2933H58.9367V9.30469Z" fill="#F0F0F0"/>
<path d="M54.0814 104.42C54.0814 104.42 51.3954 105.017 51.7935 103.156C52.1917 101.294 52.1633 100.59 51.0731 99.7397C49.9829 98.8897 48.8832 98.4757 49.7174 97.1169C50.5517 95.7581 48.9685 94.7216 48.1374 93.9948C47.3063 93.268 48.2449 92.7308 48.4534 91.3499C48.662 89.969 47.1894 90.1839 47.0757 88.4554C46.9619 86.7268 48.7157 84.7076 47.2084 82.3281C47.2084 82.3281 49.2339 83.3804 49.9007 85.2258C50.5675 87.0713 50.0303 88.4996 51.2279 89.2011C52.4255 89.9026 53.1745 91.1192 52.7668 92.3611C52.3592 93.603 52.9375 94.2571 53.9202 95.1767C54.903 96.0962 54.6407 96.4407 54.5206 97.5593C54.4005 98.678 54.6439 98.4094 55.7657 99.9262C56.8875 101.443 56.938 103.924 54.0814 104.42Z" fill="#F0F0F0"/>
<path d="M54.4645 104.335C54.4635 104.325 54.4635 104.316 54.4645 104.306L49.0925 87.9943C49.0871 87.9777 49.085 87.9601 49.0863 87.9427C49.0877 87.9253 49.0925 87.9084 49.1004 87.8928C49.1083 87.8772 49.1192 87.8634 49.1325 87.8521C49.1458 87.8407 49.1612 87.8321 49.1778 87.8268C49.1942 87.8214 49.2115 87.8193 49.2287 87.8207C49.2459 87.8221 49.2626 87.8269 49.2779 87.8349C49.2932 87.8428 49.3068 87.8538 49.3178 87.867C49.3288 87.8803 49.3371 87.8956 49.3421 87.9121L54.7141 104.221C54.7154 104.235 54.7154 104.248 54.7141 104.262L54.4645 104.335Z" fill="#E0E0E0"/>
<path d="M58.9226 104.387C58.9226 104.387 61.596 104.978 61.1978 103.123C60.7997 101.268 60.8313 100.573 61.9152 99.7262C62.999 98.8793 64.0956 98.4622 63.2613 97.1192C62.4271 95.7762 64.0102 94.7334 64.8413 94.0129C65.6724 93.2924 64.7339 92.7489 64.5253 91.3806C64.3168 90.0124 65.7893 90.2209 65.8936 88.5019C65.9979 86.7828 64.263 84.7731 65.764 82.4062C65.764 82.4062 63.748 83.4522 63.0844 85.2913C62.4208 87.1304 62.9548 88.5461 61.7635 89.2445C60.5722 89.9428 59.8264 91.1405 60.234 92.4045C60.6417 93.6685 60.0634 94.3005 59.087 95.2042C58.1105 96.108 58.3696 96.4682 58.4897 97.5742C58.6098 98.6802 58.3665 98.418 57.251 99.9284C56.1355 101.439 56.0818 103.891 58.9226 104.387Z" fill="#F0F0F0"/>
<path d="M58.2982 104.231C58.2964 104.218 58.2964 104.204 58.2982 104.19L63.6449 87.9668C63.6499 87.9503 63.6582 87.935 63.6692 87.9217C63.6803 87.9084 63.6938 87.8975 63.7091 87.8896C63.7244 87.8816 63.7412 87.8768 63.7584 87.8754C63.7755 87.874 63.7928 87.8761 63.8092 87.8815C63.8258 87.8868 63.8412 87.8954 63.8545 87.9068C63.8678 87.9181 63.8787 87.9319 63.8866 87.9475C63.8946 87.9631 63.8993 87.98 63.9007 87.9974C63.9021 88.0148 63.9 88.0323 63.8945 88.0489L58.5478 104.272C58.5496 104.283 58.5496 104.294 58.5478 104.304L58.2982 104.231Z" fill="#E0E0E0"/>
<path d="M55.9632 104.044C55.9632 104.044 52.8885 103.791 53.9376 101.917C54.9867 100.043 55.1858 99.291 54.2979 98.0176C53.4099 96.7441 52.3766 95.9256 53.7196 94.7596C55.0626 93.5935 53.7196 91.944 53.0876 90.8949C52.4556 89.8458 53.6248 89.5646 54.3105 88.1678C54.9962 86.7711 53.3625 86.5025 53.7986 84.6128C54.2347 82.7232 56.8006 81.1368 55.9758 78.0938C55.9758 78.0938 57.796 79.8918 57.8971 82.0911C57.9982 84.2905 56.9491 85.6398 57.9982 86.7901C59.0473 87.9403 59.4455 89.4887 58.5955 90.6895C57.7454 91.8903 58.1467 92.7878 58.9115 94.0865C59.6762 95.3853 59.2622 95.6886 58.7629 96.8357C58.2637 97.9828 58.6113 97.7837 59.3128 99.7871C60.0143 101.791 59.1864 104.461 55.9632 104.044Z" fill="#F5F5F5"/>
<path d="M56.4007 104.081C56.3989 104.069 56.3989 104.058 56.4007 104.046L56.0625 84.7923C56.0621 84.7725 56.0656 84.7529 56.0729 84.7345C56.0802 84.7161 56.0911 84.6994 56.1049 84.6852C56.1187 84.6711 56.1353 84.6599 56.1535 84.6522C56.1717 84.6446 56.1913 84.6406 56.2111 84.6406C56.2499 84.6406 56.2872 84.6558 56.315 84.683C56.3427 84.7102 56.3587 84.7471 56.3596 84.786L56.6977 104.04C56.7008 104.056 56.7008 104.072 56.6977 104.087L56.4007 104.081Z" fill="#E0E0E0"/>
<path d="M64.3266 102.562H49.2944C49.1956 102.565 49.0987 102.591 49.0116 102.638C48.9246 102.685 48.8498 102.752 48.7932 102.833C48.7366 102.914 48.6999 103.007 48.686 103.105C48.6721 103.203 48.6813 103.303 48.713 103.397L48.9374 103.988L49.0764 104.364L49.4809 105.435L49.6231 105.808L50.037 106.907L50.1761 107.28L51.8319 111.673H61.7891L63.4449 107.28L63.584 106.907L63.9979 105.808L64.1401 105.435L64.5446 104.364L64.6836 103.988L64.908 103.397C64.9397 103.303 64.9489 103.203 64.935 103.105C64.9211 103.007 64.8844 102.914 64.8278 102.833C64.7712 102.752 64.6964 102.685 64.6094 102.638C64.5223 102.591 64.4254 102.565 64.3266 102.562Z" fill="#E6E6E6"/>
<path d="M28.4116 22.5732C31.4046 22.5732 33.831 20.1468 33.831 17.1538C33.831 14.1607 31.4046 11.7344 28.4116 11.7344C25.4185 11.7344 22.9922 14.1607 22.9922 17.1538C22.9922 20.1468 25.4185 22.5732 28.4116 22.5732Z" fill="#E0E0E0"/>
<path d="M33.3385 17.9872C33.795 15.2678 31.9606 12.6932 29.2412 12.2367C26.5218 11.7801 23.9472 13.6145 23.4907 16.3339C23.0342 19.0533 24.8686 21.6279 27.588 22.0844C30.3073 22.541 32.8819 20.7066 33.3385 17.9872Z" fill="#FAFAFA"/>
<path d="M28.4286 12.6094H28.2422V13.6522H28.4286V12.6094Z" fill="#E0E0E0"/>
<path d="M28.4286 20.625H28.2422V21.6678H28.4286V20.625Z" fill="#E0E0E0"/>
<path d="M24.8475 17.0469H23.8047V17.2333H24.8475V17.0469Z" fill="#E0E0E0"/>
<path d="M32.8631 17.0469H31.8203V17.2333H32.8631V17.0469Z" fill="#E0E0E0"/>
<path d="M31.4716 13.8719L30.7344 14.6094L30.8662 14.7412L31.6035 14.0037L31.4716 13.8719Z" fill="#E0E0E0"/>
<path d="M25.8076 19.5359L25.0703 20.2734L25.2022 20.4052L25.9394 19.6677L25.8076 19.5359Z" fill="#E0E0E0"/>
<path d="M25.2021 13.876L25.0703 14.0078L25.8077 14.7452L25.9395 14.6134L25.2021 13.876Z" fill="#E0E0E0"/>
<path d="M30.8662 19.5322L30.7344 19.6641L31.4719 20.4013L31.6037 20.2694L30.8662 19.5322Z" fill="#E0E0E0"/>
<path d="M28.3012 17.0141L28.2422 17.1641L30.0064 17.8586L30.0654 17.7087L28.3012 17.0141Z" fill="#E0E0E0"/>
<path d="M28.4135 17.2174H25.5V17.0563H28.2524V14.7969H28.4135V17.2174Z" fill="#E0E0E0"/>
<path d="M147.808 126.02C147.808 126.857 117.111 127.533 79.2515 127.533C41.3916 127.533 10.6953 126.857 10.6953 126.02C10.6953 125.182 41.3979 124.516 79.2515 124.516C117.105 124.516 147.808 125.186 147.808 126.02Z" fill="#F5F5F5"/>
<path d="M66.9497 17.5015C68.9267 15.5245 68.9267 12.3192 66.9497 10.3423C64.9728 8.36531 61.7675 8.36531 59.7905 10.3423C57.8136 12.3192 57.8136 15.5245 59.7905 17.5015C61.7675 19.4784 64.9728 19.4784 66.9497 17.5015Z" fill="#022897"/>
<path d="M65.9062 13.9132C65.9054 14.0261 65.8602 14.1341 65.7804 14.2139C65.7006 14.2938 65.5925 14.339 65.4796 14.3398H63.7922V16.0272C63.783 16.1336 63.7343 16.2327 63.6556 16.3049C63.5769 16.3771 63.474 16.4172 63.3672 16.4172C63.2604 16.4172 63.1575 16.3771 63.0788 16.3049C63.0001 16.2327 62.9513 16.1336 62.9422 16.0272V14.3398H61.2547C61.1418 14.339 61.0338 14.2938 60.954 14.2139C60.8742 14.1341 60.829 14.0261 60.8281 13.9132C60.829 13.8003 60.8742 13.6923 60.954 13.6125C61.0338 13.5326 61.1418 13.4874 61.2547 13.4866H62.9422V11.8118C62.9513 11.7054 63.0001 11.6063 63.0788 11.5341C63.1575 11.4619 63.2604 11.4219 63.3672 11.4219C63.474 11.4219 63.5769 11.4619 63.6556 11.5341C63.7343 11.6063 63.783 11.7054 63.7922 11.8118V13.4992H65.4796C65.5904 13.5 65.6966 13.5434 65.7761 13.6206C65.8555 13.6977 65.9022 13.8025 65.9062 13.9132Z" fill="white"/>
<path d="M63.372 20.274C63.352 20.2744 63.3321 20.2708 63.3135 20.2633C63.2949 20.2559 63.278 20.2447 63.2638 20.2305C63.2496 20.2164 63.2385 20.1995 63.231 20.1809C63.2235 20.1623 63.2199 20.1424 63.2203 20.1223V19.8063C63.2172 19.7848 63.2187 19.7628 63.2248 19.7419C63.2309 19.7211 63.2415 19.7017 63.2557 19.6853C63.27 19.6688 63.2876 19.6556 63.3074 19.6465C63.3272 19.6375 63.3487 19.6328 63.3704 19.6328C63.3922 19.6328 63.4137 19.6375 63.4335 19.6465C63.4533 19.6556 63.4709 19.6688 63.4851 19.6853C63.4994 19.7017 63.5099 19.7211 63.516 19.7419C63.5221 19.7628 63.5237 19.7848 63.5205 19.8063V20.1223C63.521 20.1421 63.5174 20.1618 63.5101 20.1801C63.5029 20.1985 63.492 20.2153 63.4782 20.2294C63.4643 20.2435 63.4478 20.2547 63.4296 20.2624C63.4114 20.2701 63.3918 20.274 63.372 20.274ZM63.5205 27.3682V26.7646C63.5237 26.7431 63.5221 26.7212 63.516 26.7003C63.5099 26.6794 63.4994 26.66 63.4851 26.6436C63.4709 26.6271 63.4533 26.6139 63.4335 26.6049C63.4137 26.5958 63.3922 26.5911 63.3704 26.5911C63.3487 26.5911 63.3272 26.5958 63.3074 26.6049C63.2876 26.6139 63.27 26.6271 63.2557 26.6436C63.2415 26.66 63.2309 26.6794 63.2248 26.7003C63.2187 26.7212 63.2172 26.7431 63.2203 26.7646V27.3682C63.2256 27.4043 63.2436 27.4372 63.2712 27.4611C63.2988 27.4849 63.334 27.4981 63.3704 27.4981C63.4069 27.4981 63.4421 27.4849 63.4697 27.4611C63.4972 27.4372 63.5153 27.4043 63.5205 27.3682ZM63.5205 25.5575V24.954C63.5237 24.9324 63.5221 24.9105 63.516 24.8896C63.5099 24.8687 63.4994 24.8494 63.4851 24.8329C63.4709 24.8164 63.4533 24.8032 63.4335 24.7942C63.4137 24.7851 63.3922 24.7805 63.3704 24.7805C63.3487 24.7805 63.3272 24.7851 63.3074 24.7942C63.2876 24.8032 63.27 24.8164 63.2557 24.8329C63.2415 24.8494 63.2309 24.8687 63.2248 24.8896C63.2187 24.9105 63.2172 24.9324 63.2203 24.954V25.5575C63.2256 25.5936 63.2436 25.6266 63.2712 25.6504C63.2988 25.6743 63.334 25.6874 63.3704 25.6874C63.4069 25.6874 63.4421 25.6743 63.4697 25.6504C63.4972 25.6266 63.5153 25.5936 63.5205 25.5575ZM63.5205 23.7468V23.1433C63.5237 23.1218 63.5221 23.0998 63.516 23.0789C63.5099 23.058 63.4994 23.0387 63.4851 23.0222C63.4709 23.0058 63.4533 22.9926 63.4335 22.9835C63.4137 22.9745 63.3922 22.9698 63.3704 22.9698C63.3487 22.9698 63.3272 22.9745 63.3074 22.9835C63.2876 22.9926 63.27 23.0058 63.2557 23.0222C63.2415 23.0387 63.2309 23.058 63.2248 23.0789C63.2187 23.0998 63.2172 23.1218 63.2203 23.1433V23.7468C63.2256 23.7829 63.2436 23.8159 63.2712 23.8397C63.2988 23.8636 63.334 23.8767 63.3704 23.8767C63.4069 23.8767 63.4421 23.8636 63.4697 23.8397C63.4972 23.8159 63.5153 23.7829 63.5205 23.7468ZM63.5205 21.9362V21.3294C63.5153 21.2934 63.4972 21.2604 63.4697 21.2366C63.4421 21.2127 63.4069 21.1996 63.3704 21.1996C63.334 21.1996 63.2988 21.2127 63.2712 21.2366C63.2436 21.2604 63.2256 21.2934 63.2203 21.3294V21.9362C63.2256 21.9722 63.2436 22.0052 63.2712 22.029C63.2988 22.0529 63.334 22.066 63.3704 22.066C63.4069 22.066 63.4421 22.0529 63.4697 22.029C63.4972 22.0052 63.5153 21.9722 63.5205 21.9362ZM63.8365 28.8882C63.8365 28.8479 63.8205 28.8094 63.7921 28.7809C63.7637 28.7525 63.7251 28.7365 63.6849 28.7365H63.5205V28.588C63.5237 28.5664 63.5221 28.5445 63.516 28.5236C63.5099 28.5027 63.4994 28.4834 63.4851 28.4669C63.4709 28.4504 63.4533 28.4372 63.4335 28.4282C63.4137 28.4191 63.3922 28.4145 63.3704 28.4145C63.3487 28.4145 63.3272 28.4191 63.3074 28.4282C63.2876 28.4372 63.27 28.4504 63.2557 28.4669C63.2415 28.4834 63.2309 28.5027 63.2248 28.5236C63.2187 28.5445 63.2172 28.5664 63.2203 28.588V28.904C63.2199 28.924 63.2235 28.9439 63.231 28.9625C63.2385 28.9811 63.2496 28.998 63.2638 29.0122C63.278 29.0264 63.2949 29.0375 63.3135 29.045C63.3321 29.0524 63.352 29.0561 63.372 29.0556H63.6722C63.696 29.0588 63.7201 29.0561 63.7426 29.0479C63.7651 29.0397 63.7853 29.0262 63.8014 29.0085C63.8176 28.9908 63.8292 28.9695 63.8353 28.9463C63.8414 28.9232 63.8418 28.8989 63.8365 28.8755V28.8882ZM70.7 28.8882C70.7 28.8479 70.6841 28.8094 70.6556 28.7809C70.6272 28.7525 70.5886 28.7365 70.5484 28.7365H69.9764C69.9364 28.7373 69.8983 28.7535 69.87 28.7818C69.8418 28.8101 69.8255 28.8482 69.8247 28.8882C69.8247 28.9284 69.8407 28.967 69.8692 28.9954C69.8976 29.0239 69.9362 29.0398 69.9764 29.0398H70.5484C70.5685 29.0387 70.5881 29.0334 70.6061 29.0244C70.6241 29.0154 70.6401 29.0029 70.6531 28.9875C70.6661 28.9721 70.6759 28.9543 70.6818 28.935C70.6877 28.9158 70.6896 28.8955 70.6874 28.8755L70.7 28.8882ZM68.9842 28.8882C68.9842 28.8479 68.9682 28.8094 68.9397 28.7809C68.9113 28.7525 68.8727 28.7365 68.8325 28.7365H68.2605C68.2206 28.7373 68.1824 28.7535 68.1542 28.7818C68.1259 28.8101 68.1097 28.8482 68.1089 28.8882C68.1089 28.9284 68.1248 28.967 68.1533 28.9954C68.1817 29.0239 68.2203 29.0398 68.2605 29.0398H68.8325C68.8526 29.0387 68.8722 29.0334 68.8902 29.0244C68.9083 29.0154 68.9243 29.0029 68.9373 28.9875C68.9503 28.9721 68.96 28.9543 68.9659 28.935C68.9718 28.9158 68.9737 28.8955 68.9715 28.8755L68.9842 28.8882ZM67.2683 28.8882C67.2683 28.8479 67.2523 28.8094 67.2239 28.7809C67.1954 28.7525 67.1568 28.7365 67.1166 28.7365H66.5447C66.5047 28.7373 66.4666 28.7535 66.4383 28.7818C66.41 28.8101 66.3938 28.8482 66.393 28.8882C66.393 28.9284 66.409 28.967 66.4374 28.9954C66.4658 29.0239 66.5044 29.0398 66.5447 29.0398H67.1166C67.1367 29.0387 67.1564 29.0334 67.1744 29.0244C67.1924 29.0154 67.2084 29.0029 67.2214 28.9875C67.2344 28.9721 67.2441 28.9543 67.25 28.935C67.2559 28.9158 67.2578 28.8955 67.2557 28.8755L67.2683 28.8882ZM65.5524 28.8882C65.5524 28.8479 65.5364 28.8094 65.508 28.7809C65.4795 28.7525 65.441 28.7365 65.4007 28.7365H64.8161C64.7762 28.7373 64.738 28.7535 64.7098 28.7818C64.6815 28.8101 64.6653 28.8482 64.6644 28.8882C64.6644 28.9284 64.6804 28.967 64.7089 28.9954C64.7373 29.0239 64.7759 29.0398 64.8161 29.0398H65.3881C65.4093 29.0404 65.4303 29.0365 65.4498 29.0282C65.4693 29.02 65.4869 29.0077 65.5012 28.9921C65.5156 28.9766 65.5265 28.9581 65.5331 28.938C65.5398 28.9179 65.542 28.8966 65.5398 28.8755L65.5524 28.8882ZM72.1473 28.8882C72.1465 28.8482 72.1303 28.8101 72.102 28.7818C72.0737 28.7535 72.0356 28.7373 71.9957 28.7365H71.6797C71.64 28.7373 71.6022 28.7537 71.5744 28.782C71.5467 28.8104 71.5311 28.8485 71.5311 28.8882C71.5307 28.9079 71.5342 28.9276 71.5415 28.946C71.5488 28.9644 71.5597 28.9811 71.5735 28.9952C71.5873 29.0094 71.6038 29.0206 71.6221 29.0282C71.6403 29.0359 71.6599 29.0399 71.6797 29.0398H71.9957C72.0156 29.0383 72.035 29.0327 72.0528 29.0236C72.0706 29.0145 72.0864 29.0019 72.0994 28.9866C72.1123 28.9714 72.1221 28.9537 72.1281 28.9346C72.1342 28.9155 72.1364 28.8955 72.1347 28.8755L72.1473 28.8882Z" fill="#022897"/>
<path d="M129.06 118.508L129.379 123.586L127.211 123.757L125.758 118.764L129.06 118.508Z" fill="#E8E8E8"/>
<path d="M127.721 123.255C127.633 123.144 127.516 123.06 127.383 123.013C127.25 122.965 127.107 122.956 126.969 122.986C126.549 123.125 125.996 123.814 125.996 123.814C125.996 123.814 123.714 124.547 123.098 124.585C122.482 124.623 122.074 125.018 122.023 126.165H129.788C129.788 126.165 129.788 123.473 129.525 123.005C129.298 122.601 128.84 123.122 128.84 123.122L127.721 123.255Z" fill="#263238"/>
<path d="M122.197 125.811L123.546 125.795L129.437 125.735C129.45 125.732 129.462 125.725 129.47 125.714C129.478 125.703 129.483 125.69 129.483 125.677C129.483 125.663 129.478 125.65 129.47 125.639C129.462 125.629 129.45 125.621 129.437 125.618H129.035C128.915 125.328 128.91 125.002 129.022 124.708C129.134 124.414 129.355 124.174 129.639 124.038C129.646 124.035 129.652 124.03 129.658 124.024C129.663 124.018 129.667 124.011 129.669 124.004C129.672 123.996 129.672 123.988 129.672 123.98C129.671 123.972 129.668 123.965 129.664 123.958C129.66 123.951 129.655 123.945 129.648 123.941C129.642 123.936 129.635 123.933 129.627 123.931C129.619 123.929 129.611 123.929 129.604 123.931C129.596 123.932 129.588 123.936 129.582 123.94C129.279 124.087 129.042 124.343 128.919 124.657C128.796 124.971 128.796 125.32 128.918 125.634H128.087L122.197 125.697C122.185 125.701 122.175 125.709 122.168 125.719C122.16 125.729 122.156 125.742 122.156 125.754C122.156 125.767 122.16 125.779 122.168 125.789C122.175 125.799 122.185 125.807 122.197 125.811Z" fill="white"/>
<path d="M126.26 124.285C126.207 124.197 126.135 124.121 126.051 124.063C125.966 124.005 125.87 123.966 125.769 123.947C125.668 123.929 125.565 123.933 125.465 123.957C125.365 123.982 125.272 124.028 125.192 124.092C125.132 124.136 125.075 124.035 125.135 123.991C125.229 123.92 125.336 123.869 125.451 123.842C125.565 123.816 125.684 123.813 125.8 123.835C125.916 123.857 126.025 123.903 126.122 123.97C126.218 124.037 126.3 124.124 126.361 124.225C126.402 124.285 126.304 124.345 126.26 124.285Z" fill="white"/>
<path d="M125.611 124.479C125.558 124.392 125.487 124.317 125.402 124.259C125.317 124.201 125.221 124.161 125.121 124.143C125.02 124.125 124.916 124.128 124.817 124.153C124.717 124.178 124.624 124.223 124.543 124.286C124.483 124.331 124.426 124.229 124.486 124.185C124.58 124.114 124.688 124.064 124.803 124.037C124.918 124.011 125.037 124.009 125.152 124.031C125.268 124.053 125.377 124.1 125.474 124.167C125.57 124.234 125.652 124.321 125.713 124.422C125.754 124.482 125.656 124.539 125.611 124.479Z" fill="white"/>
<path d="M124.948 124.675C124.895 124.588 124.824 124.512 124.74 124.454C124.655 124.396 124.559 124.356 124.458 124.338C124.357 124.32 124.253 124.323 124.154 124.348C124.054 124.373 123.961 124.419 123.88 124.483C123.82 124.527 123.763 124.426 123.82 124.381C123.914 124.31 124.022 124.26 124.136 124.233C124.251 124.206 124.37 124.204 124.485 124.226C124.601 124.248 124.711 124.294 124.807 124.361C124.904 124.428 124.985 124.515 125.046 124.615C125.091 124.675 124.99 124.735 124.948 124.675Z" fill="white"/>
<path d="M112.459 118.461L112.159 123.59L109.972 123.763L109.125 118.72L112.459 118.461Z" fill="#E8E8E8"/>
<path d="M110.479 123.249C110.392 123.138 110.275 123.054 110.142 123.006C110.009 122.959 109.865 122.95 109.727 122.98C109.307 123.119 108.754 123.808 108.754 123.808C108.754 123.808 106.472 124.541 105.856 124.579C105.24 124.617 104.699 124.964 104.469 126.159H111.945C111.945 126.159 112.239 123.46 112.283 122.999C112.328 122.538 111.598 123.116 111.598 123.116L110.479 123.249Z" fill="#263238"/>
<path d="M104.688 125.811L106.034 125.795L111.924 125.735C111.937 125.732 111.949 125.725 111.958 125.714C111.966 125.703 111.971 125.69 111.971 125.677C111.971 125.663 111.966 125.65 111.958 125.639C111.949 125.629 111.937 125.621 111.924 125.618H111.526C111.405 125.327 111.401 125.001 111.514 124.707C111.627 124.413 111.848 124.174 112.133 124.038C112.14 124.035 112.146 124.03 112.152 124.024C112.157 124.018 112.161 124.011 112.163 124.004C112.165 123.996 112.166 123.988 112.165 123.98C112.164 123.972 112.162 123.965 112.158 123.958C112.154 123.951 112.149 123.945 112.142 123.941C112.136 123.936 112.129 123.933 112.121 123.931C112.113 123.929 112.105 123.929 112.097 123.931C112.09 123.932 112.082 123.936 112.076 123.94C111.772 124.087 111.536 124.343 111.413 124.657C111.29 124.971 111.289 125.32 111.412 125.634H110.581L104.691 125.697C104.679 125.701 104.668 125.708 104.661 125.718C104.653 125.728 104.649 125.74 104.648 125.753C104.648 125.765 104.652 125.778 104.659 125.788C104.666 125.799 104.676 125.807 104.688 125.811Z" fill="white"/>
<path d="M109.025 124.285C108.972 124.197 108.901 124.121 108.817 124.063C108.732 124.005 108.636 123.966 108.535 123.947C108.434 123.929 108.33 123.933 108.231 123.957C108.131 123.982 108.038 124.028 107.957 124.092C107.897 124.136 107.84 124.035 107.901 123.991C107.994 123.92 108.102 123.869 108.217 123.842C108.331 123.816 108.45 123.813 108.566 123.835C108.681 123.857 108.791 123.903 108.887 123.97C108.984 124.037 109.066 124.124 109.127 124.225C109.171 124.285 109.07 124.345 109.025 124.285Z" fill="white"/>
<path d="M108.369 124.479C108.315 124.392 108.244 124.317 108.16 124.259C108.076 124.201 107.98 124.162 107.879 124.143C107.779 124.125 107.675 124.128 107.576 124.153C107.477 124.178 107.384 124.223 107.304 124.286C107.244 124.331 107.184 124.229 107.244 124.185C107.338 124.114 107.445 124.064 107.56 124.037C107.675 124.011 107.794 124.009 107.909 124.031C108.025 124.053 108.135 124.1 108.231 124.167C108.328 124.234 108.409 124.321 108.47 124.422C108.514 124.482 108.413 124.539 108.369 124.479Z" fill="white"/>
<path d="M107.705 124.675C107.652 124.588 107.581 124.512 107.496 124.454C107.412 124.396 107.316 124.356 107.215 124.338C107.114 124.32 107.01 124.323 106.91 124.348C106.811 124.373 106.718 124.419 106.637 124.483C106.577 124.527 106.52 124.426 106.58 124.381C106.674 124.31 106.782 124.26 106.896 124.233C107.011 124.206 107.13 124.204 107.245 124.226C107.361 124.248 107.47 124.294 107.567 124.361C107.664 124.428 107.745 124.515 107.806 124.615C107.847 124.675 107.749 124.735 107.705 124.675Z" fill="white"/>
<path d="M107.366 64.9996C107.366 64.9996 106.102 82.1426 106.175 89.6729C106.263 97.5034 108.817 120.296 108.817 120.296H113C113 120.296 113.772 97.9047 114.144 90.2132C114.552 81.8266 117.058 63.625 117.058 63.625L107.366 64.9996Z" fill="#263238"/>
<path opacity="0.2" d="M114.948 80.8888C115.264 77.811 115.653 74.632 115.994 71.8544L115.505 68.9219C115.505 68.9219 113.865 73.4976 114.948 80.8888Z" fill="black"/>
<path d="M113.318 119.031C113.318 119.483 113.277 120.384 113.277 120.384H108.458L108.312 119.031H113.318Z" fill="#022897"/>
<path d="M114.508 63.625C114.508 63.625 115.772 82.506 117.143 89.5781C118.638 97.3169 125.422 120.296 125.422 120.296H129.944C129.944 120.296 127.037 98.0026 126.266 90.3365C125.426 82.0194 125.062 65.2208 125.062 65.2208L114.508 63.625Z" fill="#263238"/>
<path d="M130.147 119C130.191 119.461 130.261 120.384 130.261 120.384H124.964L124.648 119H130.147Z" fill="#022897"/>
<path d="M125.828 66.8263C116.788 67.4425 109.99 67.4899 106.388 66.1311C106.138 50.211 106.704 40.3076 107.443 37.887C107.542 37.5641 107.705 37.2645 107.922 37.0061C108.139 36.7476 108.406 36.5356 108.707 36.3828C109.601 35.934 110.561 35.6351 111.551 35.498C113.447 35.2168 116.579 35.1346 118.75 35.141C119.941 35.141 121.164 35.2358 122.172 35.3369C123.436 35.4664 124.242 36.5851 124.188 37.8428C124.081 40.2633 124.071 42.7123 124.128 45.1108C124.163 46.4948 124.217 47.86 124.286 49.1966C124.732 57.735 125.813 64.965 125.828 66.8263Z" fill="#022897"/>
<path opacity="0.2" d="M124.279 49.2039L120.398 40.6719L124.121 45.1212C124.156 46.5021 124.209 47.8672 124.279 49.2039Z" fill="black"/>
<path d="M112.856 22.7667C112.379 22.2484 110.777 22.2042 110.012 23.2027C109.197 24.2708 108.164 26.2427 107.506 25.7307C107.604 26.0259 107.789 26.2846 108.036 26.4725C108.284 26.6604 108.583 26.7687 108.893 26.783C108.893 26.783 108.227 27.513 107.367 27.2444C107.517 27.6675 107.783 28.0401 108.134 28.3194C108.486 28.5988 108.909 28.7738 109.355 28.8244C110.824 29.0393 112.872 24.827 113.197 24.1381C113.197 23.3513 113.134 23.3987 112.856 22.7667Z" fill="#263238"/>
<path d="M113.766 22.9405C114.415 22.8622 115.072 22.9186 115.697 23.1062C116.323 23.2938 116.902 23.6085 117.4 24.0307C118.051 24.5932 118.557 25.3326 118.333 26.2174C117.808 28.2777 116.418 31.5894 116.418 31.5894L110.18 26.7894C110.18 26.7894 110.148 24.7891 111.15 23.7969C111.674 23.2818 112.818 23.0479 113.766 22.9405Z" fill="#263238"/>
<path d="M112.625 22.8233C112.625 22.8233 114.774 21.2907 117.634 23.4173C120.493 25.544 117.634 29.3929 117.634 29.3929C117.634 29.3929 116.717 31.0961 117.526 31.5164C117.242 31.6263 116.939 31.6789 116.635 31.6713C116.635 31.6713 116.913 32.1895 117.267 32.1421C117.267 32.1421 116.771 32.3412 115.892 31.9493C115.014 31.5575 112.625 22.8233 112.625 22.8233Z" fill="#263238"/>
<path d="M112.757 33.4384C112.757 33.4384 112.757 33.4384 112.757 33.4669L112.927 34.7119C112.924 34.9582 112.897 35.2036 112.848 35.445C112.808 35.6404 112.755 35.8326 112.687 36.0202C112.371 36.352 112.147 37.1609 113.092 37.2842C114.283 37.439 116.681 35.9664 116.827 35.4514C116.476 33.7544 116.248 31.7952 116.53 30.25L114.991 31.5519L112.757 33.4384Z" fill="#E8E8E8"/>
<path opacity="0.2" d="M112.766 33.4755L112.936 34.7205C113.723 34.474 114.595 33.8357 114.87 33.0646C115.066 32.5085 114.87 31.9397 114.649 31.8828L112.766 33.4755Z" fill="black"/>
<path d="M110.065 30.571C110.103 30.8428 110.151 31.1114 110.201 31.3768C110.675 33.7247 113.431 34.2714 115.365 32.8241C115.54 32.6928 115.705 32.5481 115.858 32.3912C117.137 31.0798 116.998 29.9358 117.144 27.392C117.183 26.8019 117.07 26.2116 116.817 25.677C116.565 25.1424 116.179 24.6812 115.699 24.337C115.218 23.9928 114.657 23.7769 114.069 23.7099C113.482 23.6429 112.887 23.7269 112.341 23.954C110.091 24.8767 109.68 27.8566 110.065 30.571Z" fill="#E8E8E8"/>
<path d="M113.109 28.4994C113.109 28.7048 113.007 28.8722 112.872 28.8754C112.736 28.8786 112.628 28.7111 112.625 28.5057C112.622 28.3003 112.729 28.1328 112.862 28.1328C112.995 28.1328 113.109 28.294 113.109 28.4994Z" fill="#263238"/>
<path d="M110.877 28.5228C110.877 28.7282 110.773 28.8957 110.64 28.8989C110.508 28.902 110.394 28.7345 110.391 28.5291C110.388 28.3237 110.495 28.1562 110.631 28.1562C110.767 28.1562 110.874 28.3174 110.877 28.5228Z" fill="#263238"/>
<path d="M112.298 31.2945H112.225C112.205 31.2893 112.189 31.2771 112.177 31.2602C112.166 31.2433 112.162 31.2229 112.165 31.2029C112.167 31.1927 112.171 31.1831 112.177 31.1745C112.183 31.166 112.191 31.1587 112.2 31.1531C112.209 31.1475 112.219 31.1437 112.229 31.142C112.239 31.1402 112.25 31.1405 112.26 31.1429C112.41 31.1723 112.565 31.1708 112.715 31.1386C112.865 31.1064 113.007 31.0442 113.133 30.9555C113.258 30.8669 113.364 30.7538 113.444 30.6231C113.524 30.4923 113.577 30.3466 113.6 30.1948C113.602 30.1847 113.606 30.175 113.612 30.1665C113.618 30.1579 113.626 30.1507 113.635 30.1451C113.643 30.1395 113.653 30.1357 113.663 30.1339C113.674 30.1322 113.684 30.1325 113.694 30.1348C113.714 30.1407 113.731 30.1537 113.741 30.1712C113.752 30.1887 113.755 30.2096 113.751 30.2296C113.698 30.5625 113.515 30.8609 113.243 31.0602C112.971 31.2595 112.631 31.3437 112.298 31.2945Z" fill="#263238"/>
<path d="M117.146 27.6235C116.779 27.9049 116.512 28.2955 116.381 28.739C116.378 28.7874 116.359 28.8335 116.329 28.8713C116.299 28.9091 116.257 28.9368 116.211 28.9507L115.288 29.0265C115.288 29.0265 115.851 26.5744 115.193 26.5238C114.536 26.4732 115.383 25.4463 115.01 25.2345C114.132 24.7384 111.604 24.394 110.438 25.797C110.438 25.797 110.886 24.3244 112.188 23.6672C113.49 23.0099 115.926 23.1426 116.751 24.4508C117.576 25.7591 117.146 27.6235 117.146 27.6235Z" fill="#263238"/>
<path d="M118.245 29.0802C118.067 29.6945 117.653 30.2136 117.095 30.5243C116.349 30.9288 115.786 30.3095 115.831 29.5068C115.875 28.7832 116.314 27.7025 117.139 27.6298C117.964 27.5571 118.45 28.325 118.238 29.0802" fill="#E8E8E8"/>
<path d="M110.264 27.6707C110.282 27.671 110.299 27.6664 110.314 27.6575C110.329 27.6486 110.341 27.6356 110.35 27.6202C110.381 27.5553 110.425 27.4975 110.479 27.4502C110.534 27.403 110.597 27.3672 110.666 27.3452C110.805 27.3184 110.95 27.3396 111.076 27.4053C111.088 27.4126 111.1 27.4175 111.114 27.4197C111.127 27.4219 111.14 27.4214 111.153 27.4181C111.166 27.4149 111.179 27.409 111.189 27.4008C111.2 27.3926 111.209 27.3823 111.215 27.3705C111.222 27.3591 111.227 27.3465 111.229 27.3333C111.231 27.3201 111.23 27.3067 111.227 27.2938C111.224 27.2809 111.218 27.2687 111.21 27.258C111.202 27.2473 111.192 27.2383 111.181 27.2315C111.008 27.1375 110.807 27.1095 110.615 27.1525C110.52 27.1799 110.433 27.227 110.357 27.2907C110.282 27.3544 110.221 27.4333 110.179 27.5222C110.172 27.5334 110.167 27.546 110.165 27.5592C110.163 27.5724 110.164 27.5858 110.168 27.5986C110.171 27.6114 110.177 27.6233 110.186 27.6336C110.194 27.6438 110.205 27.6522 110.217 27.6581C110.231 27.6665 110.248 27.6709 110.264 27.6707Z" fill="#263238"/>
<path d="M114.141 27.5914C114.155 27.5889 114.169 27.5835 114.182 27.5756C114.194 27.5697 114.204 27.5613 114.213 27.5511C114.221 27.5408 114.228 27.5289 114.231 27.5161C114.235 27.5033 114.236 27.4898 114.234 27.4767C114.232 27.4635 114.227 27.4509 114.22 27.4397C114.117 27.2712 113.957 27.1464 113.768 27.0889C113.672 27.0666 113.573 27.0643 113.476 27.0823C113.379 27.1002 113.287 27.138 113.205 27.1932C113.182 27.207 113.166 27.2294 113.159 27.2555C113.153 27.2816 113.157 27.3092 113.171 27.3322C113.185 27.3553 113.207 27.3719 113.233 27.3784C113.259 27.3849 113.287 27.3808 113.31 27.367C113.368 27.3255 113.435 27.2968 113.505 27.2827C113.575 27.2685 113.647 27.2692 113.717 27.2848C113.85 27.3303 113.961 27.421 114.033 27.5408C114.043 27.5598 114.059 27.5751 114.079 27.5842C114.098 27.5933 114.12 27.5959 114.141 27.5914Z" fill="#263238"/>
<path d="M116.295 28.1122C115.5 28.0043 114.691 28.168 114.001 28.5767C113.941 28.0142 113.574 27.5781 113.125 27.5781C112.677 27.5781 112.272 28.0616 112.247 28.6715C112.114 28.5759 111.955 28.5244 111.792 28.5244C111.628 28.5244 111.469 28.5759 111.337 28.6715C111.305 28.0711 110.923 27.5939 110.455 27.5939C109.987 27.5939 109.57 28.1122 109.57 28.7536C109.57 29.3951 109.968 29.9134 110.455 29.9134C110.942 29.9134 111.334 29.4014 111.34 28.7694C111.384 28.7284 111.706 28.4376 112.244 28.7694C112.244 29.4014 112.645 29.907 113.125 29.907C113.606 29.907 114.013 29.3856 114.013 28.7473C114.015 28.7231 114.015 28.6988 114.013 28.6746C114.694 28.2534 115.502 28.0855 116.295 28.2006C116.3 28.2015 116.305 28.2013 116.311 28.2C116.316 28.1987 116.32 28.1964 116.325 28.1931C116.329 28.1898 116.332 28.1857 116.335 28.181C116.337 28.1763 116.339 28.1712 116.339 28.1659C116.34 28.1593 116.34 28.1526 116.339 28.146C116.337 28.1395 116.334 28.1334 116.33 28.1283C116.326 28.1231 116.32 28.119 116.314 28.1162C116.308 28.1134 116.301 28.112 116.295 28.1122ZM110.455 29.8186C110.01 29.8186 109.649 29.3319 109.649 28.7378C109.649 28.1438 110.01 27.6571 110.455 27.6571C110.901 27.6571 111.264 28.1406 111.264 28.7378C111.264 29.3351 110.891 29.8186 110.446 29.8186H110.455ZM113.125 29.8186C112.683 29.8186 112.32 29.3319 112.32 28.7378C112.32 28.1438 112.683 27.6571 113.125 27.6571C113.568 27.6571 113.934 28.1406 113.934 28.7378C113.934 29.3351 113.561 29.8186 113.116 29.8186H113.125Z" fill="white"/>
<path d="M107.284 38.5234L104.573 45.0141C104.118 46.0885 103.654 47.1566 103.183 48.2025C102.949 48.7239 102.706 49.239 102.462 49.7351C102.219 50.2312 101.969 50.7179 101.732 51.116C101.668 51.225 101.599 51.3305 101.524 51.432L101.173 51.5995L100.787 51.7733L99.9975 52.1178L96.7458 53.4955C94.5623 54.4214 92.3755 55.3757 90.2109 56.3838L90.9757 58.7664C93.3362 58.3177 95.6683 57.79 97.994 57.1864C99.1537 56.8704 100.313 56.5797 101.47 56.2384L102.355 55.9698L102.804 55.8276L103.281 55.6633L103.461 55.5969L103.543 55.5622L103.859 55.42L104.03 55.341C104.099 55.2999 104.166 55.262 104.229 55.2177C104.292 55.1735 104.361 55.1292 104.399 55.1008C104.552 54.9844 104.697 54.8577 104.832 54.7216C104.974 54.5762 105.091 54.4435 105.192 54.3203C105.385 54.0896 105.524 53.8905 105.666 53.6883C105.907 53.3407 106.115 53.0057 106.299 52.6802C106.444 52.4432 106.577 52.2126 106.709 51.9819C107.025 51.4257 107.31 50.8759 107.591 50.3292C108.157 49.2327 108.672 48.1172 109.171 47.0333C110.173 44.8213 111.105 42.6283 111.955 40.3562L107.284 38.5234ZM101.669 51.372H101.65L101.682 51.3499L101.71 51.3341L101.669 51.372Z" fill="#022897"/>
<path opacity="0.2" d="M107.036 42.5C106.773 44.396 106.325 52.6815 106.325 52.6815C106.325 52.6889 106.325 52.6963 106.325 52.7036C106.129 53.0196 105.92 53.3641 105.693 53.7117C105.551 53.9108 105.412 54.1098 105.219 54.3437C105.377 50.3558 107.036 42.5 107.036 42.5Z" fill="black"/>
<path d="M91.1659 58.0295C91.0964 57.5613 90.9745 57.1023 90.8025 56.6612C90.4191 56.2598 89.9068 56.0059 89.3552 55.9439C88.5652 55.925 87.9364 55.7006 87.3455 55.7291C86.7545 55.7575 87.3834 56.2473 87.7689 56.4432C88.1544 56.6391 88.5937 56.8603 88.4009 57.1289C88.2081 57.3975 85.6296 58.5573 85.4021 58.9586C85.1745 59.3599 85.6548 59.2999 85.6548 59.2999C85.6548 59.2999 85.0766 59.5653 85.0861 59.8781C85.0955 60.191 85.5095 60.1341 85.5095 60.1341C85.5095 60.1341 85.1271 60.3237 85.2946 60.5765C85.3799 60.7092 86.0372 60.6049 86.6566 60.4785C86.527 60.5417 86.4385 60.6176 86.4227 60.7124C86.3659 61.0979 87.2191 60.9715 87.9016 60.883C88.6061 60.8027 89.2608 60.4798 89.7534 59.9698C90.2242 59.4515 91.2923 58.8322 91.1659 58.0295ZM87.7373 60.2415C87.7572 60.2393 87.7774 60.2393 87.7973 60.2415H87.7373Z" fill="#E8E8E8"/>
<path d="M85.6194 60.153C86.2798 59.8559 86.9498 59.5778 87.6228 59.3282C87.6944 59.5028 87.7789 59.6718 87.8757 59.8338C87.9231 59.916 88.0273 59.8117 87.9799 59.7327C87.6854 59.2224 87.5053 58.6542 87.4522 58.0674C87.4522 57.9694 87.3132 58.001 87.3227 58.099C87.3376 58.2476 87.3608 58.3953 87.3922 58.5414C87.38 58.5368 87.3665 58.5368 87.3543 58.5414C86.8026 58.6991 86.2721 58.9229 85.7743 59.2081C85.6984 59.2524 85.749 59.3914 85.828 59.3472C86.3117 59.068 86.8273 58.8484 87.3637 58.693C87.3728 58.6899 87.3812 58.6849 87.3882 58.6784C87.3953 58.6719 87.401 58.6639 87.4048 58.6551C87.444 58.8389 87.4968 59.0195 87.5628 59.1955C86.8866 59.4451 86.2198 59.72 85.5562 60.0202C85.4867 60.0487 85.5372 60.1909 85.6194 60.153Z" fill="#E8E8E8"/>
<path d="M88.1459 58.6236C88.3548 58.3022 88.6651 58.0598 89.0275 57.935C89.3899 57.8102 89.7837 57.8101 90.1462 57.9347C90.2252 57.9663 90.2757 57.821 90.1967 57.7894C89.4194 57.5018 88.5946 57.7894 88.0384 58.5383C88.031 58.5451 88.0251 58.5534 88.0211 58.5627C88.0172 58.572 88.0153 58.582 88.0157 58.5921C88.016 58.6021 88.0185 58.612 88.023 58.621C88.0276 58.63 88.034 58.638 88.0419 58.6442C88.0498 58.6505 88.059 58.655 88.0688 58.6573C88.0786 58.6597 88.0888 58.6599 88.0987 58.658C88.1086 58.656 88.1179 58.6519 88.1261 58.646C88.1342 58.6401 88.141 58.6324 88.1459 58.6236Z" fill="#E8E8E8"/>
<path d="M123.751 36.2969C125.296 38.3035 126.772 40.3512 128.229 42.421C128.962 43.4511 129.679 44.4939 130.393 45.543C131.108 46.5922 131.806 47.635 132.523 48.7568L132.662 48.9716L132.83 49.2466L132.912 49.3856L132.934 49.4204L133.007 49.5562L133.086 49.7206C133.111 49.7774 133.133 49.8343 133.143 49.8628C133.188 49.9892 133.227 50.1178 133.26 50.2483L133.294 50.4L133.316 50.5232C133.356 50.771 133.378 51.0212 133.383 51.2721C133.383 51.4807 133.383 51.6766 133.383 51.8599C133.364 52.593 133.307 53.2503 133.244 53.9107C133.114 55.2221 132.928 56.4924 132.738 57.7596C132.343 60.2876 131.847 62.7872 131.262 65.2804L128.611 64.9644C128.611 62.4364 128.64 59.9084 128.678 57.4183C128.678 56.1543 128.7 54.9251 128.678 53.7116C128.678 53.1112 128.649 52.5077 128.602 51.98C128.602 51.8472 128.576 51.7272 128.561 51.6197C128.555 51.5557 128.54 51.4929 128.516 51.4333V51.4712C128.527 51.5264 128.543 51.5804 128.564 51.6324L128.599 51.7177C128.613 51.7554 128.63 51.7923 128.649 51.8283L128.696 51.9136V51.8978L128.649 51.8378L128.431 51.5407C127.717 50.5927 126.927 49.5784 126.175 48.5798C125.423 47.5812 124.649 46.5827 123.893 45.5746C122.376 43.5617 120.872 41.5393 119.422 39.4758L123.751 36.2969Z" fill="#022897"/>
<path d="M131.212 65.1254C130.634 63.6275 129.342 64.0099 128.962 64.3891C128.962 64.3891 128.014 65.3624 127.809 65.9185C127.604 66.4747 127.329 67.0182 127.427 67.271C127.474 67.3911 127.642 67.271 127.806 67.1004C127.724 67.3022 127.673 67.5153 127.654 67.7324C127.654 67.7324 127.8 69.2681 128.397 69.7485C128.994 70.2288 128.88 68.8479 128.88 68.8479C128.88 68.8479 128.953 70.2161 130.397 69.7737C130.953 69.6063 131.566 67.9662 131.661 67.053C131.917 66.2819 131.212 65.1254 131.212 65.1254Z" fill="#E8E8E8"/>
<path d="M112.962 34.97C112.962 34.97 111.733 34.8373 111.066 35.5862C110.8 36.5058 111.382 37.5991 112.014 38.7051L113.376 37.2989C113.474 37.3021 112.766 36.0981 112.962 34.97Z" fill="#022897"/>
<path opacity="0.2" d="M112.962 34.97C112.962 34.97 111.733 34.8373 111.066 35.5862C110.8 36.5058 111.382 37.5991 112.014 38.7051L113.376 37.2989C113.474 37.3021 112.766 36.0981 112.962 34.97Z" fill="black"/>
<path d="M116.625 34.2937C116.044 35.6367 114.798 36.5246 113.383 37.2925L114.151 38.6987L118.891 35.1406C118.891 35.1406 117.532 33.9334 116.625 34.2937Z" fill="#022897"/>
<path opacity="0.2" d="M116.625 34.2937C116.044 35.6367 114.798 36.5246 113.383 37.2925L114.151 38.6987L118.891 35.1406C118.891 35.1406 117.532 33.9334 116.625 34.2937Z" fill="black"/>
<path opacity="0.2" d="M113.385 39.3215C113.385 39.3697 113.371 39.4169 113.344 39.457C113.317 39.497 113.279 39.5282 113.234 39.5466C113.189 39.5649 113.14 39.5695 113.093 39.5599C113.046 39.5502 113.002 39.5267 112.969 39.4924C112.935 39.458 112.912 39.4144 112.903 39.367C112.894 39.3196 112.899 39.2705 112.918 39.2261C112.937 39.1817 112.968 39.144 113.009 39.1176C113.049 39.0913 113.097 39.0775 113.145 39.0781C113.209 39.079 113.27 39.105 113.315 39.1505C113.36 39.1961 113.385 39.2575 113.385 39.3215Z" fill="black"/>
<path opacity="0.2" d="M113.385 40.9074C113.385 40.9557 113.371 41.0028 113.344 41.0429C113.317 41.083 113.279 41.1142 113.234 41.1325C113.189 41.1508 113.14 41.1554 113.093 41.1458C113.046 41.1361 113.002 41.1127 112.969 41.0783C112.935 41.044 112.912 41.0003 112.903 40.9529C112.894 40.9055 112.899 40.8565 112.918 40.8121C112.937 40.7677 112.968 40.7299 113.009 40.7035C113.049 40.6772 113.097 40.6635 113.145 40.6641C113.209 40.6649 113.27 40.6909 113.315 40.7365C113.36 40.782 113.385 40.8434 113.385 40.9074Z" fill="black"/>
<path opacity="0.2" d="M113.385 42.5012C113.385 42.5494 113.371 42.5966 113.344 42.6367C113.317 42.6767 113.279 42.7079 113.234 42.7262C113.189 42.7446 113.14 42.7492 113.093 42.7395C113.046 42.7299 113.002 42.7064 112.969 42.6721C112.935 42.6377 112.912 42.5941 112.903 42.5467C112.894 42.4993 112.899 42.4502 112.918 42.4058C112.937 42.3614 112.968 42.3237 113.009 42.2973C113.049 42.2709 113.097 42.2572 113.145 42.2578C113.209 42.2587 113.27 42.2847 113.315 42.3302C113.36 42.3757 113.385 42.4372 113.385 42.5012Z" fill="black"/>
<path d="M83.1328 120.422L83.7838 123.702H85.5155L85.7461 120.422H83.1328Z" fill="#FFC3BD"/>
<path d="M85.2908 123.284C85.3775 123.173 85.4934 123.09 85.6252 123.042C85.757 122.995 85.8996 122.985 86.0365 123.015C86.4537 123.154 86.9845 123.837 86.9845 123.837C86.9845 123.837 89.2471 124.563 89.857 124.601C90.4669 124.639 91.0041 124.984 91.2316 126.181H83.8403C83.8403 126.181 83.5496 123.511 83.5022 123.053C83.4548 122.595 84.1848 123.167 84.1848 123.167L85.2908 123.284Z" fill="#263238"/>
<path d="M86.7328 124.303C86.786 124.216 86.8568 124.142 86.9407 124.085C87.0246 124.028 87.1197 123.989 87.2196 123.971C87.3196 123.953 87.4222 123.956 87.5207 123.981C87.6193 124.005 87.7115 124.051 87.7914 124.113C87.8515 124.158 87.9083 124.056 87.8483 124.012C87.7554 123.942 87.6487 123.892 87.5352 123.865C87.4217 123.839 87.3039 123.837 87.1895 123.859C87.0751 123.881 86.9665 123.927 86.871 123.993C86.7754 124.06 86.695 124.146 86.6349 124.246C86.5938 124.306 86.6917 124.363 86.7328 124.303Z" fill="white"/>
<path d="M87.3746 124.49C87.4277 124.404 87.4986 124.33 87.5825 124.272C87.6664 124.215 87.7614 124.176 87.8614 124.158C87.9613 124.14 88.064 124.144 88.1625 124.168C88.261 124.193 88.3533 124.238 88.4332 124.301C88.4932 124.345 88.5501 124.244 88.49 124.2C88.3971 124.129 88.2904 124.079 88.1769 124.053C88.0634 124.026 87.9457 124.024 87.8312 124.046C87.7168 124.068 87.6083 124.114 87.5127 124.181C87.4172 124.248 87.3367 124.334 87.2766 124.433C87.2324 124.494 87.3335 124.55 87.3746 124.49Z" fill="white"/>
<path d="M88.0328 124.686C88.0857 124.599 88.1563 124.524 88.2402 124.467C88.3241 124.409 88.4193 124.37 88.5194 124.352C88.6195 124.334 88.7223 124.338 88.8209 124.363C88.9195 124.388 89.0117 124.433 89.0914 124.496C89.1483 124.54 89.2052 124.439 89.1483 124.395C89.0551 124.325 88.9482 124.275 88.8345 124.248C88.7207 124.222 88.6027 124.22 88.488 124.242C88.3734 124.264 88.2646 124.309 88.1688 124.376C88.0729 124.443 87.9922 124.529 87.9317 124.629C87.8906 124.689 87.9886 124.746 88.0328 124.686Z" fill="white"/>
<path d="M67.6328 120.438L67.9931 123.695H69.7247L70.243 120.438H67.6328Z" fill="#FFC3BD"/>
<path d="M69.4939 123.284C69.5806 123.173 69.6965 123.09 69.8283 123.042C69.9602 122.995 70.1027 122.985 70.2397 123.015C70.6568 123.154 71.1877 123.837 71.1877 123.837C71.1877 123.837 73.4502 124.563 74.0601 124.601C74.67 124.639 75.204 124.984 75.4347 126.181H68.0435C68.0435 126.181 67.7527 123.511 67.7053 123.053C67.6579 122.595 68.3879 123.167 68.3879 123.167L69.4939 123.284Z" fill="#263238"/>
<path d="M70.9359 124.303C70.9891 124.216 71.06 124.142 71.1439 124.085C71.2278 124.028 71.3228 123.989 71.4228 123.971C71.5227 123.953 71.6253 123.956 71.7239 123.981C71.8224 124.005 71.9147 124.051 71.9945 124.113C72.0546 124.158 72.1115 124.056 72.0514 124.012C71.9585 123.942 71.8518 123.892 71.7383 123.865C71.6248 123.839 71.507 123.837 71.3926 123.859C71.2782 123.881 71.1697 123.927 71.0741 123.993C70.9786 124.06 70.8981 124.146 70.838 124.246C70.7969 124.306 70.8949 124.363 70.9359 124.303Z" fill="white"/>
<path d="M71.5777 124.49C71.6308 124.404 71.7017 124.33 71.7856 124.272C71.8695 124.215 71.9645 124.176 72.0645 124.158C72.1645 124.14 72.2671 124.144 72.3656 124.168C72.4642 124.193 72.5564 124.238 72.6363 124.301C72.6963 124.345 72.7532 124.244 72.6932 124.2C72.6002 124.129 72.4936 124.079 72.3801 124.053C72.2666 124.026 72.1488 124.024 72.0344 124.046C71.9199 124.068 71.8114 124.114 71.7159 124.181C71.6203 124.248 71.5399 124.334 71.4797 124.433C71.4355 124.494 71.5366 124.55 71.5777 124.49Z" fill="white"/>
<path d="M72.236 124.686C72.2888 124.599 72.3594 124.525 72.443 124.468C72.5266 124.411 72.6214 124.372 72.7211 124.354C72.8208 124.336 72.9232 124.34 73.0215 124.364C73.1198 124.389 73.2118 124.434 73.2914 124.496C73.3514 124.54 73.4083 124.439 73.3514 124.395C73.2583 124.325 73.1513 124.275 73.0376 124.248C72.9239 124.222 72.8058 124.22 72.6912 124.242C72.5765 124.264 72.4677 124.309 72.3719 124.376C72.276 124.443 72.1953 124.529 72.1348 124.629C72.0938 124.689 72.1917 124.746 72.236 124.686Z" fill="white"/>
<path d="M82.563 120.532H86.3866C86.7184 115.609 87.6506 99.2846 86.9143 91.2076C87.4483 80.0023 85.7356 65.125 85.7356 65.125H73.6328C73.6328 65.125 74.5208 75.0822 78.5087 91.037C78.4645 103.699 81.5518 116.345 82.563 120.532Z" fill="#022897"/>
<path opacity="0.2" d="M82.563 120.532H86.3866C86.7184 115.609 87.6506 99.2846 86.9143 91.2076C87.4483 80.0023 85.7356 65.125 85.7356 65.125H73.6328C73.6328 65.125 74.5208 75.0822 78.5087 91.037C78.4645 103.699 81.5518 116.345 82.563 120.532Z" fill="white"/>
<path opacity="0.2" d="M77.8337 88.3603C80.0236 79.4144 78.0991 67.8203 78.0991 67.8203L76.2031 81.0734L77.8337 88.3603Z" fill="black"/>
<path d="M82.1094 120.441L82.3906 121.894L86.7767 121.875L86.7799 120.422L82.1094 120.441Z" fill="#263238"/>
<path d="M67.0807 120.675H70.9075C72.2694 115.619 75.0155 99.3162 75.4452 91.2392C77.613 80.0307 78.6495 65.125 78.6495 65.125H66.5309C66.5309 65.125 65.4028 75.1959 67.0618 91.1602C66.7394 105.083 66.9922 116.345 67.0807 120.675Z" fill="#022897"/>
<path opacity="0.2" d="M67.0807 120.675H70.9075C72.2694 115.619 75.0155 99.3162 75.4452 91.2392C77.613 80.0307 78.6495 65.125 78.6495 65.125H66.5309C66.5309 65.125 65.4028 75.1959 67.0618 91.1602C66.7394 105.083 66.9922 116.345 67.0807 120.675Z" fill="white"/>
<path d="M66.7485 120.438L66.7422 121.878H71.163L71.3937 120.438H66.7485Z" fill="#263238"/>
<path d="M87.3166 66.9549C78.911 70.1844 65.2188 67.8429 65.2188 67.8429C65.3104 65.5392 65.3957 61.9747 65.4431 58.0911C65.4431 57.0483 65.4652 55.9834 65.4715 54.9121C65.4715 52.8581 65.4715 50.7852 65.4715 48.8291C65.4715 48.6711 65.4715 48.5131 65.4715 48.3583C65.4715 47.4103 65.4463 46.4623 65.4273 45.5901C65.4273 45.4827 65.4273 45.3753 65.4273 45.2741C65.3894 43.5456 65.3262 42.0162 65.2472 40.7933C65.0923 38.4896 66.3469 36.344 68.6252 35.9616C69.3173 35.8447 70.0662 35.7404 70.8372 35.6456C71.0205 35.6235 71.2101 35.6077 71.3997 35.5887C73.6225 35.3704 75.8566 35.2891 78.0894 35.3454H78.4054H78.5761H78.8573C79.8053 35.3833 80.7344 35.456 81.5528 35.5635C83.4109 35.8036 85.0604 37.2699 85.092 39.1469C85.1204 40.8659 85.2879 44.4968 85.5312 48.5921C85.626 50.1405 85.7303 51.7521 85.8472 53.3669C86.2707 59.7343 86.8426 65.8489 87.3166 66.9549Z" fill="#FC955C"/>
<path opacity="0.2" d="M70.1507 42.5C70.1507 42.5 69.9706 51.4238 70.5647 52.5077C71.1588 53.5916 82.6391 56.8685 82.6391 56.8685C76.891 56.088 71.3326 55.2127 68.3906 53.0228L70.1507 42.5Z" fill="black"/>
<path opacity="0.2" d="M83.0244 59.4897C76.3347 61.0697 68.5105 59.041 65.4453 58.093C65.4453 57.0502 65.4674 55.9853 65.4738 54.9141C70.1853 58.3995 83.0244 59.4897 83.0244 59.4897Z" fill="black"/>
<path d="M77.3391 40.8125L76.2109 53.3103L78.4672 57.8481L80.2273 52.8869L78.404 40.8125H77.3391Z" fill="#1A202C"/>
<path d="M77.6072 38.125L76.3906 39.9294L77.8221 41.582L79.2504 39.4522L77.6072 38.125Z" fill="#1A202C"/>
<path d="M80.0801 23.1527C79.4314 22.9143 78.7406 22.8121 78.0507 22.8523C77.3608 22.8925 76.6866 23.0744 76.07 23.3865C75.2611 23.8068 74.5595 24.4514 74.5785 25.4184C74.6164 27.6715 75.2453 31.4414 75.2453 31.4414L82.8545 28.0033C82.8545 28.0033 83.4075 26.1073 82.5164 24.9096C81.9078 24.0839 81.0558 23.4695 80.0801 23.1527Z" fill="#263238"/>
<path d="M77.2379 22.9581C77.2379 22.9581 76.2077 22.3861 75.1776 23.451C74.3149 24.339 74.6909 27.243 74.6909 27.243L77.2379 22.9581Z" fill="#263238"/>
<path d="M76.4766 23.1987C76.4766 23.1987 76.7736 21.4797 79.9115 21.9947C83.0494 22.5098 85.5394 25.101 84.3955 26.4567C83.2516 27.8123 79.9115 25.5877 79.9115 25.5877L76.4766 23.1987Z" fill="#263238"/>
<path d="M78.5678 34.2467C78.5689 34.2551 78.5689 34.2636 78.5678 34.272L78.0906 35.517C78.0349 35.7727 78.0021 36.0328 77.9927 36.2944C77.9877 36.5054 77.9972 36.7166 78.0211 36.9264C78.2613 37.3435 78.2992 38.2346 77.2975 38.1303C76.0335 38.0008 73.8847 36.0131 73.8594 35.4443C74.6336 33.779 75.3699 31.6966 75.4394 30.0312L76.7034 31.7503L78.5678 34.2467Z" fill="#FFC3BD"/>
<path d="M77.6094 38.1242C77.9096 37.4606 77.9064 36.6643 78.0107 35.9502C78.0384 35.6751 78.1099 35.4063 78.2224 35.1538C78.2224 35.1538 79.0883 34.9516 79.597 35.4098C79.7801 36.7946 79.655 38.2028 79.2305 39.5336L77.6094 38.1242Z" fill="#1A202C"/>
<path d="M72.8047 35.4746C72.8047 35.4746 73.5062 34.1253 74.4668 33.9609C74.5838 35.5883 75.2474 36.8808 77.6079 38.1258L76.2112 40.1956C74.2646 38.6061 73.1776 37.0356 72.8047 35.4746Z" fill="#1A202C"/>
<g opacity="0.2">
<path d="M78.558 34.2733L78.0809 35.5183C77.3257 35.0728 76.5831 34.2038 76.4851 33.3379C76.4187 32.7059 76.7537 32.1782 77.0033 32.1719L78.558 34.2733Z" fill="black"/>
</g>
<path d="M82.0521 31.9282C81.9447 32.1999 81.8309 32.4654 81.714 32.7276C80.6554 35.0344 77.6755 34.9396 76.026 32.9678C75.8766 32.7902 75.7413 32.601 75.6215 32.4022C74.6198 30.74 75.0401 29.5898 75.5078 26.929C75.6099 26.3095 75.8686 25.7264 76.2594 25.235C76.6502 24.7436 77.1601 24.3602 77.7407 24.1212C78.3212 23.8822 78.9533 23.7955 79.5768 23.8693C80.2003 23.9432 80.7946 24.1752 81.3032 24.5432C83.4236 26.0442 83.1076 29.2232 82.0521 31.9282Z" fill="#FFC3BD"/>
<path d="M77.0484 27.9422C77.0484 27.9422 77.0326 30.1542 77.9016 30.4702C78.7706 30.7862 79.4184 30.05 80.3727 30.9695C80.5645 30.8774 80.7776 30.8388 80.9895 30.8577C81.2014 30.8766 81.4042 30.9523 81.5767 31.077C82.1518 31.5099 82.057 31.769 82.057 31.769C82.057 31.769 81.8358 35.0838 78.8022 34.6983C75.7686 34.3128 75.402 31.3392 75.6106 29.7592L76.211 27.7969L77.0484 27.9422Z" fill="#263238"/>
<path d="M79.0186 31.0469C79.6358 31.2588 80.2633 31.4391 80.8988 31.5872C80.8451 31.7098 80.7668 31.82 80.6688 31.9112C80.5708 32.0023 80.4551 32.0724 80.329 32.1171C80.2029 32.1618 80.0689 32.1802 79.9354 32.1711C79.8019 32.1621 79.6716 32.1257 79.5527 32.0644C78.9428 31.8021 79.0186 31.0469 79.0186 31.0469Z" fill="white"/>
<path d="M81.5301 24.2878C80.3451 23.2892 77.7981 22.8373 76.6258 23.9718C75.4534 25.1062 75.4471 27.1507 75.4471 27.1507C75.433 27.3715 75.503 27.5894 75.643 27.7606C75.6723 27.7911 75.6978 27.8251 75.7189 27.8617L77.0397 28.0766C77.144 27.5331 77.3557 26.544 77.7318 26.4966C78.427 26.4018 77.953 25.6371 78.1047 25.2073C78.5881 23.8106 82.3833 24.7649 82.8194 26.9011C82.8257 26.9106 82.7214 25.2895 81.5301 24.2878Z" fill="#263238"/>
<path d="M73.962 28.3973C73.9983 29.0757 74.3003 29.7125 74.8025 30.17C75.4756 30.7673 76.2056 30.2617 76.3478 29.4211C76.4773 28.6659 76.2846 27.4429 75.4503 27.1649C74.6161 26.8868 73.9304 27.5662 73.962 28.3973Z" fill="#FFC3BD"/>
<path d="M79.4072 28.5517C79.3566 28.7571 79.4261 28.9467 79.5588 28.9814C79.6916 29.0162 79.8401 28.874 79.8906 28.6654C79.9412 28.4569 79.8685 28.2704 79.7358 28.2388C79.6031 28.2072 79.4546 28.3463 79.4198 28.5548" fill="#263238"/>
<path d="M81.5556 29.0673C81.505 29.2727 81.5746 29.4623 81.7073 29.4971C81.84 29.5318 81.9885 29.3896 82.0391 29.1811C82.0896 28.9725 82.017 28.7861 81.8842 28.7545C81.7515 28.7229 81.603 28.8619 81.5682 29.0705" fill="#263238"/>
<path d="M82.4811 28.4501C82.4629 28.4452 82.4464 28.4356 82.4331 28.4223C82.4198 28.409 82.4102 28.3924 82.4053 28.3742C82.3895 28.3003 82.3586 28.2304 82.3145 28.169C82.2705 28.1076 82.2142 28.0559 82.1493 28.0171C82.0127 27.9505 81.8561 27.9369 81.7101 27.9792C81.6828 27.9873 81.6535 27.9846 81.6282 27.9717C81.6029 27.9587 81.5836 27.9365 81.5742 27.9097C81.5669 27.8825 81.57 27.8535 81.5828 27.8284C81.5956 27.8033 81.6174 27.7838 81.6437 27.7738C81.8458 27.7176 82.0614 27.7367 82.2504 27.8275C82.3403 27.88 82.4186 27.9502 82.4806 28.0338C82.5425 28.1175 82.5868 28.2129 82.6107 28.3142C82.6185 28.3414 82.6153 28.3706 82.6017 28.3955C82.5881 28.4204 82.5652 28.4388 82.538 28.4469C82.5196 28.4526 82.5001 28.4537 82.4811 28.4501Z" fill="#263238"/>
<path d="M78.9639 27.6052C78.9466 27.6017 78.9303 27.5942 78.9165 27.5831C78.8949 27.5612 78.8828 27.5317 78.8828 27.5009C78.8828 27.4702 78.8949 27.4407 78.9165 27.4188C79.0646 27.2452 79.2718 27.1326 79.498 27.1028C79.6108 27.0967 79.7236 27.1137 79.8296 27.1528C79.9356 27.1919 80.0324 27.2523 80.1142 27.3303C80.1358 27.3522 80.1479 27.3817 80.1479 27.4125C80.1479 27.4432 80.1358 27.4727 80.1142 27.4946C80.1038 27.5056 80.0914 27.5144 80.0775 27.5204C80.0636 27.5264 80.0487 27.5295 80.0336 27.5295C80.0185 27.5295 80.0036 27.5264 79.9897 27.5204C79.9759 27.5144 79.9634 27.5056 79.953 27.4946C79.8943 27.4371 79.8246 27.3921 79.748 27.3622C79.6714 27.3324 79.5896 27.3183 79.5075 27.3208C79.3442 27.3424 79.1945 27.4234 79.0872 27.5483C79.0748 27.5691 79.0564 27.5857 79.0344 27.5959C79.0124 27.606 78.9878 27.6093 78.9639 27.6052Z" fill="#263238"/>
<path d="M89.3358 58.9053C88.9124 58.1722 87.3671 57.5022 87.3671 57.5022C86.9494 57.4331 86.5241 57.4215 86.1031 57.4675H86.1632C86.1632 57.4675 87.1744 56.886 86.9216 56.747C86.6688 56.608 86.0494 56.8323 85.4332 56.9619C84.9543 57.1044 84.5086 57.3407 84.1218 57.6571C83.6699 57.932 83.4077 58.782 83.7268 59.907C83.7268 59.907 85.0161 61.1331 85.9388 61.3037C86.8457 61.5249 88.6975 61.6387 89.0988 61.0731C89.9647 59.8849 88.3689 59.0507 88.3689 59.0507C88.3689 59.0507 89.7466 59.6384 89.3358 58.9053Z" fill="#FFC3BD"/>
<path d="M83.6163 57.1147L83.256 59.589C80.63 59.4468 78.0388 59.2098 75.4318 58.8622C74.1268 58.6916 72.8248 58.483 71.5071 58.2302C70.8467 58.107 70.1863 57.9648 69.51 57.7973C68.7915 57.6322 68.0843 57.4211 67.3928 57.1653C67.2 57.0895 66.9978 57.0041 66.7766 56.8967C66.5081 56.7635 66.2531 56.6048 66.015 56.4227C65.8175 56.2726 65.6373 56.1009 65.4778 55.9108C65.3567 55.7605 65.2508 55.5986 65.1618 55.4273C65.1019 55.3127 65.0491 55.1945 65.0038 55.0734L64.9375 54.8648L64.9217 54.7953C64.8541 54.522 64.8055 54.2443 64.7763 53.9642C64.6878 53.1331 64.6721 52.4727 64.6563 51.7838C64.6563 50.4282 64.6562 49.1168 64.7163 47.8022C64.8048 45.1763 64.9944 42.5914 65.2598 39.9844L70.2968 40.4236C70.2242 41.6876 70.1072 42.9801 70.0251 44.2567L69.728 48.0835C69.6332 49.3475 69.529 50.6115 69.4753 51.8565C69.4531 52.2894 69.4342 52.735 69.431 53.1205C69.8165 53.3006 70.281 53.4776 70.7456 53.6387C71.3144 53.8347 71.9053 54.0179 72.5025 54.2012C73.697 54.5646 74.9262 54.8933 76.1586 55.2219C78.6171 55.8571 81.1262 56.4891 83.6163 57.1147Z" fill="#FC955C"/>
<path d="M105.81 40.6323C104.114 42.2344 102.35 43.7386 100.527 45.189C99.62 45.9222 98.6847 46.6205 97.7209 47.3252C97.2311 47.6665 96.7381 48.0078 96.1788 48.3522C96.0366 48.4375 95.8912 48.5228 95.7301 48.6113C95.5404 48.7196 95.3441 48.8156 95.1423 48.8989C94.957 48.9739 94.7657 49.0331 94.5703 49.0758L94.4408 49.098L94.2701 49.1169C94.0895 49.1365 93.9073 49.1365 93.7266 49.1169H93.635L93.5054 49.0916C93.4219 49.0722 93.3396 49.0479 93.2589 49.019H93.2147L93.1262 48.9874C93.0188 48.9463 92.8766 48.8957 92.7944 48.8578L92.5227 48.7377C91.8496 48.4217 91.325 48.1278 90.7878 47.8213C90.2506 47.5148 89.745 47.2083 89.2457 46.8733C88.2472 46.2413 87.2676 45.6093 86.3133 44.9236L86.1616 44.8193L85.2799 44.1873C83.7284 43.0813 82.2211 41.9406 80.7422 40.7271L83.8327 36.7266C85.6749 38.0411 87.4983 39.4284 89.3026 40.7935C90.2095 41.4666 91.1038 42.1586 92.0044 42.8127C92.4563 43.1287 92.8987 43.47 93.3379 43.7797C93.6539 44.0009 93.9699 44.2252 94.2859 44.4117C94.6873 44.2252 95.1139 44.004 95.5499 43.7797C96.539 43.2772 97.5313 42.7211 98.5361 42.1807C100.54 41.0905 102.565 39.9687 104.625 38.9449L105.81 40.6323Z" fill="#FC955C"/>
<path opacity="0.2" d="M86.1612 44.7891L85.2796 44.1571L85.0078 39.8438L86.1612 44.7891Z" fill="black"/>
<path d="M105.608 40.6645C105.785 40.6515 105.957 40.6015 106.113 40.5177C106.27 40.4338 106.406 40.3181 106.515 40.1779C107.04 39.3215 107.867 39.1635 108.199 38.9802C108.531 38.7969 108.152 38.2345 107.311 38.4146C107.311 38.4146 107.672 37.2422 107.962 36.9578C108.253 36.6734 109.782 36.0667 109.754 35.8487C109.726 35.6306 108.541 35.9845 107.858 36.2974C107.175 36.6102 105.766 38.3451 104.502 38.9676C104.493 38.9676 103.993 40.2821 105.608 40.6645Z" fill="#FFC3BD"/>
<path d="M45.4651 39.2969C45.74 41.3793 45.9454 43.4712 46.1287 45.5632C46.2266 46.606 46.2993 47.6551 46.3878 48.6947L46.5047 50.2558L46.6185 51.6462C46.6345 51.8084 46.6684 51.9685 46.7196 52.1233C46.7765 52.3319 46.846 52.5657 46.9218 52.7964C47.0703 53.2609 47.2378 53.7444 47.4116 54.2216C47.7466 55.1917 48.1195 56.1618 48.4734 57.1446C49.2002 59.1006 49.9365 61.0756 50.6222 63.0664L48.3786 64.1787C47.2031 62.3965 46.116 60.5795 45.0701 58.7182C44.5423 57.7924 44.0462 56.8475 43.5501 55.8742C43.3036 55.3908 43.0666 54.8978 42.8328 54.3859C42.7159 54.1268 42.5989 53.8676 42.4852 53.5801C42.3424 53.2442 42.2262 52.8976 42.1376 52.5436L42.0933 52.354L42.0744 52.2371L42.0333 52.0222L41.9606 51.6082L41.8279 50.8119L41.5751 49.2319C41.4234 48.1828 41.2591 47.14 41.1295 46.094C40.8515 44.0021 40.605 41.9134 40.4375 39.812L45.4651 39.2969Z" fill="#022897"/>
<path d="M48.3658 51.5803L54.5671 58.9004C54.6418 58.9887 54.6785 59.103 54.669 59.2183C54.6594 59.3335 54.6045 59.4403 54.5162 59.515L44.2064 68.2492C44.1181 68.3239 44.0038 68.3606 43.8885 68.351C43.7733 68.3415 43.6665 68.2866 43.5917 68.1983L37.3904 60.8782C37.3162 60.7906 37.2798 60.6771 37.2893 60.5627C37.2988 60.4482 37.3533 60.3423 37.4409 60.2681L47.7532 51.5319C47.8408 51.4577 47.9543 51.4213 48.0687 51.4308C48.1832 51.4402 48.2891 51.4948 48.3634 51.5824L48.3658 51.5803Z" fill="#263238"/>
<path opacity="0.2" d="M48.3658 51.5803L54.5671 58.9004C54.6418 58.9887 54.6785 59.103 54.669 59.2183C54.6594 59.3335 54.6045 59.4403 54.5162 59.515L44.2064 68.2492C44.1181 68.3239 44.0038 68.3606 43.8885 68.351C43.7733 68.3415 43.6665 68.2866 43.5917 68.1983L37.3904 60.8782C37.3162 60.7906 37.2798 60.6771 37.2893 60.5627C37.2988 60.4482 37.3533 60.3423 37.4409 60.2681L47.7532 51.5319C47.8408 51.4577 47.9543 51.4213 48.0687 51.4308C48.1832 51.4402 48.2891 51.4948 48.3634 51.5824L48.3658 51.5803Z" fill="white"/>
<path d="M47.3333 59.8822C47.3339 60.1517 47.2546 60.4154 47.1053 60.6398C46.956 60.8642 46.7435 61.0392 46.4947 61.1428C46.2459 61.2463 45.972 61.2738 45.7076 61.2216C45.4432 61.1694 45.2002 61.0399 45.0094 60.8496C44.8186 60.6592 44.6886 60.4165 44.6358 60.1523C44.583 59.888 44.6098 59.614 44.7127 59.3649C44.8157 59.1159 44.9903 58.903 45.2143 58.7532C45.4384 58.6034 45.7018 58.5234 45.9713 58.5234C46.332 58.5234 46.6779 58.6665 46.9333 58.9212C47.1886 59.176 47.3325 59.5216 47.3333 59.8822Z" fill="#263238"/>
<path d="M39.115 23.2503C39.115 23.2503 36.7229 23.2219 36.1414 25.9205C35.5379 28.7329 35.3609 27.6269 34.0748 28.9668C32.7887 30.3066 34.1949 32.1268 31.9766 33.1316C31.9766 33.1316 33.8252 34.9265 37.4212 34.2218C41.0173 33.5172 40.5149 36.0768 45.1569 35.4005C44.9539 34.9926 44.8727 34.5348 44.9232 34.082C44.9736 33.6292 45.1535 33.2005 45.4413 32.8472C46.4525 31.6401 45.7004 30.7585 45.7415 29.4755C45.7826 28.1926 46.1144 25.4023 44.3511 24.2015C42.5878 23.0007 41.0331 23.5252 41.0331 23.5252C40.4232 23.2879 39.767 23.1938 39.115 23.2503Z" fill="#263238"/>
<path d="M45.3594 119.797L46.2631 123.526H48.2287L48.3171 119.797H45.3594Z" fill="#E8E8E8"/>
<path d="M53.9306 126.16C53.8263 124.943 53.2986 124.58 52.6319 124.542C51.9651 124.504 49.5003 123.679 49.5003 123.679C49.5003 123.679 48.9884 122.905 48.5523 122.75C48.1162 122.595 47.6675 123.05 47.6675 123.05L46.4351 122.902C46.4351 122.902 46.0654 122.346 45.8031 122.832C45.4113 123.585 45.4587 125.676 45.4871 126.16H53.9306Z" fill="#022897"/>
<path d="M53.7717 125.84H52.2392L45.54 125.805C45.4546 125.805 45.4736 125.675 45.5557 125.678H46.0108V125.663C46.1071 125.518 46.1721 125.356 46.2016 125.185C46.2312 125.014 46.2246 124.839 46.1823 124.67C46.1401 124.502 46.063 124.345 45.9562 124.208C45.8494 124.072 45.7151 123.959 45.5621 123.877C45.4925 123.839 45.5621 123.726 45.6411 123.767C45.8023 123.854 45.944 123.974 46.0575 124.118C46.171 124.263 46.2539 124.429 46.3012 124.606C46.3485 124.783 46.3592 124.969 46.3326 125.15C46.3061 125.332 46.2428 125.506 46.1467 125.663H47.0947L53.7907 125.697C53.8729 125.713 53.8571 125.843 53.7717 125.84Z" fill="black"/>
<path d="M49.1367 124.195C49.4843 123.784 49.993 123.67 50.3628 123.977C50.4228 124.027 50.505 123.917 50.4449 123.866C50.0183 123.512 49.4274 123.667 49.0324 124.128C48.9755 124.198 49.0766 124.261 49.1367 124.195Z" fill="white"/>
<path d="M49.8239 124.422C50.1715 124.011 50.6802 123.898 51.0499 124.204C51.11 124.255 51.1921 124.141 51.1321 124.093C50.7055 123.74 50.1146 123.891 49.7196 124.356C49.6627 124.425 49.767 124.488 49.8239 124.422Z" fill="white"/>
<path d="M50.541 124.641C50.8918 124.23 51.4006 124.113 51.7703 124.423C51.8303 124.473 51.9093 124.36 51.8524 124.312C51.4258 123.958 50.8349 124.11 50.4399 124.575C50.3799 124.641 50.4842 124.707 50.541 124.641Z" fill="white"/>
<path d="M37.2359 70.9456C37.815 75.9511 38.6855 80.9187 39.8429 85.8229C40.2643 87.6409 40.733 89.5791 41.2491 91.6373C39.805 103.576 45.4614 120.82 45.4614 120.82L48.4919 120.754C48.4919 120.754 48.8711 101.478 48.514 91.3908C47.9325 74.8608 45.9165 59.1019 45.9165 59.1019L37.6657 59.0703C37.6657 59.0703 36.2405 61.5667 37.2359 70.9456Z" fill="#263238"/>
<path opacity="0.2" d="M37.2422 70.9476C37.8213 75.9531 38.6918 80.9206 39.8492 85.8248C41.584 79.211 38.443 65.1016 38.443 65.1016L37.2422 70.9476Z" fill="black"/>
<path d="M48.8453 121.463L48.9401 120.164H44.8984L45.1291 121.463H48.8453Z" fill="#263238"/>
<path d="M32.7969 119.797L33.7038 123.526H35.6662L35.7578 119.797H32.7969Z" fill="#E8E8E8"/>
<path d="M36.3531 121.463L36.4479 120.164H32.4062L32.6338 121.463H36.3531Z" fill="#263238"/>
<path d="M41.3686 126.16C41.2612 124.943 40.7366 124.58 40.0699 124.542C39.4031 124.504 36.9351 123.679 36.9351 123.679C36.9351 123.679 36.4232 122.905 35.9871 122.75C35.5511 122.595 35.0992 123.05 35.0992 123.05L33.8668 122.902C33.8668 122.902 33.4971 122.346 33.2348 122.832C32.8398 123.585 32.8872 125.676 32.9188 126.16H41.3686Z" fill="#022897"/>
<path d="M41.2084 125.844H39.679L32.9798 125.809C32.8913 125.809 32.9103 125.68 32.9956 125.683H33.4475V125.667C33.5402 125.523 33.6021 125.361 33.6292 125.192C33.6563 125.023 33.6481 124.85 33.605 124.684C33.562 124.518 33.4851 124.362 33.3791 124.228C33.2731 124.093 33.1404 123.982 32.9893 123.901C32.9198 123.863 32.9893 123.749 33.0714 123.79C33.2328 123.878 33.3745 123.998 33.4879 124.142C33.6013 124.286 33.6841 124.452 33.7311 124.63C33.7782 124.807 33.7885 124.993 33.7614 125.174C33.7344 125.356 33.6706 125.53 33.5739 125.686H34.5219L41.2211 125.721C41.3127 125.718 41.2938 125.847 41.2084 125.844Z" fill="black"/>
<path d="M36.5723 124.195C36.9199 123.784 37.4287 123.67 37.8015 123.977C37.8616 124.027 37.9406 123.917 37.8805 123.866C37.4571 123.512 36.863 123.667 36.4712 124.128C36.4111 124.198 36.5154 124.261 36.5723 124.195Z" fill="white"/>
<path d="M37.2598 124.422C37.6074 124.011 38.1162 123.898 38.489 124.204C38.5491 124.255 38.6281 124.141 38.568 124.093C38.1446 123.74 37.5505 123.891 37.1587 124.356C37.0986 124.425 37.2029 124.488 37.2598 124.422Z" fill="white"/>
<path d="M37.9801 124.641C38.3277 124.23 38.8365 124.113 39.2062 124.423C39.2662 124.473 39.3484 124.36 39.2884 124.312C38.8618 123.958 38.2708 124.11 37.8758 124.575C37.819 124.641 37.9232 124.707 37.9801 124.641Z" fill="white"/>
<path d="M40.0779 59.7522C40.0779 59.7522 38.5484 82.5705 38.0302 91.6524C37.4551 102.014 36.1563 119.675 35.9825 120.832H32.8604C33.2175 121.183 28.8409 105.329 30.6073 92.4234C28.9515 80.0773 26.9386 71.0397 29.5329 59.4141L40.0779 59.7522Z" fill="#263238"/>
<path d="M28.5859 60.2981C35.1682 62.4722 46.2282 61.7581 46.2282 60.2507C46.2282 56.0069 44.7241 51.2321 45.1285 48.4671C48.2411 46.2899 45.8079 44.3212 46.0765 41.0948C46.1698 39.9043 45.8142 38.722 45.0797 37.7805C44.3452 36.839 43.285 36.2064 42.1076 36.0072C41.5483 35.9124 40.9637 35.8176 40.3917 35.7449C40.2748 35.726 40.1579 35.7133 40.0441 35.7007C38.5169 35.5268 36.9799 35.4539 35.4431 35.4827C34.8807 35.4827 34.2992 35.4827 33.6893 35.5016C33.0795 35.5206 32.4917 35.5364 31.9292 35.5775C31.4343 35.6124 30.9522 35.7509 30.5143 35.9842C30.0764 36.2174 29.6924 36.5401 29.3873 36.9314C29.0822 37.3226 28.8627 37.7736 28.7432 38.2552C28.6236 38.7367 28.6067 39.238 28.6934 39.7265C29.193 42.5588 29.5097 45.4203 29.6414 48.2933C29.6667 48.8874 29.6888 49.4593 29.6951 50.0218C29.7355 51.989 29.6457 53.9567 29.4265 55.9121C29.4265 55.9468 29.4265 55.9847 29.4265 56.0195C29.3317 56.7969 29.2169 57.5142 29.0821 58.1715C29.041 58.38 28.9967 58.5759 28.9493 58.7687C28.8545 59.1763 28.6965 59.8937 28.5859 60.2981Z" fill="#022897"/>
<path opacity="0.2" d="M46.2251 60.2507C46.2251 61.7581 35.1651 62.4627 28.5859 60.2981C28.6934 59.8937 28.8514 59.1763 28.9462 58.7687C28.9936 58.5759 29.0378 58.38 29.0789 58.1715C29.2137 57.5142 29.3285 56.7969 29.4233 56.0195C29.4233 55.9847 29.4233 55.9468 29.4233 55.9121C29.644 53.9568 29.7369 51.9892 29.7014 50.0218C29.7014 49.4593 29.6761 48.8874 29.6477 48.2933C29.6098 47.4243 29.5529 46.53 29.4676 45.6073C29.417 45.0132 29.357 44.4065 29.2843 43.7935C29.1326 42.4789 28.9367 41.1201 28.6902 39.7265C28.6035 39.238 28.6204 38.7367 28.74 38.2552C28.8595 37.7736 29.079 37.3226 29.3841 36.9314C29.6892 36.5401 30.0732 36.2174 30.5111 35.9842C30.9491 35.7509 31.4311 35.6124 31.9261 35.5775C32.4885 35.5364 33.0795 35.5111 33.6862 35.5016C34.2929 35.4921 34.8775 35.4827 35.44 35.4827C36.9768 35.4539 38.5138 35.5268 40.0409 35.7007C40.1579 35.7007 40.2716 35.726 40.3885 35.7449C40.9605 35.8176 41.5451 35.9124 42.1076 36.0072C43.2838 36.2063 44.3431 36.838 45.0775 37.7782C45.8118 38.7183 46.1682 39.8991 46.0765 41.0885C45.8079 44.3149 48.238 46.2835 45.1285 48.4608C44.7241 51.2321 46.2251 56.0069 46.2251 60.2507Z" fill="white"/>
<path opacity="0.2" d="M32.7556 40.6641L29.4723 45.6095C29.4218 45.0154 29.3617 44.4087 29.2891 43.7956L32.7556 40.6641Z" fill="black"/>
<path d="M40.3906 41.1258C40.3906 41.1819 40.4129 41.2358 40.4526 41.2755C40.4923 41.3152 40.5462 41.3375 40.6023 41.3375C40.6585 41.3375 40.7123 41.3152 40.7521 41.2755C40.7918 41.2358 40.8141 41.1819 40.8141 41.1258C40.8141 41.0696 40.7918 41.0158 40.7521 40.9761C40.7123 40.9364 40.6585 40.9141 40.6023 40.9141C40.5462 40.9141 40.4923 40.9364 40.4526 40.9761C40.4129 41.0158 40.3906 41.0696 40.3906 41.1258Z" fill="#022897"/>
<path d="M40.7352 43.2359C40.8521 43.2359 40.9469 43.1411 40.9469 43.0242C40.9469 42.9073 40.8521 42.8125 40.7352 42.8125C40.6182 42.8125 40.5234 42.9073 40.5234 43.0242C40.5234 43.1411 40.6182 43.2359 40.7352 43.2359Z" fill="#022897"/>
<path d="M40.7352 45.1656C40.8521 45.1656 40.9469 45.0708 40.9469 44.9539C40.9469 44.837 40.8521 44.7422 40.7352 44.7422C40.6182 44.7422 40.5234 44.837 40.5234 44.9539C40.5234 45.0708 40.6182 45.1656 40.7352 45.1656Z" fill="#022897"/>
<path d="M35.4453 35.4814C37.0032 38.2211 40.6688 39.8612 40.6688 39.8612C41.1649 38.6319 41.0101 36.6664 40.3939 35.7532C40.277 35.7342 40.16 35.7216 40.0463 35.7089C38.5193 35.5318 36.9823 35.4558 35.4453 35.4814Z" fill="#E8E8E8"/>
<path d="M40.4474 36.5593C40.4622 36.6027 40.4823 36.6441 40.5074 36.6825C41.0351 37.5199 40.46 38.2815 39.5594 38.2183C39.4722 38.2121 39.3856 38.1994 39.3003 38.1804C38.9712 38.1143 38.6708 37.9476 38.4408 37.7032C37.7395 36.9504 36.9809 36.2532 36.1719 35.6176C37.5433 34.8813 38.0458 32.2712 38.1722 30.6406L40.2988 33.3519L40.697 33.9428C40.5023 34.272 40.3474 34.6231 40.2356 34.9888C40.141 35.2481 40.1108 35.5266 40.1477 35.8002C40.1846 36.0738 40.2874 36.3343 40.4474 36.5593Z" fill="#E8E8E8"/>
<path d="M36.3565 35.4842C36.3565 35.4842 35.0925 35.1682 34.0781 35.4842L36.1448 39.036C37.235 38.2429 38.48 39.273 40.6699 39.864C38.858 38.8267 37.3659 37.3117 36.3565 35.4842Z" fill="#022897"/>
<path d="M36.3565 35.4842C36.3565 35.4842 35.0925 35.1682 34.0781 35.4842L36.1448 39.036C37.235 38.2429 38.48 39.273 40.6699 39.864C38.858 38.8267 37.3659 37.3117 36.3565 35.4842Z" fill="#022897"/>
<path d="M40.1328 35.6456C40.1328 35.6456 41.3968 35.415 42.1268 36.009C42.3922 36.9256 42.5907 37.8603 42.7209 38.8056C42.7209 38.8056 41.5043 38.1989 40.6858 39.8642C40.67 39.8642 41.0808 37.213 40.1328 35.6456Z" fill="#022897"/>
<path d="M40.1328 35.6456C40.1328 35.6456 41.3968 35.415 42.1268 36.009C42.3922 36.9256 42.5907 37.8603 42.7209 38.8056C42.7209 38.8056 41.5043 38.1989 40.6858 39.8642C40.67 39.8642 41.0808 37.213 40.1328 35.6456Z" fill="#022897"/>
<g opacity="0.2">
<path d="M40.2063 34.9884C40.3181 34.6227 40.473 34.2716 40.6677 33.9425L40.2695 33.3516L38.9297 33.3832C39.1662 34.0446 39.6151 34.6091 40.2063 34.9884Z" fill="black"/>
</g>
<path d="M37.7485 27.7374C37.5368 30.4171 37.3914 31.5294 38.5132 33.0936C40.2038 35.4225 43.4807 35.0844 44.473 32.5217C45.3673 30.2149 45.5663 26.2206 43.1647 24.8049C40.7631 23.3893 37.9634 25.0577 37.7485 27.7374Z" fill="#E8E8E8"/>
<path d="M38.3393 29.4865C36.9963 29.1294 37.5241 27.7422 37.5241 27.7422L39.5022 28.0582C39.5022 28.0582 39.6823 29.8404 38.3393 29.4865Z" fill="#263238"/>
<path d="M43.7673 25.0515C43.7673 25.0515 43.7325 26.5335 41.9155 26.6125C40.0985 26.6915 40.2565 29.3775 38.2215 28.9509C36.1864 28.5243 37.1945 25.9995 38.0635 25.3264C38.9325 24.6533 41.0813 22.6404 43.7673 25.0515Z" fill="#263238"/>
<path d="M43.362 31.8628C43.362 31.8628 42.0569 31.2719 41.782 30.7031C41.782 30.7031 41.5924 31.7206 42.275 32.0935C42.4523 32.1975 42.6621 32.2314 42.8632 32.1887C43.0642 32.1461 43.2421 32.0298 43.362 31.8628Z" fill="white"/>
<path d="M42.1616 28.9258C42.1331 29.1438 42.2216 29.3334 42.3638 29.3524C42.506 29.3713 42.645 29.2133 42.6798 28.9985C42.7146 28.7836 42.6229 28.5908 42.4807 28.5719C42.3385 28.5529 42.1995 28.7109 42.1647 28.9258" fill="#263238"/>
<path d="M44.3578 29.2851C44.3262 29.5032 44.4178 29.6928 44.5569 29.7149C44.6959 29.737 44.8381 29.5727 44.8729 29.3578C44.9076 29.143 44.8128 28.9502 44.6706 28.9312C44.5284 28.9123 44.3894 29.0703 44.3546 29.2851" fill="#263238"/>
<path d="M44.6016 28.9384L45.1419 28.8594C45.1419 28.8594 44.8259 29.2291 44.6016 28.9384Z" fill="#263238"/>
<path d="M36.5524 29.4438C36.6186 29.6791 36.7344 29.8975 36.8919 30.0844C37.0494 30.2714 37.245 30.4225 37.4656 30.5277C38.0344 30.7773 38.4136 30.1706 38.3441 29.4912C38.2777 28.8781 37.9049 28.0091 37.295 28.0565C36.6851 28.1039 36.347 28.8244 36.5524 29.4438Z" fill="#E8E8E8"/>
<path d="M41.5687 28.06C41.5858 28.0605 41.6028 28.0575 41.6186 28.0509C41.6344 28.0444 41.6487 28.0345 41.6604 28.0221C41.7681 27.9018 41.9026 27.8085 42.053 27.7498C42.2034 27.6911 42.3655 27.6685 42.5262 27.6839C42.5574 27.685 42.588 27.6748 42.6123 27.6551C42.6366 27.6354 42.6529 27.6076 42.6583 27.5768C42.6637 27.546 42.6578 27.5143 42.6416 27.4875C42.6255 27.4607 42.6002 27.4407 42.5704 27.4311C42.3678 27.4065 42.1623 27.4313 41.9713 27.5033C41.7803 27.5754 41.6097 27.6927 41.4739 27.8451C41.4506 27.8693 41.4375 27.9015 41.4375 27.9352C41.4375 27.9688 41.4506 28.0011 41.4739 28.0252C41.4855 28.0367 41.4994 28.0457 41.5146 28.0517C41.5298 28.0577 41.5461 28.0605 41.5624 28.06" fill="#263238"/>
<path d="M45.3703 28.448C45.4028 28.4506 45.4353 28.4417 45.4619 28.4227C45.4882 28.4006 45.5048 28.3691 45.5084 28.3349C45.5119 28.3007 45.5021 28.2665 45.4809 28.2394C45.3574 28.0776 45.1967 27.948 45.0124 27.8616C44.8281 27.7753 44.6256 27.7347 44.4223 27.7433C44.4054 27.7445 44.3889 27.7491 44.3738 27.7568C44.3587 27.7645 44.3453 27.7751 44.3343 27.7881C44.3234 27.801 44.3153 27.8161 44.3103 27.8323C44.3053 27.8485 44.3036 27.8655 44.3054 27.8824C44.3069 27.8994 44.3119 27.916 44.3199 27.9311C44.3279 27.9462 44.3389 27.9596 44.3521 27.9705C44.3653 27.9813 44.3805 27.9895 44.3969 27.9944C44.4133 27.9994 44.4305 28.001 44.4476 27.9993C44.6086 27.9947 44.7683 28.0287 44.9135 28.0985C45.0586 28.1683 45.1849 28.2719 45.2818 28.4006C45.2924 28.4143 45.3057 28.4256 45.321 28.4337C45.3362 28.4419 45.353 28.4468 45.3703 28.448Z" fill="#263238"/>
<path d="M42.4062 28.579L42.9466 28.5C42.9466 28.5 42.6306 28.8697 42.4062 28.579Z" fill="#263238"/>
<path d="M25.9798 52.2522C27.0827 54.0218 28.3119 55.8009 29.5159 57.5547L27.6546 59.2295C25.9912 57.7461 24.4278 56.1542 22.9747 54.4642C22.206 53.5836 21.4987 52.6513 20.8575 51.674C20.69 51.4117 20.5257 51.1399 20.3677 50.8366C20.1863 50.5029 20.032 50.1553 19.9063 49.7969C19.8262 49.5622 19.7659 49.3212 19.7262 49.0764C19.6642 48.7114 19.6642 48.3386 19.7262 47.9736C19.7832 47.6471 19.8797 47.3288 20.0137 47.0256C20.1005 46.8258 20.1975 46.6307 20.3045 46.441C20.6372 45.871 21.0111 45.326 21.4231 44.8104C21.796 44.3333 22.1689 43.8877 22.5449 43.4548C23.3096 42.6016 24.0743 41.7832 24.8675 40.9995C26.4475 39.4195 28.0528 37.9469 29.7813 36.5312L33.0645 40.377L28.3245 44.6303C27.5503 45.3476 26.773 46.0492 26.0493 46.7728C25.6828 47.1267 25.3257 47.4838 24.9971 47.8377C24.7056 48.1447 24.4314 48.4675 24.1755 48.8047V48.8205C24.1976 48.8805 24.2197 48.9469 24.245 49.0132C24.3177 49.1997 24.4061 49.4051 24.5009 49.6168C24.9469 50.5209 25.4405 51.4006 25.9798 52.2522Z" fill="#022897"/>
<path opacity="0.2" d="M25.9798 52.2522C27.0827 54.0218 28.3119 55.8009 29.5159 57.5547L27.6546 59.2295C25.9912 57.7461 24.4278 56.1542 22.9747 54.4642C22.206 53.5836 21.4987 52.6513 20.8575 51.674C20.69 51.4117 20.5257 51.1399 20.3677 50.8366C20.1863 50.5029 20.032 50.1553 19.9063 49.7969C19.8262 49.5622 19.7659 49.3212 19.7262 49.0764C19.6642 48.7114 19.6642 48.3386 19.7262 47.9736C19.7832 47.6471 19.8797 47.3288 20.0137 47.0256C20.1005 46.8258 20.1975 46.6307 20.3045 46.441C20.6372 45.871 21.0111 45.326 21.4231 44.8104C21.796 44.3333 22.1689 43.8877 22.5449 43.4548C23.3096 42.6016 24.0743 41.7832 24.8675 40.9995C26.4475 39.4195 28.0528 37.9469 29.7813 36.5312L33.0645 40.377L28.3245 44.6303C27.5503 45.3476 26.773 46.0492 26.0493 46.7728C25.6828 47.1267 25.3257 47.4838 24.9971 47.8377C24.7056 48.1447 24.4314 48.4675 24.1755 48.8047V48.8205C24.1976 48.8805 24.2197 48.9469 24.245 49.0132C24.3177 49.1997 24.4061 49.4051 24.5009 49.6168C24.9469 50.5209 25.4405 51.4006 25.9798 52.2522Z" fill="white"/>
<path d="M29.3838 56.7656C29.3838 56.7656 31.482 57.543 31.8044 57.9538C32.1267 58.3646 30.0695 60.684 29.2764 61.0063C28.4832 61.3287 28.8908 60.3743 28.8908 60.3743C28.8908 60.3743 27.8575 60.6177 27.374 59.8308C26.8906 59.044 27.4594 56.8857 29.3838 56.7656Z" fill="#E8E8E8"/>
<path d="M51.7359 62.7812C51.7359 62.7812 51.9287 62.737 52.2952 62.2345C52.5216 61.8971 52.6425 61.5 52.6428 61.0938L51.3156 62.2187C51.3156 62.2187 50.137 61.7668 49.4196 62.3009C47.9534 63.3784 48.3674 64.5919 48.538 64.9426C48.7086 65.2934 49.9189 65.0785 50.75 64.3802C51.2478 63.9721 51.5949 63.4092 51.7359 62.7812Z" fill="#E8E8E8"/>
</g>
<defs>
<clipPath id="clip0_1762_98056">
<rect width="158" height="140" fill="white"/>
</clipPath>
</defs>
</svg>
