<svg width="141" height="141" viewBox="0 0 141 141" fill="none" xmlns="http://www.w3.org/2000/svg">
<path d="M34.4286 118.009L36.1375 117.022L26.1406 116.094L27.7508 121.863L29.4598 120.879L50.4518 132.921C54.6357 133.675 58.8596 134.187 63.1024 134.455L34.4286 118.009Z" fill="#EBEBEB"/>
<path d="M63.3845 76.1733L129.542 114.122C130.67 112.883 131.706 111.563 132.644 110.174L68.3533 73.3195L70.0622 72.3325L60.0625 71.3906L61.6727 77.1603L63.3845 76.1733Z" fill="#EBEBEB"/>
<path d="M23.7831 96.954L13.7891 96.0234L15.3965 101.802L17.1054 100.815L75.9616 134.559C78.8747 134.423 81.7736 134.178 84.6416 133.82L22.0742 97.941L23.7831 96.954Z" fill="#EBEBEB"/>
<path d="M126.615 91.446L128.307 90.4618L118.312 89.5312L119.931 95.3122L121.637 94.3252L136.245 102.703C136.748 101.013 137.055 99.2699 137.159 97.509L126.615 91.446Z" fill="#EBEBEB"/>
<path d="M125.162 118.26L105.03 106.712L106.736 105.725L96.7422 104.797L98.3524 110.567L100.059 109.582L120.794 121.474C122.306 120.48 123.764 119.407 125.162 118.26Z" fill="#EBEBEB"/>
<path d="M104.692 92.0318C102.478 92.842 100.371 93.9197 98.4178 95.241C96.2182 96.7271 94.2075 98.5207 91.8641 99.753C88.8157 101.355 85.3132 101.936 81.8813 101.772C79.9383 101.679 77.8261 101.253 76.5769 99.722C76.2924 99.321 76.1568 98.8333 76.1933 98.343C76.19 97.9854 76.2616 97.631 76.4034 97.3027C76.5452 96.9744 76.7541 96.6794 77.0168 96.4367C79.8368 93.69 83.7848 92.5592 87.5692 91.6737C91.3537 90.7882 93.6407 89.6743 97.3659 87.7003C98.962 86.8543 100.533 85.935 102.14 85.1313L102.177 85.1116C104.757 83.8285 107.151 82.1534 110.073 83.6762C111.511 84.4235 112.312 85.8504 111.635 87.4099C110.465 90.1199 107.236 91.1069 104.692 92.0318Z" fill="#E0E0E0"/>
<path d="M44.4294 85.3359L28.2031 94.704L49.3841 106.957L49.4603 106.909L50.0497 106.571C50.2414 106.455 50.4247 106.348 50.6137 106.243C53.4337 104.608 55.4274 103.404 55.2723 102.487C55.1623 101.791 53.9018 101.396 52.8612 101.272C52.2977 101.225 51.7497 101.064 51.251 100.798C51.0638 100.713 50.9034 100.579 50.7871 100.409C50.6708 100.24 50.603 100.042 50.5911 99.8364C50.5911 99.4049 50.9069 98.9565 51.5189 98.6012C52.6469 97.9498 54.3389 97.8821 55.3287 98.4461C55.6991 98.652 55.9855 98.9814 56.138 99.3767C56.3148 99.7896 56.609 100.141 56.984 100.389C57.359 100.636 57.7983 100.767 58.2474 100.767C59.9168 100.86 61.7837 99.7828 64.8575 97.9977L65.5907 97.5747L44.4294 85.3359ZM84.668 108.59C84.0025 108.97 83.3595 109.331 82.7278 109.675C80.9202 110.679 79.4735 111.486 78.839 112.16C78.7276 112.253 78.6391 112.371 78.5804 112.504C78.5217 112.637 78.4944 112.782 78.5006 112.927C78.6134 113.621 79.874 114.018 80.9146 114.142C81.4778 114.186 82.0259 114.345 82.5248 114.61C82.6818 114.698 82.8229 114.811 82.9421 114.946C83.0972 115.12 83.1843 115.344 83.1875 115.578C83.1875 116.006 82.866 116.457 82.2512 116.807C81.1232 117.461 79.4312 117.526 78.4471 116.965C78.0764 116.76 77.7891 116.432 77.6349 116.037C77.4149 115.434 76.7325 114.706 75.5227 114.641C74.1127 114.56 72.6604 115.442 70.4467 116.782L69.5528 117.309C69.2031 117.518 68.8421 117.735 68.4558 117.961L93.4072 132.343C93.9458 132.227 94.4788 132.111 95.0117 131.99C101.537 130.547 107.87 128.342 113.88 125.419L84.668 108.59Z" fill="#E0E0E0"/>
<path d="M25.8699 46.69L24.5051 46.4869C24.4173 46.4665 24.3366 46.4231 24.2712 46.3611C24.2058 46.2992 24.158 46.2209 24.1328 46.1344C24.0673 45.8912 23.9824 45.6535 23.879 45.4238C23.8564 45.3132 23.8624 45.1987 23.8965 45.0912C23.9305 44.9836 23.9915 44.8865 24.0736 44.809L24.7673 44.0476C24.945 43.8531 25.007 43.6049 24.9055 43.4836L23.8508 42.3415C23.7465 42.2287 23.4983 42.2541 23.2868 42.3979L22.3901 43.0353C22.3065 43.1023 22.2078 43.1478 22.1027 43.168C21.9975 43.1881 21.889 43.1823 21.7866 43.1509C21.548 43.0174 21.299 42.9033 21.0421 42.8097C20.9606 42.769 20.8915 42.7073 20.8419 42.6309C20.7924 42.5546 20.7641 42.4663 20.7601 42.3754L20.6981 41.1233C20.6958 41.0338 20.6611 40.9481 20.6005 40.8822C20.5398 40.8163 20.4572 40.7747 20.3681 40.7652L18.8453 40.7031C18.7481 40.7122 18.6569 40.7544 18.5871 40.8227C18.5173 40.891 18.473 40.9812 18.4618 41.0782L18.2616 42.2287C18.2389 42.3375 18.1882 42.4384 18.1145 42.5215C18.0408 42.6046 17.9466 42.667 17.8414 42.7025C17.6381 42.7611 17.4385 42.8318 17.2436 42.914C17.1563 42.9588 17.0596 42.9821 16.9616 42.9821C16.8635 42.9821 16.7668 42.9588 16.6796 42.914L15.6164 41.9947C15.5036 41.8932 15.2526 41.9524 15.0524 42.1244L14.1387 42.9309C13.947 43.1029 13.8567 43.3398 13.9554 43.4667L14.7732 44.5947C14.8117 44.6977 14.8246 44.8084 14.8108 44.9175C14.7971 45.0265 14.7571 45.1306 14.6943 45.2208C14.6153 45.3589 14.5476 45.5028 14.4828 45.6466C14.4435 45.7527 14.3787 45.8476 14.2941 45.9228C14.2095 45.9981 14.1077 46.0514 13.9977 46.078L12.6667 46.1655C12.5721 46.1797 12.4852 46.2262 12.421 46.2971C12.3567 46.3681 12.319 46.459 12.3142 46.5546L12.2296 47.9251C12.2179 48.0164 12.2402 48.1088 12.2922 48.1847C12.3442 48.2606 12.4223 48.3148 12.5116 48.3369L13.8793 48.5399C13.967 48.5595 14.0477 48.6024 14.1132 48.6639C14.1787 48.7254 14.2265 48.8033 14.2515 48.8896C14.3171 49.1328 14.4019 49.3705 14.5053 49.6002C14.5279 49.7108 14.5219 49.8253 14.4879 49.9329C14.4538 50.0404 14.3929 50.1376 14.3108 50.215L13.617 50.9764C13.4366 51.171 13.3773 51.4191 13.4789 51.5404L14.5335 52.6853C14.6379 52.7953 14.8832 52.7699 15.0975 52.6261L15.9943 51.9916C16.0768 51.9237 16.1749 51.8773 16.2797 51.8567C16.3845 51.836 16.4929 51.8417 16.595 51.8731C16.834 52.0078 17.084 52.122 17.3423 52.2144C17.4241 52.2552 17.4935 52.3174 17.5431 52.3943C17.5927 52.4712 17.6208 52.56 17.6243 52.6515L17.6863 53.9035C17.6886 53.9928 17.7234 54.0781 17.7841 54.1435C17.8449 54.209 17.9274 54.25 18.0162 54.2589L19.539 54.3209C19.6359 54.3129 19.727 54.2713 19.7965 54.2034C19.866 54.1354 19.9096 54.0453 19.9197 53.9487L20.1228 52.7953C20.1457 52.6867 20.1965 52.5859 20.2702 52.5028C20.3439 52.4197 20.4379 52.3573 20.543 52.3215C20.7461 52.2624 20.9457 52.1918 21.1408 52.11C21.2283 52.0659 21.3248 52.0429 21.4228 52.0429C21.5208 52.0429 21.6173 52.0659 21.7048 52.11L22.7651 53.0124C22.8807 53.1111 23.1289 53.0519 23.3291 52.8827L24.2428 52.0734C24.4346 51.9042 24.5248 51.6645 24.4261 51.5404L23.6083 50.4124C23.5699 50.3089 23.557 50.1978 23.5707 50.0883C23.5845 49.9788 23.6244 49.8742 23.6873 49.7835C23.7634 49.6453 23.8339 49.5015 23.8988 49.3577C23.9376 49.2516 24.0023 49.1568 24.087 49.0819C24.1717 49.0071 24.2737 48.9545 24.3838 48.9291L25.7148 48.8388C25.8097 48.8251 25.8968 48.7788 25.9612 48.7077C26.0255 48.6367 26.0631 48.5454 26.0673 48.4497L26.1519 47.0791C26.1579 46.9915 26.133 46.9046 26.0815 46.8335C26.0299 46.7623 25.9551 46.7116 25.8699 46.69ZM22.1757 47.6262C22.115 48.4137 21.7502 49.1466 21.1586 49.6697C20.567 50.1929 19.795 50.4653 19.0061 50.4293C18.6204 50.4193 18.2406 50.332 17.8893 50.1726C17.5379 50.0131 17.2222 49.7847 16.9608 49.5009C16.6994 49.2172 16.4976 48.8838 16.3674 48.5206C16.2373 48.1574 16.1813 47.7717 16.203 47.3865C16.2637 46.5991 16.6285 45.8662 17.2201 45.343C17.8117 44.8198 18.5837 44.5474 19.3727 44.5834C19.7584 44.5934 20.1381 44.6807 20.4895 44.8402C20.8408 44.9997 21.1565 45.228 21.4179 45.5118C21.6793 45.7956 21.8811 46.129 22.0113 46.4922C22.1415 46.8554 22.1974 47.241 22.1757 47.6262Z" fill="#F0F0F0"/>
<path d="M14.4986 54.897L13.8528 55.6471C13.8069 55.6922 13.7498 55.7244 13.6874 55.7402C13.6249 55.7561 13.5594 55.7551 13.4975 55.7373C13.3241 55.6842 13.1469 55.6446 12.9673 55.6189C12.8945 55.5877 12.8306 55.539 12.7814 55.4769C12.7321 55.4149 12.6991 55.3416 12.6853 55.2636L12.4908 54.5529C12.44 54.3696 12.3131 54.2371 12.2088 54.2709L11.109 54.4711C11.0018 54.4909 10.9228 54.6488 10.9313 54.8265L10.9736 55.6132C10.9831 55.6896 10.9737 55.767 10.9462 55.8389C10.9186 55.9107 10.8738 55.9746 10.8157 56.025C10.642 56.1162 10.4768 56.2228 10.3222 56.3436C10.2656 56.3777 10.2007 56.3957 10.1347 56.3957C10.0686 56.3957 10.0037 56.3777 9.94712 56.3436L9.16316 55.9009C9.1079 55.8674 9.04222 55.8555 8.97873 55.8675C8.91524 55.8795 8.85841 55.9144 8.81912 55.9657L8.17898 56.8569C8.14719 56.919 8.13769 56.9901 8.15206 57.0584C8.16644 57.1266 8.20381 57.1879 8.25794 57.2319L8.87834 57.7959C8.93562 57.8515 8.97744 57.921 8.99969 57.9977C9.02194 58.0743 9.02385 58.1554 9.00524 58.233C8.96339 58.3786 8.9295 58.5264 8.90372 58.6758C8.89697 58.7475 8.87292 58.8165 8.83363 58.877C8.79433 58.9374 8.74097 58.9874 8.67812 59.0226L7.71368 59.3046C7.60934 59.3356 7.5473 59.5077 7.57832 59.691L7.7165 60.5539C7.7447 60.7372 7.86032 60.881 7.9703 60.8725L8.96294 60.8049C9.07292 60.8049 9.22238 60.9318 9.3098 61.0869C9.3662 61.1884 9.42542 61.2843 9.48746 61.3689C9.53749 61.4336 9.57065 61.5097 9.58394 61.5905C9.59723 61.6712 9.59024 61.754 9.5636 61.8313L9.10676 62.6773C9.07624 62.7392 9.06943 62.81 9.08761 62.8765C9.1058 62.9431 9.14772 63.0006 9.20546 63.0383L10.0035 63.6164C10.0538 63.6572 10.1165 63.6794 10.1812 63.6794C10.2459 63.6794 10.3086 63.6572 10.3588 63.6164L10.999 62.886C11.0449 62.8409 11.102 62.8087 11.1644 62.7929C11.2269 62.777 11.2924 62.778 11.3543 62.7958C11.5277 62.8489 11.7049 62.8885 11.8845 62.9142C11.9571 62.9449 12.0209 62.9932 12.0701 63.0547C12.1194 63.1163 12.1525 63.1891 12.1665 63.2667L12.361 63.9802C12.4118 64.1635 12.5387 64.296 12.643 64.2622L13.7428 64.062C13.85 64.0422 13.929 63.8843 13.9205 63.7066L13.8782 62.917C13.8692 62.8409 13.8792 62.7638 13.9073 62.6924C13.9353 62.6211 13.9805 62.5578 14.0389 62.5081C14.2108 62.4143 14.3749 62.3068 14.5296 62.1867C14.5864 62.1532 14.6512 62.1355 14.7172 62.1355C14.7831 62.1355 14.8479 62.1532 14.9047 62.1867L15.6886 62.6294C15.7439 62.6629 15.8096 62.6747 15.8731 62.6628C15.9366 62.6508 15.9934 62.6158 16.0327 62.5645L16.6531 61.665C16.6843 61.6027 16.6936 61.5317 16.6792 61.4636C16.6649 61.3955 16.6278 61.3342 16.5741 61.2899L15.9537 60.7259C15.8962 60.6705 15.8542 60.601 15.832 60.5243C15.8097 60.4476 15.8079 60.3664 15.8268 60.2888C15.869 60.1442 15.9029 59.9973 15.9283 59.8489C15.9349 59.7771 15.9588 59.7079 15.9981 59.6475C16.0374 59.587 16.0909 59.5371 16.1539 59.502L17.1212 59.22C17.2227 59.189 17.2848 59.0142 17.2537 58.8337L17.1156 57.9708C17.0874 57.7875 16.9746 57.6436 16.8618 57.6521L15.8719 57.7198C15.7591 57.7198 15.6097 57.5929 15.5223 57.4378C15.4687 57.3391 15.4095 57.2432 15.3446 57.1558C15.2953 57.0912 15.2625 57.0156 15.2492 56.9354C15.236 56.8553 15.2426 56.7731 15.2685 56.6961L15.7281 55.8501C15.7584 55.788 15.7648 55.7169 15.746 55.6503C15.7273 55.5838 15.6848 55.5264 15.6266 55.4892L14.8285 54.9111C14.782 54.8743 14.7251 54.8532 14.6659 54.8507C14.6066 54.8481 14.5481 54.8643 14.4986 54.897ZM13.6526 57.497C14.1061 57.8358 14.4101 58.3378 14.5001 58.8968C14.5901 59.4557 14.4591 60.0278 14.1348 60.4918C13.9809 60.7222 13.7823 60.9193 13.5508 61.0714C13.3192 61.2234 13.0595 61.3274 12.787 61.3772C12.5144 61.4269 12.2347 61.4213 11.9644 61.3608C11.694 61.3002 11.4386 61.186 11.2133 61.0248C10.7573 60.6876 10.4505 60.1861 10.3579 59.6265C10.2653 59.067 10.394 58.4934 10.717 58.0272C10.8711 57.7954 11.0704 57.5972 11.303 57.4443C11.5356 57.2915 11.7966 57.1872 12.0705 57.1377C12.3444 57.0882 12.6254 57.0945 12.8968 57.1562C13.1682 57.218 13.4243 57.3339 13.6498 57.497H13.6526Z" fill="#F0F0F0"/>
<path d="M108.081 47.0911L108.166 48.4616C108.169 48.5577 108.206 48.6495 108.271 48.7208C108.335 48.7921 108.423 48.8381 108.518 48.8508L109.849 48.941C109.959 48.9669 110.061 49.0196 110.145 49.0944C110.23 49.1692 110.295 49.2637 110.334 49.3696C110.396 49.5151 110.466 49.6572 110.543 49.7954C110.605 49.8863 110.645 49.9907 110.659 50.1C110.674 50.2094 110.662 50.3205 110.625 50.4243L109.804 51.5523C109.714 51.6764 109.804 51.9161 109.99 52.0853L110.904 52.8946C111.096 53.0638 111.347 53.123 111.468 53.0243L112.531 52.1022C112.618 52.0581 112.715 52.0351 112.813 52.0351C112.911 52.0351 113.008 52.0581 113.095 52.1022C113.289 52.1844 113.488 52.2551 113.69 52.3137C113.795 52.3495 113.889 52.4119 113.963 52.495C114.036 52.5781 114.087 52.6788 114.11 52.7875L114.313 53.9408C114.324 54.0373 114.368 54.1271 114.437 54.195C114.506 54.2628 114.597 54.3046 114.694 54.3131L116.217 54.251C116.306 54.2422 116.389 54.2013 116.45 54.136C116.511 54.0706 116.547 53.9852 116.549 53.8957L116.612 52.6437C116.615 52.5522 116.643 52.4634 116.693 52.3865C116.742 52.3096 116.812 52.2474 116.894 52.2065C117.151 52.1136 117.4 51.9995 117.638 51.8653C117.741 51.8338 117.849 51.8282 117.955 51.8489C118.06 51.8695 118.158 51.9159 118.241 51.9838L119.135 52.6183C119.338 52.7621 119.587 52.7875 119.699 52.6775L120.754 51.5326C120.858 51.4198 120.796 51.1716 120.619 50.9686L119.925 50.2072C119.843 50.1297 119.782 50.0326 119.748 49.925C119.714 49.8175 119.708 49.703 119.73 49.5924C119.833 49.3622 119.917 49.1246 119.984 48.8818C120.009 48.7957 120.056 48.7179 120.121 48.6563C120.186 48.5948 120.266 48.5519 120.354 48.5321L121.721 48.329C121.81 48.3059 121.887 48.2515 121.939 48.1758C121.991 48.1002 122.014 48.0084 122.003 47.9173L121.916 46.5468C121.912 46.4509 121.875 46.3593 121.81 46.2882C121.746 46.217 121.659 46.1708 121.563 46.1577L120.235 46.0702C120.125 46.0442 120.022 45.9912 119.937 45.9159C119.852 45.8406 119.787 45.7454 119.747 45.6388C119.685 45.495 119.615 45.3568 119.539 45.2129C119.476 45.1226 119.436 45.0187 119.422 44.9098C119.408 44.8009 119.42 44.6903 119.457 44.5869L120.278 43.4589C120.368 43.332 120.278 43.0951 120.091 42.9231L119.181 42.1166C118.986 41.9446 118.738 41.8853 118.617 41.9869L117.553 42.9062C117.466 42.951 117.369 42.9743 117.271 42.9743C117.173 42.9743 117.077 42.951 116.989 42.9062C116.795 42.824 116.597 42.7533 116.394 42.6947C116.289 42.6592 116.195 42.5968 116.121 42.5137C116.048 42.4306 115.997 42.3297 115.974 42.2209L115.771 41.0704C115.761 40.9736 115.717 40.8834 115.648 40.8151C115.578 40.7468 115.487 40.7045 115.39 40.6953L113.868 40.7573C113.778 40.7663 113.695 40.8077 113.635 40.8737C113.574 40.9397 113.539 41.0258 113.538 41.1155L113.476 42.3676C113.471 42.4585 113.443 42.5466 113.393 42.6229C113.344 42.6992 113.275 42.761 113.194 42.8018C112.937 42.896 112.688 43.0101 112.449 43.1431C112.347 43.1744 112.239 43.1803 112.134 43.1601C112.03 43.14 111.932 43.0944 111.849 43.0274L110.952 42.3901C110.749 42.2463 110.501 42.2209 110.388 42.3337L109.333 43.4758C109.229 43.5886 109.291 43.8368 109.468 44.0398L110.162 44.8012C110.245 44.8785 110.306 44.9755 110.34 45.0831C110.375 45.1906 110.382 45.3052 110.36 45.416C110.255 45.6457 110.169 45.8833 110.103 46.1266C110.078 46.2128 110.031 46.2908 109.966 46.3527C109.901 46.4146 109.821 46.4583 109.734 46.4791L108.366 46.6822C108.276 46.7031 108.198 46.7564 108.145 46.8319C108.092 46.9074 108.07 46.9998 108.081 47.0911ZM114.849 44.5756C115.638 44.5403 116.409 44.813 117.001 45.336C117.592 45.8591 117.957 46.5915 118.019 47.3787C118.04 47.7642 117.984 48.15 117.854 48.5134C117.724 48.8768 117.522 49.2103 117.26 49.4941C116.998 49.7779 116.682 50.0062 116.33 50.1656C115.979 50.3249 115.599 50.4119 115.213 50.4215C114.424 50.4575 113.652 50.1851 113.06 49.6619C112.469 49.1387 112.104 48.4058 112.043 47.6184C112.023 47.2333 112.08 46.848 112.212 46.4854C112.343 46.1228 112.546 45.7903 112.808 45.5074C113.07 45.2245 113.386 44.997 113.738 44.8384C114.089 44.6799 114.469 44.5934 114.855 44.5841L114.849 44.5756Z" fill="#F0F0F0"/>
<path d="M122.818 50.9483L122.02 51.5123C121.962 51.5496 121.919 51.6069 121.9 51.6735C121.882 51.74 121.888 51.8111 121.918 51.8733L122.375 52.7193C122.402 52.796 122.409 52.8781 122.396 52.9583C122.383 53.0385 122.351 53.1142 122.302 53.1789C122.237 53.2748 122.178 53.3707 122.124 53.4609C122.034 53.6245 121.884 53.7598 121.774 53.7429L120.782 53.6752C120.672 53.6752 120.559 53.8106 120.531 53.9939L120.39 54.8568C120.362 55.0401 120.421 55.2121 120.525 55.2432L121.492 55.5252C121.555 55.561 121.608 55.6111 121.647 55.6714C121.686 55.7317 121.711 55.8005 121.718 55.872C121.741 56.0219 121.775 56.1698 121.82 56.3148C121.838 56.3924 121.835 56.4733 121.813 56.5499C121.791 56.6264 121.749 56.696 121.693 56.7519L121.072 57.3159C121.017 57.3592 120.979 57.4205 120.965 57.4891C120.95 57.5576 120.96 57.6291 120.993 57.6909L121.614 58.5877C121.653 58.639 121.71 58.674 121.773 58.6859C121.837 58.6979 121.902 58.686 121.958 58.6525L122.739 58.2098C122.796 58.1757 122.86 58.1577 122.926 58.1577C122.992 58.1577 123.057 58.1757 123.114 58.2098C123.27 58.329 123.435 58.4356 123.607 58.5285C123.665 58.579 123.71 58.6429 123.738 58.7146C123.766 58.7863 123.777 58.8637 123.768 58.9402L123.726 59.727C123.726 59.9046 123.796 60.0625 123.904 60.0823L125.001 60.2825C125.108 60.3022 125.237 60.1697 125.283 59.9864L125.477 59.2758C125.499 59.2041 125.537 59.1385 125.588 59.0841C125.639 59.0298 125.703 58.9882 125.773 58.9627C125.952 58.9374 126.128 58.8978 126.301 58.8443C126.362 58.8262 126.428 58.8251 126.491 58.841C126.553 58.8568 126.61 58.8891 126.656 58.9345L127.304 59.6847C127.355 59.7254 127.417 59.7477 127.482 59.7477C127.547 59.7477 127.61 59.7254 127.66 59.6847L128.458 59.1066C128.516 59.0689 128.558 59.0113 128.576 58.9448C128.594 58.8783 128.587 58.8074 128.557 58.7456L128.1 57.8996C128.073 57.8229 128.066 57.7408 128.079 57.6606C128.092 57.5804 128.124 57.5046 128.173 57.4399C128.238 57.3441 128.297 57.2482 128.351 57.1579C128.441 56.9944 128.59 56.859 128.7 56.8759L129.693 56.9436C129.803 56.9436 129.916 56.8083 129.947 56.625L130.085 55.762C130.113 55.5816 130.054 55.4067 129.95 55.3757L128.982 55.0937C128.92 55.0585 128.867 55.0084 128.828 54.948C128.789 54.8875 128.766 54.8185 128.76 54.7468C128.734 54.5975 128.7 54.4497 128.658 54.3041C128.639 54.2272 128.64 54.1466 128.662 54.0703C128.684 53.9941 128.725 53.9249 128.782 53.8698L129.403 53.3058C129.457 53.263 129.496 53.2024 129.51 53.1344C129.525 53.0665 129.516 52.9954 129.484 52.9336L128.875 52.0199C128.836 51.9686 128.779 51.9336 128.716 51.9217C128.652 51.9097 128.586 51.9216 128.531 51.955L127.747 52.3978C127.69 52.4313 127.626 52.4489 127.56 52.4489C127.494 52.4489 127.429 52.4313 127.372 52.3978C127.216 52.2777 127.051 52.1702 126.879 52.0763C126.821 52.0263 126.776 51.963 126.748 51.8917C126.72 51.8205 126.709 51.7435 126.718 51.6674L126.76 50.8778C126.76 50.7001 126.69 50.5422 126.583 50.5225L125.486 50.3223C125.378 50.3025 125.252 50.4351 125.204 50.6184L125.009 51.3318C124.993 51.411 124.957 51.4848 124.905 51.5465C124.853 51.6081 124.786 51.6555 124.71 51.6843C124.531 51.71 124.355 51.7496 124.183 51.8028C124.121 51.8205 124.055 51.8215 123.993 51.8057C123.93 51.7898 123.873 51.7577 123.827 51.7125L123.179 50.9624C123.13 50.9182 123.067 50.8925 123.001 50.89C122.935 50.8874 122.87 50.908 122.818 50.9483ZM126.941 54.0898C127.266 54.5533 127.398 55.1253 127.308 55.6844C127.219 56.2435 126.915 56.7458 126.461 57.0846C126.236 57.2459 125.981 57.3604 125.711 57.4211C125.44 57.4818 125.161 57.4877 124.888 57.4382C124.616 57.3888 124.356 57.285 124.124 57.1332C123.893 56.9814 123.694 56.7846 123.54 56.5545C123.215 56.0902 123.083 55.5175 123.173 54.9579C123.263 54.3982 123.568 53.8957 124.022 53.5568C124.247 53.3957 124.502 53.2815 124.772 53.221C125.042 53.1605 125.322 53.155 125.594 53.2047C125.867 53.2544 126.126 53.3584 126.357 53.5104C126.589 53.6625 126.787 53.8595 126.941 54.0898Z" fill="#F0F0F0"/>
<path d="M28.2031 93.4227L49.387 105.676L49.4631 105.628L50.0553 105.289L50.6193 104.962C53.4393 103.329 55.433 102.125 55.2808 101.206C55.168 100.509 53.9074 100.115 52.8668 99.9905C52.3035 99.9453 51.7555 99.785 51.2566 99.5196C51.0691 99.4344 50.9084 99.2995 50.7921 99.1295C50.6757 98.9594 50.6082 98.7608 50.5967 98.5551C50.5967 98.1265 50.9126 97.6753 51.5245 97.32C52.6525 96.6714 54.3445 96.6009 55.3315 97.1677C55.7041 97.3711 55.9928 97.6997 56.1465 98.0955C56.3636 98.6989 57.0489 99.4265 58.2559 99.4885C59.9225 99.5788 61.7893 98.5015 64.8659 96.7193L65.5963 96.2963L44.4463 84.0547L28.2031 93.4227ZM84.668 107.311C84.0025 107.689 83.3595 108.047 82.7278 108.397C80.1898 109.807 78.3625 110.816 78.4978 111.648C78.5438 111.855 78.6642 112.038 78.8362 112.162C79.3043 112.542 80.1616 112.774 80.9117 112.861C81.4747 112.906 82.0225 113.065 82.522 113.329C82.7096 113.416 82.8702 113.552 82.9868 113.723C83.1035 113.894 83.1718 114.093 83.1847 114.299C83.1744 114.536 83.0884 114.763 82.9393 114.948C82.7495 115.185 82.5147 115.382 82.2484 115.529C81.1204 116.18 79.4284 116.245 78.4442 115.684C78.073 115.479 77.7855 115.151 77.6321 114.756C77.4121 114.153 76.7297 113.425 75.5199 113.36C74.1099 113.281 72.6576 114.161 70.4439 115.5C69.8545 115.859 69.1862 116.262 68.4699 116.693L69.5669 117.322L95.0258 132.009C101.551 130.566 107.884 128.36 113.894 125.438C114.293 125.25 114.688 125.05 115.079 124.838L84.668 107.311Z" fill="#022897"/>
<path opacity="0.2" d="M28.2031 93.4227L49.387 105.676L49.4631 105.628L50.0553 105.289L50.6193 104.962C53.4393 103.329 55.433 102.125 55.2808 101.206C55.168 100.509 53.9074 100.115 52.8668 99.9905C52.3035 99.9453 51.7555 99.785 51.2566 99.5196C51.0691 99.4344 50.9084 99.2995 50.7921 99.1295C50.6757 98.9594 50.6082 98.7608 50.5967 98.5551C50.5967 98.1265 50.9126 97.6753 51.5245 97.32C52.6525 96.6714 54.3445 96.6009 55.3315 97.1677C55.7041 97.3711 55.9928 97.6997 56.1465 98.0955C56.3636 98.6989 57.0489 99.4265 58.2559 99.4885C59.9225 99.5788 61.7893 98.5015 64.8659 96.7193L65.5963 96.2963L44.4463 84.0547L28.2031 93.4227ZM84.668 107.311C84.0025 107.689 83.3595 108.047 82.7278 108.397C80.1898 109.807 78.3625 110.816 78.4978 111.648C78.5438 111.855 78.6642 112.038 78.8362 112.162C79.3043 112.542 80.1616 112.774 80.9117 112.861C81.4747 112.906 82.0225 113.065 82.522 113.329C82.7096 113.416 82.8702 113.552 82.9868 113.723C83.1035 113.894 83.1718 114.093 83.1847 114.299C83.1744 114.536 83.0884 114.763 82.9393 114.948C82.7495 115.185 82.5147 115.382 82.2484 115.529C81.1204 116.18 79.4284 116.245 78.4442 115.684C78.073 115.479 77.7855 115.151 77.6321 114.756C77.4121 114.153 76.7297 113.425 75.5199 113.36C74.1099 113.281 72.6576 114.161 70.4439 115.5C69.8545 115.859 69.1862 116.262 68.4699 116.693L69.5669 117.322L95.0258 132.009C101.551 130.566 107.884 128.36 113.894 125.438C114.293 125.25 114.688 125.05 115.079 124.838L84.668 107.311Z" fill="white"/>
<path d="M50.0016 56.5953L36.3133 42.625L22.625 72.4014L28.2001 69.1838V93.4273L44.4264 84.0564V59.8129L50.0016 56.5953Z" fill="#022897"/>
<path d="M104.597 80.8874L102.956 81.4965L102.617 80.3516L104.002 80.3798L104.597 80.8874Z" fill="black"/>
<path d="M103.89 77.6719C103.89 77.6719 104.652 78.3966 104.889 78.6307C105.126 78.8647 104.748 80.5342 104.607 80.8867L104.012 80.3791C104.026 80.8685 104.105 81.3539 104.246 81.8229C104.359 82.3446 104.703 83.2329 104.545 84.1551C104.313 85.5369 103.31 86.9976 102.007 88.1933C100.704 89.389 99.6464 89.7302 99.0034 89.7781C98.3604 89.8261 97.9403 89.6005 97.7316 89.1916C97.5229 88.7827 103.89 77.6719 103.89 77.6719Z" fill="#263238"/>
<path d="M97.8651 78.1142L97.4365 77.6799C97.1827 77.8858 97.7523 78.5569 97.9159 79.4311C98.1811 80.7293 98.2703 82.0572 98.181 83.3791C97.9243 85.7338 97.4026 87.5217 97.2955 88.5764C97.146 89.9864 99.6333 89.9074 101.714 87.9165C102.747 86.9267 104.19 84.7497 104.159 83.6696C104.128 82.5895 103.573 81.3431 103.595 80.5225C103.618 79.7019 104.128 78.4526 103.894 77.6771C103.765 77.2513 103.048 76.6196 102.4 76.1035C101.813 75.6298 101.272 74.5525 101.012 74.8938L101.243 75.2604C101.334 75.61 101.156 76.4504 100.412 77.3443C100.034 77.7871 98.7647 78.9405 97.8651 78.1142Z" fill="#455A64"/>
<path opacity="0.15" d="M99.7257 77.9609C99.2745 78.2852 98.702 78.5249 98.1888 78.3247H98.1719C98.3364 78.4559 98.4682 78.6235 98.5568 78.8144C98.6454 79.0053 98.6884 79.2142 98.6823 79.4245C98.6992 80.1972 99.1053 85.417 99.1053 85.417C99.1053 85.417 99.032 80.8881 99.0263 80.028C99.0263 78.7562 99.1504 78.4967 99.7285 77.9666L99.7257 77.9609Z" fill="black"/>
<path d="M97.2868 88.574C97.377 87.6829 97.7633 86.27 98.0341 84.4314C98.1299 84.9954 98.0482 85.5594 98.1243 85.7004C98.3076 86.0642 99.5851 85.7004 100.265 85.3705C100.944 85.0405 100.863 83.7546 101.037 82.3813C101.212 81.0079 102.667 81.1941 103.829 81.916C104 82.4863 104.107 83.0735 104.151 83.6672C104.182 84.7473 102.741 86.9243 101.706 87.9141C99.6358 89.905 97.1486 89.9868 97.2868 88.574Z" fill="#37474F"/>
<path opacity="0.15" d="M99.9459 79.2389C99.9795 79.2714 100.025 79.2896 100.071 79.2896C100.118 79.2896 100.163 79.2714 100.197 79.2389C100.213 79.2233 100.227 79.2045 100.236 79.1837C100.245 79.1628 100.249 79.1403 100.249 79.1176C100.249 79.0949 100.245 79.0724 100.236 79.0515C100.227 79.0307 100.213 79.0119 100.197 78.9963C100.163 78.9636 100.117 78.9453 100.07 78.9453C100.023 78.9453 99.9772 78.9636 99.943 78.9963C99.9263 79.0119 99.9129 79.0307 99.9039 79.0517C99.8949 79.0727 99.8904 79.0954 99.8906 79.1182C99.8909 79.1411 99.896 79.1636 99.9055 79.1844C99.915 79.2052 99.9287 79.2237 99.9459 79.2389Z" fill="black"/>
<path opacity="0.15" d="M99.934 80.4974C99.9702 80.5277 100.017 80.5431 100.064 80.5404C100.111 80.5378 100.155 80.5174 100.188 80.4833C100.204 80.4676 100.217 80.4487 100.226 80.4279C100.234 80.407 100.239 80.3847 100.239 80.3621C100.239 80.3394 100.234 80.3171 100.226 80.2962C100.217 80.2754 100.204 80.2566 100.188 80.2408C100.152 80.2092 100.106 80.1929 100.058 80.1956C100.01 80.1982 99.9659 80.2195 99.934 80.2549C99.9178 80.2707 99.9049 80.2895 99.8961 80.3103C99.8873 80.3312 99.8828 80.3536 99.8828 80.3762C99.8828 80.3988 99.8873 80.4211 99.8961 80.442C99.9049 80.4628 99.9178 80.4817 99.934 80.4974Z" fill="black"/>
<path opacity="0.15" d="M99.9214 81.734C99.9555 81.7667 100.001 81.785 100.048 81.785C100.096 81.785 100.141 81.7667 100.175 81.734C100.191 81.717 100.202 81.6972 100.21 81.6756C100.218 81.6541 100.221 81.6312 100.22 81.6083C100.218 81.5855 100.213 81.5631 100.202 81.5426C100.192 81.522 100.178 81.5037 100.161 81.4886C100.125 81.4584 100.079 81.443 100.031 81.4456C99.9843 81.4482 99.9399 81.4686 99.9073 81.5027C99.8791 81.5355 99.8649 81.578 99.8675 81.6212C99.8701 81.6644 99.8895 81.7048 99.9214 81.734Z" fill="black"/>
<path opacity="0.15" d="M99.9091 82.9715C99.9453 83.0017 99.9916 83.0171 100.039 83.0145C100.086 83.0119 100.13 82.9914 100.163 82.9573C100.179 82.9418 100.193 82.923 100.202 82.9021C100.211 82.8813 100.215 82.8588 100.215 82.8361C100.215 82.8134 100.211 82.7909 100.202 82.77C100.193 82.7492 100.179 82.7304 100.163 82.7148C100.129 82.6823 100.084 82.6641 100.037 82.6641C99.9906 82.6641 99.9456 82.6823 99.9119 82.7148C99.8932 82.7305 99.8782 82.75 99.8678 82.7721C99.8574 82.7941 99.8518 82.8181 99.8516 82.8425C99.8513 82.8669 99.8563 82.891 99.8662 82.9133C99.8762 82.9355 99.8908 82.9554 99.9091 82.9715Z" fill="black"/>
<path opacity="0.15" d="M99.9024 84.214C99.938 84.2456 99.9847 84.2618 100.032 84.2592C100.08 84.2566 100.124 84.2352 100.156 84.1999C100.172 84.1832 100.183 84.1636 100.191 84.1423C100.199 84.1209 100.202 84.0983 100.2 84.0757C100.199 84.053 100.193 84.0309 100.183 84.0106C100.173 83.9903 100.159 83.9722 100.142 83.9574C100.106 83.9271 100.06 83.9117 100.012 83.9143C99.9653 83.917 99.9209 83.9374 99.8883 83.9715C99.873 83.9882 99.8612 84.0078 99.8536 84.0291C99.846 84.0504 99.8427 84.0731 99.844 84.0957C99.8454 84.1183 99.8512 84.1405 99.8612 84.1608C99.8712 84.1811 99.8853 84.1992 99.9024 84.214Z" fill="black"/>
<path d="M100.104 79.1736C100.115 79.161 100.122 79.1452 100.124 79.1285C100.123 79.1097 100.115 79.0919 100.102 79.0783C100.089 79.0648 100.072 79.0566 100.053 79.0552C100.002 79.0552 98.8038 79.0101 98.0057 79.7771C97.999 79.7834 97.9936 79.7911 97.9899 79.7996C97.9863 79.8081 97.9844 79.8172 97.9844 79.8265C97.9844 79.8357 97.9863 79.8449 97.9899 79.8533C97.9936 79.8618 97.999 79.8695 98.0057 79.8758C98.0197 79.8883 98.0378 79.8952 98.0565 79.8952C98.0752 79.8952 98.0933 79.8883 98.1073 79.8758C98.863 79.1511 100.036 79.1934 100.047 79.1962C100.058 79.1963 100.068 79.1944 100.078 79.1906C100.088 79.1867 100.096 79.1809 100.104 79.1736Z" fill="#263238"/>
<path d="M100.107 80.4159C100.119 80.4039 100.126 80.3878 100.127 80.3708C100.127 80.3615 100.126 80.3523 100.123 80.3436C100.12 80.3349 100.115 80.3269 100.108 80.3201C100.102 80.3133 100.095 80.3078 100.086 80.3039C100.078 80.3 100.069 80.2978 100.059 80.2975C100.009 80.2975 98.8102 80.2495 98.0121 81.0194C98.0058 81.0257 98.0008 81.0331 97.9974 81.0414C97.9939 81.0496 97.9922 81.0584 97.9922 81.0673C97.9922 81.0762 97.9939 81.085 97.9974 81.0933C98.0008 81.1015 98.0058 81.109 98.0121 81.1153C98.0187 81.1221 98.0266 81.1275 98.0353 81.1312C98.044 81.1349 98.0534 81.1368 98.0629 81.1368C98.0723 81.1368 98.0817 81.1349 98.0904 81.1312C98.0991 81.1275 98.107 81.1221 98.1136 81.1153C98.8665 80.3933 100.04 80.4356 100.054 80.4356C100.064 80.4367 100.074 80.4354 100.083 80.432C100.092 80.4286 100.101 80.4231 100.107 80.4159Z" fill="#263238"/>
<path d="M100.104 81.6503C100.116 81.6382 100.123 81.6221 100.123 81.6052C100.123 81.5862 100.116 81.568 100.103 81.5543C100.09 81.5406 100.072 81.5326 100.053 81.5318C100.002 81.5318 98.8064 81.4839 98.0055 82.2538C97.9989 82.2598 97.9935 82.2672 97.9899 82.2755C97.9863 82.2838 97.9844 82.2927 97.9844 82.3017C97.9844 82.3107 97.9863 82.3196 97.9899 82.3279C97.9935 82.3362 97.9989 82.3436 98.0055 82.3496C98.0121 82.3565 98.02 82.3619 98.0287 82.3656C98.0375 82.3693 98.0468 82.3712 98.0563 82.3712C98.0658 82.3712 98.0752 82.3693 98.0839 82.3656C98.0926 82.3619 98.1005 82.3565 98.1071 82.3496C98.86 81.6277 100.036 81.67 100.047 81.67C100.058 81.6713 100.068 81.6701 100.078 81.6667C100.088 81.6633 100.096 81.6577 100.104 81.6503Z" fill="#263238"/>
<path d="M100.084 82.8897C100.091 82.8841 100.096 82.8772 100.099 82.8694C100.103 82.8615 100.104 82.8531 100.104 82.8445C100.104 82.8354 100.103 82.8263 100.1 82.8178C100.096 82.8092 100.091 82.8014 100.085 82.7948C100.079 82.7883 100.071 82.783 100.063 82.7794C100.054 82.7759 100.045 82.774 100.036 82.774C99.9855 82.774 98.787 82.7261 97.9889 83.4931C97.976 83.5063 97.9688 83.524 97.9688 83.5425C97.9688 83.5609 97.976 83.5786 97.9889 83.5918C98.0029 83.6043 98.0209 83.6112 98.0397 83.6112C98.0584 83.6112 98.0765 83.6043 98.0904 83.5918C98.8434 82.8671 100.019 82.9122 100.031 82.9122C100.051 82.9121 100.07 82.904 100.084 82.8897Z" fill="#263238"/>
<path d="M100.08 84.1347C100.092 84.1223 100.099 84.1064 100.1 84.0895C100.1 84.0803 100.099 84.071 100.096 84.0623C100.092 84.0536 100.088 84.0457 100.081 84.0388C100.075 84.032 100.067 84.0265 100.059 84.0226C100.051 84.0188 100.042 84.0166 100.032 84.0162C99.9815 84.0162 98.783 83.9683 97.9821 84.7353C97.9754 84.7414 97.9701 84.7488 97.9665 84.7571C97.9628 84.7653 97.9609 84.7742 97.9609 84.7833C97.9609 84.7923 97.9628 84.8012 97.9665 84.8095C97.9701 84.8177 97.9754 84.8251 97.9821 84.8312C97.9887 84.838 97.9966 84.8434 98.0053 84.8471C98.014 84.8509 98.0234 84.8528 98.0329 84.8528C98.0424 84.8528 98.0517 84.8509 98.0604 84.8471C98.0692 84.8434 98.0771 84.838 98.0836 84.8312C98.8394 84.1093 100.013 84.1516 100.024 84.1516C100.034 84.1526 100.044 84.1517 100.054 84.1488C100.063 84.1459 100.072 84.1411 100.08 84.1347Z" fill="#263238"/>
<path d="M79.5972 44.3125C79.3887 47.6212 79.3662 50.939 79.5295 54.2502C79.7579 59.5743 80.0625 62.1152 82.5356 65.3412C84.7437 68.2233 96.8528 77.9495 97.8257 78.9336C97.8257 78.9336 101.774 79.007 101.669 75.1379C101.669 75.1379 98.6886 70.0845 96.7005 66.6554C94.7124 63.2262 92.2364 61.6922 92.2364 61.6922L94.2894 46.0073L79.5972 44.3125Z" fill="#263238"/>
<path d="M92.9073 45.8795L94.2834 46.0093V46.0657L92.3094 61.1893L92.2333 61.57H92.2587L92.2446 61.6856C93.6104 62.637 94.798 63.8217 95.7526 65.1853C95.3099 66.5614 94.4047 68.981 94.4047 68.981C94.337 69.3532 95.5327 70.7689 95.2507 75.2978C95.2309 75.6249 95.183 76.0987 95.1266 76.6091C92.1402 74.1077 88.0766 70.6871 85.313 68.1491C85.1354 67.4554 84.5911 65.1712 84.6701 63.3917C84.749 61.6123 84.9351 52.8957 84.9351 52.8957C84.1074 52.4776 83.3637 51.9107 82.7412 51.2234C82.2239 50.6754 81.8441 50.0124 81.6329 49.2889C81.1161 48.1624 80.6725 47.0038 80.3047 45.8203L92.9073 45.8795Z" fill="black"/>
<path d="M90.141 95.4284L88.4688 94.9038L88.951 93.8125L90.0085 94.6726L90.141 95.4284Z" fill="black"/>
<path d="M91.6911 92.4922C91.6911 92.4922 91.8124 93.5187 91.8434 93.8401C91.8744 94.1616 90.4898 95.2304 90.1514 95.4137L90.0188 94.6579C89.7121 95.0448 89.4563 95.4694 89.2574 95.9213C89.0065 96.3951 88.6934 97.2834 87.9687 97.9094C86.8858 98.8428 85.1487 99.3645 83.358 99.5055C81.5673 99.6465 80.5154 99.263 79.974 98.9105C79.4326 98.558 79.2605 98.1265 79.3649 97.6838C79.4692 97.2411 91.6911 92.4922 91.6911 92.4922Z" fill="#263238"/>
<path d="M86.7076 89.2013L86.6568 88.6063C86.3241 88.6063 86.3297 89.4777 85.887 90.256C85.2408 91.4238 84.4455 92.5026 83.521 93.4652C81.7839 95.1374 80.2103 96.2062 79.4348 96.9591C78.397 97.9631 80.3851 99.4069 83.3067 99.1277C84.759 98.9867 87.3054 98.1746 87.9879 97.3173C88.6703 96.46 89.051 95.1572 89.6009 94.5311C90.1508 93.9051 91.3662 93.2508 91.6905 92.5064C91.871 92.0975 91.7159 91.1697 91.558 90.3801C91.4113 89.6582 91.6905 88.4935 91.276 88.6007L91.2139 89.0265C91.056 89.3508 90.3679 89.895 89.2061 90.1347C88.6167 90.256 86.874 90.3801 86.7076 89.2013Z" fill="#455A64"/>
<path opacity="0.15" d="M88.2642 90.2046C87.7002 90.182 87.0911 90.0297 86.8317 89.5532V89.5391C86.8748 89.7441 86.8684 89.9565 86.813 90.1586C86.7576 90.3606 86.6547 90.5466 86.513 90.7009C86.0083 91.3128 82.9062 95.5992 82.9062 95.5992C82.9062 95.5992 85.808 92.0432 86.3664 91.3692C87.1898 90.3766 87.4606 90.2412 88.2586 90.1933L88.2642 90.2046Z" fill="black"/>
<path d="M79.4369 96.9584C80.0911 96.3211 81.315 95.4581 82.7278 94.2004C82.4458 94.6883 82.0059 95.0774 81.9692 95.2382C81.8733 95.633 83.0972 96.1237 83.8502 96.2788C84.6031 96.4339 85.373 95.3904 86.4051 94.4316C87.4372 93.4728 88.4496 94.4993 88.8811 95.7627C88.6403 96.3109 88.3415 96.8318 87.9899 97.3165C87.3075 98.1625 84.761 98.986 83.3087 99.127C80.3872 99.4061 78.3935 97.9623 79.4369 96.9584Z" fill="#37474F"/>
<path opacity="0.15" d="M87.5881 91.3325C87.597 91.3785 87.6235 91.4193 87.6619 91.4461C87.7003 91.4729 87.7476 91.4838 87.7939 91.4763C87.8166 91.4732 87.8385 91.4656 87.8582 91.454C87.8779 91.4423 87.8951 91.4269 87.9088 91.4085C87.9224 91.3901 87.9323 91.3692 87.9377 91.3469C87.9432 91.3247 87.9442 91.3016 87.9406 91.2789C87.9316 91.2329 87.9052 91.1922 87.8668 91.1653C87.8283 91.1385 87.781 91.1277 87.7347 91.1351C87.712 91.1382 87.6902 91.1458 87.6704 91.1575C87.6507 91.1691 87.6335 91.1846 87.6199 91.203C87.6062 91.2214 87.5964 91.2423 87.5909 91.2645C87.5854 91.2868 87.5845 91.3099 87.5881 91.3325Z" fill="black"/>
<path opacity="0.15" d="M86.7677 92.2931C86.7766 92.3391 86.8031 92.3798 86.8415 92.4067C86.8799 92.4335 86.9273 92.4443 86.9735 92.4369C86.9963 92.4338 87.0183 92.4262 87.0381 92.4146C87.058 92.403 87.0754 92.3875 87.0892 92.3692C87.1031 92.3509 87.1133 92.33 87.1191 92.3077C87.1248 92.2855 87.1262 92.2623 87.123 92.2395C87.1134 92.1938 87.0868 92.1535 87.0486 92.1268C87.0103 92.1001 86.9633 92.0889 86.9172 92.0957C86.8942 92.0984 86.8721 92.1058 86.852 92.1173C86.832 92.1288 86.8145 92.1442 86.8005 92.1626C86.7866 92.181 86.7765 92.2021 86.7708 92.2245C86.7652 92.2469 86.7641 92.2702 86.7677 92.2931Z" fill="black"/>
<path opacity="0.15" d="M85.9548 93.2443C85.9637 93.2903 85.9902 93.331 86.0286 93.3578C86.067 93.3847 86.1144 93.3955 86.1606 93.3881C86.1836 93.3853 86.2058 93.378 86.2258 93.3665C86.2458 93.355 86.2634 93.3396 86.2773 93.3211C86.2913 93.3027 86.3013 93.2817 86.307 93.2592C86.3126 93.2368 86.3137 93.2135 86.3101 93.1907C86.3012 93.1448 86.2746 93.1043 86.2361 93.078C86.1976 93.0516 86.1502 93.0414 86.1042 93.0497C86.0816 93.0525 86.0597 93.0597 86.0399 93.071C86.02 93.0824 86.0026 93.0975 85.9887 93.1156C85.9748 93.1338 85.9646 93.1545 85.9588 93.1765C85.953 93.1986 85.9516 93.2216 85.9548 93.2443Z" fill="black"/>
<path opacity="0.15" d="M85.1349 94.1841C85.1432 94.2299 85.1691 94.2706 85.2071 94.2975C85.245 94.3244 85.292 94.3353 85.338 94.3279C85.3609 94.3251 85.3831 94.3178 85.4031 94.3063C85.4232 94.2948 85.4407 94.2794 85.4546 94.2609C85.4686 94.2425 85.4787 94.2215 85.4843 94.1991C85.49 94.1766 85.491 94.1533 85.4874 94.1305C85.4785 94.0845 85.452 94.0438 85.4136 94.0169C85.3752 93.9901 85.3278 93.9792 85.2816 93.9867C85.2589 93.9898 85.237 93.9974 85.2173 94.009C85.1976 94.0207 85.1804 94.0361 85.1667 94.0545C85.1531 94.0729 85.1432 94.0938 85.1378 94.1161C85.1323 94.1383 85.1314 94.1615 85.1349 94.1841Z" fill="black"/>
<path opacity="0.15" d="M84.3146 95.1504C84.3183 95.1735 84.3267 95.1957 84.3391 95.2155C84.3516 95.2354 84.3679 95.2525 84.3871 95.2659C84.4063 95.2793 84.428 95.2888 84.4509 95.2936C84.4738 95.2985 84.4975 95.2987 84.5205 95.2942C84.543 95.2915 84.5648 95.2842 84.5845 95.2729C84.6042 95.2615 84.6214 95.2463 84.6351 95.2281C84.6488 95.2099 84.6587 95.1892 84.6642 95.1671C84.6697 95.1451 84.6707 95.1221 84.6671 95.0997C84.6589 95.0533 84.6325 95.0121 84.5939 94.9851C84.5553 94.9582 84.5076 94.9476 84.4612 94.9558C84.4387 94.9586 84.4169 94.9659 84.3972 94.9772C84.3775 94.9886 84.3603 95.0038 84.3466 95.022C84.3329 95.0401 84.323 95.0609 84.3175 95.0829C84.312 95.105 84.311 95.128 84.3146 95.1504Z" fill="black"/>
<path d="M87.772 91.3693C87.7893 91.3676 87.8054 91.3596 87.8172 91.3468C87.8301 91.3336 87.8373 91.3159 87.8373 91.2974C87.8373 91.279 87.8301 91.2612 87.8172 91.2481C87.2352 90.7747 86.4995 90.5318 85.7501 90.5656C85.7409 90.5663 85.732 90.5689 85.7239 90.5731C85.7157 90.5774 85.7085 90.5832 85.7027 90.5904C85.6969 90.5975 85.6926 90.6057 85.6901 90.6146C85.6876 90.6234 85.6869 90.6326 85.6881 90.6418C85.6909 90.6602 85.7006 90.6769 85.7152 90.6884C85.7299 90.6999 85.7484 90.7054 85.767 90.7038C86.4754 90.6767 87.1697 90.9071 87.7213 91.3524C87.7281 91.3585 87.7362 91.3632 87.7449 91.3661C87.7536 91.369 87.7629 91.3701 87.772 91.3693Z" fill="#263238"/>
<path d="M86.9545 92.3333C86.9714 92.3305 86.9872 92.3226 86.9996 92.3107C87.0125 92.2975 87.0197 92.2798 87.0197 92.2613C87.0197 92.2429 87.0125 92.2252 86.9996 92.212C86.419 91.7359 85.6826 91.4918 84.9325 91.5267C84.9223 91.5263 84.9122 91.5282 84.9027 91.5321C84.8933 91.536 84.8849 91.542 84.878 91.5495C84.8711 91.557 84.8659 91.5659 84.8627 91.5756C84.8596 91.5853 84.8587 91.5956 84.8599 91.6058C84.8611 91.6159 84.8646 91.6256 84.8699 91.6343C84.8753 91.643 84.8825 91.6504 84.891 91.656C84.8995 91.6616 84.9092 91.6653 84.9192 91.6669C84.9293 91.6684 84.9396 91.6677 84.9494 91.6649C86.0069 91.5606 86.8952 92.3079 86.9037 92.3135C86.9179 92.3257 86.9358 92.3327 86.9545 92.3333Z" fill="#263238"/>
<path d="M86.1361 93.2836C86.1448 93.2834 86.1534 93.2813 86.1612 93.2774C86.169 93.2735 86.1758 93.2679 86.1812 93.2611C86.1883 93.2552 86.194 93.2479 86.1979 93.2396C86.2019 93.2313 86.2039 93.2223 86.2039 93.2131C86.2039 93.2039 86.2019 93.1949 86.1979 93.1866C86.194 93.1783 86.1883 93.171 86.1812 93.1652C85.6019 92.6888 84.8662 92.4446 84.117 92.4799C84.0988 92.4821 84.0821 92.4912 84.0705 92.5054C84.059 92.5196 84.0534 92.5378 84.055 92.5561C84.0578 92.5745 84.0675 92.5912 84.0821 92.6027C84.0968 92.6142 84.1153 92.6197 84.1339 92.6181C85.1942 92.5138 86.0797 93.2611 86.0882 93.2667C86.1015 93.2781 86.1186 93.2841 86.1361 93.2836Z" fill="#263238"/>
<path d="M85.3211 94.2448C85.3378 94.2413 85.3533 94.2335 85.3662 94.2222C85.3729 94.2159 85.3783 94.2082 85.382 94.1997C85.3856 94.1913 85.3875 94.1821 85.3875 94.1729C85.3875 94.1636 85.3856 94.1545 85.382 94.146C85.3783 94.1375 85.3729 94.1298 85.3662 94.1235C84.7865 93.6479 84.0508 93.4047 83.3019 93.4411C83.293 93.4422 83.2845 93.445 83.2767 93.4495C83.2689 93.4539 83.2621 93.4598 83.2566 93.4669C83.2511 93.4739 83.247 93.482 83.2446 93.4907C83.2423 93.4993 83.2416 93.5083 83.2427 93.5172C83.2438 93.5261 83.2467 93.5347 83.2511 93.5425C83.2555 93.5502 83.2614 93.5571 83.2685 93.5626C83.2756 93.5681 83.2837 93.5721 83.2923 93.5745C83.3009 93.5769 83.31 93.5775 83.3189 93.5764C84.0277 93.5496 84.7221 93.7811 85.2731 94.2278C85.2867 94.2388 85.3036 94.2448 85.3211 94.2448Z" fill="#263238"/>
<path d="M84.5009 95.1976C84.5096 95.1971 84.518 95.1948 84.5258 95.1909C84.5335 95.187 84.5404 95.1816 84.5461 95.1751C84.5524 95.1688 84.5574 95.1613 84.5608 95.1531C84.5642 95.1448 84.566 95.136 84.566 95.1271C84.566 95.1182 84.5642 95.1094 84.5608 95.1012C84.5574 95.0929 84.5524 95.0855 84.5461 95.0792C83.9654 94.6031 83.229 94.359 82.479 94.3939C82.4606 94.396 82.4436 94.4051 82.4316 94.4192C82.4195 94.4333 82.4133 94.4515 82.4141 94.4701C82.4176 94.4887 82.4279 94.5055 82.443 94.5169C82.4581 94.5284 82.477 94.5338 82.4959 94.5321C83.5534 94.4278 84.4389 95.1751 84.4502 95.1807C84.457 95.1868 84.4651 95.1915 84.4738 95.1944C84.4825 95.1973 84.4918 95.1984 84.5009 95.1976Z" fill="#263238"/>
<path d="M96.9172 43.4531C96.9172 43.4531 97.2641 46.3662 97.3769 48.1287C97.6057 51.2185 97.3382 54.3251 96.5844 57.3303C96.0204 59.843 93.9731 68.3283 93.8067 69.2166C94.2749 71.1004 94.6133 72.6486 94.1395 76.8447C93.4119 83.2969 91.5507 90.2595 91.5507 90.2595C91.0375 91.0632 87.0134 90.9447 85.7923 89.9183C85.7923 89.9183 85.406 71.0948 85.2283 67.158C85.076 63.7374 85.8966 52.4264 85.8966 52.4264C85.8966 52.4264 80.4202 50.6469 79.5234 44.6685L96.9172 43.4531Z" fill="#263238"/>
<path d="M82.6703 24.7109C80.7527 25.3511 79.9405 26.2478 78.1216 28.7012C76.3478 31.0954 73.7675 34.595 73.7675 34.595L64.3516 33.546L65.3019 38.2977C65.3019 38.2977 72.1178 40.0066 74.34 40.2943C76.0038 40.5114 76.878 39.6118 77.9722 38.3203C79.9208 35.9909 82.408 32.5534 82.408 32.5534L82.6703 24.7109Z" fill="#F0F0F0"/>
<path d="M92.2123 23.288C92.2123 23.288 86.5893 23.0624 83.1883 24.3878C82.4326 24.6698 80.4642 26.421 80.0328 31.3616C79.5026 37.4049 79.4688 45.2502 79.4688 45.2502C79.6182 45.7662 81.3469 48.6341 86.5357 49.4378C91.8937 50.2641 94.9534 49.8862 97.607 47.8163C97.607 43.121 97.6211 42.7967 97.6352 39.1589C97.6352 36.8099 98.3458 32.2866 98.7435 30.3211C99.0255 28.9393 98.7435 26.6551 97.8805 26.0911C96.9725 25.5045 93.5998 24.2975 93.5998 24.2975C93.0722 24.061 92.5997 23.7172 92.2123 23.288Z" fill="#FC955C"/>
<path d="M91.2514 23.5335C91.649 23.5335 91.9451 23.5335 92.0974 23.5335C92.4921 23.955 92.964 24.2967 93.4876 24.5403H93.5017C93.5356 24.5403 96.8575 25.7416 97.7317 26.3056C98.4593 26.7765 98.7582 28.9141 98.4847 30.2705C98.1011 32.1655 97.3792 36.7198 97.3567 39.1591C97.3567 40.3717 97.3567 41.2177 97.3567 41.9791C97.3567 43.4737 97.3397 44.6553 97.3426 47.6925C95.5942 49.0207 93.7048 49.5903 91.0483 49.5903C89.5457 49.5686 88.0469 49.4338 86.5645 49.1871C81.308 48.3721 79.8473 45.5013 79.7119 45.2052C79.7119 44.5369 79.7796 37.1034 80.2759 31.3872C80.7722 25.6711 83.2482 24.639 83.2736 24.6192C85.8116 23.6266 89.6863 23.5222 91.2373 23.5222M91.2373 23.2656C89.4832 23.2656 85.7101 23.3925 83.1805 24.3936C82.4248 24.6756 80.4564 26.4268 80.0249 31.3675C79.4948 37.4107 79.4609 45.256 79.4609 45.256C79.6104 45.772 81.3391 48.64 86.5279 49.4437C88.0195 49.6921 89.5278 49.8279 91.0399 49.8498C93.7978 49.8498 95.7887 49.2237 97.5879 47.8222C97.5879 43.1269 97.602 42.8026 97.6161 39.1648C97.6161 36.8157 98.3267 32.2924 98.7244 30.3269C99.0064 28.9451 98.7244 26.6609 97.8614 26.0969C96.9534 25.5103 93.5807 24.3034 93.5807 24.3034C93.0592 24.0649 92.5926 23.7212 92.2102 23.2938C92.2102 23.2938 91.8492 23.2769 91.2542 23.2769L91.2373 23.2656Z" fill="#E0E0E0"/>
<path d="M93.6305 11.875C95.1054 13.756 94.4765 15.823 93.7772 17.9014C92.9707 20.2645 92.8861 21.04 91.4704 21.5674C92.2262 14.0436 89.1298 22.2893 83.4278 16.0684C82.3957 14.9404 82.4126 12.016 83.8254 10.606C85.8248 8.60383 90.7372 8.32183 93.6305 11.875Z" fill="#37474F"/>
<path d="M93.6534 20.3862C92.5254 20.781 92.0122 19.9773 92.0122 19.9773L91.8317 22.9242C91.8317 22.9242 93.3291 24.8136 91.7415 25.2705C87.8301 26.3985 87.5481 27.1965 86.296 28.5247C85.7151 27.3967 86.0789 25.5722 86.0507 24.9039L86.1945 22.7099C85.7447 22.7253 85.295 22.6788 84.8578 22.5717C83.7298 22.2502 82.9713 21.4127 82.7316 19.8645C82.4496 17.9949 82.7316 15.0508 83.5268 12.5325C84.7422 11.6865 88.7353 11.7993 91.1408 13.4688C90.9293 15.5471 91.4736 15.9165 91.4228 16.8133C91.3636 17.8228 91.4228 18.0569 91.7189 18.2233C92.015 18.3897 92.3224 17.9215 92.4634 17.6311C92.7031 17.146 92.9033 16.8358 93.4024 16.74C93.9016 16.6441 94.443 16.7597 94.8547 17.4478C95.478 18.4968 94.4628 20.1014 93.6534 20.3862Z" fill="#E8E8E8"/>
<path d="M87.8525 16.2271C87.8468 16.3172 87.8678 16.407 87.9128 16.4853C87.9578 16.5635 88.0249 16.6268 88.1057 16.6672C88.1865 16.7076 88.2773 16.7233 88.367 16.7123C88.4566 16.7014 88.5411 16.6642 88.6097 16.6056C88.6784 16.547 88.7283 16.4694 88.7531 16.3826C88.778 16.2958 88.7767 16.2035 88.7495 16.1174C88.7223 16.0313 88.6703 15.9552 88.6 15.8984C88.5298 15.8417 88.4443 15.8069 88.3544 15.7984C88.2933 15.7934 88.2318 15.8006 88.1734 15.8194C88.115 15.8383 88.0609 15.8685 88.0143 15.9083C87.9676 15.9482 87.9293 15.9968 87.9016 16.0515C87.8738 16.1062 87.8571 16.1659 87.8525 16.2271Z" fill="#263238"/>
<path d="M87.6488 19.1172L85.9766 19.4584C85.9949 19.5695 86.0352 19.6758 86.0952 19.771C86.1551 19.8663 86.2335 19.9487 86.3257 20.0133C86.4179 20.0779 86.522 20.1234 86.632 20.1473C86.742 20.1711 86.8557 20.1728 86.9664 20.1521C87.1919 20.1013 87.3889 19.9651 87.5161 19.7722C87.6434 19.5792 87.6909 19.3445 87.6488 19.1172Z" fill="#B16668"/>
<path d="M87.4645 19.4844C87.2768 19.4845 87.0956 19.5534 86.9552 19.6781C86.8149 19.8029 86.7252 19.9747 86.7031 20.1612C86.7919 20.1754 86.8823 20.1754 86.971 20.1612C87.1289 20.1267 87.2742 20.0492 87.3907 19.9372C87.5071 19.8252 87.5903 19.6831 87.6309 19.5267C87.5771 19.5066 87.5213 19.4924 87.4645 19.4844Z" fill="#E8E8E8"/>
<path d="M83.7643 14.7222L85.0135 14.099C84.974 14.0179 84.9186 13.9455 84.8507 13.8861C84.7828 13.8267 84.7037 13.7815 84.618 13.7531C84.5324 13.7247 84.4419 13.7137 84.3519 13.7208C84.262 13.7279 84.1744 13.753 84.0942 13.7944C83.931 13.8776 83.8059 14.0201 83.7445 14.1926C83.6832 14.3652 83.6902 14.5547 83.7643 14.7222Z" fill="#263238"/>
<path d="M88.2578 14.5762L89.3661 15.4363C89.4228 15.3656 89.4647 15.2842 89.4894 15.1969C89.5141 15.1097 89.5209 15.0183 89.5096 14.9284C89.4983 14.8384 89.469 14.7517 89.4236 14.6732C89.3781 14.5948 89.3173 14.5263 89.2448 14.4718C89.0989 14.3577 88.9144 14.3048 88.7302 14.3243C88.546 14.3437 88.3766 14.4341 88.2578 14.5762Z" fill="#263238"/>
<path d="M83.9929 15.7948C83.9878 15.8853 84.0095 15.9752 84.0551 16.0535C84.1007 16.1318 84.1683 16.195 84.2495 16.2352C84.3307 16.2754 84.422 16.2908 84.5119 16.2796C84.6018 16.2684 84.6865 16.231 84.7553 16.1721C84.8242 16.1132 84.8742 16.0354 84.8992 15.9483C84.9242 15.8612 84.9231 15.7686 84.8959 15.6822C84.8688 15.5957 84.8168 15.5191 84.7465 15.462C84.6762 15.4048 84.5907 15.3695 84.5005 15.3605C84.3759 15.3519 84.2528 15.3926 84.1579 15.4738C84.063 15.5551 84.0037 15.6703 83.9929 15.7948Z" fill="#263238"/>
<path d="M86.1914 22.7043C87.4378 22.7043 89.1862 22.4223 89.9448 21.8188C90.6197 21.3054 91.1247 20.6009 91.3943 19.7969C91.3567 20.322 91.2152 20.8345 90.978 21.3046C90.7408 21.7746 90.4126 22.1929 90.0125 22.5351C88.9324 23.4995 86.1406 23.5785 86.1406 23.5785L86.1914 22.7043Z" fill="#E8E8E8"/>
<path d="M95.8766 25.1719C95.8766 25.1719 95.1829 28.2485 95.5241 30.5947C95.8653 32.941 97.2471 34.1254 98.251 35.3013C99.2549 36.4773 100.893 38.017 102.842 38.1213L103.209 32.0442C102.433 30.8261 101.586 29.6555 100.671 28.539C99.3113 26.8723 99.1619 26.283 95.8766 25.1719Z" fill="#F0F0F0"/>
<path opacity="0.1" d="M95.8766 25.1719C95.8766 25.1719 95.1829 28.2485 95.5241 30.5947C95.8653 32.941 97.2471 34.1254 98.251 35.3013C99.2549 36.4773 100.893 38.017 102.842 38.1213L103.209 32.0442C102.433 30.8261 101.586 29.6555 100.671 28.539C99.3113 26.8723 99.1619 26.283 95.8766 25.1719Z" fill="black"/>
<path d="M86.2891 28.5242C86.8897 27.7797 87.8034 26.2315 88.3336 25.8677C88.8637 25.5039 91.4807 24.2575 91.8332 22.98L91.8839 22.2327C92.2449 22.0917 92.3323 23.0336 93.6013 24.3054C93.5811 25.3487 93.2185 26.3565 92.5692 27.1734C92.2253 27.672 91.7601 28.0748 91.2173 28.3437C90.6746 28.6126 90.0722 28.7388 89.4672 28.7103C89.4672 28.7103 88.5817 26.9957 88.3392 26.9083C88.0967 26.8209 87.0674 27.9743 86.2891 28.5242Z" fill="#1A202C"/>
<path d="M86.2904 28.5248C85.9604 27.8621 86.0084 25.3664 86.0084 25.3664L86.1381 23.508C86.1381 23.508 85.5741 23.4742 85.1257 24.2187C84.119 25.9389 84.102 27.1092 84.243 27.4391C84.6407 26.7116 85.4246 26.3647 85.56 26.5649C85.6953 26.7651 85.8815 27.9242 86.2904 28.5248Z" fill="#1A202C"/>
<path d="M98.9787 23.936C98.5109 23.159 98.2041 22.2959 98.0763 21.398C97.9607 20.3603 97.2924 19.3281 97.0724 18.9108C96.8525 18.4934 96.3477 17.8561 95.9755 17.2611C95.6032 16.6661 95.4932 16.5025 94.8672 16.3079C94.0212 16.04 93.3388 15.8116 92.9806 15.868C92.6225 15.9244 92.6027 16.15 92.8622 16.4997C93.1216 16.8494 93.7364 17.0016 93.9253 17.0862C94.1142 17.1708 94.5147 17.4162 94.5147 17.4162L95.1661 18.7218C94.5986 18.7424 94.0332 18.8027 93.4741 18.9023C93.1921 19.0123 92.8593 19.6806 92.9242 20.0811C92.9242 20.0811 92.3602 20.3631 92.504 20.882C92.504 20.882 92.1431 21.2429 92.3095 21.6011C92.5026 21.9664 92.7362 22.3088 93.006 22.6219C93.1555 22.7883 93.8153 22.9039 93.8153 22.9039C94.0473 23.3913 94.3432 23.8455 94.6952 24.2547C95.121 24.6692 95.434 24.689 95.8542 25.4927L98.9787 23.936Z" fill="#E8E8E8"/>
<path d="M94.5436 18.7674C94.2362 18.5841 94.1939 18.3528 93.8696 18.429C93.5453 18.5051 93.6158 18.8717 93.6158 18.8717L94.5436 18.7674Z" fill="#E8E8E8"/>
<path d="M92.9349 20.1149C93.1624 19.9689 93.4079 19.8532 93.6653 19.7709C93.905 19.6919 94.3985 19.5904 94.3985 19.5904C94.0666 19.5733 93.7339 19.6056 93.4115 19.6863C93.2461 19.7271 93.0847 19.7827 92.9293 19.8527C92.9194 19.9285 92.9194 20.0053 92.9293 20.0811L92.9349 20.1149Z" fill="#E8E8E8"/>
<path d="M92.8285 20.5918C92.7137 20.6222 92.6015 20.6618 92.4929 20.7102C92.4896 20.787 92.4972 20.8639 92.5155 20.9386C92.7298 20.7074 93.4546 20.5156 93.4546 20.5156C93.2437 20.5181 93.0338 20.5436 92.8285 20.5918Z" fill="#E8E8E8"/>
<path d="M93.9173 23.1304C93.78 22.7223 93.6034 22.3284 93.39 21.9544C93.3196 21.8495 93.2119 21.7753 93.0888 21.747C92.9656 21.7187 92.8363 21.7384 92.7273 21.8022C92.6201 21.9206 93.0713 21.9657 93.1926 22.039C93.4891 22.3631 93.7336 22.7313 93.9173 23.1304Z" fill="#E8E8E8"/>
<path d="M95.5596 18.7386C95.5596 18.7386 95.3566 18.3466 94.9787 17.7206C94.6008 17.0945 94.6205 17.1791 94.1947 17.0325C93.7689 16.8858 92.9567 16.6377 92.7734 16.3359C92.8051 16.393 92.8409 16.4477 92.8806 16.4995C93.1288 16.8323 93.7548 17.0015 93.9437 17.0861C94.1327 17.1707 94.5331 17.416 94.5331 17.416L95.2043 18.7583L95.5596 18.7386Z" fill="#E8E8E8"/>
<path d="M98.9774 23.9375C100.21 25.9115 103.608 30.7224 104.296 32.547C104.775 33.8075 104.578 36.5655 103.786 37.4707C102.993 38.3759 101.205 37.7104 99.8826 36.1932C98.7405 34.8819 98.0271 31.9999 97.3446 29.9244C96.6622 27.8488 95.8359 25.5026 95.8359 25.5026L98.9774 23.9375Z" fill="#E8E8E8"/>
<path d="M96.3125 27.1534C96.3125 27.1534 97.8466 27.3367 98.8505 26.767C99.4159 26.4774 99.8648 26.0026 100.122 25.4219C100.122 25.4219 102.767 29.4404 103.506 30.6671C104.245 31.8938 104.863 32.737 104.727 34.5671C104.592 36.3973 104.406 38.016 103.092 38.126C101.778 38.236 100.308 37.0713 99.5273 36.152C98.7462 35.2327 97.2318 30.9209 96.3125 27.1534Z" fill="#F0F0F0"/>
<path d="M82.9771 42.5814C82.9404 41.5352 82.2101 40.3113 81.3471 39.8432C81.027 39.6627 80.6567 39.5915 80.2925 39.6401C79.9062 39.6787 79.5166 39.612 79.1651 39.4472C78.8136 39.2824 78.5133 39.0255 78.2959 38.7039C77.5965 37.7451 77.5768 36.3717 77.5486 34.2934C77.5486 33.7294 77.5345 33.1034 77.5176 32.4237C74.3817 30.5484 71.1077 28.6675 70.3661 28.9833L70.3322 29.0003C69.9318 29.2202 70.2166 30.0098 70.5917 30.6415C70.8647 31.0386 71.0326 31.4985 71.0795 31.9782C71.1162 32.8806 70.1038 33.0526 68.8235 32.3702C67.5432 31.6877 66.497 30.3962 66.4632 29.4994C66.4525 29.3348 66.4848 29.1702 66.557 29.0219C66.6292 28.8735 66.7387 28.7465 66.8749 28.6534C67.2302 28.4081 67.4727 27.8779 66.999 27.187C66.2235 26.059 63.7701 24.8774 60.6455 23.3828V23.4054L60.6653 23.9553C60.6653 24.1329 60.6653 24.305 60.6653 24.477C60.7583 27.1109 60.7781 28.989 60.0308 29.2315C59.4668 29.4261 58.5982 28.6985 58.0285 28.0133C57.7353 27.6353 57.3737 27.3158 56.9626 27.0714C56.8141 26.9732 56.6432 26.914 56.4658 26.8992C56.2884 26.8844 56.1101 26.9145 55.9474 26.9868C55.6315 27.1588 55.4426 27.5508 55.4623 28.1148C55.499 29.1638 56.2266 30.3905 57.0923 30.853C57.4134 31.0338 57.7843 31.106 58.1498 31.0589C58.5355 31.0196 58.9246 31.0856 59.2757 31.25C59.6268 31.4144 59.9267 31.6709 60.1435 31.9923C60.9895 33.1203 61.0319 34.8659 61.1277 37.731L61.1503 38.4134C64.0013 40.1054 66.7029 41.6057 67.4812 41.2673L67.5122 41.2532C67.9127 41.0388 67.6278 40.2436 67.2528 39.6176C66.9833 39.2165 66.8158 38.7557 66.7649 38.2752C66.7367 37.3757 67.7434 37.2036 69.0209 37.8889C70.2984 38.5742 71.3531 39.8629 71.3813 40.7568C71.3911 40.9213 71.3584 41.0856 71.2863 41.2338C71.2142 41.382 71.1051 41.5091 70.9695 41.6028C70.617 41.8482 70.3717 42.3783 70.8511 43.0664C71.5589 44.0901 74.142 45.4493 77.1341 47.0144C77.4161 47.1667 77.7178 47.319 78.0195 47.4741C77.9913 46.8565 77.9631 46.2615 77.9293 45.6806C77.8052 43.3456 77.715 41.6621 78.389 41.4308C78.953 41.2362 79.8215 41.9666 80.3911 42.6491C80.689 43.0316 81.0576 43.3532 81.4769 43.5966C81.6247 43.6963 81.7957 43.7564 81.9734 43.7712C82.1511 43.786 82.3297 43.755 82.4921 43.6812C82.8079 43.5458 82.9968 43.1454 82.9771 42.5814Z" fill="#022897"/>
<path d="M82.9771 42.5814C82.9404 41.5352 82.2101 40.3113 81.3471 39.8432C81.027 39.6627 80.6567 39.5915 80.2925 39.6401C79.9062 39.6787 79.5166 39.612 79.1651 39.4472C78.8136 39.2824 78.5133 39.0255 78.2959 38.7039C77.5965 37.7451 77.5768 36.3717 77.5486 34.2934C77.5486 33.7294 77.5345 33.1034 77.5176 32.4237C74.3817 30.5484 71.1077 28.6675 70.3661 28.9833L70.3322 29.0003C69.9318 29.2202 70.2166 30.0098 70.5917 30.6415C70.8647 31.0386 71.0326 31.4985 71.0795 31.9782C71.1162 32.8806 70.1038 33.0526 68.8235 32.3702C67.5432 31.6877 66.497 30.3962 66.4632 29.4994C66.4525 29.3348 66.4848 29.1702 66.557 29.0219C66.6292 28.8735 66.7387 28.7465 66.8749 28.6534C67.2302 28.4081 67.4727 27.8779 66.999 27.187C66.2235 26.059 63.7701 24.8774 60.6455 23.3828V23.4054L60.6653 23.9553C60.6653 24.1329 60.6653 24.305 60.6653 24.477C60.7583 27.1109 60.7781 28.989 60.0308 29.2315C59.4668 29.4261 58.5982 28.6985 58.0285 28.0133C57.7353 27.6353 57.3737 27.3158 56.9626 27.0714C56.8141 26.9732 56.6432 26.914 56.4658 26.8992C56.2884 26.8844 56.1101 26.9145 55.9474 26.9868C55.6315 27.1588 55.4426 27.5508 55.4623 28.1148C55.499 29.1638 56.2266 30.3905 57.0923 30.853C57.4134 31.0338 57.7843 31.106 58.1498 31.0589C58.5355 31.0196 58.9246 31.0856 59.2757 31.25C59.6268 31.4144 59.9267 31.6709 60.1435 31.9923C60.9895 33.1203 61.0319 34.8659 61.1277 37.731L61.1503 38.4134C64.0013 40.1054 66.7029 41.6057 67.4812 41.2673L67.5122 41.2532C67.9127 41.0388 67.6278 40.2436 67.2528 39.6176C66.9833 39.2165 66.8158 38.7557 66.7649 38.2752C66.7367 37.3757 67.7434 37.2036 69.0209 37.8889C70.2984 38.5742 71.3531 39.8629 71.3813 40.7568C71.3911 40.9213 71.3584 41.0856 71.2863 41.2338C71.2142 41.382 71.1051 41.5091 70.9695 41.6028C70.617 41.8482 70.3717 42.3783 70.8511 43.0664C71.5589 44.0901 74.142 45.4493 77.1341 47.0144C77.4161 47.1667 77.7178 47.319 78.0195 47.4741C77.9913 46.8565 77.9631 46.2615 77.9293 45.6806C77.8052 43.3456 77.715 41.6621 78.389 41.4308C78.953 41.2362 79.8215 41.9666 80.3911 42.6491C80.689 43.0316 81.0576 43.3532 81.4769 43.5966C81.6247 43.6963 81.7957 43.7564 81.9734 43.7712C82.1511 43.786 82.3297 43.755 82.4921 43.6812C82.8079 43.5458 82.9968 43.1454 82.9771 42.5814Z" fill="#2580FF"/>
<path d="M58.9123 33.1162C58.4865 32.5212 58.5259 32.4423 58.7544 32.1405C58.928 31.8988 59.1567 31.7019 59.4214 31.5661C59.6862 31.4303 59.9796 31.3594 60.2772 31.3594C60.8017 31.3763 61.329 31.3594 61.5969 31.5032C61.8648 31.647 61.6392 32.211 60.9568 32.3492C59.8852 32.5889 59.8908 32.8794 59.8908 32.8794C60.3479 32.7749 60.8101 32.694 61.2754 32.6368C61.8056 32.6737 62.3319 32.7539 62.849 32.8765C63.303 32.947 63.3933 33.5308 62.6262 33.7225L63.4553 33.8551C64.0334 33.9481 64.2308 34.2583 63.7768 34.6165C63.6277 34.7388 63.4422 34.8082 63.2494 34.8139C63.2494 34.8139 63.8698 34.8139 63.8811 35.0197C63.9178 35.6091 63.5371 35.7642 62.2878 36.1252C61.8171 36.2294 61.4009 36.5022 61.1175 36.8922L61.1457 37.6762C61.1457 37.6762 60.6071 37.2757 60.1813 36.9825C59.8683 36.7653 59.6004 36.5228 59.7414 36.0349C59.7414 36.0349 59.0617 36.0349 59.0194 35.626C59.0108 35.3169 59.0675 35.0094 59.1858 34.7236C59.0635 34.6546 58.9633 34.5522 58.8969 34.4283C58.8305 34.3045 58.8006 34.1644 58.8108 34.0243C58.8078 33.7575 58.8942 33.4975 59.0561 33.2854L58.9123 33.1162Z" fill="#E8E8E8"/>
<path d="M62.6256 33.7458C62.3776 33.6954 62.1256 33.6681 61.8726 33.6641C61.6187 33.703 61.3723 33.781 61.1422 33.8953C60.6853 34.0933 60.2458 34.3291 59.8281 34.6003C60.3114 34.4728 60.783 34.3049 61.2381 34.0983C61.4509 33.9909 61.6727 33.9022 61.9008 33.8333C62.118 33.7966 62.3802 33.7938 62.6256 33.7458Z" fill="#E8E8E8"/>
<path d="M63.2505 34.8364C62.9858 34.7621 62.7071 34.7534 62.4383 34.811C62.172 34.8693 61.9116 34.9514 61.66 35.0564C61.1655 35.2608 60.6931 35.515 60.25 35.815C60.7608 35.6541 61.2625 35.4658 61.7531 35.251C62.2227 35.0226 62.7302 34.8821 63.2505 34.8364Z" fill="#E8E8E8"/>
<path d="M109.453 7.8372C107.786 8.51438 106.357 9.6708 105.348 11.1601C104.338 12.6495 103.793 14.4048 103.781 16.204C103.77 18.0032 104.292 19.7655 105.282 21.2678C106.272 22.7701 107.686 23.9449 109.344 24.6437C111.002 25.3424 112.83 25.5336 114.597 25.1932C116.363 24.8527 117.989 23.9958 119.269 22.731C120.549 21.4661 121.424 19.8501 121.785 18.0874C122.146 16.3248 121.976 14.4946 121.297 12.8286C120.384 10.5991 118.626 8.82209 116.406 7.88657C114.186 6.95106 111.686 6.9333 109.453 7.8372ZM109.76 8.59578C111.276 7.97868 112.942 7.82505 114.545 8.1543C116.149 8.48355 117.618 9.28089 118.769 10.4455C119.919 11.6101 120.698 13.0897 121.008 14.6971C121.317 16.3046 121.143 17.9677 120.507 19.4762C119.872 20.9847 118.803 22.2707 117.436 23.1718C116.07 24.0729 114.466 24.5484 112.83 24.5384C111.193 24.5283 109.595 24.0331 108.24 23.1153C106.884 22.1976 105.832 20.8984 105.214 19.3823C104.388 17.3489 104.403 15.0709 105.255 13.0484C106.108 11.026 107.728 9.42451 109.76 8.59578Z" fill="#455A64"/>
<path d="M109.765 8.59297C108.249 9.21035 106.95 10.2635 106.032 11.6191C105.114 12.9748 104.619 14.5721 104.61 16.2091C104.6 17.8461 105.076 19.4493 105.977 20.8158C106.878 22.1823 108.165 23.2509 109.673 23.8863C111.182 24.5217 112.845 24.6955 114.453 24.3856C116.06 24.0757 117.54 23.2961 118.704 22.1454C119.868 20.9947 120.665 19.5245 120.994 17.9209C121.323 16.3172 121.169 14.6521 120.551 13.136C119.721 11.1048 118.12 9.48567 116.097 8.63398C114.075 7.78228 111.798 7.76753 109.765 8.59297Z" fill="white"/>
<path d="M102.327 21.0933L105.55 21.0397L104.301 17.9688L101.955 20.1824C101.877 20.2555 101.824 20.3503 101.801 20.4544C101.778 20.5585 101.788 20.667 101.828 20.7656C101.869 20.8641 101.938 20.9482 102.027 21.0067C102.116 21.0652 102.22 21.0954 102.327 21.0933Z" fill="#455A64"/>
<path d="M114.129 19.7657H111.639C111.615 19.7661 111.59 19.7615 111.568 19.7523C111.545 19.7431 111.524 19.7294 111.507 19.712C111.489 19.6947 111.476 19.674 111.467 19.6512C111.457 19.6285 111.453 19.6041 111.453 19.5796C111.453 19.5549 111.457 19.5304 111.466 19.5075C111.476 19.4846 111.489 19.4637 111.507 19.4461C111.524 19.4286 111.545 19.4146 111.567 19.4051C111.59 19.3955 111.615 19.3906 111.639 19.3906H114.129C114.154 19.3906 114.178 19.3955 114.201 19.4051C114.224 19.4146 114.245 19.4286 114.262 19.4461C114.279 19.4637 114.293 19.4846 114.302 19.5075C114.311 19.5304 114.316 19.5549 114.315 19.5796C114.316 19.6041 114.311 19.6285 114.302 19.6512C114.293 19.674 114.279 19.6947 114.262 19.712C114.244 19.7294 114.224 19.7431 114.201 19.7523C114.178 19.7615 114.154 19.7661 114.129 19.7657Z" fill="#455A64"/>
<path d="M112.886 21.7125C112.506 21.7125 112.141 21.5615 111.873 21.2929C111.604 21.0242 111.453 20.6598 111.453 20.2799C111.453 20.2553 111.457 20.231 111.467 20.2082C111.476 20.1855 111.489 20.1648 111.507 20.1474C111.524 20.1301 111.545 20.1164 111.568 20.1072C111.59 20.0979 111.615 20.0934 111.639 20.0938H114.129C114.154 20.0934 114.178 20.0979 114.201 20.1072C114.224 20.1164 114.244 20.1301 114.262 20.1474C114.279 20.1648 114.293 20.1855 114.302 20.2082C114.311 20.231 114.316 20.2553 114.315 20.2799C114.315 20.6593 114.165 21.0233 113.897 21.2919C113.629 21.5604 113.265 21.7117 112.886 21.7125Z" fill="#455A64"/>
<path d="M115.546 11.8779C115.169 11.5163 114.721 11.2357 114.231 11.0533C113.742 10.871 113.22 10.7907 112.698 10.8175C111.724 10.877 110.808 11.2987 110.13 11.9995C109.451 12.7004 109.06 13.6298 109.032 14.6048C109.021 15.286 109.19 15.9579 109.523 16.5523C109.856 17.1467 110.34 17.6423 110.927 17.9888C111.082 18.0777 111.211 18.2057 111.301 18.3601C111.391 18.5145 111.439 18.6899 111.44 18.8686C111.439 18.8908 111.443 18.913 111.451 18.9336C111.459 18.9543 111.471 18.9732 111.487 18.989C111.502 19.0048 111.521 19.0173 111.542 19.0257C111.562 19.0341 111.584 19.0382 111.606 19.0378H114.164C114.209 19.0378 114.252 19.02 114.284 18.9883C114.316 18.9566 114.333 18.9135 114.333 18.8686C114.335 18.6911 114.383 18.517 114.472 18.3633C114.561 18.2097 114.688 18.0816 114.841 17.9916C115.421 17.65 115.901 17.1632 116.236 16.5792C116.57 15.9952 116.746 15.3341 116.747 14.6612C116.747 14.1399 116.641 13.6241 116.434 13.1454C116.228 12.6668 115.925 12.2354 115.546 11.8779Z" fill="#022897"/>
<g opacity="0.35">
<path d="M115.546 11.8779C115.169 11.5163 114.721 11.2357 114.231 11.0533C113.742 10.871 113.22 10.7907 112.698 10.8175C111.724 10.877 110.808 11.2987 110.13 11.9995C109.451 12.7004 109.06 13.6298 109.032 14.6048C109.021 15.286 109.19 15.9579 109.523 16.5523C109.856 17.1467 110.34 17.6423 110.927 17.9888C111.082 18.0777 111.211 18.2057 111.301 18.3601C111.391 18.5145 111.439 18.6899 111.44 18.8686C111.439 18.8908 111.443 18.913 111.451 18.9336C111.459 18.9543 111.471 18.9732 111.487 18.989C111.502 19.0048 111.521 19.0173 111.542 19.0257C111.562 19.0341 111.584 19.0382 111.606 19.0378H114.164C114.209 19.0378 114.252 19.02 114.284 18.9883C114.316 18.9566 114.333 18.9135 114.333 18.8686C114.335 18.6911 114.383 18.517 114.472 18.3633C114.561 18.2097 114.688 18.0816 114.841 17.9916C115.421 17.65 115.901 17.1632 116.236 16.5792C116.57 15.9952 116.746 15.3341 116.747 14.6612C116.747 14.1399 116.641 13.6241 116.434 13.1454C116.228 12.6668 115.925 12.2354 115.546 11.8779Z" fill="white"/>
</g>
<path d="M115.02 15.4569C114.996 15.3784 114.946 15.3102 114.879 15.2628C114.811 15.2154 114.73 15.1914 114.648 15.1946C114.508 15.2118 114.373 15.2609 114.254 15.3381C114.135 15.4153 114.036 15.5187 113.963 15.6402L113.935 15.6797H113.887C113.684 15.6095 113.493 15.5067 113.323 15.3751C113.228 15.3042 113.14 15.2239 113.061 15.1354L113.021 15.0987L113.052 15.0508C113.163 14.9201 113.243 14.7659 113.286 14.5997C113.328 14.4336 113.332 14.2599 113.297 14.092C113.268 14.008 113.213 13.9353 113.141 13.8838C113.068 13.8323 112.982 13.8047 112.893 13.8047C112.804 13.8047 112.717 13.8323 112.645 13.8838C112.572 13.9353 112.517 14.008 112.488 14.092C112.455 14.26 112.46 14.4333 112.502 14.5991C112.545 14.765 112.624 14.9193 112.733 15.0508L112.764 15.0987L112.725 15.1354C112.646 15.2239 112.558 15.3042 112.463 15.3751C112.293 15.5067 112.102 15.6095 111.899 15.6797H111.851L111.823 15.6402C111.75 15.5187 111.65 15.4153 111.531 15.3381C111.413 15.2609 111.278 15.2118 111.137 15.1946C111.055 15.1914 110.974 15.2154 110.907 15.2628C110.84 15.3102 110.79 15.3784 110.765 15.4569C110.743 15.5226 110.745 15.5938 110.77 15.6585C110.794 15.7232 110.841 15.7775 110.9 15.8122C111.055 15.9058 111.233 15.951 111.414 15.9419C111.514 15.9415 111.614 15.933 111.713 15.9165H111.761L111.783 15.9617C111.87 16.1211 111.941 16.2882 111.997 16.4608C112.19 17.179 112.263 17.924 112.215 18.666C112.215 18.7929 112.215 18.917 112.215 19.0383H112.415V18.6491C112.465 17.8898 112.388 17.1275 112.189 16.3931C112.137 16.2324 112.073 16.0759 111.997 15.925L111.964 15.8573L112.037 15.8291C112.239 15.7549 112.429 15.6513 112.601 15.5217C112.693 15.4505 112.781 15.3733 112.863 15.2905L112.911 15.2397L112.962 15.2905C113.044 15.3734 113.132 15.4506 113.224 15.5217C113.396 15.6519 113.586 15.7556 113.788 15.8291L113.861 15.8573L113.828 15.925C113.752 16.0759 113.688 16.2324 113.636 16.3931C113.437 17.1275 113.361 17.8898 113.41 18.6491C113.41 18.776 113.41 18.9001 113.41 19.0242H113.608C113.608 18.9029 113.608 18.7788 113.608 18.6407C113.559 17.9024 113.632 17.1611 113.825 16.4467C113.881 16.2741 113.952 16.107 114.039 15.9476L114.062 15.9024H114.11C114.208 15.919 114.308 15.9275 114.409 15.9278C114.589 15.9369 114.768 15.8917 114.922 15.7981C114.972 15.759 115.009 15.7049 115.027 15.6435C115.044 15.5822 115.042 15.5169 115.02 15.4569ZM111.498 15.7389H111.411C111.269 15.7467 111.127 15.7145 111.002 15.6458C110.979 15.6328 110.961 15.6131 110.95 15.5894C110.939 15.5657 110.935 15.5391 110.94 15.5133C110.952 15.4742 110.977 15.4403 111.011 15.4172C111.045 15.3942 111.085 15.3833 111.126 15.3864C111.291 15.4079 111.44 15.4929 111.543 15.6233L111.642 15.7276L111.498 15.7389ZM112.886 14.9211L112.829 14.8252C112.757 14.7274 112.706 14.6159 112.678 14.4977C112.651 14.3794 112.647 14.2567 112.669 14.1371C112.682 14.091 112.711 14.051 112.751 14.0238C112.79 13.9965 112.838 13.9838 112.886 13.9877C112.934 13.9836 112.982 13.9963 113.022 14.0235C113.062 14.0507 113.092 14.0908 113.106 14.1371C113.127 14.2567 113.124 14.3794 113.096 14.4977C113.068 14.6159 113.017 14.7274 112.945 14.8252L112.886 14.9211ZM114.775 15.6515C114.649 15.7201 114.507 15.7523 114.363 15.7445H114.279H114.135L114.234 15.6402C114.337 15.5099 114.486 15.4249 114.651 15.4033C114.692 15.4007 114.732 15.4118 114.766 15.4348C114.8 15.4578 114.825 15.4913 114.837 15.5302C114.857 15.5922 114.792 15.6345 114.775 15.6515Z" fill="#FAFAFA"/>
<path d="M49.0023 24.2176C49.5424 21.13 48.8814 17.9606 47.1435 15.3047L34.9766 23.0409L37.6937 36.0721C38.919 35.763 40.0988 35.3086 41.2055 34.7196C42.3219 34.1275 43.3583 33.4076 44.2916 32.576C46.7943 30.3674 48.4521 27.4259 49.0023 24.2176Z" fill="white"/>
<path d="M46.0091 16.2778C47.2749 18.672 47.7359 21.4311 47.3201 24.1239C46.8345 27.18 45.3771 29.9829 43.1772 32.0917C42.3509 32.8785 41.4353 33.5592 40.4502 34.1191C39.6806 34.563 38.8704 34.9274 38.0313 35.2071L35.7435 23.3468L46.0353 16.2643M46.2451 15.3047L34.9766 23.0494L37.4872 36.0721C38.6194 35.7632 39.7095 35.3091 40.7321 34.7205C41.7636 34.1288 42.7212 33.4093 43.5836 32.5782C45.8925 30.3674 47.4197 27.4254 47.9232 24.2185C48.4223 21.1329 47.8115 17.9657 46.2057 15.3115L46.2451 15.3047Z" fill="#072C91"/>
<path d="M34.5693 21.8577L22.9531 15.8399C23.7069 14.3286 24.6869 12.9611 25.8538 11.7924C31.3433 6.26713 39.7932 6.26713 44.5791 11.7924C45.0763 12.3788 45.5208 13.0146 45.9066 13.6912L34.5693 21.8577Z" fill="#FA9052"/>
<path d="M34.5693 22.9515L22.9531 16.9337C23.7069 15.4224 24.6869 14.0549 25.8538 12.8861C31.3433 7.36088 39.7932 7.36088 44.5791 12.8861C45.0763 13.4726 45.5208 14.1084 45.9066 14.785L34.5693 22.9515Z" fill="#EE9967"/>
<path d="M35.4422 23.3287L38.254 36.6702C35.8142 37.3209 33.2324 37.3321 30.7863 36.7026C28.3402 36.0732 26.1223 34.8269 24.3711 33.0977C20.3259 28.999 19.6137 22.7125 22.5944 17.4922L35.4422 23.3287Z" fill="#E0E0E0"/>
</svg>
