<svg width="15" height="15" viewBox="0 0 15 15" fill="none" xmlns="http://www.w3.org/2000/svg">
<g clip-path="url(#clip0_6513_41381)">
<path d="M13.7504 5.00036H12.3286C12.1852 4.53844 11.9856 4.09588 11.7344 3.68261L12.0031 3.05211C12.0495 2.94582 12.0653 2.82874 12.049 2.71395C12.0326 2.59915 11.9846 2.49118 11.9104 2.40211C11.6629 2.10804 11.3906 1.83587 11.0964 1.58861C11.0071 1.51462 10.8991 1.4669 10.7843 1.45079C10.6695 1.43467 10.5525 1.4508 10.4464 1.49736L9.81811 1.76611C9.28921 1.43893 8.71117 1.19887 8.10611 1.05511L7.85186 0.421106C7.80916 0.313652 7.73784 0.219951 7.64563 0.150181C7.55343 0.0804111 7.44387 0.0372398 7.32886 0.0253563C6.94343 -0.00845209 6.55578 -0.00845209 6.17036 0.0253563C6.05543 0.0374295 5.94599 0.0807088 5.85389 0.150509C5.7618 0.220309 5.69055 0.313971 5.64785 0.421356L5.3941 1.05511C4.7891 1.19881 4.21113 1.43888 3.68235 1.76611L3.0526 1.49711C2.94624 1.45107 2.8292 1.43539 2.71447 1.4518C2.59974 1.46822 2.49179 1.51609 2.4026 1.59011C2.10825 1.8373 1.83589 2.10957 1.5886 2.40386C1.51462 2.49308 1.4669 2.60113 1.45078 2.71591C1.43467 2.8307 1.45079 2.94771 1.49735 3.05386L1.76585 3.68311C1.43882 4.21196 1.19885 4.7899 1.0551 5.39486L0.421104 5.64836C0.31365 5.69105 0.219949 5.76238 0.150179 5.85458C0.0804092 5.94678 0.0372379 6.05634 0.0253544 6.17136C-0.00845145 6.55678 -0.00845145 6.94443 0.0253544 7.32986C0.0374276 7.44478 0.0807068 7.55422 0.150507 7.64632C0.220307 7.73842 0.31397 7.80967 0.421354 7.85236L1.0546 8.10611C1.19839 8.71113 1.43836 9.28915 1.76535 9.81811L1.4971 10.4476C1.45078 10.5539 1.43494 10.671 1.45137 10.7858C1.46779 10.9006 1.51583 11.0086 1.5901 11.0976C1.83759 11.3915 2.10984 11.6637 2.40385 11.9111C2.49311 11.9851 2.60116 12.0327 2.71595 12.0488C2.83073 12.0649 2.94773 12.0487 3.05385 12.0021L3.68335 11.7334C4.09741 11.9821 4.5395 12.1808 5.00035 12.3254V13.7504C5.00075 14.0818 5.13258 14.3995 5.36691 14.6338C5.60124 14.8681 5.91896 15 6.25036 15.0004H13.7504C14.0818 15 14.3995 14.8681 14.6338 14.6338C14.8681 14.3995 15 14.0818 15.0004 13.7504V6.25036C15 5.91896 14.8681 5.60125 14.6338 5.36691C14.3995 5.13258 14.0818 5.00075 13.7504 5.00036ZM3.8411 11.2431C3.80671 11.2208 3.76736 11.2073 3.72651 11.2037C3.68566 11.2002 3.64457 11.2068 3.60685 11.2229L2.85685 11.5426C2.83543 11.5531 2.81145 11.5572 2.78775 11.5545C2.76405 11.5518 2.74162 11.5424 2.7231 11.5274C2.45128 11.2989 2.19976 11.0473 1.97135 10.7754C1.95701 10.757 1.94809 10.7349 1.94562 10.7117C1.94314 10.6885 1.94721 10.6651 1.95735 10.6441L2.27735 9.89411C2.29345 9.8564 2.30002 9.8153 2.29649 9.77445C2.29296 9.7336 2.27943 9.69425 2.2571 9.65986C1.90217 9.1138 1.65042 8.50726 1.51435 7.87036C1.50577 7.83027 1.48747 7.79291 1.46105 7.76156C1.43463 7.73022 1.40091 7.70585 1.36285 7.69061L0.608604 7.38861C0.586444 7.38029 0.566894 7.36623 0.551958 7.34786C0.537022 7.3295 0.527236 7.3075 0.523604 7.28411C0.492711 6.92828 0.492711 6.57044 0.523604 6.21461C0.527351 6.19164 0.537091 6.17007 0.551839 6.15208C0.566588 6.13408 0.585824 6.12029 0.607604 6.11211L1.3626 5.80961C1.40066 5.79436 1.43438 5.77 1.4608 5.73865C1.48722 5.7073 1.50552 5.66994 1.5141 5.62986C1.65026 4.99322 1.90201 4.38694 2.25685 3.84111C2.27918 3.80672 2.29271 3.76736 2.29624 3.72651C2.29977 3.68566 2.2932 3.64457 2.2771 3.60686L1.95735 2.85686C1.94694 2.83552 1.94282 2.81165 1.94548 2.78805C1.94813 2.76445 1.95746 2.7421 1.97235 2.72361C2.20122 2.45164 2.45316 2.19995 2.72535 1.97136C2.74375 1.95701 2.76579 1.94809 2.78898 1.94562C2.81218 1.94315 2.8356 1.94721 2.8566 1.95736L3.6066 2.27736C3.64432 2.29345 3.68541 2.30002 3.72626 2.29649C3.76711 2.29296 3.80646 2.27943 3.84085 2.25711C4.38669 1.90226 4.99296 1.65051 5.6296 1.51436C5.66969 1.50578 5.70705 1.48747 5.7384 1.46105C5.76974 1.43463 5.79411 1.40091 5.80935 1.36286L6.11136 0.608606C6.1197 0.58646 6.13376 0.566923 6.15212 0.55199C6.17048 0.537057 6.19247 0.527263 6.21586 0.523606C6.57169 0.492839 6.92952 0.492839 7.28536 0.523606C7.30834 0.527304 7.32993 0.537026 7.34794 0.551781C7.36594 0.566536 7.37971 0.585798 7.38786 0.607606L7.69036 1.36261C7.7056 1.40066 7.72997 1.43438 7.76131 1.4608C7.79266 1.48722 7.83002 1.50553 7.87011 1.51411C8.50675 1.65026 9.11302 1.90201 9.65886 2.25686C9.69325 2.27918 9.7326 2.29271 9.77345 2.29624C9.8143 2.29977 9.85539 2.2932 9.89311 2.27711L10.6431 1.95736C10.6645 1.94692 10.6884 1.94282 10.7121 1.94552C10.7357 1.94822 10.7581 1.95762 10.7766 1.97261C11.0487 2.20131 11.3005 2.45316 11.5291 2.72536C11.5435 2.74375 11.5524 2.76579 11.5548 2.78898C11.5573 2.81218 11.5533 2.8356 11.5431 2.85661L11.2231 3.60661C11.2071 3.64429 11.2005 3.68533 11.204 3.72613C11.2076 3.76694 11.2211 3.80625 11.2434 3.84061C11.4761 4.20328 11.6643 4.59267 11.8039 5.00036H11.1624C10.8726 4.26852 10.4055 3.62019 9.80302 3.11371C9.20052 2.60723 8.48156 2.25848 7.71082 2.09885C6.94007 1.93922 6.14174 1.97372 5.38764 2.19923C4.63354 2.42475 3.94733 2.83421 3.39077 3.39077C2.83421 3.94734 2.42475 4.63354 2.19923 5.38764C1.97372 6.14174 1.93922 6.94008 2.09885 7.71082C2.25848 8.48156 2.60723 9.20052 3.11371 9.80302C3.62019 10.4055 4.26852 10.8726 5.00035 11.1624V11.8004C4.59329 11.661 4.20416 11.474 3.8411 11.2431ZM5.00035 6.25036V10.6226C4.37361 10.3397 3.82488 9.90889 3.40125 9.36722C2.97763 8.82555 2.69177 8.18918 2.5682 7.51273C2.44463 6.83627 2.48705 6.13993 2.69181 5.48348C2.89658 4.82702 3.25757 4.23006 3.74381 3.74382C4.23005 3.25757 4.82702 2.89658 5.48348 2.69182C6.13993 2.48705 6.83627 2.44463 7.51272 2.5682C8.18918 2.69177 8.82555 2.97763 9.36722 3.40125C9.90889 3.82488 10.3397 4.37361 10.6226 5.00036H6.25036C5.91896 5.00075 5.60124 5.13258 5.36691 5.36691C5.13258 5.60125 5.00075 5.91896 5.00035 6.25036ZM14.5004 13.7504C14.5004 13.9493 14.4213 14.14 14.2807 14.2807C14.14 14.4213 13.9493 14.5004 13.7504 14.5004H6.25036C6.05144 14.5004 5.86068 14.4213 5.72002 14.2807C5.57937 14.14 5.50035 13.9493 5.50035 13.7504V6.25036C5.50035 6.05144 5.57937 5.86068 5.72002 5.72003C5.86068 5.57937 6.05144 5.50036 6.25036 5.50036H13.7504C13.9493 5.50036 14.14 5.57937 14.2807 5.72003C14.4213 5.86068 14.5004 6.05144 14.5004 6.25036V13.7504Z" fill="white"/>
<path d="M13.5 6H6.5C6.36739 6 6.24021 6.05268 6.14645 6.14645C6.05268 6.24021 6 6.36739 6 6.5V13.5C6 13.6326 6.05268 13.7598 6.14645 13.8536C6.24021 13.9473 6.36739 14 6.5 14H13.5C13.6326 14 13.7598 13.9473 13.8536 13.8536C13.9473 13.7598 14 13.6326 14 13.5V6.5C14 6.36739 13.9473 6.24021 13.8536 6.14645C13.7598 6.05268 13.6326 6 13.5 6ZM10.9785 10.52L12.25 9.25L13.5 10.5V13.0415L10.9785 10.52ZM10.675 10.9233L10.2413 11.25L9.775 10.9395C9.69333 10.8848 9.59727 10.8557 9.499 10.8557C9.40073 10.8557 9.30467 10.8848 9.223 10.9395L8.7575 11.25L8.325 10.925L9.5 9.75L10.675 10.9233ZM13.5 9.79225L12.6042 8.89575C12.5102 8.80198 12.3828 8.74933 12.25 8.74933C12.1172 8.74933 11.9898 8.80198 11.8958 8.89575L10.625 10.1665L9.85425 9.39575C9.76023 9.30192 9.63283 9.24923 9.5 9.24923C9.36717 9.24923 9.23977 9.30192 9.14575 9.39575L6.5 12.0435V8.732C6.80279 8.77315 7.11099 8.74378 7.40055 8.64616C7.69011 8.54854 7.95319 8.38533 8.16926 8.16926C8.38533 7.95319 8.54854 7.69011 8.64616 7.40055C8.74378 7.11099 8.77315 6.80279 8.732 6.5H13.5V9.79225ZM8.227 6.5C8.26904 6.73609 8.25345 6.97884 8.18153 7.2076C8.10962 7.43637 7.98351 7.64438 7.81395 7.81395C7.64438 7.98351 7.43637 8.10962 7.2076 8.18153C6.97884 8.25345 6.73609 8.26904 6.5 8.227V6.5H8.227ZM6.5 12.75L7.968 11.2815L8.45925 11.6503C8.54606 11.7147 8.65116 11.7497 8.75925 11.7502C8.8578 11.7507 8.95415 11.7211 9.0355 11.6655L9.498 11.3555L9.96025 11.6635C10.0467 11.7221 10.1492 11.7523 10.2536 11.7497C10.358 11.7472 10.459 11.7122 10.5425 11.6495L11.0312 11.2805L13.2515 13.5H6.5V12.75Z" fill="white"/>
</g>
<defs>
<clipPath id="clip0_6513_41381">
<rect width="15" height="15" fill="white"/>
</clipPath>
</defs>
</svg>
