<svg width="17" height="17" viewBox="0 0 17 17" fill="none" xmlns="http://www.w3.org/2000/svg">
<path d="M0.708008 8.49967C0.708008 8.49967 3.54134 2.83301 8.49967 2.83301C13.458 2.83301 16.2913 8.49967 16.2913 8.49967C16.2913 8.49967 13.458 14.1663 8.49967 14.1663C3.54134 14.1663 0.708008 8.49967 0.708008 8.49967Z" stroke="#B6BCC4" stroke-linecap="round" stroke-linejoin="round"/>
<path d="M8.5 10.625C9.6736 10.625 10.625 9.6736 10.625 8.5C10.625 7.32639 9.6736 6.375 8.5 6.375C7.32639 6.375 6.375 7.32639 6.375 8.5C6.375 9.6736 7.32639 10.625 8.5 10.625Z" stroke="#B6BCC4" stroke-linecap="round" stroke-linejoin="round"/>
</svg>
