<svg width="15" height="15" viewBox="0 0 15 15" fill="none" xmlns="http://www.w3.org/2000/svg">
<g clip-path="url(#clip0_7348_85430)">
<path d="M4.25042 6.85596H0V15H6.15472V8.76025C6.15472 7.71023 5.30045 6.85596 4.25042 6.85596ZM5.27581 8.76025V8.89514C5.12306 8.83704 4.95917 8.80637 4.79001 8.80637H4.15307V8.23575C4.15307 8.05915 4.11946 7.89031 4.05891 7.73486H4.25045C4.81582 7.73486 5.27581 8.19485 5.27581 8.76025ZM0.878906 14.1211V7.73486H2.83893C3.08461 7.77034 3.27416 7.9811 3.27416 8.23575V9.68527H4.79001C4.95665 9.68527 5.06689 9.76165 5.13006 9.82569C5.22604 9.92308 5.2778 10.0563 5.27578 10.2007L5.27581 14.1211H0.878906Z" fill="#286DB3"/>
<path d="M14.0951 10.5324C14.0951 11.8615 13.0138 12.9429 11.6846 12.9429H11.3001L11.8992 12.3438L11.2777 11.7223L9.64648 13.3536L11.2777 14.9849L11.8992 14.3634L11.3577 13.8218H11.6846C13.4984 13.8218 14.974 12.3462 14.974 10.5324V9.37646H14.0951V10.5324Z" fill="#286DB3"/>
<path d="M0.894531 4.46859C0.894531 3.13942 1.97588 2.05808 3.30502 2.05808H3.68951L3.09042 2.65717L3.71189 3.27864L5.34317 1.64736L3.71189 0.0161133L3.09042 0.637588L3.632 1.17917H3.30502C1.49125 1.17917 0.015625 2.65482 0.015625 4.46859V5.6245H0.894531V4.46859Z" fill="#286DB3"/>
<path d="M13.0961 0H8.8457V8.14409H15.0004V1.9043C15.0004 0.854268 14.1462 0 13.0961 0ZM14.1215 1.9043V2.03918C13.9688 1.98108 13.8049 1.95041 13.6357 1.95041H12.9988V1.37979C12.9988 1.20319 12.9652 1.03436 12.9046 0.878906H13.0961C13.6615 0.878906 14.1215 1.3389 14.1215 1.9043ZM9.72461 7.26519V0.878906H11.6846C11.9303 0.914385 12.1199 1.12515 12.1199 1.37979V2.82932H13.6357C13.8024 2.82932 13.9126 2.90569 13.9758 2.96974C14.0717 3.06712 14.1235 3.2003 14.1215 3.34471L14.1215 7.26519H9.72461Z" fill="#286DB3"/>
</g>
<defs>
<clipPath id="clip0_7348_85430">
<rect width="15" height="15" fill="white"/>
</clipPath>
</defs>
</svg>
