<svg width="6" height="7" viewBox="0 0 6 7" fill="none" xmlns="http://www.w3.org/2000/svg">
<mask id="mask0_2852_7529" style="mask-type:alpha" maskUnits="userSpaceOnUse" x="0" y="0" width="6" height="7">
<rect width="6" height="7" fill="#D9D9D9"/>
</mask>
<g mask="url(#mask0_2852_7529)">
<rect width="1" height="1" fill="#C73833"/>
<rect x="3" width="1" height="1" fill="#C73833"/>
<rect y="3" width="1" height="1" fill="#C73833"/>
<rect x="3" y="3" width="1" height="1" fill="#C73833"/>
<rect y="6" width="1" height="1" fill="#C73833"/>
<rect x="3" y="6" width="1" height="1" fill="#C73833"/>
</g>
</svg>
