<svg width="35" height="35" viewBox="0 0 35 35" fill="none" xmlns="http://www.w3.org/2000/svg">
<path d="M29.8957 20.2705V5.90653C29.8957 5.68813 29.8257 5.39623 29.6773 5.25063L25.3023 0.875627C25.1567 0.730027 24.792 0.657227 24.5729 0.657227H7.29199C6.05229 0.657227 5.10449 1.60503 5.10449 2.84473V30.5521C5.10449 31.7918 6.05229 32.7396 7.29199 32.7396H22.6045C23.8442 33.6146 25.3023 34.1977 26.9795 34.1977C30.9898 34.1977 34.2714 30.9168 34.2714 26.9058C34.2707 23.9896 32.4479 21.4374 29.8957 20.2705V20.2705ZM25.5207 3.20803L27.4163 5.10363H26.2501C25.8126 5.10363 25.5207 4.81173 25.5207 4.37423V3.20803ZM7.29199 31.3543C6.85449 31.3543 6.56259 31.0624 6.56259 30.6249V2.91683C6.56259 2.47933 6.85449 2.18743 7.29199 2.18743H24.0626V4.37493C24.0626 5.61463 25.0104 6.56243 26.2501 6.56243H28.4376V19.833C27.9563 19.7448 27.4687 19.6961 26.9795 19.6874C22.9692 19.6874 19.6876 22.969 19.6876 26.9793C19.6876 28.6593 20.2707 30.1146 21.1457 31.3543H7.29199ZM26.9795 32.8124C25.8258 32.8124 24.698 32.4703 23.7388 31.8294C22.7795 31.1884 22.0319 30.2774 21.5904 29.2116C21.1489 28.1457 21.0334 26.9729 21.2585 25.8413C21.4835 24.7098 22.0391 23.6705 22.8549 22.8547C23.6706 22.0389 24.71 21.4834 25.8415 21.2583C26.973 21.0332 28.1459 21.1487 29.2117 21.5902C30.2776 22.0317 31.1886 22.7794 31.8295 23.7386C32.4705 24.6979 32.8126 25.8256 32.8126 26.9793C32.808 28.5249 32.1919 30.0059 31.099 31.0989C30.0061 32.1918 28.5251 32.8078 26.9795 32.8124V32.8124Z" fill="#D92429"/>
<path d="M10.9374 10.9373H17.4999C17.9374 10.9373 18.2293 10.6454 18.2293 10.2079C18.2293 9.77042 17.9374 9.47852 17.4999 9.47852H10.9374C10.4999 9.47852 10.208 9.77042 10.208 10.2079C10.208 10.6454 10.4999 10.9373 10.9374 10.9373V10.9373Z" fill="#D92429"/>
<path d="M10.9374 14.5831H24.0624C24.4999 14.5831 24.7918 14.2912 24.7918 13.8537C24.7918 13.4162 24.4999 13.125 24.0624 13.125H10.9374C10.4999 13.125 10.208 13.4169 10.208 13.8544C10.208 14.2919 10.4999 14.5831 10.9374 14.5831Z" fill="#D92429"/>
<path d="M21.8749 17.4999C21.8749 17.0624 21.583 16.7705 21.1455 16.7705H10.9374C10.4999 16.7705 10.208 17.0624 10.208 17.4999C10.208 17.9374 10.4999 18.2293 10.9374 18.2293H21.1455C21.583 18.2293 21.8749 17.9374 21.8749 17.4999V17.4999Z" fill="#D92429"/>
<path d="M27.5497 27.0049L29.886 24.6685C30.038 24.5165 30.038 24.2708 29.886 24.1189C29.734 23.9669 29.4883 23.9669 29.3363 24.1189L27 26.4552L24.6637 24.1189C24.5116 23.9669 24.266 23.9669 24.114 24.1189C23.962 24.2708 23.962 24.5165 24.114 24.6685L26.4503 27.0049L24.114 29.3412C23.962 29.4932 23.962 29.7389 24.114 29.8909C24.1898 29.9667 24.2893 30.0048 24.3889 30.0048C24.4884 30.0048 24.5879 29.9667 24.6637 29.8909L27 27.5545L29.3363 29.8909C29.4121 29.9667 29.5116 30.0048 29.6111 30.0048C29.7107 30.0048 29.8102 29.9667 29.886 29.8909C30.038 29.7389 30.038 29.4932 29.886 29.3412L27.5497 27.0049Z" fill="#D92429" stroke="#D92429" stroke-width="0.5"/>
</svg>
