<svg width="17" height="17" viewBox="0 0 17 17" fill="none" xmlns="http://www.w3.org/2000/svg">
<path d="M2.04688 7.50445L15.0095 1.36426L8.86931 14.3269L7.50482 8.86893L2.04688 7.50445Z" stroke="white" stroke-width="1.7" stroke-linecap="round" stroke-linejoin="round"/>
</svg>
