<svg width="17" height="18" viewBox="0 0 17 18" fill="none" xmlns="http://www.w3.org/2000/svg">
<path d="M10.625 7.44727L14.1667 10.9889L10.625 14.5306" stroke="#777777" stroke-linecap="round" stroke-linejoin="round"/>
<path d="M2.83301 3.19727V8.1556C2.83301 8.90705 3.13152 9.62772 3.66287 10.1591C4.19422 10.6904 4.91489 10.9889 5.66634 10.9889H14.1663" stroke="#777777" stroke-linecap="round" stroke-linejoin="round"/>
</svg>
