<svg width="16" height="16" viewBox="0 0 16 16" fill="none" xmlns="http://www.w3.org/2000/svg">
<g clip-path="url(#clip0_275_1613)">
<path d="M0.479173 7.02966C0.217766 7.02966 0.00585938 7.2416 0.00585938 7.50298V14.4548C0.00585938 14.7162 0.217797 14.9281 0.479173 14.9281H3.33083V7.02966H0.479173Z" fill="white"/>
<path d="M15.9936 9.64337C15.9936 9.04252 15.6707 8.51564 15.1894 8.22708C15.3738 7.9608 15.482 7.63777 15.482 7.29005C15.482 6.38027 14.7418 5.64008 13.832 5.64008H10.3489C10.4557 5.15633 10.6017 4.43042 10.7034 3.67051C10.9679 1.69297 10.7871 0.596253 10.1344 0.219096C9.72745 -0.0159978 9.2887 -0.0636854 8.89895 0.0846899C8.59785 0.199378 8.19123 0.481347 7.95951 1.17338L7.04407 3.57029C6.57997 4.71645 5.15875 5.91973 4.27734 6.58508V15.1375C5.91091 15.7099 7.61554 16 9.3546 16H13.1498C14.0596 16 14.7998 15.2598 14.7998 14.3501C14.7998 14.0315 14.709 13.7337 14.552 13.4812C15.102 13.2133 15.4819 12.6485 15.4819 11.9967C15.4819 11.649 15.3738 11.326 15.1894 11.0597C15.6707 10.7711 15.9936 10.2442 15.9936 9.64337Z" fill="white"/>
</g>
<defs>
<clipPath id="clip0_275_1613">
<rect width="16" height="16" fill="white"/>
</clipPath>
</defs>
</svg>
