<svg width="24" height="24" viewBox="0 0 24 24" fill="none" xmlns="http://www.w3.org/2000/svg">
<path d="M12 0C7.45098 0 3.75 3.74238 3.75 8.34229C3.75 14.1239 12.0081 24 12.0081 24C12.0081 24 20.25 13.8396 20.25 8.34229C20.25 3.74238 16.5492 0 12 0ZM14.4892 10.7849C13.8028 11.4788 12.9015 11.8258 12 11.8258C11.0987 11.8258 10.197 11.4788 9.51095 10.7849C8.13836 9.39712 8.13836 7.13892 9.51095 5.75098C10.1756 5.07861 11.0597 4.7083 12 4.7083C12.9403 4.7083 13.8243 5.07876 14.4892 5.75098C15.8618 7.13892 15.8618 9.39712 14.4892 10.7849Z" fill="url(#paint0_linear_767_17068)"/>
<defs>
<linearGradient id="paint0_linear_767_17068" x1="3.99805" y1="-0.000976621" x2="14.498" y2="20.999" gradientUnits="userSpaceOnUse">
<stop stop-color="#885826"/>
<stop offset="0.463542" stop-color="#F7E38C"/>
<stop offset="1" stop-color="#B07F33"/>
</linearGradient>
</defs>
</svg>
